DSC_3070

48742748670207= 20.402


actual start = 86.392,123,162.616,202.2,240.8
actual stop =88.436,127,166.4,204.404,243.45
label =2,3,4,5,6

start = 65.990,102.598,142.214,181.798,220.398
stop =68.034,106.598,145.998,184.002,223.048
label = 2,3,4,5,6
