"CSVFiles/KFoldStratifiedShuffle=True05.18.2021, 10.06.48/Run_0"
Accuracy,0.9922077922077922
Precision Score,0.9924168536503482
Recall Score,0.9922077922077922
Weighted F1 Score,0.9922061203218379
-------------------------------
Distribution of Train Events
Non Aggressive Event,Aggressive Right Turn,Aggressive Left Turn,Aggressive Acceleration,Aggressive Braking,Aggressive Left Lane Change,Aggressive Right Lane Change
1473,1127,1126,1292,699,184,255
Distribution of Test Events
Non Aggressive Event,Aggressive Right Turn,Aggressive Left Turn,Aggressive Acceleration,Aggressive Braking,Aggressive Left Lane Change,Aggressive Right Lane Change
369,282,281,322,175,47,64
Confusion Matrix
,,,,Predicated Class
,,Non Aggressive Event,Aggressive Right Turn,Aggressive Left Turn,Aggressive Acceleration,Aggressive Braking,Aggressive Left Lane Change,Aggressive Right Lane Change
,Non Aggressive Event,369,0,0,0,0,0,0
,Aggressive Right Turn,0,282,0,0,0,0,0
,Aggressive Left Turn,0,0,281,0,0,0,0
,Aggressive Acceleration,10,0,0,312,0,0,0
Actual Class,Aggressive Braking,1,0,0,0,174,0,0
,Aggressive Left Lane Change,0,0,0,0,0,47,0
,Aggressive Right Lane Change,0,1,0,0,0,0,63

----------------------------
Multi Label Confusion Matrix
Non Aggressive Event
,Predicated Class
1160,11
0,369
Actual Class

Aggressive Right Turn
,Predicated Class
1257,1
0,282
Actual Class

Aggressive Left Turn
,Predicated Class
1259,0
0,281
Actual Class

Aggressive Acceleration
,Predicated Class
1218,0
10,312
Actual Class

Aggressive Braking
,Predicated Class
1365,0
1,174
Actual Class

Aggressive Left Lane Change
,Predicated Class
1493,0
0,47
Actual Class

Aggressive Right Lane Change
,Predicated Class
1476,0
1,63
Actual Class


----------------------------
