-2.023671
-0.2503245
5.568134
-5.507339
2.4048016
2.3971689
-3.4534035
5.0738735
-1.644058
-2.5647123
5.415935
-4.7112494
0.9919144
3.418869
-5.689699
3.1336737
0.82529444
-2.7480247
4.3854136
-1.1682358
-1.9194658
4.3459325
-4.156338
1.4441041
3.2002082
-4.5421777
2.9287672
0.47204098
-3.662745
3.915782
-2.0831993
-1.9795156
1.9138496
-2.5378516
-0.917024
-0.9845196
-2.0261745
0.54746056
-1.9334865
-2.1174433
-1.3268301
-0.21730345
-1.3477513
-2.9151514
-0.44589156
-3.2308843
-1.0909685
-1.7119169
-2.139865
-3.179998
-2.6061869
-2.5023198
-3.958644
-1.5604069
-1.6029153
-4.7118053
-3.1684327
-3.080186
-3.4321382
-2.7156832
-3.4026031
-2.0680218
-3.1741366
-3.6646314
-0.75601006
-2.8508697
-2.4007208
-0.4966739
-2.3361754
-0.6705483
1.7038274
-1.9315267
-0.28900194
1.5490289
-0.6254633
0.4422391
3.073859
-1.1387682
3.193097
1.3447673
-0.42171067
4.478464
0.91726923
0.29664373
6.593959
0.5789075
3.6319013
6.978776
0.64068335
5.802078
3.9795034
3.6801684
6.834618
4.6037664
4.3055778
6.275573
1.3860191
6.4751015
4.2399898
0.13409555
6.84244
2.9413252
0.81298935
7.4975004
2.8590186
2.699031
3.9119563
1.6443121
3.9374013
2.5022929
3.2039251
4.7885003
0.43249804
2.712487
