x,y,z,Event Time,Event Type,Frame,x_modified,y_modified,z_modified
0.805657806,0.733484983,-2.338839054,743.6107285,-1,9455,0.201414452,0.183371246,-0.584709764
1.279831352,-2.54642868,-0.131017059,743.7107285,-1,9456,0.319957838,-0.63660717,-0.032754265
0.362504425,2.706921339,-0.811059654,743.8107285,-1,9457,0.090626106,0.676730335,-0.202764913
-3.951980648,1.586049914,-2.514306068,743.9107285,-1,9458,-0.987995162,0.396512479,-0.628576517
-0.357657967,-1.288305283,0.360488623,744.0107285,-1,9459,-0.089414492,-0.322076321,0.090122156
1.389972153,-1.592462301,-2.510141611,744.1107285,-1,9460,0.347493038,-0.398115575,-0.627535403
-0.590256271,0.205950141,-0.852370739,744.2107285,-1,9461,-0.147564068,0.051487535,-0.213092685
-0.541836319,2.501256466,-2.754378557,744.3107285,-1,9462,-0.13545908,0.625314116,-0.688594639
1.025235596,-2.10209465,-0.46942091,744.4107285,-1,9463,0.256308899,-0.525523663,-0.117355227
-0.657328186,0.977400064,-2.208896637,744.5107285,2,9464,-0.164332047,0.244350016,-0.552224159
-1.289405403,-3.06318903,-0.401901603,744.7107285,2,9466,-0.322351351,-0.765797257,-0.100475401
-0.536782799,-8.354798317,-2.097882032,744.8107285,2,9467,-0.1341957,-2.088699579,-0.524470508
1.30093998,-14.46555901,1.970919371,744.9107285,2,9468,0.325234995,-3.616389751,0.492729843
-2.061392841,-17.56157684,0.250498354,745.0107285,2,9469,-0.51534821,-4.390394211,0.062624589
-0.716861305,-18.16638756,-0.301012158,745.1107285,2,9470,-0.179215326,-4.541596889,-0.07525304
-1.441336212,-19.30757904,2.412495136,745.2107285,2,9471,-0.360334053,-4.82689476,0.603123784
-0.705757675,-20.80984497,2.640853167,745.3107285,2,9472,-0.176439419,-5.202461243,0.660213292
0.67130703,-19.27467728,3.666211605,745.4107285,2,9473,0.167826757,-4.818669319,0.916552901
1.172235909,-18.23570824,3.790800333,745.5107285,2,9474,0.293058977,-4.558927059,0.947700083
-0.491960106,-19.54179573,4.048186779,745.6107285,2,9475,-0.122990026,-4.885448933,1.012046695
-1.604301987,-17.35476685,2.002654552,745.7107285,2,9476,-0.401075497,-4.338691711,0.500663638
-2.189914284,-20.18723297,4.14793396,745.8107285,2,9477,-0.547478571,-5.046808243,1.03698349
-0.991023598,-15.32149029,6.912650585,745.9107285,2,9478,-0.247755899,-3.830372572,1.728162646
-1.679755745,-10.38916588,1.401870966,746.0107285,2,9479,-0.419938936,-2.59729147,0.350467741
-1.236985741,-6.975987434,0.03186886,746.1107285,2,9480,-0.309246435,-1.743996859,0.007967215
-0.609304962,-2.558835983,0.348723739,746.2107285,2,9481,-0.152326241,-0.639708996,0.087180935
-0.149748383,1.221268415,0.193095058,746.3107285,2,9482,-0.037437096,0.305317104,0.048273765
0.443986359,0.926263332,1.397724628,746.4107285,2,9483,0.11099659,0.231565833,0.349431157
0.661526146,-0.099370584,-0.397289395,746.5107285,-1,9484,0.165381536,-0.024842646,-0.099322349
0.205940666,1.485338211,-0.073991895,746.6107285,-1,9485,0.051485167,0.371334553,-0.018497974
-2.002182541,0.455380589,-0.194195047,746.7107285,-1,9486,-0.500545635,0.113845147,-0.048548762
0.655339661,0.468781859,0.598545372,746.8107285,-1,9487,0.163834915,0.117195465,0.149636343
1.341649475,1.368070006,-0.810973883,746.9107285,-1,9488,0.335412369,0.342017502,-0.202743471
1.806806984,-0.440936208,-0.342743546,747.0107285,-1,9489,0.451701746,-0.110234052,-0.085685886
0.14610714,1.784979701,0.908724725,747.1107285,-1,9490,0.036526785,0.446244925,0.227181181
-2.465848503,1.336344123,1.934854865,747.2107285,-1,9491,-0.616462126,0.334086031,0.483713716
2.600286903,-2.063844681,3.053914547,747.3107285,-1,9492,0.650071726,-0.51596117,0.763478637
