2.76500116
3.03636324
3.27992954
3.45340126
3.34219746
3.37432266
3.94135478
3.62938822
3.57382778
3.67803424
3.58989204
3.56862952
3.53328316
3.12616528
2.98039826
2.73196264
2.06378174
1.74524124
1.82722366
1.67710608
1.48596902
0.833579124
-0.44977158
-1.92658602
-2.08085918
-2.15926064
