-0.325435914
0.119685759
0.073857498
0.181614116
0.50369186
0.319836804
0.793589598
-0.100654984
-0.640123181
-0.98258618
-0.591799254
-0.153232384
0.12931612
-0.216123766
0.273141098
-0.21397056
-0.50335904
-0.080795197
-0.095548052
-0.12489185
0.276524745
-0.496131526
0.25006522
-0.294391828
-0.17467079
-0.260153773
-0.22795315
0.575060271
0.166734116
