-0.307876761
0.201906888
0.265826888
0.010484694
0.636628849
1.021004924
1.3529018
1.071061092
1.15801975
1.49074872
1.99414206
2.15068114
1.559559206
1.407807184
0.409752101
1.25598434
1.50731698
1.10002351
1.15426716
1.120646917
0.755800358
1.05077427
0.701947155
1.13515231
0.828511128
0.637458226
1.24144764
1.7510543
1.589313732
