"CSVFiles/KFoldStratifiedShuffle=True05.18.2021, 16.43.00/Run_1"
Accuracy,0.9856687898089171
Weighted Precision Score,0.9859329832974725
Weighted Recall Score,0.9856687898089171
Weighted F1 Score,0.9857159474765026
-------------------------------
Distribution of Train Events
Non Aggressive Event,Aggressive Right Turn,Aggressive Left Turn,Aggressive Acceleration,Aggressive Braking,Aggressive Left Lane Change,Aggressive Right Lane Change
1753,1348,1345,1531,940,265,355
Distribution of Test Events
Non Aggressive Event,Aggressive Right Turn,Aggressive Left Turn,Aggressive Acceleration,Aggressive Braking,Aggressive Left Lane Change,Aggressive Right Lane Change
439,336,337,383,234,66,89
Confusion Matrix
,,,,Predicated Class
,,Non Aggressive Event,Aggressive Right Turn,Aggressive Left Turn,Aggressive Acceleration,Aggressive Braking,Aggressive Left Lane Change,Aggressive Right Lane Change
,Non Aggressive Event,434,0,1,2,0,1,1
,Aggressive Right Turn,0,327,3,0,1,3,2
,Aggressive Left Turn,0,0,335,1,1,0,0
,Aggressive Acceleration,0,0,1,380,0,0,2
Actual Class,Aggressive Braking,2,0,1,0,231,0,0
,Aggressive Left Lane Change,0,1,1,0,0,62,2
,Aggressive Right Lane Change,1,0,0,0,0,0,88

----------------------------
Multi Label Confusion Matrix
Non Aggressive Event
,Predicated Class
1442,3
5,434
Actual Class

Aggressive Right Turn
,Predicated Class
1547,1
9,327
Actual Class

Aggressive Left Turn
,Predicated Class
1540,7
2,335
Actual Class

Aggressive Acceleration
,Predicated Class
1498,3
3,380
Actual Class

Aggressive Braking
,Predicated Class
1648,2
3,231
Actual Class

Aggressive Left Lane Change
,Predicated Class
1814,4
4,62
Actual Class

Aggressive Right Lane Change
,Predicated Class
1788,7
1,88
Actual Class


----------------------------
