x,y,z,Event Time,Event Type,Frame,x_modified,y_modified,z_modified
-2.114168224,-0.477924228,1.999186039,321.484544,-1,3488,-0.528542056,-0.119481057,0.49979651
0.307591858,1.539617181,-1.062885165,321.584544,-1,3489,0.076897964,0.384904295,-0.265721291
0.246637764,-1.342351198,-2.403413773,321.684544,-1,3490,0.061659441,-0.3355878,-0.600853443
-0.033614693,-0.900688708,1.436061859,321.784544,-1,3491,-0.008403673,-0.225172177,0.359015465
0.075574341,-0.957444191,0.318023682,321.884544,-1,3492,0.018893585,-0.239361048,0.07950592
0.575817528,-1.714367867,-0.050854709,321.984544,-1,3493,0.143954382,-0.428591967,-0.012713677
-0.160730896,0.719601333,1.290691733,322.084544,-1,3494,-0.040182724,0.179900333,0.322672933
-1.817734299,3.830059052,-0.572980285,322.184544,-1,3495,-0.454433575,0.957514763,-0.143245071
-1.07382637,-2.757632256,-1.249949932,322.284544,-1,3496,-0.268456593,-0.689408064,-0.312487483
0.84725708,1.385888338,-1.798812509,322.384544,-1,3497,0.21181427,0.346472085,-0.449703127
0.386289062,-1.144633532,-0.345933676,322.584544,5,3499,0.096572266,-0.286158383,-0.086483419
0.434305611,0.047627568,1.121395469,322.684544,5,3500,0.108576403,0.011906892,0.280348867
1.1390242,-4.643458843,1.719051361,322.784544,5,3501,0.28475605,-1.160864711,0.42976284
-1.154778061,-6.712587357,1.141393304,322.884544,5,3502,-0.288694515,-1.678146839,0.285348326
-1.995238361,-6.277458191,-0.580335379,322.984544,5,3503,-0.49880959,-1.569364548,-0.145083845
0.903889122,-6.203618526,-1.057652831,323.0845441,5,3504,0.225972281,-1.550904632,-0.264413208
2.055587234,-6.343529224,-2.70070672,323.1845441,5,3505,0.513896809,-1.585882306,-0.67517668
2.76054615,-4.802359581,-0.533355117,323.2845441,5,3506,0.690136538,-1.200589895,-0.133338779
0.208579483,-3.235177994,1.009989142,323.3845441,5,3507,0.052144871,-0.808794498,0.252497286
2.083519402,-0.102042347,-0.649921834,323.4845441,5,3508,0.52087985,-0.025510587,-0.162480459
2.065307083,2.261955976,0.514703155,323.5845441,5,3509,0.516326771,0.565488994,0.128675789
-0.25816494,2.457177639,-1.49231863,323.6845441,5,3510,-0.064541235,0.61429441,-0.373079658
0.157326164,3.158666611,1.373958111,323.7845441,5,3511,0.039331541,0.789666653,0.343489528
0.514140549,4.349761009,-0.329520702,323.8845441,5,3512,0.128535137,1.087440252,-0.082380176
0.367662849,4.528343678,0.339406073,323.9845441,5,3513,0.091915712,1.132085919,0.084851518
0.108043137,5.059136868,-0.753246307,324.0845441,5,3514,0.027010784,1.264784217,-0.188311577
0.302243652,3.590146542,-1.402256012,324.1845441,5,3515,0.075560913,0.897536635,-0.350564003
-0.936602173,5.183465958,-1.6038903,324.2845441,5,3516,-0.234150543,1.295866489,-0.400972575
0.48224205,3.420802832,0.1682235,324.3845441,5,3517,0.120560513,0.855200708,0.042055875
-0.070344505,2.663270235,0.129410833,324.4845441,5,3518,-0.017586126,0.665817559,0.032352708
-0.483766136,3.048230648,1.101930976,324.5845441,5,3519,-0.120941534,0.762057662,0.275482744
0.036364021,3.861379862,1.153110862,324.6845441,5,3520,0.009091005,0.965344965,0.288277715
-0.02681881,3.603558302,-0.613510549,324.7845441,5,3521,-0.006704702,0.900889575,-0.153377637
-2.308036385,2.288767576,-0.672682762,324.8845441,5,3522,-0.577009096,0.572191894,-0.168170691
-0.229651985,-0.381816149,-1.32295835,324.9845441,5,3523,-0.057412996,-0.095454037,-0.330739588
-0.929547844,1.940233469,0.747982264,325.0845441,5,3524,-0.232386961,0.485058367,0.186995566
0.820988121,1.038932323,-2.35811305,325.1845441,5,3525,0.20524703,0.259733081,-0.589528263
1.283053818,-2.379200459,-0.134238824,325.2845441,5,3526,0.320763454,-0.594800115,-0.033559706
0.364167633,2.798643589,-0.816687703,325.3845441,-1,3527,0.091041908,0.699660897,-0.204171926
-3.950757084,1.635814071,-2.516370535,325.4845441,-1,3528,-0.987689271,0.408953518,-0.629092634
