-0.49224532
-0.4692859
0.59108794
-0.25801206
-0.3276403
-0.3196584
-1.1456268
0.25437367
0.37166232
0.10773885
0.3108474
0.35045373
0.17374837
0.04562199
-1.2721165
-0.14972281
-0.32474217
-0.7851378
0.8403237
-0.39287293
-0.11086309
0.7619815
-1.2706263
-0.059112787
0.8013761
-0.9125153
0.6465681
0.17954469
-0.8242172
-0.31155592
-1.1069762
0.2753408
0.018750608
-0.54597414
-0.33382523
-0.30483955
-0.69975674
0.32335177
-0.45166618
0.25917363
0.3762492
-0.5586916
0.34910583
-0.40533626
-0.25938976
-0.18288988
-0.20867062
0.22178644
-0.48695248
-0.5416145
0.9285442
-0.84817815
-0.6958572
0.37259972
-0.108946204
-0.09537333
-0.39416558
-0.98858714
0.12285205
0.37486458
-0.20484054
-0.44723883
-0.4510029
0.42446184
-0.6548679
-0.74008363
0.4885164
-0.4723091
-0.5379814
0.33411732
-0.7806689
-0.8743662
1.1307218
-1.4889791
0.61529756
0.6389961
-1.8222113
1.2689848
-1.0274956
-1.2889578
1.4608393
-1.0055187
-0.51391983
0.49268225
-1.7605709
1.4299128
-1.0663464
-0.58500963
1.932133
-1.6092056
0.1985625
1.4903089
-2.3113413
0.37290674
0.42623323
-0.79308945
-0.7366001
-1.4664354
-0.5430678
-0.40777493
-1.5259076
0.34235144
-1.7927978
-2.1814446
1.5236449
-1.6761875
-1.0525594
0.89250493
-1.2970932
-0.5946225
-0.04280667
-0.98984
-0.259826
-1.557265
-0.588633
-0.52114516
-1.0645454
0.12824267
-0.44961792
-2.182181
-0.02726844
-0.78725046
-0.66530675
-0.2766465
-1.70828
-0.40404522
0.093636066
-1.2541146
-0.0058138855
-1.000708
-0.91103196
0.47926116
-0.9467071
-0.37475598
-0.6851743
-1.067731
-0.41523427
-1.609782
-0.7923925
-0.010109752
-1.4200708
-0.36429408
-0.9558007
-1.324619
0.33621708
-1.1005809
-0.57731724
-0.28357613
-1.7084816
0.28012967
1.3404062
-1.4876838
0.3663758
1.3918813
-0.28450692
-0.30037192
1.5947337
0.0684551
-0.0465042
-0.97757983
-0.18718302
2.3281355
-0.08884573
-1.1128579
0.4994483
0.8709644
0.30036363
-0.40597236
-0.291129
1.2597785
-1.5870879
0.9673924
-0.32004786
-0.8058708
-0.41904545
2.2862751
-1.2877669
-0.21841833
1.836204
0.6991708
-0.52009547
-0.62338585
0.6254399
-0.6257485
-0.28511927
0.89258707
-0.18995275
-1.8997471
0.15975916
0.8814308
-1.3122089
0.9733968
0.2524925
-1.7409068
1.1198492
-0.3326856
-1.7445112
1.0369186
-0.867612
-0.27892762
0.24999511
-0.90771556
0.1048654
0.11325222
-0.42692435
0.20599285
-0.069851875
0.85112524
-1.0514576
-0.3073448
0.68346417
0.09616229
-0.45723522
0.32096773
-1.026629
0.6642258
-0.043796778
-0.8427449
0.049838353
-0.10189539
-1.0193322
0.5931694
-0.09478003
-0.7487244
0.97373104
-0.61225206
-0.85964715
0.81855416
-0.16829586
-0.5888973
-0.24753693
0.09187639
-0.17976148
-0.28425223
-0.17635188
-0.8134078
-0.7333933
1.1865847
-1.499501
0.06341426
1.0034509
-0.7141738
-0.4103232
0.9432035
0.41273868
-0.46709496
-0.78559554
-0.7993711
-0.32366815
0.1172836
-0.9647521
-1.2578709
-0.0086517185
-0.26592678
-0.49628615
-0.96709025
-0.01499483
-0.79454887
-1.0352371
-0.0055683553
-0.16785854
-0.9403695
0.16721168
-0.8067739
0.5235097
-1.4898217
0.5820945
-0.11723745
-1.2255777
0.33466464
0.27143967
-0.70252454
0.020621598
-1.3215475
1.1363606
-0.151889
-0.8686819
0.67561823
-1.1568038
0.8795094
-0.3701487
-0.44740304
-0.18200359
0.17314702
-1.2929246
0.7970568
-0.77081156
0.14627159
-0.13127506
-0.3921268
0.16116285
-1.2308466
0.73704803
0.069901824
-1.3929679
0.81009674
0.32708588
-1.9714881
1.1562318
-1.3060708
-0.17406893
0.013400257
-0.9948619
0.06562701
0.45070744
-1.1663349
0.19308867
0.2143654
-1.030864
0.15647104
-0.4024347
-0.7444062
-0.13171536
-0.46157217
-1.1900493
0.7254799
-0.29014784
0.15656266
-0.7860253
-0.3872906
0.816923
-1.1234492
0.023741126
0.7020893
-1.6059067
1.3388033
-1.2101951
-1.0603824
2.1675725
-0.64406353
-2.2775075
0.46939418
-0.19374013
-0.85087705
1.3443639
-1.8695657
-0.02672273
0.06560748
-0.9648832
1.1779633
-0.80548555
-1.296742
1.226922
-2.445418
0.50594
0.2576427
-2.199706
0.24641612
-1.1037215
-0.57332647
0.8478457
-0.8204505
-1.3438683
0.839896
-1.2746388
0.3606915
0.5854339
-0.57855046
0.5289396
-0.66729677
-0.4485873
1.427802
-1.194157
-0.062508374
0.9928223
-1.6485648
-0.16759412
0.44583464
-1.7659706
0.30093813
0.3722204
-1.6579449
1.1589864
-0.59769607
-1.428964
1.6812444
-1.2636766
-1.0213377
1.6311146
-2.3113594
-0.59682393
0.619717
-1.3063791
0.71691835
-0.020074755
-0.9467561
1.8013747
-0.18970895
-2.0703979
2.0248153
-0.5289973
-1.4486651
1.3252041
-0.51677
-0.42088434
1.0176793
