9.141924
8.679215
9.292969
8.996637
8.372021
9.506469
9.681387
9.006956
9.028417
9.006063
8.810878
10.111802
8.614363
7.826025
9.197822
9.371216
8.179138
9.090724
9.513652
8.504426
8.876813
8.983681
8.747917
9.599054
9.549976
8.362425
9.4291525
9.773559
8.552642
8.91359
9.772753
9.173083
8.630674
9.785711
9.471193
8.911349
8.846957
9.129381
8.84027
9.084378
9.225834
8.992197
9.076384
9.236527
9.240902
8.680539
9.553739
9.7183
8.326612
8.914321
9.849829
8.514883
9.3153105
10.366998
7.822492
7.4231524
10.388447
10.068098
8.340182
9.355025
9.738413
9.083653
9.798099
9.022587
7.9562154
9.732671
9.980583
7.926346
8.846923
9.805202
8.420241
8.638725
9.757774
8.786848
9.306187
9.621472
8.2562685
9.156393
8.846574
8.581341
9.673425
8.97924
8.029477
9.252916
8.819764
9.411515
8.832214
8.750718
9.159216
8.633421
9.003851
9.790537
8.390187
9.331021
10.078625
8.549399
8.542609
9.942495
8.699186
8.477456
9.625938
9.2478485
8.683377
9.646015
10.161763
8.149926
8.427899
10.024776
9.400213
8.333066
9.001116
9.45768
8.848388
8.633181
9.950497
9.137989
8.7969
9.290577
9.247638
8.571662
8.717308
8.701649
8.760867
8.830532
9.300717
9.479395
8.666225
8.168591
8.735702
9.10291
9.451898
9.030316
7.9471307
8.961526
9.362827
9.003079
8.927101
9.026777
9.570004
9.558069
9.027379
9.007243
8.972644
10.126078
9.657819
7.9631424
9.621128
9.948519
7.9522085
9.032145
9.504609
8.773817
10.027232
10.30604
8.028306
7.3941393
8.804573
9.680522
9.23735
7.75352
8.589886
11.262295
9.515623
6.793299
9.269294
11.596186
8.100963
7.437367
9.889499
8.985469
7.3631787
9.772272
9.752173
6.8770337
9.364821
10.339974
8.69869
7.047655
10.867171
9.73645
7.075281
9.138296
11.129249
7.9207006
8.539836
10.649778
9.11153
8.022094
9.721564
9.650021
8.439875
10.050021
9.483178
8.36372
10.078981
9.404829
7.882125
10.159447
9.692203
8.498387
9.571894
9.306764
8.6760025
9.63724
9.500626
8.225872
8.574885
9.286224
8.401611
9.288329
8.771504
7.8659735
8.949645
9.590402
7.8389726
8.959274
9.218484
8.630541
9.412149
9.379421
8.445592
9.103397
9.209888
9.121737
9.667013
8.140864
8.701547
10.352253
9.264996
8.045375
9.35823
9.884438
8.499507
8.238512
9.521778
8.779126
8.381949
9.720252
8.135496
8.803068
9.804866
8.371568
7.7401533
9.9011965
8.4539385
7.9158773
10.125527
9.931231
7.5137
8.962394
10.363968
9.035958
9.000864
9.26444
9.180448
9.489227
9.578041
8.727884
9.939714
9.937065
9.106924
9.033151
10.103108
9.000278
9.363663
8.630927
9.980465
8.950149
8.267581
9.4864435
9.590674
7.982513
9.427189
9.509094
8.315747
8.19863
9.5194645
9.50293
7.7003922
9.204398
8.565708
8.670361
9.308038
9.511358
8.157228
10.231731
8.584447
7.51191
9.648544
9.7541685
8.017812
9.051894
9.690172
8.347065
8.979153
9.474244
9.157981
8.8999405
9.621447
8.395119
9.210272
8.913591
9.070346
9.056903
8.691226
8.747678
9.505497
9.201589
8.355568
8.566202
9.565068
9.54668
8.454266
9.232533
8.730948
9.105182
8.886706
8.363065
8.71579
9.641153
8.402036
7.865893
9.538632
9.191798
7.4860153
10.190876
9.34115
7.9549127
9.575055
8.913958
7.92873
9.788125
9.802183
7.2706337
9.349611
9.856717
9.200941
8.977452
9.013167
9.234372
9.873619
8.8540535
9.476011
9.222275
9.669377
8.921255
8.995632
9.793551
9.7715435
9.401546
8.701625
9.354025
9.442192
9.3002
9.02354
8.655454
8.6852455
9.760088
9.156231
8.08992
9.3383255
9.652068
8.059774
8.858836
9.574962
8.36507
8.576611
8.924508
8.432503
9.072985
9.724787
8.275282
8.471052
9.364377
9.367126
9.504054
8.267244
9.132688
10.766213
8.06063
8.338368
10.775167
9.589403
8.758671
9.45123
9.021444
9.6524515
9.774765
8.032219
9.374452
9.564173
8.055429
8.569005
9.845006
8.213607
9.092248
