"CSVFiles/KFoldStratified13LAGUAHData05.21.2021, 00.29.09/Run_2"
Accuracy,0.9291338582677166
Weighted Precision Score,0.9290680190429846
Weighted Recall Score,0.9291338582677166
Weighted F1 Score,0.927156310836935
-------------------------------
Distribution of Train Events
Non Aggressive Event,Aggressive Right Turn,Aggressive Left Turn,Aggressive Acceleration,Aggressive Braking,Aggressive Left Lane Change,Aggressive Right Lane Change
330,76,225,1211,882,134,191
Distribution of Test Events
Non Aggressive Event,Aggressive Right Turn,Aggressive Left Turn,Aggressive Acceleration,Aggressive Braking,Aggressive Left Lane Change,Aggressive Right Lane Change
83,18,56,303,221,34,47
Confusion Matrix
,,,,Predicated Class
,,Non Aggressive Event,Aggressive Right Turn,Aggressive Left Turn,Aggressive Acceleration,Aggressive Braking,Aggressive Left Lane Change,Aggressive Right Lane Change
,Non Aggressive Event,79,0,0,1,2,0,1
,Aggressive Right Turn,0,17,0,0,0,0,1
,Aggressive Left Turn,0,0,55,0,1,0,0
,Aggressive Acceleration,3,0,1,294,1,0,4
Actual Class,Aggressive Braking,2,1,0,4,210,1,3
,Aggressive Left Lane Change,1,1,3,5,1,22,1
,Aggressive Right Lane Change,7,0,1,5,3,0,31

----------------------------
Multi Label Confusion Matrix
Non Aggressive Event
,Predicated Class
666,13
4,79
Actual Class

Aggressive Right Turn
,Predicated Class
742,2
1,17
Actual Class

Aggressive Left Turn
,Predicated Class
701,5
1,55
Actual Class

Aggressive Acceleration
,Predicated Class
444,15
9,294
Actual Class

Aggressive Braking
,Predicated Class
533,8
11,210
Actual Class

Aggressive Left Lane Change
,Predicated Class
727,1
12,22
Actual Class

Aggressive Right Lane Change
,Predicated Class
705,10
16,31
Actual Class


----------------------------
