x,y,z,Event Time,Event Type,Frame,x_modified,y_modified,z_modified
2.057073059,-0.061438628,-0.77048564,8.249923553,-1,107,0.514268265,-0.015359657,-0.19262141
-0.364281235,1.08319962,-1.951249719,8.349923555,-1,108,-0.091070309,0.270799905,-0.48781243
-2.113911686,-0.476697177,2.004076004,8.449923556,-1,109,-0.528477921,-0.119174294,0.501019001
0.30785984,1.540611982,-1.057998776,8.549923558,-1,110,0.07696496,0.385152996,-0.264499694
0.246798935,-1.341260314,-2.399775982,8.649923559,-1,111,0.061699734,-0.335315078,-0.599943995
-0.033468781,-0.899616241,1.44094944,8.749923561,-1,112,-0.008367195,-0.22490406,0.36023736
0.075663033,-0.95635438,0.321661472,8.849923562,-1,113,0.018915758,-0.239088595,0.080415368
0.575818481,-1.713208795,-0.046590813,8.949923564,-1,114,0.14395462,-0.428302199,-0.011647703
-0.160527763,0.720595658,1.295578122,9.049923565,-1,115,-0.040131941,0.180148914,0.323894531
-1.817668495,3.831150055,-0.569342494,9.149923567,-1,116,-0.454417124,0.957787514,-0.142335624
0.911629143,1.387094378,99.9,9.34992357,-1,118,0.227907286,0.346773595,24.975
1.395381393,0.085096978,3.180252075,9.449923571,-1,119,0.348845348,0.021274244,0.795063019
0.383935394,0.91639626,-0.204715312,9.549923573,-1,120,0.095983849,0.229099065,-0.051178828
0.465845528,1.911845565,1.1320858,9.649923574,-1,121,0.116461382,0.477961391,0.28302145
1.244235458,-0.507154286,1.626111388,9.749923576,-1,122,0.311058865,-0.126788571,0.406527847
-0.999583778,-1.209575653,0.970832348,9.849923577,-1,123,-0.249895945,-0.302393913,0.242708087
-1.803164063,0.009819975,-0.808567703,9.949923579,-1,124,-0.450791016,0.002454994,-0.202141926
1.122032585,0.5388394,-1.323442698,10.04992358,-1,125,0.280508146,0.13470985,-0.330860674
2.292499008,0.663258672,-2.990742207,10.14992358,-1,126,0.573124752,0.165814668,-0.747685552
2.887897911,-1.042268395,-0.782823205,10.24992358,-1,127,0.721974478,-0.260567099,-0.195705801
0.269789162,1.072289228,0.901277542,10.34992358,-1,128,0.06744729,0.268072307,0.225319386
2.068079414,0.410785705,-0.649727523,10.44992359,-1,129,0.517019854,0.102696426,-0.162431881
2.007919731,0.554275215,0.50755626,10.54992359,-1,130,0.501979933,0.138568804,0.126889065
-0.249697266,-0.461242229,-1.531863332,10.64992359,-1,131,-0.062424316,-0.115310557,-0.382965833
0.202325287,-0.43120566,1.308577776,10.74992359,-1,132,0.050581322,-0.107801415,0.327144444
0.586184921,0.383053392,-0.411718786,10.84992359,-1,133,0.14654623,0.095763348,-0.102929696
0.457264366,0.347592711,0.240417004,10.94992359,-1,134,0.114316092,0.086898178,0.060104251
0.206795158,0.756208122,-0.861321568,11.0499236,-1,135,0.05169879,0.18905203,-0.215330392
0.404328766,-0.782829702,-1.5151788,11.1499236,-1,136,0.101082191,-0.195707425,-0.3787947
-0.834207115,0.770214438,-1.715916991,11.2499236,-1,137,-0.208551779,0.19255361,-0.428979248
0.583523216,-1.015518785,0.052450296,11.3499236,-1,138,0.145880804,-0.253879696,0.013112574
0.029639664,-1.786306024,0.011320104,11.4499236,-1,139,0.007409916,-0.446576506,0.002830026
-0.384807167,-1.409018755,0.987286448,11.5499236,0,140,-0.096201792,-0.352254689,0.246821612
0.105332794,0.744216502,1.030883908,11.6499236,0,141,0.026333199,0.186054125,0.257720977
0.019638481,0.265664399,-0.680647731,11.74992361,0,142,0.00490962,0.0664161,-0.170161933
-2.293836174,0.422444612,-0.689208567,11.84992361,0,143,-0.573459044,0.105611153,-0.172302142
-0.22721344,-1.410032392,-1.32774806,11.94992361,0,144,-0.05680336,-0.352508098,-0.331937015
-0.931159554,1.376426816,0.751860261,12.04992361,0,145,-0.232789888,0.344106704,0.187965065
0.818520012,0.730697453,-2.355674982,12.14992361,0,146,0.204630003,0.182674363,-0.588918746
1.280910912,-2.548005819,-0.130491689,12.24992361,0,147,0.320227728,-0.637001455,-0.032622922
0.362847748,2.706448555,-0.81061399,12.34992361,0,148,0.090711937,0.676612139,-0.202653497
-3.951465664,1.585671186,-2.513912678,12.44992362,0,149,-0.987866416,0.396417797,-0.628478169
-0.356975136,-1.288386822,0.360854357,12.54992362,0,150,-0.089243784,-0.322096705,0.090213589
1.390613022,-1.592512488,-2.509791613,12.64992362,0,151,0.347653255,-0.398128122,-0.627447903
-0.589874802,0.206071749,-0.852028728,12.74992362,0,152,-0.1474687,0.051517937,-0.213007182
-0.541370926,2.501221895,-2.754039049,12.84992362,0,153,-0.135342731,0.625305474,-0.688509762
1.025517883,-2.102224827,-0.466593236,12.94992362,0,154,0.256379471,-0.525556207,-0.116648309
-0.657026825,0.977659047,-2.211063623,13.04992362,0,155,-0.164256706,0.244414762,-0.552765906
-0.312448082,-0.675203145,-1.033528686,13.14992363,0,156,-0.07811202,-0.168800786,-0.258382171
-1.283985672,0.600302994,-0.01200875,13.24992363,0,157,-0.320996418,0.150075749,-0.003002187
-0.395165024,0.736441612,-0.763605177,13.34992363,0,158,-0.098791256,0.184110403,-0.190901294
1.756378593,-0.740334153,2.692606926,13.44992363,0,159,0.439094648,-0.185083538,0.673151731
-1.314878998,-0.535428822,-0.211243078,13.54992363,0,160,-0.328719749,-0.133857206,-0.05281077
0.181495132,0.248999149,-1.934436321,13.64992363,0,161,0.045373783,0.062249787,-0.48360908
-0.48129612,-0.575463891,-0.168521821,13.74992364,0,162,-0.12032403,-0.143865973,-0.042130455
0.25460762,-2.205764771,0.045593929,13.84992364,0,163,0.063651905,-0.551441193,0.011398482
1.639742317,-0.656432509,1.050429344,13.94992364,0,164,0.409935579,-0.164108127,0.262607336
2.153961601,0.463614523,1.132759809,14.04992364,0,165,0.5384904,0.115903631,0.283189952
0.506431999,-0.73958689,1.341750741,14.14992364,0,166,0.126608,-0.184896722,0.335437685
-0.589022217,1.570053697,-0.747822285,14.24992364,0,167,-0.147255554,0.392513424,-0.186955571
-1.137220917,-0.63996619,-0.21624051,14.34992364,0,168,-0.284305229,-0.159991547,-0.054060128
-0.239735184,0.445354283,-0.455203772,14.44992365,0,169,-0.059933796,0.111338571,-0.113800943
-1.387619553,0.623905361,-1.135786772,14.54992365,-1,170,-0.346904888,0.15597634,-0.283946693
-1.234509048,-2.221627474,-0.16535911,14.64992365,-1,171,-0.308627262,-0.555406868,-0.041339777
-0.639055786,-1.607241035,0.367123932,14.74992365,-1,172,-0.159763947,-0.401810259,0.091780983
-0.155633507,1.482918978,0.208791286,14.84992365,-1,173,-0.038908377,0.370729744,0.052197821
0.454130592,1.024698734,1.410181522,14.94992365,-1,174,0.113532648,0.256174684,0.352545381
0.678636017,-0.043354671,-0.391886115,15.04992365,-1,175,0.169659004,-0.010838668,-0.097971529
0.224248352,1.508253813,-0.068172812,15.14992366,-1,176,0.056062088,0.377063453,-0.017043203
-1.985227165,0.476510912,-0.194213048,15.24992366,-1,177,-0.496306791,0.119127728,-0.048553262
0.670083466,0.478771001,0.601012647,15.34992366,-1,178,0.167520866,0.11969275,0.150253162
1.353468361,1.371168137,-0.809042275,15.44992366,-1,179,0.33836709,0.342792034,-0.202260569
1.81656498,-0.434375793,-0.344563484,15.54992366,-1,180,0.454141245,-0.108593948,-0.086140871
0.153835716,1.785962105,0.910957694,15.64992366,-1,181,0.038458929,0.446490526,0.227739424
-2.459855614,1.334575176,1.934990644,15.74992367,-1,182,-0.614963903,0.333643794,0.483747661
2.60498661,-2.063523769,3.055658579,15.84992367,-1,183,0.651246653,-0.515880942,0.763914645
0.060876312,-0.598586559,1.187535048,15.94992367,-1,184,0.015219078,-0.14964664,0.296883762
0.615883293,-1.457615376,-2.47944808,16.04992367,-1,185,0.153970823,-0.364403844,-0.61986202
-1.78190094,1.024999976,-0.70752573,16.14992367,-1,186,-0.445475235,0.256249994,-0.176881433
0.133179131,0.607982159,-0.753388882,16.24992367,-1,187,0.033294783,0.15199554,-0.18834722
-2.561785278,-0.200313941,-0.670204222,16.34992367,-1,188,-0.64044632,-0.050078485,-0.167551056
0.235136452,-1.132081509,-0.974983871,16.44992368,-1,189,0.058784113,-0.283020377,-0.243745968
-0.1288591,-0.306863874,0.554142237,16.54992368,-1,190,-0.032214775,-0.076715969,0.138535559
-0.065921364,1.911358476,2.240965843,16.64992368,-1,191,-0.016480341,0.477839619,0.560241461
-0.372170982,-1.116478205,-1.848671317,16.74992368,-1,192,-0.093042746,-0.279119551,-0.462167829
1.455307426,0.004806336,-0.261994839,16.84992368,-1,193,0.363826857,0.001201584,-0.06549871
-0.24553257,1.453933358,0.57400012,16.94992368,-1,194,-0.061383142,0.36348334,0.14350003
0.916527214,-0.179029033,1.628453732,17.04992368,-1,195,0.229131804,-0.044757258,0.407113433
2.556388321,0.500290334,0.318096071,17.14992369,-1,196,0.63909708,0.125072584,0.079524018
-0.638295708,0.693581283,-1.218632698,17.24992369,-1,197,-0.159573927,0.173395321,-0.304658175
-0.057635841,0.157666624,-0.695720911,17.34992369,-1,198,-0.01440896,0.039416656,-0.173930228
0.437300148,-0.820932806,0.039549101,17.44992369,-1,199,0.109325037,-0.205233201,0.009887275
-0.811415253,-1.218965173,0.442409873,17.54992369,-1,200,-0.202853813,-0.304741293,0.110602468
1.128818932,0.363385975,-1.510896325,17.64992369,-1,201,0.282204733,0.090846494,-0.377724081
0.027805748,0.551524222,0.096330747,17.74992369,-1,202,0.006951437,0.137881055,0.024082687
-1.283319054,-0.560178757,-0.717435837,17.8499237,-1,203,-0.320829763,-0.140044689,-0.179358959
-2.453699646,-0.417921901,-1.063699007,17.9499237,-1,204,-0.613424911,-0.104480475,-0.265924752
1.685743752,1.120239258,1.282333732,18.0499237,-1,205,0.421435938,0.280059814,0.320583433
-1.290532646,0.871773601,-0.705158055,18.1499237,-1,206,-0.322633162,0.2179434,-0.176289514
0.792432251,2.48414135,1.264036417,18.2499237,-1,207,0.198108063,0.621035337,0.316009104
-0.353498039,0.538793147,1.873829961,18.3499237,-1,208,-0.08837451,0.134698287,0.46845749
-0.652246056,-0.127951592,2.117879391,18.44992371,-1,209,-0.163061514,-0.031987898,0.529469848
-1.118953285,-0.035791088,0.30374983,18.54992371,-1,210,-0.279738321,-0.008947772,0.075937457
-0.057206688,-0.442447603,1.247943997,18.64992371,-1,211,-0.014301672,-0.110611901,0.311985999
-1.571343002,0.548083305,-1.24522233,18.74992371,-1,212,-0.392835751,0.137020826,-0.311305583
1.494004669,-1.529546738,-0.452504367,18.84992371,-1,213,0.373501167,-0.382386684,-0.113126092
0.369501534,0.445691884,-1.389078856,18.94992371,-1,214,0.092375383,0.111422971,-0.347269714
-0.236299095,-1.529549479,1.410992384,19.04992371,-1,215,-0.059074774,-0.38238737,0.352748096
0.671729507,0.800777376,1.531558156,19.14992372,-1,216,0.167932377,0.200194344,0.382889539
-1.011078415,-0.115013793,-3.266455412,19.24992372,-1,217,-0.252769604,-0.028753448,-0.816613853
2.278040352,-1.986591339,-1.586675286,19.34992372,-1,218,0.569510088,-0.496647835,-0.396668822
-0.494280396,-1.900978923,-0.203520805,19.44992372,-1,219,-0.123570099,-0.475244731,-0.050880201
-1.277315674,-0.512409925,-0.960934162,19.54992372,-1,220,-0.319328918,-0.128102481,-0.240233541
0.447514954,2.160515547,-0.714843094,19.64992372,-1,221,0.111878738,0.540128887,-0.178710774
-2.5894981,1.591269493,-2.435174465,19.74992372,-1,222,-0.647374525,0.397817373,-0.608793616
0.310749474,-0.920905828,0.490508467,19.84992373,-1,223,0.077687368,-0.230226457,0.122627117
0.914599838,-0.731431663,1.284982681,19.94992373,-1,224,0.22864996,-0.182857916,0.32124567
0.871018829,1.141331196,3.729081631,20.04992373,-1,225,0.217754707,0.285332799,0.932270408
-2.443924007,0.063692123,2.317521334,20.14992373,-1,226,-0.610981002,0.015923031,0.579380333
-1.983458099,2.544983387,2.864153385,20.24992373,-1,227,-0.495864525,0.636245847,0.716038346
0.223825874,2.057875633,-0.094826445,20.34992373,-1,228,0.055956469,0.514468908,-0.023706611
0.531369629,0.494554311,2.594141483,20.44992374,-1,229,0.132842407,0.123638578,0.648535371
1.598185959,-0.365710378,-1.55812645,20.54992374,-1,230,0.39954649,-0.091427594,-0.389531612
-0.766204414,-1.824777007,-0.927063525,20.64992374,-1,231,-0.191551104,-0.456194252,-0.231765881
2.57298893,1.051501632,1.125135422,20.74992374,-1,232,0.643247232,0.262875408,0.281283855
-3.447010574,-0.435946107,-2.445932627,20.84992374,-1,233,-0.861752644,-0.108986527,-0.611483157
-0.306874809,-1.10766995,0.712114751,20.94992374,-1,234,-0.076718702,-0.276917487,0.178028688
-1.088782845,1.339456201,0.486752927,21.04992374,-1,235,-0.272195711,0.33486405,0.121688232
-0.883224068,0.303121507,-1.295635104,21.14992375,-1,236,-0.220806017,0.075780377,-0.323908776
0.756791534,1.107250094,-1.333292603,21.24992375,-1,237,0.189197884,0.276812524,-0.333323151
-0.173476753,-0.424630761,-2.753738403,21.34992375,-1,238,-0.043369188,-0.10615769,-0.688434601
2.022285881,-0.099737339,-1.029018044,21.44992375,-1,239,0.50557147,-0.024934335,-0.257254511
-0.559022484,-0.21479252,-0.348095119,21.54992375,-1,240,-0.139755621,-0.05369813,-0.08702378
0.072194519,2.059348106,-0.703043163,21.64992375,-1,241,0.01804863,0.514837027,-0.175760791
1.528314056,0.05986115,-0.378939241,21.74992375,-1,242,0.382078514,0.014965287,-0.09473481
0.692430916,-1.258631349,-0.016509358,21.84992376,-1,243,0.173107729,-0.314657837,-0.004127339
-2.666348038,-0.618812323,-0.666510522,21.94992376,-1,244,-0.666587009,-0.154703081,-0.166627631
-0.32750946,0.724745333,-0.831732154,22.04992376,-1,245,-0.081877365,0.181186333,-0.207933038
1.122096481,-0.137278408,0.454004765,22.14992376,-1,246,0.28052412,-0.034319602,0.113501191
1.765282097,-0.172154516,-0.918268263,22.24992376,-1,247,0.441320524,-0.043038629,-0.229567066
-0.280462799,-0.83361727,1.159900665,22.34992376,-1,248,-0.0701157,-0.208404317,0.289975166
-1.662996826,-0.646313071,-1.248918295,22.44992376,-1,249,-0.415749207,-0.161578268,-0.312229574
-1.939731178,-2.718631268,3.439784765,22.54992377,-1,250,-0.484932795,-0.679657817,0.859946191
0.583322945,-0.240971982,-0.091356449,22.64992377,-1,251,0.145830736,-0.060242996,-0.022839112
0.327259483,1.231513858,2.029450893,22.74992377,-1,252,0.081814871,0.307878464,0.507362723
0.916821899,1.328128576,0.339316905,22.84992377,-1,253,0.229205475,0.332032144,0.084829226
1.751410904,-1.931587696,-0.518561125,22.94992377,-1,254,0.437852726,-0.482896924,-0.129640281
1.009696426,0.509283662,-0.67659384,23.04992377,-1,255,0.252424107,0.127320915,-0.16914846
0.36265892,-2.331194401,1.233983755,23.14992378,-1,256,0.09066473,-0.5827986,0.308495939
0.794153633,0.333418787,-0.830176473,23.24992378,-1,257,0.198538408,0.083354697,-0.207544118
-2.665451584,0.903177559,-0.871073544,23.34992378,-1,258,-0.666362896,0.22579439,-0.217768386
-0.330703316,-1.14057982,-0.703731954,23.44992378,-1,259,-0.082675829,-0.285144955,-0.175932989
-1.462132988,-2.34079361,0.967330992,23.54992378,-1,260,-0.365533247,-0.585198402,0.241832748
-0.400115547,1.291509271,-0.191597983,23.64992378,-1,261,-0.100028887,0.322877318,-0.047899496
2.448741379,-0.14524138,0.81426549,23.74992378,-1,262,0.612185345,-0.036310345,0.203566372
-1.552465973,0.658160985,0.345539153,23.84992379,-1,263,-0.388116493,0.164540246,0.086384788
-0.690878448,3.101246357,1.575174689,23.94992379,-1,264,-0.172719612,0.775311589,0.393793672
-0.053372917,-0.038304932,0.063411064,24.04992379,-1,265,-0.013343229,-0.009576233,0.015852766
1.220928612,0.313249022,2.235052824,24.14992379,-1,266,0.305232153,0.078312255,0.558763206
-0.921654282,1.070382833,-0.810020208,24.24992379,-1,267,-0.23041357,0.267595708,-0.202505052
0.721728745,-0.681035042,1.007872581,24.34992379,-1,268,0.180432186,-0.17025876,0.251968145
0.742502632,-1.195109606,-1.410215378,24.44992379,-1,269,0.185625658,-0.298777401,-0.352553844
0.256469193,-2.67507863,0.022461444,24.5499238,-1,270,0.064117298,-0.668769658,0.005615361
2.877082291,2.368336201,-0.026008872,24.6499238,-1,271,0.719270573,0.59208405,-0.006502218
-0.068719444,0.992960513,2.433351994,24.7499238,-1,272,-0.017179861,0.248240128,0.608337998
1.306794586,1.071332097,-0.9805547,24.8499238,-1,273,0.326698647,0.267833024,-0.245138675
0.633893433,0.716115057,0.685518861,24.9499238,-1,274,0.158473358,0.179028764,0.171379715
0.305031242,0.554973304,0.883099258,25.0499238,-1,275,0.076257811,0.138743326,0.220774814
1.042662086,-0.990808308,-1.199121356,25.14992381,-1,276,0.260665522,-0.247702077,-0.299780339
0.14335865,0.59700042,-2.064777374,25.24992381,-1,277,0.035839663,0.149250105,-0.516194344
4.133576813,1.34223628,-0.271443099,25.34992381,-1,278,1.033394203,0.33555907,-0.067860775
-4.091161308,1.416147947,1.693154693,25.44992381,-1,279,-1.022790327,0.354036987,0.423288673
4.740756454,-2.500801086,-4.632636547,25.54992381,-1,280,1.185189114,-0.625200272,-1.158159137
-7.53976017,1.857828617,2.494441509,25.64992381,-1,281,-1.884940042,0.464457154,0.623610377
-1.058977661,1.433704257,4.349819183,25.74992381,-1,282,-0.264744415,0.358426064,1.087454796
1.168422165,0.89988482,-0.743364632,25.84992382,-1,283,0.292105541,0.224971205,-0.185841158
