x,y,z,Event Time,Event Type,Frame,x_modified,y_modified,z_modified
0.670384827,1.698564172,-0.848753691,433.0499299,-1,4355,0.167596207,0.424641043,-0.212188423
-1.70793396,0.462705851,0.067109972,433.1499299,-1,4356,-0.42698349,0.115676463,0.016777493
-0.499656258,-0.917341888,-1.54050684,433.2499299,-1,4357,-0.124914064,-0.229335472,-0.38512671
0.809602203,0.51207751,0.523272872,433.3499299,-1,4358,0.202400551,0.128019378,0.130818218
0.740084114,1.570380569,2.691454649,433.4499299,-1,4359,0.185021029,0.392595142,0.672863662
0.806872787,0.176816374,-0.052920498,433.5499299,-1,4360,0.201718197,0.044204094,-0.013230124
-1.074579773,-0.793821931,1.238716245,433.6499299,-1,4361,-0.268644943,-0.198455483,0.309679061
0.107963982,1.28734982,1.606526136,433.7499299,-1,4362,0.026990995,0.321837455,0.401631534
2.12096447,-1.272297382,-2.383935928,433.8499299,-1,4363,0.530241117,-0.318074346,-0.595983982
-0.26208168,0.671498001,1.773892879,433.9499299,-1,4364,-0.06552042,0.1678745,0.44347322
-0.535670815,1.083117485,99.9,434.1499299,-1,4366,-0.133917704,0.270779371,24.975
0.942561569,0.557815433,1.183759332,434.2499299,-1,4367,0.235640392,0.139453858,0.295939833
-0.368444023,-1.299499154,-0.935324192,434.3499299,-1,4368,-0.092111006,-0.324874789,-0.233831048
-3.167802868,-1.364192128,-1.040756822,434.4499299,-1,4369,-0.791950717,-0.341048032,-0.260189205
0.155312958,-0.725793242,-1.540519357,434.5499299,-1,4370,0.038828239,-0.181448311,-0.385129839
2.016810837,0.912075281,1.023331523,434.6499299,-1,4371,0.504202709,0.22801882,0.255832881
1.147355499,0.740767717,-1.583432436,434.7499299,-1,4372,0.286838875,0.185191929,-0.395858109
-1.038835106,-1.805315733,-0.62387079,434.8499299,-1,4373,-0.259708776,-0.451328933,-0.155967698
-1.87418705,-1.685273767,-1.728719115,434.9499299,-1,4374,-0.468546762,-0.421318442,-0.432179779
2.274823608,-0.313024998,-1.981375694,435.0499299,-1,4375,0.568705902,-0.078256249,-0.495343924
-1.978662548,0.060771447,-0.158719257,435.1499299,-1,4376,-0.494665637,0.015192862,-0.039679814
1.29934639,-1.856090665,0.975118101,435.2499299,-1,4377,0.324836597,-0.464022666,0.243779525
-3.627648888,1.196441054,-0.707110107,435.3499299,-1,4378,-0.906912222,0.299110264,-0.176777527
-1.245249329,1.715347528,-1.926416993,435.4499299,-1,4379,-0.311312332,0.428836882,-0.481604248
1.057910385,-0.14902842,0.105530322,435.5499299,-1,4380,0.264477596,-0.037257105,0.02638258
-0.979228554,-0.353875518,-1.192021966,435.6499299,-1,4381,-0.244807138,-0.088468879,-0.298005491
0.656895103,0.253808916,1.8021245,435.7499299,-1,4382,0.164223776,0.063452229,0.450531125
1.652230682,0.536415994,0.518895566,435.8499299,-1,4383,0.413057671,0.134103999,0.129723892
-1.21690136,-1.44697237,-0.484933555,435.9499299,-1,4384,-0.30422534,-0.361743093,-0.121233389
0.27518219,0.171308458,-1.367224932,436.0499299,-1,4385,0.068795547,0.042827114,-0.341806233
0.712439003,-0.716216922,2.098516941,436.1499299,-1,4386,0.178109751,-0.17905423,0.524629235
-2.591604767,-1.013847232,-1.683760047,436.2499299,-1,4387,-0.647901192,-0.253461808,-0.420940012
-0.6622892,0.109194919,-1.083870411,436.3499299,-1,4388,-0.1655723,0.02729873,-0.270967603
0.813233795,3.404736519,-0.829113781,436.4499299,-1,4389,0.203308449,0.85118413,-0.207278445
-0.364722786,-0.405238748,-0.986360908,436.5499299,-1,4390,-0.091180696,-0.101309687,-0.246590227
-1.102386055,-0.161820799,2.39530015,436.6499299,-1,4391,-0.275596514,-0.0404552,0.598825037
-0.283748207,0.501520574,0.938089252,436.7499299,-1,4392,-0.070937052,0.125380144,0.234522313
2.056966248,-0.06133388,-0.771083236,436.8499299,6,4393,0.514241562,-0.01533347,-0.192770809
-0.364216385,1.083129406,-1.95059979,436.9499299,6,4394,-0.091054096,0.270782351,-0.487649947
-2.111572323,1.775251031,1.826539159,437.0499299,6,4395,-0.527893081,0.443812758,0.45663479
0.296951714,5.032639503,-0.995405734,437.1499299,6,4396,0.074237928,1.258159876,-0.248851433
0.209986153,5.352585316,-2.040066481,437.2499299,6,4397,0.052496538,1.338146329,-0.51001662
-0.084037361,7.114829063,1.919968009,437.3499299,6,4398,-0.02100934,1.778707266,0.479992002
0.038371506,4.934793949,0.847193122,437.4499299,6,4399,0.009592876,1.233698487,0.21179828
0.556490364,3.375180483,0.089699343,437.54993,6,4400,0.139122591,0.843795121,0.022424836
-0.162395058,2.351840734,1.309576869,437.64993,6,4401,-0.040598764,0.587960184,0.327394217
-1.816467819,4.320913792,-0.566158414,437.74993,6,4402,-0.454116955,1.080228448,-0.141539603
-1.075967369,-4.857493401,-1.425751805,437.84993,6,4403,-0.268991842,-1.21437335,-0.356437951
0.849075737,-2.058202744,-1.733075976,437.94993,6,4404,0.212268934,-0.514550686,-0.433268994
1.399260941,-6.590104103,0.851114035,438.04993,6,4405,0.349815235,-1.647526026,0.212778509
0.329921188,-7.089885235,0.215852708,438.14993,6,4406,0.082480297,-1.772471309,0.053963177
0.419660034,-3.975173473,1.658899546,438.24993,6,4407,0.104915009,-0.993793368,0.414724886
1.223266068,-5.593967915,1.763855934,438.34993,6,4408,0.305816517,-1.398491979,0.440963984
-1.0019384,-2.839749336,0.982105076,438.44993,6,4409,-0.2504846,-0.709937334,0.245526269
-1.801891861,-0.480145127,-0.804648221,438.54993,6,4410,-0.450472965,-0.120036282,-0.201162055
1.124179306,0.388619423,-1.32559979,438.64993,6,4411,0.281044827,0.097154856,-0.331399947
2.29341835,0.615503669,-2.989233732,438.74993,6,4412,0.573354588,0.153875917,-0.747308433
2.888673248,-1.058728933,-0.783046842,438.84993,6,4413,0.722168312,-0.264682233,-0.19576171
0.270612183,1.066240191,0.900893629,438.94993,-1,4414,0.067653046,0.266560048,0.225223407
2.068712654,0.408016622,-0.650080919,439.04993,-1,4415,0.517178164,0.102004156,-0.16252023
2.008388939,0.553052425,0.508471489,439.14993,-1,4416,0.502097235,0.138263106,0.127117872
-0.249533234,-0.461939931,-1.533130646,439.24993,-1,4417,-0.062383308,-0.115484983,-0.383282661
0.202653351,-0.43160367,1.309813619,439.34993,-1,4418,0.050663338,-0.107900918,0.327453405
0.586348953,0.382986844,-0.412979096,439.44993,-1,4419,0.146587238,0.095746711,-0.103244774
0.457455101,0.347445756,0.241655245,439.54993,-1,4420,0.114363775,0.086861439,0.060413811
0.206806602,0.756079912,-0.861333191,439.64993,-1,4421,0.051701651,0.189019978,-0.215333298
0.404401245,-0.782910705,-1.516435146,439.74993,-1,4422,0.101100311,-0.195727676,-0.379108787
-0.834069786,0.770252287,-1.714671135,439.84993,-1,4423,-0.208517447,0.192563072,-0.428667784
0.583515587,-1.015443563,0.051196381,439.94993,-1,4424,0.145878897,-0.253860891,0.012799095
0.029704514,-1.786424518,0.012563567,440.04993,-1,4425,0.007426128,-0.446606129,0.003140892
-0.384791908,-1.409040332,0.987281203,440.14993,-1,4426,-0.096197977,-0.352260083,0.246820301
0.105328979,0.744135499,1.029627562,440.24993,-1,4427,0.026332245,0.186033875,0.25740689
0.019649925,0.265702218,-0.679401934,440.34993,-1,4428,0.004912481,0.066425554,-0.169850484
-2.293855247,0.422441781,-0.690463662,440.44993,-1,4429,-0.573463812,0.105610445,-0.172615916
-0.227144775,-1.410072803,-1.326503396,440.54993,-1,4430,-0.056786194,-0.352518201,-0.331625849
-0.931159554,1.376423955,0.750605166,440.64993,-1,4431,-0.232789888,0.344105989,0.187651291
0.818462791,0.730579019,-2.354431629,440.74993,-1,4432,0.204615698,0.182644755,-0.588607907
1.280979576,-2.547949314,-0.130495757,440.84993,-1,4433,0.320244894,-0.636987329,-0.032623939
0.362851562,2.706367493,-0.811870217,440.94993,-1,4434,0.090712891,0.676591873,-0.202967554
-3.95151144,1.585708976,-2.512666941,441.04993,-1,4435,-0.98787786,0.396427244,-0.628166735
-0.356978951,-1.288389683,0.359599262,441.14993,-1,4436,-0.089244738,-0.322097421,0.089899816
1.390654984,-1.5925529,-2.508547068,441.24993,-1,4437,0.347663746,-0.398138225,-0.627136767
-0.589909134,0.206050172,-0.852033973,441.34993,-1,4438,-0.147477283,0.051512543,-0.213008493
-0.541370926,2.501219034,-2.755294085,441.44993,-1,4439,-0.135342731,0.625304759,-0.688823521
1.02556366,-2.102246046,-0.465353847,441.54993,-1,4440,0.256390915,-0.525561512,-0.116338462
-0.657003937,0.977675259,-2.212323904,441.64993,-1,4441,-0.164250984,0.244418815,-0.553080976
-0.312589226,-0.675224423,-1.032289267,441.74993,-1,4442,-0.078147306,-0.168806106,-0.258072317
-1.283905563,0.600397348,-0.013267893,441.84993,-1,4443,-0.320976391,0.150099337,-0.003316973
-0.395172653,0.736420333,-0.762365758,441.94993,-1,4444,-0.098793163,0.184105083,-0.19059144
1.756451073,-0.740414798,2.692595243,442.04993,-1,4445,0.439112768,-0.1851037,0.673148811
-1.314962921,-0.535421968,-0.211878464,442.14993,-1,4446,-0.32874073,-0.133855492,-0.052969616
0.181518021,0.249134108,-1.933194637,442.24993,-1,4447,0.045379505,0.062283527,-0.483298659
-0.481261787,-0.575544536,-0.168533444,442.34993,-1,4448,-0.120315447,-0.143886134,-0.042133361
0.254561844,-2.205882788,0.048082028,442.44993,-1,4449,0.063640461,-0.551470697,0.012020507
1.639727058,-0.656503856,1.049792767,442.54993,-1,4450,0.409931765,-0.164125964,0.262448192
2.154056969,0.463836968,1.13337779,442.64993,-1,4451,0.538514242,0.115959242,0.283344448
0.506332817,-0.739667535,1.341739058,442.74993,-1,4452,0.126583204,-0.184916884,0.335434765
-0.588991699,1.569972992,-0.747833908,442.84993,-1,4453,-0.147247925,0.392493248,-0.186958477
-1.13730484,-0.639881253,-0.216874719,442.94993,-1,4454,-0.28432621,-0.159970313,-0.05421868
-0.239559708,0.44526428,-0.45459044,443.04993,-1,4455,-0.059889927,0.11131607,-0.11364761
-1.387707291,0.623980939,-1.13579607,443.14993,-1,4456,-0.346926823,0.155995235,-0.283949018
-1.234547195,-2.221629858,-0.165369555,443.24993,-1,4457,-0.308636799,-0.555407465,-0.041342389
-0.638922272,-1.607293606,0.365237534,443.34993,-1,4458,-0.159730568,-0.401823401,0.091309384
-0.155744133,1.482888341,0.21065563,443.44993,-1,4459,-0.038936033,0.370722085,0.052663907
0.454164925,1.024852395,1.410173416,443.54993,-1,4460,0.113541231,0.256213099,0.352543354
0.678624573,-0.043513447,-0.3918989,443.64993,-1,4461,0.169656143,-0.010878362,-0.097974725
0.224248352,1.50825119,-0.068183266,443.74993,-1,4462,0.056062088,0.377062798,-0.017045816
-1.985238609,0.476567805,-0.192972466,443.84993,-1,4463,-0.496309652,0.119141951,-0.048243117
0.669980469,0.478787154,0.599752307,443.94993,-1,4464,0.167495117,0.119696788,0.149938077
1.353640022,1.371165514,-0.809052765,444.04993,-1,4465,0.338410006,0.342791378,-0.202263191
1.816507759,-0.434475124,-0.343325227,444.14993,-1,4466,0.45412694,-0.108618781,-0.085831307
0.153809013,1.786056399,0.909698546,444.2499301,-1,4467,0.038452253,0.4465141,0.227424636
-2.45977169,1.334553957,1.936230063,444.3499301,-1,4468,-0.614942923,0.333638489,0.484057516
2.604895058,-2.063507557,3.054398298,444.4499301,-1,4469,0.651223764,-0.515876889,0.763599575
0.060944977,-0.598589122,1.187524557,444.5499301,-1,4470,0.015236244,-0.149647281,0.296881139
0.615852776,-1.457636595,-2.47820878,444.6499301,-1,4471,0.153963194,-0.364409149,-0.619552195
-1.781885681,1.025034785,-0.71003592,444.7499301,-1,4472,-0.44547142,0.256258696,-0.17750898
0.106238785,0.620301664,-0.746360719,444.8499301,-1,4473,0.026559696,0.155075416,-0.18659018
-2.515131531,-0.212672696,-0.680386066,444.9499301,-1,4474,-0.628782883,-0.053168174,-0.170096517
0.217337074,-1.125193119,-0.968705893,445.0499301,-1,4475,0.054334269,-0.28129828,-0.242176473
-0.129980621,-0.306186765,0.555351615,445.1499301,-1,4476,-0.032495155,-0.076546691,0.138837904
-0.066447792,1.912040472,2.237168312,445.2499301,-1,4477,-0.016611948,0.478010118,0.559292078
-0.371934471,-1.116668463,-1.848694563,445.3499301,-1,4478,-0.092983618,-0.279167116,-0.462173641
1.455589714,0.005184797,-0.258259118,445.4499301,-1,4479,0.363897429,0.001296199,-0.064564779
-0.245750008,1.453877449,0.570228457,445.5499301,-1,4480,-0.061437502,0.363469362,0.142557114
0.916397514,-0.178940237,1.632195234,445.6499301,-1,4481,0.229099379,-0.044735059,0.408048809
2.556388321,0.500179112,0.314333707,445.7499301,-1,4482,0.63909708,0.125044778,0.078583427
-0.638406334,0.693532526,-1.216143489,445.8499301,-1,4483,-0.159601583,0.173383132,-0.304035872
-0.0577808,0.157752395,-0.696980059,445.9499301,-1,4484,-0.0144452,0.039438099,-0.174245015
0.437265816,-0.821040988,0.040787335,446.0499301,-1,4485,0.109316454,-0.205260247,0.010196834
-0.811335144,-1.218860745,0.439900905,446.1499301,-1,4486,-0.202833786,-0.304715186,0.109975226
1.128586235,0.363318533,-1.507157207,446.2499301,-1,4487,0.282146559,0.090829633,-0.376789302
0.027855339,0.551569223,0.092570715,446.3499301,-1,4488,0.006963835,0.137892306,0.023142679
-1.283383904,-0.560324311,-0.71369791,446.4499301,-1,4489,-0.320845976,-0.140081078,-0.178424478
-2.45352417,-0.417798758,-1.067457795,446.5499301,-1,4490,-0.613381042,-0.104449689,-0.266864449
1.685564461,1.12014997,1.282322049,446.6499301,-1,4491,0.421391115,0.280037493,0.320580512
-1.290525017,0.871706188,-0.701418936,446.7499301,-1,4492,-0.322631254,0.217926547,-0.175354734
0.792542877,2.484264374,1.260277629,446.8499301,-1,4493,0.198135719,0.621066093,0.315069407
-0.353631554,0.538725674,1.877569079,446.9499301,-1,4494,-0.088407888,0.134681419,0.46939227
-0.652242241,-0.127906561,2.11411953,447.0499301,-1,4495,-0.16306056,-0.03197664,0.528529882
-1.119018135,-0.03591796,0.306237936,447.1499301,-1,4496,-0.279754534,-0.00897949,0.076559484
-0.057088432,-0.442361832,1.246684909,447.2499301,-1,4497,-0.014272108,-0.110590458,0.311671227
-1.571411667,0.548053205,-1.243982911,447.3499301,-1,4498,-0.392852917,0.137013301,-0.310995728
3.569235268,-1.460997462,0.481512785,447.4499301,-1,4499,0.892308817,-0.365249366,0.120378196
1.784361305,0.27790153,-0.604798019,447.5499301,-1,4500,0.446090326,0.069475383,-0.151199505
3.886861267,-0.94423002,-1.451104403,447.6499301,-1,4501,0.971715317,-0.236057505,-0.362776101
-5.241954861,0.741178751,2.797499418,447.7499301,-1,4502,-1.310488715,0.185294688,0.699374855
-2.748044071,0.134748459,-2.326522827,447.8499301,-1,4503,-0.687011018,0.033687115,-0.581630707
2.340842667,1.7323277,-87.44472504,447.9499301,-1,4504,0.585210667,0.433081925,-21.86118126
