0.59997048
0.35613882
-0.11018962
-0.086329372
-0.51549862
-1.94360469
-2.79039822
-4.37318494
-5.23667672
-3.813861488
-4.92183416
-6.126279
-8.23386296
-6.59911656
-6.9099016
-6.31136722
-5.03462646
-5.697502
-6.4739622
-5.72015344
-5.79777426
-4.43007426
-2.358976414
-0.931771016
0.03638788
1.796750634
1.572318852
