-1.5506365
-0.4055447
1.1221415
-1.7827392
0.30426753
0.011025071
-0.15475953
1.4472526
-1.6215873
2.9096615
-0.053372398
-2.4663615
2.602493
-0.42329708
-0.6197455
2.3403144
0.14235997
-0.11666751
0.109977394
0.16027647
-0.33661032
-0.9054781
3.3951955
-1.6963813
-0.44049683
2.0894446
-1.4247019
-0.17605561
3.1659672
0.40798318
-1.0982518
3.4138088
0.7962332
0.8546437
3.147856
4.506317
0.16223228
3.5295155
4.3918886
3.2842824
3.0419164
5.0628276
3.6355424
3.6536348
5.0773892
4.436377
3.934523
6.9592824
4.5424867
5.215241
6.888028
3.3137598
5.078056
6.2197576
4.349457
6.9454126
4.4424596
4.0856247
7.2172747
3.311348
3.997659
5.199149
2.8607757
2.5048728
4.4098487
1.8683839
4.076556
2.1012282
0.648424
2.865366
-1.7981592
-0.5315374
0.39898753
-0.4755627
-2.46831
-2.1041856
-1.9286848
-4.8923764
-4.8426676
-1.8481057
-5.7339115
-6.1452775
-3.213451
-5.002619
-7.3468137
-2.6931508
-3.2908413
-7.74981
-0.8661194
-4.252414
-6.0399656
0.20533061
-4.384827
-5.418185
1.5546659
-4.256318
-3.378395
1.390564
-3.3790755
-2.1312084
1.316342
-2.2803752
-0.258174
0.4993096
-1.9072752
2.2621799
-0.68605995
-1.817419
1.2936609
1.4094524
-1.2068611
3.089005
0.28098327
-0.6085768
1.617058
0.6670387
1.1829467
2.0926697
-0.1269474
0.8416954
1.0988386
1.0459402
2.1146564
-0.87026167
1.6527641
1.301832
-1.076959
0.123842
1.5007681
-1.8302891
-0.4247403
