x,y,z,Event Time,Event Type,Frame,x_modified,y_modified,z_modified
-0.508618889,-0.540534377,-1.35668838,78.6675991,-1,3055,-0.127154722,-0.135133594,-0.339172095
0.800639572,0.888885021,0.707091391,78.7675991,-1,3056,0.200159893,0.222221255,0.176772848
0.731121483,1.94718802,2.875273228,78.8675991,-1,3057,0.182780371,0.486797005,0.718818307
0.797910156,0.553623855,0.130898014,78.96759911,-1,3058,0.199477539,0.138405964,0.032724503
-1.083542404,-0.41701445,1.422534704,79.06759911,-1,3059,-0.270885601,-0.104253612,0.355633676
0.09900135,1.664157271,1.790344596,79.16759911,-1,3060,0.024750338,0.416039318,0.447586149
2.112001839,-0.895489931,-2.20011735,79.26759911,-1,3061,0.52800046,-0.223872483,-0.550029337
-0.271044312,1.048305511,1.957711339,79.36759911,-1,3062,-0.067761078,0.262076378,0.489427835
-0.058226166,-1.019400001,-0.932425737,79.46759911,-1,3063,-0.014556541,-0.25485,-0.233106434
-0.598297653,1.460072756,2.982759237,79.56759911,-1,3064,-0.149574413,0.365018189,0.745689809
-0.472096977,-0.929029822,-0.818436444,79.76759912,-1,3066,-0.118024244,-0.232257456,-0.204609111
-3.148726521,-0.985202968,-0.856410265,79.86759912,-1,3067,-0.78718163,-0.246300742,-0.214102566
0.154933395,-0.348466873,-1.354833841,79.96759912,-1,3068,0.038733349,-0.087116718,-0.33870846
2.023816528,1.289218068,1.208031058,80.06759912,-1,3069,0.505954132,0.322304517,0.302007765
1.156752052,1.117895484,-1.398637295,80.16759912,-1,3070,0.289188013,0.279473871,-0.349659324
-1.043080864,-1.428481936,-0.43939206,80.26759912,-1,3071,-0.260770216,-0.357120484,-0.109848015
-1.882861671,-1.309088707,-1.544984579,80.36759913,-1,3072,-0.470715418,-0.327272177,-0.386246145
2.26464695,0.063093543,-1.796427011,80.46759913,-1,3073,0.566161737,0.015773386,-0.449106753
-1.990022717,0.437017143,0.024931848,80.56759913,-1,3074,-0.497505679,0.109254286,0.006232962
1.289555969,-1.479735613,1.159433722,80.66759913,-1,3075,0.322388992,-0.369933903,0.289858431
-3.636278687,1.572937965,-0.523400366,80.76759913,-1,3076,-0.909069672,0.393234491,-0.130850092
-1.253707466,2.091762781,-1.742080688,80.86759913,-1,3077,-0.313426867,0.522940695,-0.435520172
1.049354019,0.227556765,0.289245844,80.96759913,-1,3078,0.262338505,0.056889191,0.072311461
-1.122555313,0.007516325,2.781236172,81.06759914,-1,3079,-0.280638828,0.001879081,0.695309043
0.187016907,0.608463049,16.45563507,81.16759914,-1,3080,0.046754227,0.152115762,4.113908768
1.400055351,0.910483599,11.96178818,81.26759914,-1,3081,0.350013838,0.2276209,2.990447044
-1.37758213,-1.079399586,8.256184578,81.36759914,-1,3082,-0.344395533,-0.269849896,2.064046144
0.116421165,0.528944492,5.874536991,81.46759914,-1,3083,0.029105291,0.132236123,1.468634248
0.562646332,-0.360068858,8.512991905,81.56759914,-1,3084,0.140661583,-0.090017214,2.128247976
-2.833192406,-0.865824461,4.18647337,81.66759915,-1,3085,-0.708298101,-0.216456115,1.046618342
-0.932636795,1.047785997,2.505371571,81.76759915,-1,3086,-0.233159199,0.261946499,0.626342893
2.466471138,3.342728615,3.411212206,81.86759915,-1,3087,0.616617785,0.835682154,0.852803051
-1.012112198,-0.324857116,4.875275612,81.96759915,-1,3088,-0.253028049,-0.081214279,1.218818903
-1.566295204,0.349146008,7.706526756,82.06759915,-1,3089,-0.391573801,0.087286502,1.926631689
-0.458389816,0.891438484,5.822799206,82.16759915,-1,3090,-0.114597454,0.222859621,1.455699801
1.360156479,-0.376059175,4.090796471,82.26759915,-1,3091,0.34003912,-0.094014794,1.022699118
-1.075231133,2.020538807,2.33698535,82.36759916,-1,3092,-0.268807783,0.505134702,0.584246337
-1.677511749,-0.568726718,6.532345772,82.46759916,-1,3093,-0.419377937,-0.14218168,1.633086443
0.905445518,1.499738812,2.780234575,82.56759916,-1,3094,0.22636138,0.374934703,0.695058644
0.836112442,-1.411669374,-2.1618433,82.66759916,-1,3095,0.209028111,-0.352917343,-0.540460825
0.293460312,-0.95285964,1.26415658,82.76759916,-1,3096,0.073365078,-0.23821491,0.316039145
0.162747803,-0.984762192,0.211660385,82.86759916,-1,3097,0.040686951,-0.246190548,0.052915096
0.526562157,-1.723945141,-0.150492504,82.96759916,3,3098,0.131640539,-0.430986285,-0.037623126
-0.267834244,0.718266308,1.931458712,83.06759917,3,3099,-0.066958561,0.179566577,0.482864678
-1.975307045,3.831564188,5.497250557,83.16759917,3,3100,-0.493826761,0.957891047,1.374312639
-1.12880188,-2.755509853,4.630496502,83.26759917,3,3101,-0.28220047,-0.688877463,1.157624125
0.851345482,1.388221025,3.068733215,83.36759917,3,3102,0.21283637,0.347055256,0.767183304
1.4501614,0.085230492,4.799311161,83.46759917,3,3103,0.36254035,0.021307623,1.19982779
0.387195053,0.917230725,3.725350857,83.56759917,3,3104,0.096798763,0.229307681,0.931337714
0.454761925,1.911785245,4.933414459,83.66759918,3,3105,0.113690481,0.477946311,1.233353615
1.234062614,-0.507091224,5.304678917,83.76759918,3,3106,0.308515654,-0.126772806,1.326169729
-1.01147419,-1.209334254,4.566931725,83.86759918,3,3107,-0.252868547,-0.302333564,1.141732931
-1.815179882,0.010087799,2.723749399,83.96759918,3,3108,-0.453794971,0.00252195,0.68093735
1.111289444,0.537903666,2.164771557,84.06759918,3,3109,0.277822361,0.134475917,0.541192889
2.281680527,0.663196862,0.462792158,84.16759918,3,3110,0.570420132,0.165799215,0.11569804
2.878335419,-1.042337298,2.640347004,84.26759918,3,3111,0.719583855,-0.260584325,0.660086751
0.261230888,1.072423577,4.295898438,84.36759919,3,3112,0.065307722,0.268105894,1.073974609
2.05998558,0.410980761,2.720983028,84.46759919,3,3113,0.514996395,0.10274519,0.680245757
2.003165665,0.554701984,3.713114023,84.56759919,3,3114,0.500791416,0.138675496,0.928278506
-0.219111977,-0.461066961,-0.829021394,84.66759919,3,3115,-0.054777994,-0.11526674,-0.207255349
0.208262863,-0.431088299,1.038402319,84.76759919,3,3116,0.052065716,-0.107772075,0.25960058
0.571185532,0.3832331,-0.65662694,84.86759919,-1,3117,0.142796383,0.095808275,-0.164156735
0.441609802,0.347646147,-0.002850056,84.96759919,-1,3118,0.110402451,0.086911537,-0.000712514
0.196291389,0.756222308,-1.034093857,85.0675992,-1,3119,0.049072847,0.189055577,-0.258523464
0.370524826,-0.783018827,0.606293082,85.1675992,-1,3120,0.092631207,-0.195754707,0.151573271
-0.844029961,0.770521283,1.313381076,85.2675992,-1,3121,-0.21100749,0.192630321,0.328345269
0.593727531,-1.015614748,2.917906523,85.3675992,-1,3122,0.148431883,-0.253903687,0.729476631
0.039003792,-1.785888195,2.80144906,85.4675992,-1,3123,0.009750948,-0.446472049,0.700362265
-0.382573662,-1.408678889,3.739938736,85.5675992,-1,3124,-0.095643415,-0.352169722,0.934984684
0.101538124,0.744418085,3.762388706,85.6675992,-1,3125,0.025384531,0.186104521,0.940597177
0.013103905,0.265883982,2.029964447,85.76759921,-1,3126,0.003275976,0.066470996,0.507491112
-2.301191864,0.422900438,2.002190828,85.86759921,-1,3127,-0.575297966,0.10572511,0.500547707
-0.233891068,-1.409903169,1.345991373,85.96759921,-1,3128,-0.058472767,-0.352475792,0.336497843
-0.937163887,1.376932502,3.408091545,86.06759921,-1,3129,-0.234290972,0.344233125,0.852022886
0.812914314,0.730788231,0.289941072,86.16759921,-1,3130,0.203228579,0.182697058,0.072485268
1.27562851,-2.547350168,2.495120287,86.26759921,-1,3131,0.318907127,-0.636837542,0.623780072
0.357563438,2.706408978,1.801826477,86.36759922,-1,3132,0.08939086,0.676602244,0.450456619
-3.956760464,1.586224198,0.088479757,86.46759922,-1,3133,-0.989190116,0.39655605,0.022119939
-0.36195713,-1.288002491,2.933749676,86.56759922,-1,3134,-0.090489283,-0.322000623,0.733437419
1.410287323,-1.592245817,-1.4942168,86.66759922,-1,3135,0.352571831,-0.398061454,-0.3735542
-0.577864227,0.206468508,-1.203575134,86.76759922,-1,3136,-0.144466057,0.051617127,-0.300893784
-0.551510391,2.501495838,-3.09566927,86.86759922,-1,3137,-0.137877598,0.62537396,-0.773917317
1.012086334,-2.10219264,-0.804347277,86.96759922,-1,3138,0.253021584,-0.52554816,-0.201086819
-0.665872154,0.977881789,-2.557791233,87.06759923,-1,3139,-0.166468039,0.244470447,-0.639447808
-0.334991989,-0.675482273,-0.042442381,87.16759923,-1,3140,-0.083747997,-0.168870568,-0.010610595
-1.297662315,0.600371242,2.253381491,87.26759923,-1,3141,-0.324415579,0.15009281,0.563345373
-0.387343941,0.736647308,1.350657701,87.36759923,-1,3142,-0.096835985,0.184161827,0.337664425
1.766278687,-0.740023553,4.727361679,87.46759923,-1,3143,0.441569672,-0.185005888,1.18184042
-1.310505447,-0.535086989,1.79012239,87.56759923,-1,3144,-0.327626362,-0.133771747,0.447530597
0.18065876,0.249117568,0.052914381,87.66759923,-1,3145,0.04516469,0.062279392,0.013228595
-0.485057411,-0.575233579,1.803079128,87.76759924,-1,3146,-0.121264353,-0.143808395,0.450769782
0.250118675,-2.205096245,2.00679636,87.86759924,-1,3147,0.062529669,-0.551274061,0.50169909
1.635542336,-0.656270087,3.002118826,87.96759924,-1,3148,0.408885584,-0.164067522,0.750529706
2.150323334,0.46384111,3.073200226,88.06759924,-1,3149,0.537580833,0.115960278,0.768300056
0.503171387,-0.738885999,3.275366783,88.16759924,-1,3150,0.125792847,-0.1847215,0.818841696
-0.592075882,1.570104241,1.175805926,88.26759924,-1,3151,-0.14801897,0.39252606,0.293951482
-1.140245018,-0.639715314,1.698014736,88.36759925,-1,3152,-0.285061255,-0.159928828,0.424503684
-0.24269062,0.446202368,1.454031706,88.46759925,-1,3153,-0.060672655,0.111550592,0.363507926
-1.390646515,0.624169409,0.764038563,88.56759925,-1,3154,-0.347661629,0.156042352,0.191009641
-1.224330482,-2.221324205,0.940268934,88.66759925,-1,3155,-0.306082621,-0.555331051,0.235067233
-0.624126015,-1.607141852,0.002994627,88.76759925,-1,3156,-0.156031504,-0.401785463,0.000748657
-0.161268768,1.483347416,-0.210436195,88.86759925,-1,3157,-0.040317192,0.370836854,-0.052609049
0.443360748,1.024695158,0.997910857,88.96759925,-1,3158,0.110840187,0.25617379,0.249477714
0.670611801,-0.043315034,-0.808366179,89.06759926,-1,3159,0.16765295,-0.010828759,-0.202091545
0.214200439,1.508426905,-0.062607266,89.16759926,-1,3160,0.05355011,0.377106726,-0.015651817
-1.999073563,0.4763363,0.982917249,89.26759926,-1,3161,-0.499768391,0.119084075,0.245729312
0.669549408,0.479002446,2.073103905,89.36759926,-1,3162,0.167387352,0.119750611,0.518275976
