x,y,z,Event Time,Event Type,Frame,x_modified,y_modified,z_modified
-0.363872108,-0.405272037,-0.986586273,126.7675998,-1,3536,-0.090968027,-0.101318009,-0.246646568
-1.101779518,-0.161785334,2.395700932,126.8675998,-1,3537,-0.27544488,-0.040446334,0.598925233
-0.283248482,0.501487434,0.937863946,126.9675998,-1,3538,-0.07081212,0.125371858,0.234465986
2.057477417,-0.061337277,-0.770682991,127.0675998,-1,3539,0.514369354,-0.015334319,-0.192670748
-0.363937912,1.083135247,-1.950824499,127.1675998,-1,3540,-0.090984478,0.270783812,-0.487706125
-2.113637028,-0.476586312,2.003253698,127.2675998,-1,3541,-0.528409257,-0.119146578,0.500813425
0.308142128,1.540557146,-1.058198452,127.3675998,-1,3542,0.077035532,0.385139287,-0.264549613
0.246905746,-1.341158986,-2.399973392,127.4675998,-1,3543,0.061726437,-0.335289747,-0.599993348
-0.033331451,-0.899680674,1.44137466,127.5675998,-1,3544,-0.008332863,-0.224920169,0.360343665
0.07581562,-0.956243515,0.320839167,127.6675998,-1,3545,0.018953905,-0.239060879,0.080209792
-0.14317852,0.720469475,0.334452987,127.8675998,4,3547,-0.03579463,0.180117369,0.083613247
-1.781465111,3.831382751,-4.836823463,127.9675998,4,3548,-0.445366278,0.957845688,-1.209205866
-1.074755249,-2.756737232,-8.56153965,128.0675998,4,3549,-0.268688812,-0.689184308,-2.140384912
0.786464157,1.387278676,-9.507724762,128.1675998,4,3550,0.196616039,0.346819669,-2.37693119
1.360043945,0.083255261,-7.195137024,128.2675998,4,3551,0.340010986,0.020813815,-1.798784256
0.461119118,1.30322361,-7.845533371,128.3675998,4,3552,0.115279779,0.325805902,-1.961383343
0.465949478,1.696293831,-6.572209358,128.4675998,4,3553,0.11648737,0.424073458,-1.64305234
1.018641891,-0.459237665,-6.131323814,128.5675998,4,3554,0.254660473,-0.114809416,-1.532830954
-1.137939987,-1.056518435,-6.710671425,128.6675998,4,3555,-0.284484997,-0.264129609,-1.677667856
-1.854860363,0.082047418,-8.449004173,128.7675998,4,3556,-0.463715091,0.020511854,-2.112251043
1.121905746,0.556407094,-8.943124771,128.8675998,4,3557,0.280476437,0.139101774,-2.235781193
2.304500046,0.661701918,-10.60319424,128.9675999,4,3558,0.576125011,0.165425479,-2.650798559
2.888923111,-1.047744751,-8.387605667,129.0675999,4,3559,0.722230778,-0.261936188,-2.096901417
0.251099052,1.06805706,-6.689454556,129.1675999,4,3560,0.062774763,0.267014265,-1.672363639
2.032487335,0.408368647,-8.223823547,129.2675999,4,3561,0.508121834,0.102092162,-2.055955887
1.962899628,0.552967846,-7.061384678,129.3675999,4,3562,0.490724907,0.138241962,-1.765346169
-0.296988068,-0.461565614,-9.080471039,129.4675999,4,3563,-0.074247017,-0.115391403,-2.27011776
0.157218399,-0.431598365,-6.227576256,129.5675999,4,3564,0.0393046,-0.107899591,-1.556894064
0.54433197,0.382586092,-7.935415268,129.6675999,4,3565,0.136082993,0.095646523,-1.983853817
0.418287697,0.34749788,-7.269545555,129.7675999,4,3566,0.104571924,0.08687447,-1.817386389
0.169550362,0.755883753,-8.358789444,129.8675999,4,3567,0.04238759,0.188970938,-2.089697361
0.367548409,-0.783303976,-9.000139236,129.9675999,4,3568,0.091887102,-0.195825994,-2.250034809
-0.871177254,0.770329118,-9.18961525,130.0675999,4,3569,-0.217794313,0.192582279,-2.297403812
0.541417542,-1.015733719,-7.412459373,130.1675999,4,3570,0.135354385,-0.25393343,-1.853114843
-0.02014595,-1.786187649,-7.4410429,130.2675999,4,3571,-0.005036488,-0.446546912,-1.860260725
-0.412630615,-1.409423351,-6.453929901,130.3675999,4,3572,-0.103157654,-0.352355838,-1.613482475
0.074218216,0.744230628,-6.402807236,130.4675999,4,3573,0.018554554,0.186057657,-1.600701809
-0.015233574,0.265720725,-8.103067398,130.5675999,4,3574,-0.003808393,0.066430181,-2.02576685
-2.331640778,0.422370166,-8.100347519,130.6675999,4,3575,-0.582910194,0.105592541,-2.02508688
-0.261805115,-1.403039575,-9.279824257,130.7675999,4,3576,-0.065451279,-0.350759894,-2.319956064
-0.994082985,1.368219852,-5.567213058,130.8675999,4,3577,-0.248520746,0.342054963,-1.391803265
0.752648773,0.72940135,-2.300034046,130.9675999,4,3578,0.188162193,0.182350338,-0.575008512
1.292858543,-2.547827005,-0.154296532,131.0675999,4,3579,0.323214636,-0.636956751,-0.038574133
0.397517624,2.706660509,-0.857227504,131.1675999,4,3580,0.099379406,0.676665127,-0.214306876
-3.92269331,1.585680842,-2.546628714,131.2675999,-1,3581,-0.980673327,0.396420211,-0.636657178
-0.345632133,-1.288288474,0.350634933,131.3675999,-1,3582,-0.086408033,-0.322072119,0.087658733
1.390536728,-1.592511177,-2.50501585,131.4675999,-1,3583,0.347634182,-0.398127794,-0.626253963
-0.589803276,0.206073135,-0.847253025,131.5675999,-1,3584,-0.147450819,0.051518284,-0.211813256
-0.541360435,2.501223326,-2.749263287,131.6675999,-1,3585,-0.135340109,0.625305831,-0.687315822
1.025552216,-2.102223396,-0.461817533,131.7675999,-1,3586,0.256388054,-0.525555849,-0.115454383
