"CSVFiles/KFoldStratified10LAGCarlaData05.29.2021, 12.14.57/Run_0"
Accuracy,0.9233147804576376
Weighted Precision Score,0.923419313136191
Weighted Recall Score,0.9233147804576376
Weighted F1 Score,0.9229887011607657
-------------------------------
Distribution of Train Events
Non Aggressive Event,Aggressive Right Turn,Aggressive Left Turn,Aggressive Acceleration,Aggressive Braking,Aggressive Left Lane Change,Aggressive Right Lane Change
897,613,430,1663,1448,653,760
Distribution of Test Events
Non Aggressive Event,Aggressive Right Turn,Aggressive Left Turn,Aggressive Acceleration,Aggressive Braking,Aggressive Left Lane Change,Aggressive Right Lane Change
225,153,108,415,362,163,191
Confusion Matrix
,,,,Predicated Class
,,Non Aggressive Event,Aggressive Right Turn,Aggressive Left Turn,Aggressive Acceleration,Aggressive Braking,Aggressive Left Lane Change,Aggressive Right Lane Change
,Non Aggressive Event,203,7,1,4,3,2,5
,Aggressive Right Turn,0,149,0,0,2,2,0
,Aggressive Left Turn,0,0,100,3,0,0,5
,Aggressive Acceleration,3,0,0,399,5,1,7
Actual Class,Aggressive Braking,7,1,1,6,340,5,2
,Aggressive Left Lane Change,2,7,1,6,4,138,5
,Aggressive Right Lane Change,7,3,3,7,5,2,164

----------------------------
Multi Label Confusion Matrix
Non Aggressive Event
,Predicated Class
1373,19
22,203
Actual Class

Aggressive Right Turn
,Predicated Class
1446,18
4,149
Actual Class

Aggressive Left Turn
,Predicated Class
1503,6
8,100
Actual Class

Aggressive Acceleration
,Predicated Class
1176,26
16,399
Actual Class

Aggressive Braking
,Predicated Class
1236,19
22,340
Actual Class

Aggressive Left Lane Change
,Predicated Class
1442,12
25,138
Actual Class

Aggressive Right Lane Change
,Predicated Class
1402,24
27,164
Actual Class


----------------------------
