"CSVFiles/KFoldStratified13LAGDriverBehaviour05.21.2021, 00.29.50/Run_3"
Accuracy,0.9850746268656716
Weighted Precision Score,0.9851943370315495
Weighted Recall Score,0.9850746268656716
Weighted F1 Score,0.9850263045553898
-------------------------------
Distribution of Train Events
Non Aggressive Event,Aggressive Right Turn,Aggressive Left Turn,Aggressive Acceleration,Aggressive Braking,Aggressive Left Lane Change,Aggressive Right Lane Change
263,200,199,230,113,29,40
Distribution of Test Events
Non Aggressive Event,Aggressive Right Turn,Aggressive Left Turn,Aggressive Acceleration,Aggressive Braking,Aggressive Left Lane Change,Aggressive Right Lane Change
65,50,50,57,29,7,10
Confusion Matrix
,,,,Predicated Class
,,Non Aggressive Event,Aggressive Right Turn,Aggressive Left Turn,Aggressive Acceleration,Aggressive Braking,Aggressive Left Lane Change,Aggressive Right Lane Change
,Non Aggressive Event,64,0,0,1,0,0,0
,Aggressive Right Turn,0,49,0,0,1,0,0
,Aggressive Left Turn,0,0,50,0,0,0,0
,Aggressive Acceleration,0,0,0,57,0,0,0
Actual Class,Aggressive Braking,0,1,0,1,27,0,0
,Aggressive Left Lane Change,0,0,0,0,0,7,0
,Aggressive Right Lane Change,0,0,0,0,0,0,10

----------------------------
Multi Label Confusion Matrix
Non Aggressive Event
,Predicated Class
203,0
1,64
Actual Class

Aggressive Right Turn
,Predicated Class
217,1
1,49
Actual Class

Aggressive Left Turn
,Predicated Class
218,0
0,50
Actual Class

Aggressive Acceleration
,Predicated Class
209,2
0,57
Actual Class

Aggressive Braking
,Predicated Class
238,1
2,27
Actual Class

Aggressive Left Lane Change
,Predicated Class
261,0
0,7
Actual Class

Aggressive Right Lane Change
,Predicated Class
258,0
0,10
Actual Class


----------------------------
