"CSVFiles/KFoldStratifiedShuffle=True05.20.2021, 00.38.40/Run_2"
Accuracy,1.0
Weighted Precision Score,1.0
Weighted Recall Score,1.0
Weighted F1 Score,1.0
-------------------------------
Distribution of Train Events
Non Aggressive Event,Aggressive Right Turn,Aggressive Left Turn,Aggressive Acceleration,Aggressive Braking,Aggressive Left Lane Change,Aggressive Right Lane Change
82,50,50,75,6,0,0
Distribution of Test Events
Non Aggressive Event,Aggressive Right Turn,Aggressive Left Turn,Aggressive Acceleration,Aggressive Braking,Aggressive Left Lane Change,Aggressive Right Lane Change
20,13,13,18,2,0,0
Confusion Matrix
,,,,Predicated Class
,,Non Aggressive Event,Aggressive Right Turn,Aggressive Left Turn,Aggressive Acceleration,Aggressive Braking,Aggressive Left Lane Change,Aggressive Right Lane Change
,Non Aggressive Event,20,0,0,0,0
,Aggressive Right Turn,0,13,0,0,0
,Aggressive Left Turn,0,0,13,0,0
,Aggressive Acceleration,0,0,0,18,0
Actual Class,Aggressive Braking,0,0,0,0,2

----------------------------
Multi Label Confusion Matrix
Non Aggressive Event
,Predicated Class
46,0
0,20
Actual Class

Aggressive Right Turn
,Predicated Class
53,0
0,13
Actual Class

Aggressive Left Turn
,Predicated Class
53,0
0,13
Actual Class

Aggressive Acceleration
,Predicated Class
48,0
0,18
Actual Class

Aggressive Braking
,Predicated Class
64,0
0,2
Actual Class


----------------------------
