"CSVFiles/KFoldStratified10LAGCarlaData05.29.2021, 12.12.41/Run_1"
Accuracy,0.9916666666666667
Weighted Precision Score,0.9917544427191166
Weighted Recall Score,0.9916666666666667
Weighted F1 Score,0.9916655942563919
-------------------------------
Distribution of Train Events
Non Aggressive Event,Aggressive Right Turn,Aggressive Left Turn,Aggressive Acceleration,Aggressive Braking,Aggressive Left Lane Change,Aggressive Right Lane Change
454,331,316,230,314,380,376
Distribution of Test Events
Non Aggressive Event,Aggressive Right Turn,Aggressive Left Turn,Aggressive Acceleration,Aggressive Braking,Aggressive Left Lane Change,Aggressive Right Lane Change
114,83,79,57,79,94,94
Confusion Matrix
,,,,Predicated Class
,,Non Aggressive Event,Aggressive Right Turn,Aggressive Left Turn,Aggressive Acceleration,Aggressive Braking,Aggressive Left Lane Change,Aggressive Right Lane Change
,Non Aggressive Event,114,0,0,0,0,0,0
,Aggressive Right Turn,0,83,0,0,0,0,0
,Aggressive Left Turn,0,0,78,0,0,1,0
,Aggressive Acceleration,0,0,0,57,0,0,0
Actual Class,Aggressive Braking,0,0,0,0,79,0,0
,Aggressive Left Lane Change,0,0,0,0,0,93,1
,Aggressive Right Lane Change,0,1,0,0,0,2,91

----------------------------
Multi Label Confusion Matrix
Non Aggressive Event
,Predicated Class
486,0
0,114
Actual Class

Aggressive Right Turn
,Predicated Class
516,1
0,83
Actual Class

Aggressive Left Turn
,Predicated Class
521,0
1,78
Actual Class

Aggressive Acceleration
,Predicated Class
543,0
0,57
Actual Class

Aggressive Braking
,Predicated Class
521,0
0,79
Actual Class

Aggressive Left Lane Change
,Predicated Class
503,3
1,93
Actual Class

Aggressive Right Lane Change
,Predicated Class
505,1
3,91
Actual Class


----------------------------
