"CSVFiles/KFoldStratified10LAGUAHData05.21.2021, 00.29.17/Run_4"
Accuracy,0.8927165354330708
Weighted Precision Score,0.893064059562848
Weighted Recall Score,0.8927165354330708
Weighted F1 Score,0.8924532947026853
-------------------------------
Distribution of Train Events
Non Aggressive Event,Aggressive Right Turn,Aggressive Left Turn,Aggressive Acceleration,Aggressive Braking,Aggressive Left Lane Change,Aggressive Right Lane Change
444,114,281,1432,1134,274,385
Distribution of Test Events
Non Aggressive Event,Aggressive Right Turn,Aggressive Left Turn,Aggressive Acceleration,Aggressive Braking,Aggressive Left Lane Change,Aggressive Right Lane Change
110,29,71,359,283,68,96
Confusion Matrix
,,,,Predicated Class
,,Non Aggressive Event,Aggressive Right Turn,Aggressive Left Turn,Aggressive Acceleration,Aggressive Braking,Aggressive Left Lane Change,Aggressive Right Lane Change
,Non Aggressive Event,99,0,0,2,4,1,4
,Aggressive Right Turn,0,27,0,0,0,0,2
,Aggressive Left Turn,0,0,68,0,0,3,0
,Aggressive Acceleration,5,2,0,335,6,3,8
Actual Class,Aggressive Braking,4,1,2,8,254,5,9
,Aggressive Left Lane Change,5,1,3,8,4,47,0
,Aggressive Right Lane Change,2,2,1,7,5,2,77

----------------------------
Multi Label Confusion Matrix
Non Aggressive Event
,Predicated Class
890,16
11,99
Actual Class

Aggressive Right Turn
,Predicated Class
981,6
2,27
Actual Class

Aggressive Left Turn
,Predicated Class
939,6
3,68
Actual Class

Aggressive Acceleration
,Predicated Class
632,25
24,335
Actual Class

Aggressive Braking
,Predicated Class
714,19
29,254
Actual Class

Aggressive Left Lane Change
,Predicated Class
934,14
21,47
Actual Class

Aggressive Right Lane Change
,Predicated Class
897,23
19,77
Actual Class


----------------------------
