0.826529546
1.15828926
0.33366454
0.214251363
-0.00890378
-0.28292614
-0.625480306
-1.311771452
-2.137761472
-2.167189388
-1.856150022
-0.786908092
-1.099930678
-1.48323026
-1.32417386
0.080000028
1.534055504
1.6242864
1.99101738
2.90250642
2.6251841
2.4779945
2.36399048
1.84069848
1.268395394
-0.392668076
0.034514738
