-0.77349808
0.26595772
1.17073528
-0.126347826
-0.605949084
-1.00423892
-0.76979226
1.73598554
0.905567572
-0.759962246
-1.713711028
-0.35831628
1.64715675
0.984251778
-0.564254492
-1.009830976
-0.34733018
0.536507496
1.29467864
1.3353465
0.548890504
0.21294206
0.033501364
0.184308749
-0.150995559
-0.683185771
-1.048204824
