-1.5563908
-4.2468615
-1.5825945
-1.918509
-2.8075924
-3.5903032
-1.9821832
-3.8903828
-0.93446994
-4.3388515
-3.3367438
-1.9491653
-3.6267407
-3.530341
-2.943766
-3.96006
-4.489426
-5.004013
-4.0431166
-3.782462
-7.0442114
-1.993268
-5.347646
-4.5028057
-2.969962
-3.484642
-5.5603933
-0.6284642
-4.783476
-3.6324096
-1.1290209
-5.3579464
-2.104407
-2.963068
-3.7561226
-3.217681
-3.0812392
-4.2012205
-2.173173
-3.6750422
-2.9149206
-3.190174
-4.324832
-2.2297153
-4.3077793
-5.497504
-2.6658664
-3.319093
-5.087545
-0.608462
-4.208111
-4.967477
-2.0514584
-4.4425325
-4.9398284
-1.5895296
-5.3852997
-2.4382303
-3.7586775
-5.0665007
-3.2482476
-2.8681266
-3.5572386
-3.2896595
-4.7963123
-2.148539
-4.1961584
-4.742677
-2.2152123
-4.306248
-4.905262
-2.478538
-3.1829464
-4.321079
-2.509233
-3.6957397
-2.8045788
-5.108638
-3.2193825
-2.7576208
-3.1008885
-3.6830125
-3.2184482
-2.7082312
-2.6003942
-2.7450962
-2.8291373
-2.986075
-2.4090242
-2.5637429
-2.3697104
-3.9703925
-2.5190067
-3.1538296
-2.2720404
-2.3722296
-2.5875368
-4.0395374
-3.243836
-2.4620936
-2.8280027
-2.9325123
-2.3840318
-3.4964771
-2.5563374
-2.7342682
-3.0522413
-1.8909485
-3.1872835
-2.5057597
-2.923893
-2.301795
-3.3258953
-1.7512112
-3.1054318
-1.183782
-3.784312
-2.1083329
-3.0351763
-0.98053205
-3.2134466
-0.75353277
-2.902093
-1.8002493
-2.9060168
-1.3100743
-2.7328277
-1.691436
-2.3595054
-1.8603581
-2.4443066
-2.3672743
-2.1599724
-2.4340224
-1.5409555
-2.3116894
-1.6697254
-2.161459
-2.0974147
-1.9760653
-1.7781518
-2.0718222
-1.6275927
-1.3160682
-1.4103156
-1.3605245
-1.2048908
-0.77829075
-0.63062334
-1.0187433
0.040989548
-0.8975611
0.010874093
-0.6032766
0.15259767
-0.4426419
-0.017128825
0.022752136
-0.23089752
0.57739353
0.70414084
0.90799505
0.76399916
0.82530415
1.3254912
0.8447685
1.5430175
0.9624031
1.2172264
0.76370394
