"CSVFiles/KFoldStratified13LAGUAHData05.21.2021, 00.29.09/Run_0"
Accuracy,0.9043250327653998
Weighted Precision Score,0.9040034815726408
Weighted Recall Score,0.9043250327653998
Weighted F1 Score,0.9035665532742829
-------------------------------
Distribution of Train Events
Non Aggressive Event,Aggressive Right Turn,Aggressive Left Turn,Aggressive Acceleration,Aggressive Braking,Aggressive Left Lane Change,Aggressive Right Lane Change
330,75,224,1211,883,135,190
Distribution of Test Events
Non Aggressive Event,Aggressive Right Turn,Aggressive Left Turn,Aggressive Acceleration,Aggressive Braking,Aggressive Left Lane Change,Aggressive Right Lane Change
83,19,57,303,220,33,48
Confusion Matrix
,,,,Predicated Class
,,Non Aggressive Event,Aggressive Right Turn,Aggressive Left Turn,Aggressive Acceleration,Aggressive Braking,Aggressive Left Lane Change,Aggressive Right Lane Change
,Non Aggressive Event,68,0,1,1,4,5,4
,Aggressive Right Turn,0,17,0,1,0,0,1
,Aggressive Left Turn,0,0,51,2,1,3,0
,Aggressive Acceleration,5,0,3,283,8,1,3
Actual Class,Aggressive Braking,1,0,1,1,215,1,1
,Aggressive Left Lane Change,2,1,2,0,4,22,2
,Aggressive Right Lane Change,3,1,0,5,5,0,34

----------------------------
Multi Label Confusion Matrix
Non Aggressive Event
,Predicated Class
669,11
15,68
Actual Class

Aggressive Right Turn
,Predicated Class
742,2
2,17
Actual Class

Aggressive Left Turn
,Predicated Class
699,7
6,51
Actual Class

Aggressive Acceleration
,Predicated Class
450,10
20,283
Actual Class

Aggressive Braking
,Predicated Class
521,22
5,215
Actual Class

Aggressive Left Lane Change
,Predicated Class
720,10
11,22
Actual Class

Aggressive Right Lane Change
,Predicated Class
704,11
14,34
Actual Class


----------------------------
