0.115896285
-3.1584916
3.1895423
-1.8409814
-1.1284343
1.4000888
-0.32824773
-1.0247338
0.73896706
-0.059444904
-1.214586
1.9669852
-2.8804517
1.1606531
0.9728384
-2.5910165
0.888668
0.49128717
-3.4293916
3.642561
0.15930197
-1.4362371
2.9079852
-1.8436239
3.0882685
1.3913302
-2.087696
5.192719
0.34642315
-0.14326954
6.1197205
-1.19564
3.5682473
2.557273
-0.47808236
6.2920685
2.9050908
0.83783937
6.262996
2.6936972
4.525666
5.08128
2.540234
7.074656
4.516226
3.0693088
9.795401
4.9210215
1.9219422
7.9989557
3.4884703
6.170188
5.7153034
4.564934
4.577646
3.2798002
3.3462749
3.569768
3.7580867
1.8910276
3.5491285
1.1466811
1.3190238
1.6002476
-0.7629409
0.44767794
0.6598912
-3.2030327
0.7622726
-2.1557326
-3.278288
-2.1466784
-1.4083595
-1.9448668
-5.7074347
-2.1368184
-1.9310544
-6.5647287
-1.5669271
-0.758289
-7.9178133
-2.6219409
-2.135873
-6.3515134
-0.50363195
-5.291344
-3.5379846
-0.5051155
-7.728438
-0.057929277
-0.7487204
-7.8811293
-0.0043057203
-1.9653326
-3.362388
0.95915115
-4.341426
-1.7591071
0.09238732
-3.3001199
2.475788
-0.59673154
-1.2366681
2.108186
-2.390714
2.0268168
3.3263903
-2.846251
3.2865825
1.2740606
-0.6877836
4.772295
-0.48981142
1.3772612
3.9357333
-2.1440525
3.262351
2.2987347
-0.68117315
1.9675894
-1.3273231
0.95571065
3.3399696
-2.3009996
1.146384
2.1984417
-2.970432
1.7647223
