0.160149246
0.2055779
0.02403514
0.063472506
-0.01697536
-0.504139428
-0.927381454
-1.456784032
-1.870159786
-2.9889176
-4.10933038
-4.92598734
-5.39340832
-4.43325778
-2.4008547
0.091704868
2.092962194
3.8411875
4.80616454
5.61414906
5.07343686
4.73650932
3.77872444
