"CSVFiles/KFoldStratified13LAGUAHData05.27.2021, 23.43.56/Run_1"
Accuracy,0.9133858267716536
Weighted Precision Score,0.9121763258630068
Weighted Recall Score,0.9133858267716536
Weighted F1 Score,0.9120719052487004
-------------------------------
Distribution of Train Events
Non Aggressive Event,Aggressive Right Turn,Aggressive Left Turn,Aggressive Acceleration,Aggressive Braking,Aggressive Left Lane Change,Aggressive Right Lane Change
330,225,75,1212,883,134,190
Distribution of Test Events
Non Aggressive Event,Aggressive Right Turn,Aggressive Left Turn,Aggressive Acceleration,Aggressive Braking,Aggressive Left Lane Change,Aggressive Right Lane Change
83,56,19,302,220,34,48
Confusion Matrix
,,,,Predicated Class
,,Non Aggressive Event,Aggressive Right Turn,Aggressive Left Turn,Aggressive Acceleration,Aggressive Braking,Aggressive Left Lane Change,Aggressive Right Lane Change
,Non Aggressive Event,75,0,0,3,3,0,2
,Aggressive Right Turn,0,52,0,0,1,2,1
,Aggressive Left Turn,0,0,19,0,0,0,0
,Aggressive Acceleration,1,0,0,292,5,3,1
Actual Class,Aggressive Braking,5,1,0,2,204,6,2
,Aggressive Left Lane Change,1,5,2,3,3,18,2
,Aggressive Right Lane Change,2,0,4,5,1,0,36

----------------------------
Multi Label Confusion Matrix
Non Aggressive Event
,Predicated Class
670,9
8,75
Actual Class

Aggressive Right Turn
,Predicated Class
700,6
4,52
Actual Class

Aggressive Left Turn
,Predicated Class
737,6
0,19
Actual Class

Aggressive Acceleration
,Predicated Class
447,13
10,292
Actual Class

Aggressive Braking
,Predicated Class
529,13
16,204
Actual Class

Aggressive Left Lane Change
,Predicated Class
717,11
16,18
Actual Class

Aggressive Right Lane Change
,Predicated Class
706,8
12,36
Actual Class


----------------------------
