x,y,z,Event Time,Event Type,Frame,x_modified,y_modified,z_modified
0.670378151,1.709359288,-0.844033957,297.0467412,-1,2996,0.167594538,0.427339822,-0.211008489
-1.707940636,0.473500937,0.071829692,297.1467412,-1,2997,-0.426985159,0.118375234,0.017957423
-0.499662933,-0.906546772,-1.535787106,297.2467412,-1,2998,-0.124915733,-0.226636693,-0.383946776
0.809595528,0.522872627,0.527992606,297.3467412,-1,2999,0.202398882,0.130718157,0.131998152
0.740077438,1.581175685,2.696174383,297.4467412,-1,3000,0.18501936,0.395293921,0.674043596
0.806866112,0.187611476,-0.048200779,297.5467412,-1,3001,0.201716528,0.046902869,-0.012050195
-1.074586449,-0.783026814,1.243435979,297.6467412,-1,3002,-0.268646612,-0.195756704,0.310858995
0.107957306,1.298144937,1.611245871,297.7467412,-1,3003,0.026989326,0.324536234,0.402811468
2.120957794,-1.261502266,-2.379216194,297.8467412,-1,3004,0.530239449,-0.315375566,-0.594804049
-0.262088356,0.682293117,1.778612614,297.9467412,-1,3005,-0.065522089,0.170573279,0.444653153
-0.201152382,1.094947457,96.2146759,298.1467412,-1,3007,-0.050288095,0.273736864,24.05366898
0.658489647,0.567896783,1.580370307,298.2467412,-1,3008,0.164622412,0.141974196,0.395092577
-0.337051926,-1.288933158,-0.855900943,298.3467412,-1,3009,-0.084262981,-0.322233289,-0.213975236
-3.111207066,-1.353231668,-1.053611279,298.4467412,-1,3010,-0.777801766,-0.338307917,-0.26340282
0.184182587,-0.715000331,-1.551237822,298.5467412,-1,3011,0.046045647,-0.178750083,-0.387809455
2.025079193,0.923107743,1.019101501,298.6467412,-1,3012,0.506269798,0.230776936,0.254775375
1.146315994,0.751434624,-1.582352996,298.7467412,-1,3013,0.286578999,0.187858656,-0.395588249
-1.042865334,-1.794257879,-0.622691035,298.8467412,-1,3014,-0.260716333,-0.44856447,-0.155672759
-1.878752289,-1.674640417,-1.725646377,298.9467412,-1,3015,-0.469688072,-0.418660104,-0.431411594
2.271120491,-0.302097172,-1.977048278,299.0467412,-1,3016,0.567780123,-0.075524293,-0.494262069
-1.981476841,0.071567081,-0.155647725,299.1467412,-1,3017,-0.49536921,0.01789177,-0.038911931
1.296871605,-1.845342517,0.978814304,299.2467412,-1,3018,0.324217901,-0.461335629,0.244703576
-3.62934166,1.207316399,-0.704036891,299.3467412,-1,3019,-0.907335415,0.3018291,-0.176009223
-1.246411858,1.726154566,-1.923969746,299.4467412,-1,3020,-0.311602964,0.431538641,-0.480992436
1.056889,-0.138170823,0.109853648,299.5467412,-1,3021,0.26422225,-0.034542706,0.027463412
-0.979998169,-0.343086421,-1.18832469,299.6467412,-1,3022,-0.244999542,-0.085771605,-0.297081172
0.656400146,0.26464203,1.805510044,299.7467412,-1,3023,0.164100037,0.066160508,0.451377511
1.651831093,0.547288299,0.522281706,299.8467412,-1,3024,0.412957773,0.136822075,0.130570427
-1.217258987,-1.436178088,-0.481548548,299.9467412,-1,3025,-0.304314747,-0.359044522,-0.120387137
0.27491993,0.182171702,-1.363213778,300.0467412,-1,3026,0.068729982,0.045542926,-0.340803444
0.712273064,-0.705472529,2.100026131,300.1467412,-1,3027,0.178068266,-0.176368132,0.525006533
-2.591714439,-1.003032207,-1.679124475,300.2467412,-1,3028,-0.64792861,-0.250758052,-0.419781119
-0.662540016,0.120145693,-1.08048296,300.3467412,-1,3029,-0.165635004,0.030036423,-0.27012074
0.81328434,3.415443897,-0.825104892,300.4467412,-1,3030,0.203321085,0.853860974,-0.206276223
-0.364824829,-0.394356668,-0.983599603,300.5467412,-1,3031,-0.091206207,-0.098589167,-0.245899901
-1.10240036,-0.151025981,2.398685217,300.6467412,-1,3032,-0.27560009,-0.037756495,0.599671304
-0.283918915,0.512393296,0.941475511,300.7467412,-1,3033,-0.070979729,0.128098324,0.235368878
2.057127419,-0.050587434,-0.76707375,300.8467412,-1,3034,0.514281855,-0.012646859,-0.191768438
-0.364375648,1.094147444,-1.949086547,300.9467412,-1,3035,-0.091093912,0.273536861,-0.487271637
-2.113884029,-0.4659428,2.008736372,301.0467412,-1,3036,-0.528471007,-0.1164857,0.502184093
0.307795944,1.551463008,-1.054586887,301.1467412,-1,3037,0.076948986,0.387865752,-0.263646722
0.246754112,-1.330427885,-2.395114422,301.2467412,-1,3038,0.061688528,-0.332606971,-0.598778605
-0.033455429,-0.888709068,1.44061172,301.3467412,-1,3039,-0.008363857,-0.222177267,0.36015293
0.07568306,-0.945503235,0.325073332,301.4467412,-1,3040,0.018920765,-0.236375809,0.081268333
0.575788918,-1.702376366,-0.0419291,301.5467412,-1,3041,0.143947229,-0.425594091,-0.010482275
-0.160534439,0.731465459,1.297740102,301.6467412,-1,3042,-0.04013361,0.182866365,0.324435025
-1.817678986,3.842000961,-0.565930605,301.7467413,-1,3043,-0.454419746,0.96050024,-0.141482651
-1.073843536,-2.745728254,-1.240400672,301.8467413,-1,3044,-0.268460884,-0.686432064,-0.310100168
0.847336235,1.397926092,-1.793011546,301.9467413,-1,3045,0.211834059,0.349481523,-0.448252887
1.435128632,0.095610492,0.499416798,302.0467413,-1,3046,0.358782158,0.023902623,0.1248542
0.379497948,0.927538514,-0.257989615,302.1467413,-1,3047,0.094874487,0.231884629,-0.064497404
0.456653061,1.922363281,1.135301709,302.2467413,-1,3048,0.114163265,0.48059082,0.283825427
1.242550316,-0.496349216,1.630684853,302.3467413,-1,3049,0.310637579,-0.124087304,0.407671213
-0.999990997,-1.19883883,0.974659503,302.4467413,-1,3050,-0.249997749,-0.299709707,0.243664876
-1.802940903,0.020464137,-0.803867042,302.5467413,-1,3051,-0.450735226,0.005116034,-0.200966761
1.123048248,0.548767805,-1.321273208,302.6467413,-1,3052,0.280762062,0.137191951,-0.330318302
2.292590561,0.673683524,-2.98704505,302.7467413,-1,3053,0.57314764,0.168420881,-0.746761262
2.888143005,-1.031935692,-0.778189957,302.8467413,-1,3054,0.722035751,-0.257983923,-0.194547489
0.270350876,1.083210826,0.903106809,302.9467413,-1,3055,0.067587719,0.270802706,0.225776702
2.068416061,0.421512753,-0.645416617,303.0467413,-1,3056,0.517104015,0.105378188,-0.161354154
2.008222046,0.565080464,0.511868417,303.1467413,-1,3057,0.502055511,0.141270116,0.127967104
-0.249505577,-0.450404257,-1.529738426,303.2467413,-1,3058,-0.062376394,-0.112601064,-0.382434607
0.202574196,-0.420464545,1.31195128,303.3467413,-1,3059,0.050643549,-0.105116136,0.32798782
0.58632988,0.393932134,-0.407093018,303.4467413,-1,3060,0.14658247,0.098483033,-0.101773255
0.45732254,0.358430654,0.242541879,303.5467413,-1,3061,0.114330635,0.089607663,0.06063547
0.203942719,0.766851485,-0.857692957,303.6467413,-1,3062,0.05098568,0.191712871,-0.214423239
0.410193863,-0.772696674,-1.51177752,303.7467413,-1,3063,0.102548466,-0.193174168,-0.37794438
-0.84239727,0.766224682,-1.715934515,303.8467413,-1,3064,-0.210599318,0.191556171,-0.428983629
0.633444252,-0.979246378,0.062351361,303.9467413,-1,3065,0.158361063,-0.244811594,0.01558784
-0.027391014,-1.787357926,0.013250996,304.0467413,-1,3066,-0.006847754,-0.446839482,0.003312749
-0.378564415,-1.398108244,0.988165855,304.1467413,-1,3067,-0.094641104,-0.349527061,0.247041464
0.106816711,0.755123019,1.035519481,304.2467413,-1,3068,0.026704178,0.188780755,0.25887987
0.020905914,0.276607901,-0.678511918,304.3467413,-1,3069,0.005226479,0.069151975,-0.169627979
-2.293003616,0.433212876,-0.685825348,304.4467413,-1,3070,-0.573250904,0.108303219,-0.171456337
-0.226495323,-1.399108171,-1.324362636,304.5467413,-1,3071,-0.056623831,-0.349777043,-0.331090659
-0.930681763,1.387155056,0.756481469,304.6467413,-1,3072,-0.232670441,0.346788764,0.189120367
0.818829956,0.741462886,-2.353553534,304.7467413,-1,3073,0.204707489,0.185365722,-0.588388383
1.281262817,-2.536946774,-0.127115697,304.8467413,-1,3074,0.320315704,-0.634236693,-0.031778924
0.363062325,2.717020273,-0.805995107,304.9467413,-1,3075,0.090765581,0.679255068,-0.201498777
-3.951335011,1.596670747,-2.511787653,305.0467413,-1,3076,-0.987833753,0.399167687,-0.627946913
-0.360205231,-1.276621699,0.362734944,305.1467413,-1,3077,-0.090051308,-0.319155425,0.090683736
1.392697754,-1.581704378,-2.50519681,305.2467413,-1,3078,0.348174438,-0.395426095,-0.626299202
-0.587482986,0.217127129,-0.846138299,305.3467413,-1,3079,-0.146870747,0.054281782,-0.211534575
-0.543415604,2.514023781,-2.752976418,305.4467413,-1,3080,-0.135853901,0.628505945,-0.688244104
1.029260101,-2.09455514,-0.462002397,305.5467413,-1,3081,0.257315025,-0.523638785,-0.115500599
-0.658787308,0.988104522,-2.208958149,305.6467413,-1,3082,-0.164696827,0.247026131,-0.552239537
-0.312847672,-0.664618611,-1.030170441,305.7467413,-1,3083,-0.078211918,-0.166154653,-0.25754261
-1.284019051,0.611278415,-0.008644572,305.8467413,-1,3084,-0.321004763,0.152819604,-0.002161143
-0.395274696,0.747164071,-0.758994639,305.9467413,-1,3085,-0.098818674,0.186791018,-0.18974866
1.756410065,-0.729514956,2.695968866,306.0467413,-1,3086,0.439102516,-0.182378739,0.673992217
-1.314922867,-0.524581552,-0.209756002,306.1467413,-1,3087,-0.328730717,-0.131145388,-0.052439
0.181437912,0.259781033,-1.9285748,306.2467413,-1,3088,0.045359478,0.064945258,-0.4821437
-0.48131424,-0.564644635,-0.165159956,306.3467413,-1,3089,-0.12032856,-0.141161159,-0.041289989
0.254567566,-2.194908142,0.046456072,306.4467413,-1,3090,0.063641891,-0.548727036,0.011614018
1.639746132,-0.645641267,1.05566597,306.5467413,1,3091,0.409936533,-0.161410317,0.263916492
2.153959694,0.474383682,1.134245753,306.6467413,1,3092,0.538489923,0.118595921,0.283561438
0.506363335,-0.728726923,1.347613454,306.7467413,1,3093,0.126590834,-0.182181731,0.336903363
-0.580633698,4.059241772,-0.953637958,306.8467413,1,3094,-0.145158424,1.014810443,-0.238409489
-1.171160278,1.531534195,-0.26853165,306.9467413,1,3095,-0.29279007,0.382883549,-0.067132913
-0.34068924,3.918961048,-0.373976976,307.0467413,1,3096,-0.08517231,0.979740262,-0.093494244
-1.501430092,4.490088463,-1.032661796,307.1467413,1,3097,-0.375357523,1.122522116,-0.258165449
-1.355413017,1.745427608,-0.04537414,307.2467413,1,3098,-0.338853254,0.436356902,-0.011343535
-0.762302933,2.398292542,0.481852293,307.3467413,1,3099,-0.190575733,0.599573135,0.120463073
-0.328902779,7.434411049,-0.204669148,307.4467413,1,3100,-0.082225695,1.858602762,-0.051167287
0.198207321,6.544906139,1.455453634,307.5467413,1,3101,0.04955183,1.636226535,0.363863409
0.298533859,6.854097843,0.000719458,307.6467413,1,3102,0.074633465,1.713524461,0.000179864
-0.179957924,8.926314354,0.386099815,307.7467413,1,3103,-0.044989481,2.231578588,0.096524954
-2.399279175,8.057084084,0.284695387,307.8467413,1,3104,-0.599819794,2.014271021,0.071173847
0.249829712,8.117538452,1.088059902,307.9467413,1,3105,0.062457428,2.029384613,0.272014976
0.8626017,10.4512949,-1.045873404,308.0467413,1,3106,0.215650425,2.612823725,-0.261468351
1.23503727,8.094343185,0.046012998,308.1467413,1,3107,0.308759317,2.023585796,0.011503249
-0.593108711,11.63082123,1.816473961,308.2467413,1,3108,-0.148277178,2.907705307,0.45411849
-3.246353683,11.81333923,2.970439911,308.3467413,1,3109,-0.811588421,2.953334808,0.742609978
1.799544754,8.671480179,4.137308121,308.4467413,1,3110,0.449886189,2.167870045,1.03432703
-0.755418358,10.23121738,2.297826529,308.5467414,1,3111,-0.188854589,2.557804346,0.574456632
-0.273253021,10.4206543,-2.186782122,308.6467414,1,3112,-0.068313255,2.605163574,-0.54669553
-2.739991722,12.35851765,0.261629045,308.7467414,1,3113,-0.684997931,3.089629412,0.065407261
-0.896314201,12.72846031,1.066641331,308.8467414,1,3114,-0.22407855,3.182115078,0.266660333
-3.456207809,8.59803772,2.648005962,308.9467414,1,3115,-0.864051952,2.14950943,0.662001491
0.005470695,7.002729893,0.827847004,309.0467414,1,3116,0.001367674,1.750682473,0.206961751
-0.216216621,2.864121437,0.685859263,309.1467414,1,3117,-0.054054155,0.716030359,0.171464816
-0.16507679,2.548849821,2.320258141,309.2467414,1,3118,-0.041269197,0.637212455,0.580064535
-0.144179878,-0.845561862,-1.903244734,309.3467414,1,3119,-0.03604497,-0.211390465,-0.475811183
1.501104774,0.120592155,-0.297165185,309.4467414,1,3120,0.375276194,0.030148039,-0.074291296
-0.246374664,1.516758323,0.560222745,309.5467414,-1,3121,-0.061593666,0.379189581,0.140055686
0.895506325,-0.143646806,1.630347013,309.6467414,-1,3122,0.223876581,-0.035911702,0.407586753
2.536542358,0.527305186,0.320915014,309.7467414,-1,3123,0.63413559,0.131826296,0.080228753
-0.653904495,0.712828398,-1.215843081,309.8467414,-1,3124,-0.163476124,0.178207099,-0.30396077
-0.069153366,0.172674015,-0.690010428,309.9467414,-1,3125,-0.017288342,0.043168504,-0.172502607
1.392843666,1.094506502,0.817909181,310.0467414,-1,3126,0.348210917,0.273626626,0.204477295
-1.659428177,-2.247993708,-0.181781799,310.1467414,-1,3127,-0.414857044,-0.561998427,-0.04544545
1.815205994,1.391088724,-1.374016523,310.2467414,-1,3128,0.453801498,0.347772181,-0.343504131
-0.852097092,0.157455057,-0.083941832,310.3467414,-1,3129,-0.213024273,0.039363764,-0.020985458
-1.381187973,-0.285125136,-0.690975726,310.4467414,-1,3130,-0.345296993,-0.071281284,-0.172743931
-1.889253197,-0.032144099,-1.335796952,310.5467414,-1,3131,-0.472313299,-0.008036025,-0.333949238
0.296464386,1.026704431,1.726670504,310.6467414,-1,3132,0.074116096,0.256676108,0.431667626
-0.990390358,0.984101892,-0.685504079,310.7467414,-1,3133,-0.247597589,0.246025473,-0.17137602
1.080618324,2.556416512,1.204194069,310.8467414,-1,3134,0.270154581,0.639104128,0.301048517
1.131745758,-0.63185668,2.555682898,310.9467414,-1,3135,0.28293644,-0.15796417,0.638920724
-1.888526497,0.943821967,1.420734882,311.0467414,-1,3136,-0.472131624,0.235955492,0.355183721
