x,y,z,Event Time,Event Type,Frame,x_modified,y_modified,z_modified
0.670378151,1.709359288,-0.844033957,326.3467416,-1,3289,0.167594538,0.427339822,-0.211008489
-1.707940636,0.473500937,0.071829692,326.4467416,-1,3290,-0.426985159,0.118375234,0.017957423
-0.499662933,-0.906546772,-1.535787106,326.5467416,-1,3291,-0.124915733,-0.226636693,-0.383946776
0.809595528,0.522872627,0.527992606,326.6467416,-1,3292,0.202398882,0.130718157,0.131998152
0.740077438,1.581175685,2.696174383,326.7467416,-1,3293,0.18501936,0.395293921,0.674043596
0.806866112,0.187611476,-0.048200779,326.8467416,-1,3294,0.201716528,0.046902869,-0.012050195
-1.074586449,-0.783026814,1.243435979,326.9467416,-1,3295,-0.268646612,-0.195756704,0.310858995
0.107957306,1.298144937,1.611245871,327.0467416,-1,3296,0.026989326,0.324536234,0.402811468
2.120957794,-1.261502266,-2.379216194,327.1467416,-1,3297,0.530239449,-0.315375566,-0.594804049
-0.262088356,0.682293117,1.778612614,327.2467416,-1,3298,-0.065522089,0.170573279,0.444653153
-0.201152382,1.094947457,96.2146759,327.4467416,-1,3300,-0.050288095,0.273736864,24.05366898
0.658489647,0.567896783,1.580370307,327.5467416,-1,3301,0.164622412,0.141974196,0.395092577
-0.337051926,-1.288933158,-0.855900943,327.6467416,-1,3302,-0.084262981,-0.322233289,-0.213975236
-3.111207066,-1.353231668,-1.053611279,327.7467416,-1,3303,-0.777801766,-0.338307917,-0.26340282
0.184182587,-0.715000331,-1.551237822,327.8467416,-1,3304,0.046045647,-0.178750083,-0.387809455
2.025079193,0.923107743,1.019101501,327.9467416,-1,3305,0.506269798,0.230776936,0.254775375
1.146315994,0.751434624,-1.582352996,328.0467416,-1,3306,0.286578999,0.187858656,-0.395588249
-1.042865334,-1.794257879,-0.622691035,328.1467416,-1,3307,-0.260716333,-0.44856447,-0.155672759
-1.878752289,-1.674640417,-1.725646377,328.2467416,-1,3308,-0.469688072,-0.418660104,-0.431411594
2.271120491,-0.302097172,-1.977048278,328.3467416,-1,3309,0.567780123,-0.075524293,-0.494262069
-1.981476841,0.071567081,-0.155647725,328.4467416,-1,3310,-0.49536921,0.01789177,-0.038911931
1.296871605,-1.845342517,0.978814304,328.5467416,-1,3311,0.324217901,-0.461335629,0.244703576
-3.62934166,1.207316399,-0.704036891,328.6467417,-1,3312,-0.907335415,0.3018291,-0.176009223
-1.246411858,1.726154566,-1.923969746,328.7467417,-1,3313,-0.311602964,0.431538641,-0.480992436
1.056889,-0.138170823,0.109853648,328.8467417,-1,3314,0.26422225,-0.034542706,0.027463412
-0.979998169,-0.343086421,-1.18832469,328.9467417,-1,3315,-0.244999542,-0.085771605,-0.297081172
0.656400146,0.26464203,1.805510044,329.0467417,-1,3316,0.164100037,0.066160508,0.451377511
1.651831093,0.547288299,0.522281706,329.1467417,-1,3317,0.412957773,0.136822075,0.130570427
-1.217258987,-1.436178088,-0.481548548,329.2467417,-1,3318,-0.304314747,-0.359044522,-0.120387137
0.27491993,0.182171702,-1.363213778,329.3467417,-1,3319,0.068729982,0.045542926,-0.340803444
0.712273064,-0.705472529,2.100026131,329.4467417,-1,3320,0.178068266,-0.176368132,0.525006533
-2.591714439,-1.003032207,-1.679124475,329.5467417,-1,3321,-0.64792861,-0.250758052,-0.419781119
-0.662540016,0.120145693,-1.08048296,329.6467417,-1,3322,-0.165635004,0.030036423,-0.27012074
0.81328434,3.415443897,-0.825104892,329.7467417,-1,3323,0.203321085,0.853860974,-0.206276223
-0.364824829,-0.394356668,-0.983599603,329.8467417,-1,3324,-0.091206207,-0.098589167,-0.245899901
-1.10240036,-0.151025981,2.398685217,329.9467417,-1,3325,-0.27560009,-0.037756495,0.599671304
-0.283918915,0.512393296,0.941475511,330.0467417,-1,3326,-0.070979729,0.128098324,0.235368878
2.057127419,-0.050587434,-0.76707375,330.1467417,-1,3327,0.514281855,-0.012646859,-0.191768438
-0.364375648,1.094147444,-1.949086547,330.2467417,-1,3328,-0.091093912,0.273536861,-0.487271637
-2.113884029,-0.4659428,2.008736372,330.3467417,-1,3329,-0.528471007,-0.1164857,0.502184093
0.307795944,1.551463008,-1.054586887,330.4467417,-1,3330,0.076948986,0.387865752,-0.263646722
0.246754112,-1.330427885,-2.395114422,330.5467417,-1,3331,0.061688528,-0.332606971,-0.598778605
-0.033455429,-0.888709068,1.44061172,330.6467417,-1,3332,-0.008363857,-0.222177267,0.36015293
0.07568306,-0.945503235,0.325073332,330.7467417,-1,3333,0.018920765,-0.236375809,0.081268333
0.575788918,-1.702376366,-0.0419291,330.8467417,-1,3334,0.143947229,-0.425594091,-0.010482275
-0.160534439,0.731465459,1.297740102,330.9467417,-1,3335,-0.04013361,0.182866365,0.324435025
-1.817678986,3.842000961,-0.565930605,331.0467417,-1,3336,-0.454419746,0.96050024,-0.141482651
-1.073843536,-2.745728254,-1.240400672,331.1467417,-1,3337,-0.268460884,-0.686432064,-0.310100168
0.847336235,1.397926092,-1.793011546,331.2467417,-1,3338,0.211834059,0.349481523,-0.448252887
1.435128632,0.095610492,0.499416798,331.3467417,-1,3339,0.358782158,0.023902623,0.1248542
0.379497948,0.927538514,-0.257989615,331.4467417,-1,3340,0.094874487,0.231884629,-0.064497404
0.456653061,1.922363281,1.135301709,331.5467417,-1,3341,0.114163265,0.48059082,0.283825427
1.242550316,-0.496349216,1.630684853,331.6467417,-1,3342,0.310637579,-0.124087304,0.407671213
-0.999990997,-1.19883883,0.974659503,331.7467417,-1,3343,-0.249997749,-0.299709707,0.243664876
-1.802940903,0.020464137,-0.803867042,331.8467417,-1,3344,-0.450735226,0.005116034,-0.200966761
1.123048248,0.548767805,-1.321273208,331.9467417,-1,3345,0.280762062,0.137191951,-0.330318302
2.292590561,0.673683524,-2.98704505,332.0467417,-1,3346,0.57314764,0.168420881,-0.746761262
2.888143005,-1.031935692,-0.778189957,332.1467417,-1,3347,0.722035751,-0.257983923,-0.194547489
0.270350876,1.083210826,0.903106809,332.2467417,-1,3348,0.067587719,0.270802706,0.225776702
2.068416061,0.421512753,-0.645416617,332.3467417,-1,3349,0.517104015,0.105378188,-0.161354154
2.008222046,0.565080464,0.511868417,332.4467417,-1,3350,0.502055511,0.141270116,0.127967104
-0.249505577,-0.450404257,-1.529738426,332.5467417,-1,3351,-0.062376394,-0.112601064,-0.382434607
0.202574196,-0.420464545,1.31195128,332.6467417,-1,3352,0.050643549,-0.105116136,0.32798782
0.58632988,0.393932134,-0.407093018,332.7467417,-1,3353,0.14658247,0.098483033,-0.101773255
0.45732254,0.358430654,0.242541879,332.8467417,-1,3354,0.114330635,0.089607663,0.06063547
0.203942719,0.766851485,-0.857692957,332.9467417,-1,3355,0.05098568,0.191712871,-0.214423239
0.410193863,-0.772696674,-1.51177752,333.0467417,-1,3356,0.102548466,-0.193174168,-0.37794438
-0.84239727,0.766224682,-1.715934515,333.1467417,-1,3357,-0.210599318,0.191556171,-0.428983629
0.633444252,-0.979246378,0.062351361,333.2467417,-1,3358,0.158361063,-0.244811594,0.01558784
-0.027391014,-1.787357926,0.013250996,333.3467417,-1,3359,-0.006847754,-0.446839482,0.003312749
-0.378564415,-1.398108244,0.988165855,333.4467417,-1,3360,-0.094641104,-0.349527061,0.247041464
0.106816711,0.755123019,1.035519481,333.5467417,-1,3361,0.026704178,0.188780755,0.25887987
0.020905914,0.276607901,-0.678511918,333.6467417,-1,3362,0.005226479,0.069151975,-0.169627979
-2.293003616,0.433212876,-0.685825348,333.7467417,-1,3363,-0.573250904,0.108303219,-0.171456337
-0.226495323,-1.399108171,-1.324362636,333.8467417,-1,3364,-0.056623831,-0.349777043,-0.331090659
-0.930681763,1.387155056,0.756481469,333.9467417,-1,3365,-0.232670441,0.346788764,0.189120367
0.818829956,0.741462886,-2.353553534,334.0467417,-1,3366,0.204707489,0.185365722,-0.588388383
1.281262817,-2.536946774,-0.127115697,334.1467417,-1,3367,0.320315704,-0.634236693,-0.031778924
0.363062325,2.717020273,-0.805995107,334.2467417,-1,3368,0.090765581,0.679255068,-0.201498777
-3.951335011,1.596670747,-2.511787653,334.3467417,-1,3369,-0.987833753,0.399167687,-0.627946913
-0.360205231,-1.276621699,0.362734944,334.4467417,-1,3370,-0.090051308,-0.319155425,0.090683736
1.392697754,-1.581704378,-2.50519681,334.5467417,-1,3371,0.348174438,-0.395426095,-0.626299202
-0.587482986,0.217127129,-0.846138299,334.6467417,-1,3372,-0.146870747,0.054281782,-0.211534575
-0.543415604,2.514023781,-2.752976418,334.7467417,-1,3373,-0.135853901,0.628505945,-0.688244104
1.029260101,-2.09455514,-0.462002397,334.8467417,-1,3374,0.257315025,-0.523638785,-0.115500599
-0.658787308,0.988104522,-2.208958149,334.9467417,-1,3375,-0.164696827,0.247026131,-0.552239537
-0.312847672,-0.664618611,-1.030170441,335.0467417,-1,3376,-0.078211918,-0.166154653,-0.25754261
-1.284019051,0.611278415,-0.008644572,335.1467417,-1,3377,-0.321004763,0.152819604,-0.002161143
-0.395274696,0.747164071,-0.758994639,335.2467417,-1,3378,-0.098818674,0.186791018,-0.18974866
1.756410065,-0.729514956,2.695968866,335.3467418,-1,3379,0.439102516,-0.182378739,0.673992217
-1.314922867,-0.524581552,-0.209756002,335.4467418,-1,3380,-0.328730717,-0.131145388,-0.052439
0.181437912,0.259781033,-1.9285748,335.5467418,-1,3381,0.045359478,0.064945258,-0.4821437
-0.48131424,-0.564644635,-0.165159956,335.6467418,-1,3382,-0.12032856,-0.141161159,-0.041289989
0.254567566,-2.194908142,0.046456072,335.7467418,-1,3383,0.063641891,-0.548727036,0.011614018
1.639746132,-0.645641267,1.05566597,335.8467418,-1,3384,0.409936533,-0.161410317,0.263916492
2.153959694,0.474383682,1.134245753,335.9467418,-1,3385,0.538489923,0.118595921,0.283561438
0.506363335,-0.728726923,1.347613454,336.0467418,-1,3386,0.126590834,-0.182181731,0.336903363
-0.588957367,1.580794811,-0.744461596,336.1467418,-1,3387,-0.147239342,0.395198703,-0.186115399
-1.137337265,-0.629022121,-0.216002136,336.2467418,2,3388,-0.284334316,-0.15725553,-0.054000534
-0.239712296,0.456126839,-0.448717237,336.3467418,2,3389,-0.059928074,0.11403171,-0.112179309
-1.387618599,0.634646535,-1.132426023,336.4467418,2,3390,-0.34690465,0.158661634,-0.283106506
-1.230998573,-4.688248634,-0.372539967,336.5467418,2,3391,-0.307749643,-1.172062159,-0.093134992
-0.658768234,-3.757381439,0.325973541,336.6467418,2,3392,-0.164692059,-0.93934536,0.081493385
-0.248041687,-1.968876362,0.28657937,336.7467418,2,3393,-0.062010422,-0.49221909,0.071644843
0.349879684,-2.82041502,1.512090921,336.8467418,2,3394,0.087469921,-0.705103755,0.37802273
0.567002716,-3.989994764,-0.277560532,336.9467418,2,3395,0.141750679,-0.997498691,-0.069390133
0.064723434,-4.403627396,-0.475227475,337.0467418,2,3396,0.016180859,-1.100906849,-0.118806869
-2.228914795,-5.014650345,-0.149869353,337.1467418,2,3397,-0.557228699,-1.253662586,-0.037467338
0.307166519,-6.393403053,0.990395069,337.2467418,2,3398,0.07679163,-1.598350763,0.247598767
0.966233673,-6.020636082,-0.350443184,337.3467418,2,3399,0.241558418,-1.50515902,-0.087610796
1.419869843,-7.991600037,0.136944234,337.4467418,2,3400,0.354967461,-1.997900009,0.034236059
-0.249065933,-5.833138943,1.39573884,337.5467418,2,3401,-0.062266483,-1.458284736,0.34893471
-2.864912567,-6.306165218,2.433458567,337.6467418,2,3402,-0.716228142,-1.576541305,0.608364642
2.131508293,-11.12848663,2.827502251,337.7467418,2,3403,0.532877073,-2.782121658,0.706875563
-0.502889214,-9.119565964,1.574156046,337.8467418,2,3404,-0.125722303,-2.279891491,0.393539011
-0.109555779,-11.28849506,-1.570955515,337.9467418,2,3405,-0.027388945,-2.822123766,-0.392738879
-2.54548317,-9.429652214,0.330505788,338.0467418,2,3406,-0.636370792,-2.357413054,0.082626447
-0.64896637,-10.10143566,0.333580017,338.1467418,2,3407,-0.162241592,-2.525358915,0.083395004
-3.415940819,-12.00187397,-0.381144524,338.2467418,2,3408,-0.853985205,-3.000468493,-0.095286131
-0.704047737,-12.34221172,-0.014149189,338.3467418,2,3409,-0.176011934,-3.085552931,-0.003537297
-1.10344368,-12.49652958,2.189507484,338.4467418,2,3410,-0.27586092,-3.124132395,0.547376871
-1.170774994,-11.03719711,4.043168545,338.5467418,2,3411,-0.292693748,-2.759299278,1.010792136
-1.455677567,-14.22372246,-0.008405089,338.6467418,2,3412,-0.363919392,-3.555930614,-0.002101272
0.586805763,-8.921412468,3.253931999,338.7467418,2,3413,0.146701441,-2.230353117,0.813483
-0.590404091,-6.761266232,2.483964205,338.8467418,2,3414,-0.147601023,-1.690316558,0.620991051
1.043600502,-3.27781415,1.73128736,338.9467418,2,3415,0.260900126,-0.819453537,0.43282184
2.675862732,-0.126540005,0.278408378,339.0467418,2,3416,0.668965683,-0.031635001,0.069602095
-0.591126022,0.50043273,-1.248299837,339.1467418,2,3417,-0.147781506,0.125108182,-0.312074959
-0.054091034,0.066024333,-0.704627156,339.2467418,-1,3418,-0.013522758,0.016506083,-0.176156789
0.423764648,-0.86035192,0.034867454,339.3467418,-1,3419,0.105941162,-0.21508798,0.008716864
-0.829021034,-1.236421704,0.443475246,339.4467418,-1,3420,-0.207255259,-0.309105426,0.110868812
1.115034523,0.361915678,-1.508296847,339.5467418,-1,3421,0.278758631,0.090478919,-0.377074212
0.014453354,0.551381528,0.099444389,339.6467418,-1,3422,0.003613338,0.137845382,0.024861097
-1.294606743,-0.551573813,-0.713849306,339.7467418,-1,3423,-0.323651686,-0.137893453,-0.178462327
-2.462100563,-0.408255637,-1.062094569,339.8467418,-1,3424,-0.615525141,-0.102063909,-0.265523642
1.679274979,1.128047109,1.286406636,339.9467418,-1,3425,0.419818745,0.282011777,0.321601659
-1.295403061,0.879902601,-0.699981689,340.0467418,-1,3426,-0.323850765,0.21997565,-0.174995422
0.788732948,2.494876862,1.266300082,340.1467418,-1,3427,0.197183237,0.623719215,0.316575021
