-2.0927708
-0.7732247
1.4565709
-2.326928
0.038303256
0.21697891
-2.7954817
0.44384825
-0.07964301
-2.2728655
0.64872897
-2.4803674
-0.6788213
1.193622
-3.2045226
0.21730256
-0.4427538
-2.592105
0.77723646
-1.3273916
-1.5822697
-0.07319772
-0.057008505
-2.320345
0.60853827
-1.8767583
-0.72157097
0.37542248
-2.3260653
-0.37572503
-1.7023773
-0.8841591
0.046000123
-1.1569006
-1.0171759
-0.76442075
1.1352029
-2.3560615
-2.4733577
1.5059763
-1.8132235
-0.79189813
-0.7552259
0.4550283
-2.9574776
0.82956797
0.21105611
-2.3462453
-0.45803595
0.27566385
-1.7755677
-1.1737351
2.5437336
-2.8810036
-0.7286748
2.7575374
-4.0104
-0.31820834
2.480412
-4.3783264
1.6751134
0.9988325
-4.303552
2.3791869
-1.6203883
-2.8981075
3.0696385
-4.790818
0.6945634
0.19638348
-4.134941
1.4751824
0.50170875
-2.1530948
0.99510795
-0.58972436
-1.1974698
0.015487194
2.5339618
-3.713465
0.9508084
0.27717012
-4.5081778
4.891382
