-2.42238964
-2.947238128
-3.07735136
-4.25581552
-4.37157862
-3.61787702
-3.06211298
-3.26967118
-3.39348424
-3.43569408
-4.12188146
-3.64764756
-3.55191692
-3.52176694
-3.47941168
-3.51719196
-3.06219492
-2.70661512
-2.85699592
-2.94104668
-2.83947226
-2.67410024
-2.68164526
-2.21842705
-2.315067694
-1.9908403
-2.18930624
-2.04327076
-1.6407901
-0.998614538
-0.259275278
-0.018104516
0.90538608
1.066223888
