-0.06813842
2.8619738
2.6235845
4.184255
0.38635874
5.318466
3.4581804
-0.08591235
4.015743
4.246556
0.009731054
3.2396297
4.478225
2.8909616
3.185968
-0.049195766
5.426302
7.5264015
-3.7197526
4.599523
7.7645197
-4.2096343
5.0938187
5.8561325
-4.344136
9.346458
2.2950463
0.23543882
5.9162188
1.8159201
-0.21117496
7.0331717
-1.867276
2.7473173
6.1099772
0.5483353
1.104246
7.14162
-0.06869078
1.1042833
5.558811
-0.8182523
4.5054746
4.599252
0.02377534
4.702877
2.134007
1.114723
7.275386
-2.705105
0.010306835
7.975109
-0.9936187
0.2528215
7.241075
-1.7737758
2.1120944
6.0491753
-1.4900119
1.2668804
6.35602
-3.9102266
6.6052465
1.5097165
0.37709546
4.992715
-3.1179495
3.8711364
5.821709
-1.5718905
6.8273783
1.0390813
1.670323
3.962668
-1.1089001
4.155332
3.3030207
-3.0292134
7.040126
3.6482613
-2.4510384
6.900042
1.3021197
0.80509114
5.8639436
0.17232323
4.457614
4.7111535
-0.1561873
3.3047643
7.8451796
-1.3157433
4.852274
3.9893215
1.9586643
2.807338
4.8396993
3.1540046
1.6008058
3.166304
5.439079
1.6980599
1.8883667
6.1830106
3.4632373
2.462944
3.0338864
4.688714
5.964805
1.1842804
3.1008077
7.942957
2.919964
1.87188
5.1941757
5.422615
2.8321424
3.8384767
5.844493
4.139593
2.9553182
4.068446
5.996531
2.414193
3.006981
5.791645
4.0920186
3.0472791
3.5262847
4.1401772
4.0036426
3.432852
3.0731764
5.289783
2.964076
2.8676522
5.204364
3.670895
2.8604388
4.532728
3.3604052
4.002905
3.4551377
3.1907983
4.3214197
2.9444437
2.710803
4.1983247
2.8635325
2.0377436
3.912206
2.5646803
2.2864902
3.0115647
2.0326583
2.016976
2.2803032
1.5118194
1.3245394
1.3298929
0.58315706
0.9477825
0.4973929
0.23310852
0.24782228
0.23425627
-0.37546706
0.07329941
-0.18639004
-0.83190584
0.011468172
-1.3617189
-1.1614027
-1.3772304
-1.6979471
-2.088027
-2.0430017
-2.0691495
-1.9857165
-1.4096429
-2.468841
-2.0077999
-2.0457056
-1.7382851
-2.2581582
-2.0993416
-1.7449924
