-2.5806727
-4.5415726
-4.5936017
-3.2124043
-2.003129
-5.8268185
-2.9727936
-3.5762055
-3.6876798
-4.337442
-2.2196505
-4.432555
-4.3449926
-2.777081
-3.0741503
-5.2824802
-3.957123
-0.4691968
-5.4116864
-3.7299001
-1.0286336
-4.712419
-2.6138523
-3.4934816
-3.0021315
-2.18512
-3.9770753
-6.2397237
0.45809603
-5.657303
-6.0712695
-2.3678339
-2.698429
-4.5654716
0.45977688
-4.657936
-2.5288718
-1.8013408
-4.0156565
-4.9963665
-1.1163571
-6.1861677
-3.48984
-1.0467046
-5.579296
-1.0111055
-2.9386814
-3.5269608
-1.1866524
-2.9745772
-3.570411
-0.574311
-4.526615
-1.6644979
0.40190148
-4.84705
-1.8632077
-0.07989788
-5.709873
-0.93182516
-1.8296108
-3.9587579
-1.57493
-2.7776203
-4.0774302
-0.6327214
-3.3168886
-2.7739882
-1.2849472
-3.8419018
-0.3740394
-1.8200748
-3.5148103
1.677047
-5.0662174
-2.122107
-1.4236685
-3.7842898
-0.64629626
-2.4163964
-4.6087484
0.4315362
-4.0970707
-4.4779344
0.24655914
-3.4323337
-4.2207937
-1.269737
-4.9663115
-1.9530897
-2.469824
-3.5244899
-2.3075163
-2.424695
-3.232625
-1.3537822
-4.7817736
-2.854855
-1.1471646
-3.7665145
-3.86311
-2.2804413
-1.4917277
-2.8207335
-4.0499096
-2.110032
-2.4210656
-4.715307
-1.7701633
-1.6507522
-3.638777
-3.7485793
-3.5407412
-1.3725109
-4.1952267
-3.4545922
-2.1189878
-2.7724013
-3.6161366
-3.1520615
-2.2335496
-3.8897367
-2.5986252
-3.0630023
-2.517921
-2.877738
-3.2772822
-2.6549997
-2.4034903
-3.880155
-2.253281
-2.0191286
-3.542622
-2.2178657
-2.245772
-3.0941179
-2.4497182
-3.12425
-2.1358957
-1.8781164
-2.8934364
-1.9382942
-1.3108582
-3.3196313
-1.2399538
-1.7929859
-2.100769
-1.4680853
-1.8730146
-2.231668
-1.3211794
-1.8597208
-1.7643192
-0.5590378
-1.9007185
-1.0012552
-1.0723385
-1.0136158
-1.277454
0.07324517
-1.255089
0.023763537
-0.22803748
-0.43780285
0.14453018
0.11947036
0.044382095
-0.08969617
0.75612634
-0.43723264
1.0179636
-0.03634551
0.9520128
0.5537259
0.90419817
0.99258953
1.0686374
1.228044
0.70148075
1.3967018
0.6728301
1.6451532
0.958898
1.0277268
1.0871874
1.2985594
1.1503273
