8.732607
10.380898
9.339648
8.177102
10.852594
9.897825
8.735078
10.416918
9.631152
9.508365
9.319365
9.481127
9.2015915
10.00792
9.10286
7.9363623
10.613007
9.92813
7.9744115
9.39727
8.927762
8.143079
9.3690605
9.206741
8.968479
9.4080925
9.530462
7.924823
9.467822
9.43099
8.82313
8.951798
10.276704
8.714837
9.615385
8.429929
8.2723675
9.879899
8.955821
7.162598
9.003508
9.152815
7.658644
9.3636055
9.102642
7.0283966
8.15627
9.864917
9.233465
8.751514
8.971161
9.14282
9.652613
10.4090805
9.060984
8.374197
9.3642235
9.723
7.2600956
9.18434
8.545446
8.058644
8.331945
7.836294
8.418392
8.439469
8.029356
8.613302
7.502068
8.8011265
9.3001375
7.906166
8.496699
10.590182
9.544021
9.055952
9.770621
9.89413
9.340611
10.52376
9.784429
8.875424
10.789465
9.398554
9.543728
9.951365
9.287127
8.920712
9.519084
9.097963
8.90756
8.798093
8.736748
9.274556
8.713224
7.609886
9.058079
7.793141
7.7829204
10.56858
7.3782334
7.732783
10.827147
8.440421
7.6890182
10.819076
8.542058
7.877319
11.196611
8.932917
9.544703
10.299666
8.623784
9.965166
9.904524
8.568306
9.661682
10.186581
8.625313
9.799521
8.564346
9.367939
9.821716
8.934263
7.7192187
9.910294
10.069426
8.679104
8.681077
10.305018
8.756074
9.424989
9.03324
8.088951
8.630575
9.591589
9.792533
8.755349
8.7022505
9.514514
7.467193
8.338281
9.14257
8.458731
9.667258
9.169128
8.164827
10.209264
8.128217
8.554212
10.44048
9.066937
8.450207
10.148642
10.411426
9.559378
8.019164
10.994603
9.081051
7.6148276
9.435208
11.897071
9.815027
5.788111
7.6937575
12.300932
9.507754
7.457397
7.7895584
10.348893
8.239928
9.330036
8.0020275
7.6999974
9.515743
8.580958
9.09806
8.849406
8.5622015
8.60634
10.1806755
7.820312
8.649071
9.043063
9.2425995
8.787598
9.142955
8.662701
9.766066
8.30696
8.673579
8.981604
9.16234
