x,y,z,Event Time,Event Type,Frame,x_modified,y_modified,z_modified
-2.294007835,0.423422128,-0.691034675,15.20103423,-1,489,-0.573501959,0.105855532,-0.172758669
-0.227369843,-1.408839703,-1.328320742,15.30103423,-1,490,-0.056842461,-0.352209926,-0.332080185
-0.931266365,1.377496243,0.748785496,15.40103423,-1,491,-0.232816591,0.344374061,0.187196374
0.818390312,0.731738269,-2.356874943,15.50103423,-1,492,0.204597578,0.182934567,-0.589218736
1.280922356,-2.54695034,-0.132316634,15.60103424,-1,493,0.320230589,-0.636737585,-0.033079159
0.362771454,2.707411289,-0.811815143,15.70103424,-1,494,0.090692863,0.676852822,-0.202953786
-3.951484737,1.58688736,-2.516360044,15.80103424,-1,495,-0.987871184,0.39672184,-0.629090011
-0.356990395,-1.287189841,0.359656751,15.90103424,-1,496,-0.089247599,-0.32179746,0.089914188
1.390544357,-1.591374516,-2.512240171,16.00103424,-1,497,0.347636089,-0.397843629,-0.628060043
-0.589855728,0.206971139,-0.853856027,16.10103424,-1,498,-0.147463932,0.051742785,-0.213464007
1.011414948,-3.533168316,-0.438092619,16.30103425,5,500,0.252853737,-0.883292079,-0.109523155
-0.672228394,-1.4893291,-2.095616817,16.40103425,5,501,-0.168057098,-0.372332275,-0.523904204
-0.351501999,-5.725212574,-0.848924816,16.50103425,5,502,-0.0878755,-1.431303144,-0.212231204
-1.340971527,-5.523432732,0.221903771,16.60103425,5,503,-0.335242882,-1.380858183,0.055475943
-0.465050278,-5.841398239,-0.508920372,16.70103425,5,504,-0.116262569,-1.46034956,-0.127230093
1.680148544,-7.512272835,2.960726738,16.80103425,5,505,0.420037136,-1.878068209,0.740181684
-1.394589005,-7.392002106,0.061187536,16.90103425,5,506,-0.348647251,-1.848000526,0.015296884
0.100696983,-6.643828869,-1.657284856,17.00103426,5,507,0.025174246,-1.660957217,-0.414321214
-0.500759659,-5.276750565,-0.096572921,17.10103426,5,508,-0.125189915,-1.319187641,-0.02414323
0.244829597,-5.335775375,-0.039216738,17.20103426,5,509,0.061207399,-1.333943844,-0.009804185
1.638286057,0.192735732,1.009642482,17.30103426,5,510,0.409571514,0.048183933,0.25241062
2.159600677,2.884941339,1.151275635,17.40103426,5,511,0.539900169,0.721235335,0.287818909
0.484085503,2.306583881,1.385697365,17.50103426,5,512,0.121021376,0.57664597,0.346424341
-0.611811218,4.871912003,-0.688899457,17.60103427,5,513,-0.152952805,1.217978001,-0.172224864
-1.160669861,2.766608,-0.152450621,17.70103427,5,514,-0.290167465,0.691652,-0.038112655
-0.26259285,3.895947695,-0.38922736,17.80103427,5,515,-0.065648212,0.973986924,-0.09730684
-1.410103378,4.093344212,-1.064177513,17.90103427,5,516,-0.352525845,1.023336053,-0.266044378
-1.256438789,1.254861832,-0.100859232,18.00103427,5,517,-0.314109697,0.313715458,-0.025214808
-0.660517273,1.87282443,0.434478104,18.10103427,5,518,-0.165129318,0.468206108,0.108619526
-0.177174149,4.964579582,0.277420849,18.20103427,5,519,-0.044293537,1.241144896,0.069355212
0.432888451,4.506942749,1.479606748,18.30103428,5,520,0.108222113,1.126735687,0.369901687
0.65741581,3.439091206,-0.327214956,18.40103428,5,521,0.164353952,0.859772801,-0.081803739
0.202980461,4.990867615,0.001800001,18.50103428,5,522,0.050745115,1.247716904,0.00045
-2.00640255,3.959241629,-0.123910435,18.60103428,5,523,-0.501600637,0.989810407,-0.030977609
0.642922821,3.205906153,0.697180212,18.70103428,5,524,0.160730705,0.801476538,0.174295053
1.344829979,3.569932938,-0.752446771,18.80103428,5,525,0.336207495,0.892483234,-0.188111693
1.819609108,0.434021324,-0.3266294,18.90103428,5,526,0.454902277,0.108505331,-0.08165735
0.158164444,2.128940582,0.912573397,19.00103429,5,527,0.039541111,0.532235146,0.228143349
-2.456587372,1.470939875,1.93802166,19.10103429,5,528,-0.614146843,0.367734969,0.484505415
2.606942596,-2.008230925,3.05227232,19.20103429,-1,529,0.651735649,-0.502057731,0.76306808
0.061990204,-0.575637043,1.184832215,19.30103429,-1,530,0.015497551,-0.143909261,0.296208054
0.616454544,-1.447712302,-2.478621244,19.40103429,-1,531,0.154113636,-0.361928076,-0.619655311
-1.781569061,1.030061245,-0.711781681,19.50103429,-1,532,-0.445392265,0.257515311,-0.17794542
