x,y,z,Event Time,Event Type,Frame,x_modified,y_modified,z_modified
-0.283752022,0.501760364,0.938058496,31.71071786,-1,2336,-0.070938005,0.125440091,0.234514624
2.057073059,-0.061220624,-0.770490825,31.81071786,-1,2337,0.514268265,-0.015305156,-0.192622706
-0.364281235,1.083417654,-1.951254964,31.91071786,-1,2338,-0.091070309,0.270854414,-0.487813741
-2.113911686,-0.476479173,2.004070759,32.01071786,-1,2339,-0.528477921,-0.119119793,0.50101769
0.30785984,1.540830016,-1.058004022,32.11071786,-1,2340,0.07696496,0.385207504,-0.264501005
0.246798935,-1.34104228,-2.399781227,32.21071786,-1,2341,0.061699734,-0.33526057,-0.599945307
-0.033468781,-0.899398208,1.440944195,32.31071787,-1,2342,-0.008367195,-0.224849552,0.360236049
0.075663033,-0.956136346,0.321656257,32.41071787,-1,2343,0.018915758,-0.239034086,0.080414064
0.575818481,-1.712990761,-0.046596035,32.51071787,-1,2344,0.14395462,-0.42824769,-0.011649009
-0.160527763,0.720813692,1.295572877,32.61071787,-1,2345,-0.040131941,0.180203423,0.323893219
-0.56316143,-2.769114733,99.9,32.81071787,-1,2347,-0.140790358,-0.692278683,24.975
0.533014717,1.399360895,3.660991192,32.91071787,-1,2348,0.133253679,0.349840224,0.915247798
1.533945503,0.091713019,0.731638908,33.01071788,-1,2349,0.383486376,0.022928255,0.182909727
0.490543785,0.919266403,-0.276466072,33.11071788,-1,2350,0.122635946,0.229816601,-0.069116518
0.509705009,1.91232121,1.116850019,33.21071788,-1,2351,0.127426252,0.478080302,0.279212505
1.258847656,-0.506331563,1.618643165,33.31071788,-1,2352,0.314711914,-0.126582891,0.404660791
-0.999680099,-1.208873034,0.966507912,33.41071788,-1,2353,-0.249920025,-0.302218258,0.241626978
-1.808397827,0.010424953,-0.811532795,33.51071788,-1,2354,-0.452099457,0.002606238,-0.202883199
1.116646233,0.537964165,-1.325126648,33.61071789,-1,2355,0.279161558,0.134491041,-0.331281662
2.286818924,0.663680196,-2.991798162,33.71071789,-1,2356,0.571704731,0.165920049,-0.747949541
2.883484306,-1.042007804,-0.783558905,33.81071789,-1,2357,0.720871077,-0.260501951,-0.195889726
0.266630592,1.072495222,0.898983359,33.91071789,-1,2358,0.066657648,0.268123806,0.22474584
2.065603676,0.411431462,-0.650155663,34.01071789,-1,2359,0.516400919,0.102857865,-0.162538916
2.006061974,0.554944396,0.505565703,34.11071789,-1,2360,0.501515493,0.138736099,0.126391426
-0.251215515,-0.460977733,-1.532922506,34.21071789,-1,2361,-0.062803879,-0.115244433,-0.383230627
0.201356354,-0.430706799,1.307522058,34.3107179,-1,2362,0.050339088,-0.1076767,0.326880515
0.585353317,0.383869439,-0.413082242,34.4107179,0,2363,0.146338329,0.09596736,-0.103270561
0.456608238,0.347934842,0.23904644,34.5107179,0,2364,0.11415206,0.086983711,0.05976161
0.20639843,0.756721139,-0.863314748,34.6107179,0,2365,0.051599607,0.189180285,-0.215828687
0.404103699,-0.782340825,-1.515922189,34.7107179,0,2366,0.101025925,-0.195585206,-0.378980547
-0.834554253,0.770883739,-1.717907786,34.8107179,0,2367,-0.208638563,0.192720935,-0.429476947
0.583305779,-1.015180945,0.051704597,34.9107179,0,2368,0.145826445,-0.253795236,0.012926149
0.029483261,-1.785490036,0.009956551,35.01071791,0,2369,0.007370815,-0.446372509,0.002489138
-0.384818611,-1.408661962,0.985290825,35.11071791,0,2370,-0.096204653,-0.35216549,0.246322706
0.105073395,0.744632483,1.030139327,35.21071791,0,2371,0.026268349,0.186158121,0.257534832
0.019680443,0.266324222,-0.68201369,35.31071791,0,2372,0.004920111,0.066581056,-0.170503423
-2.29395443,0.423113883,-0.691199422,35.41071791,0,2373,-0.573488607,0.105778471,-0.172799855
-0.227175293,-1.409694552,-1.328493834,35.51071791,0,2374,-0.056793823,-0.352423638,-0.332123458
-0.93120533,1.377008438,0.750493109,35.61071791,0,2375,-0.232801332,0.34425211,0.187623277
0.818462791,0.731366694,-2.357665777,35.71071792,0,2376,0.204615698,0.182841673,-0.589416444
1.28092617,-2.547746181,-0.13123861,35.81071792,0,2377,0.320231543,-0.636936545,-0.032809652
0.362836304,2.706961632,-0.812607169,35.91071792,0,2378,0.090709076,0.676740408,-0.203151792
-3.951431332,1.586555958,-2.514650106,36.01071792,0,2379,-0.987857833,0.396638989,-0.628662527
-0.356940804,-1.288020611,0.358233839,36.11071792,0,2380,-0.089235201,-0.322005153,0.08955846
1.390410843,-1.592004776,-2.511784792,36.21071792,0,2381,0.347602711,-0.398001194,-0.627946198
-0.589794693,0.206722096,-0.852769732,36.31071793,0,2382,-0.147448673,0.051680524,-0.213192433
-0.541367111,2.501651764,-2.756033421,36.41071793,0,2383,-0.135341778,0.625412941,-0.689008355
1.025639954,-2.101721287,-0.46796155,36.51071793,0,2384,0.256409988,-0.525430322,-0.116990387
-0.657133636,0.978231251,-2.21180582,36.61071793,0,2385,-0.164283409,0.244557813,-0.552951455
-0.312516747,-0.674695313,-1.035521865,36.71071793,0,2386,-0.078129187,-0.168673828,-0.258880466
-1.283920822,0.600806594,-0.013377054,36.81071793,0,2387,-0.320980206,0.150201648,-0.003344263
-0.395161209,0.737013817,-0.764347374,36.91071793,0,2388,-0.098790302,0.184253454,-0.191086844
1.756370964,-0.739664853,2.690616131,37.01071794,0,2389,0.439092741,-0.184916213,0.672654033
-1.314875183,-0.535168946,-0.211989999,37.11071794,0,2390,-0.328718796,-0.133792236,-0.0529975
0.181502762,0.249653742,-1.935802221,37.21071794,0,2391,0.04537569,0.062413435,-0.483950555
-0.481319008,-0.574740648,-0.169261619,37.31071794,0,2392,-0.120329752,-0.143685162,-0.042315405
0.254645767,-2.205491304,0.043597158,37.41071794,-1,2393,0.063661442,-0.551372826,0.01089929
1.639749947,-0.655919611,1.048436165,37.51071794,-1,2394,0.409937487,-0.163979903,0.262109041
2.153934898,0.464343101,1.132019997,37.61071794,-1,2395,0.538483725,0.116085775,0.283004999
0.506401482,-0.739225805,1.339130282,37.71071795,-1,2396,0.12660037,-0.184806451,0.334782571
-0.588972626,1.570538282,-0.747940719,37.81071795,-1,2397,-0.147243156,0.392634571,-0.18698518
-1.137167511,-0.639224112,-0.218230173,37.91071795,-1,2398,-0.284291878,-0.159806028,-0.054557543
-0.239861069,0.445789367,-0.457198113,38.01071795,-1,2399,-0.059965267,0.111447342,-0.114299528
-1.387611923,0.624389946,-1.135900021,38.11071795,-1,2400,-0.346902981,0.156097487,-0.283975005
-1.234482346,-2.220967531,-0.166725025,38.21071795,-1,2401,-0.308620586,-0.555241883,-0.041681256
-0.639040527,-1.606865287,0.363878518,38.31071796,-1,2402,-0.159760132,-0.401716322,0.09096963
-0.155702171,1.483388901,0.209297776,38.41071796,-1,2403,-0.038925543,0.370847225,0.052324444
0.454256477,1.025431395,1.408816814,38.51071796,-1,2404,0.113564119,0.256357849,0.352204204
0.678594055,-0.042910203,-0.394505411,38.61071796,-1,2405,0.169648514,-0.010727551,-0.098626353
0.224259796,1.508738279,-0.068291225,38.71071796,-1,2406,0.056064949,0.37718457,-0.017072806
-1.988141594,0.480445117,-0.194456711,38.81071796,-1,2407,-0.497035398,0.120111279,-0.048614178
0.671479645,0.479539931,0.599647701,38.91071796,-1,2408,0.167869911,0.119884983,0.149911925
1.35605854,1.373152494,-0.812868297,39.01071797,-1,2409,0.339014635,0.343288124,-0.203217074
1.816404762,-0.433264136,-0.343411982,39.11071797,-1,2410,0.454101191,-0.108316034,-0.085852996
0.153580132,1.786494851,0.908344865,39.21071797,-1,2411,0.038395033,0.446623713,0.227086216
-2.460122643,1.33516252,1.933628917,39.31071797,-1,2412,-0.615030661,0.33379063,0.483407229
2.604841652,-2.062864304,3.054292679,39.41071797,-1,2413,0.651210413,-0.515716076,0.76357317
0.060857239,-0.597926736,1.186169147,39.51071797,-1,2414,0.01521431,-0.149481684,0.296542287
0.61579174,-1.457267642,-2.480818748,39.61071797,-1,2415,0.153947935,-0.364316911,-0.620204687
-1.781939087,1.025503159,-0.708893955,39.71071798,-1,2416,-0.445484772,0.25637579,-0.177223489
0.133179131,0.608798206,-0.754752338,39.81071798,-1,2417,0.033294783,0.152199551,-0.188688084
-2.561834869,-0.200127646,-0.671577275,39.91071798,-1,2418,-0.640458717,-0.050031912,-0.167894319
0.235151711,-1.131500244,-0.976350904,40.01071798,-1,2419,0.058787928,-0.282875061,-0.244087726
-0.128897247,-0.306125522,0.552777588,40.11071798,-1,2420,-0.032224312,-0.07653138,0.138194397
-0.066012917,1.911783457,2.239596367,40.21071798,-1,2421,-0.016503229,0.477945864,0.559899092
-0.372102318,-1.11597991,-1.850039601,40.31071799,-1,2422,-0.093025579,-0.278994977,-0.4625099
1.455265465,0.005461342,-0.263360679,40.41071799,-1,2423,0.363816366,0.001365335,-0.06584017
-0.245463905,1.454358339,0.572630703,40.51071799,-1,2424,-0.061365976,0.363589585,0.143157676
0.916538658,-0.178622246,1.628334165,40.61071799,-1,2425,0.229134665,-0.044655561,0.407083541
2.556312027,0.501066029,0.314231724,40.71071799,-1,2426,0.639078007,0.125266507,0.078557931
-0.638295708,0.693909466,-1.218753457,40.81071799,-1,2427,-0.159573927,0.173477367,-0.304688364
-0.057662544,0.158146292,-0.695839286,40.91071799,-1,2428,-0.014415636,0.039536573,-0.173959821
0.437426033,-0.820157111,0.035684735,41.010718,-1,2429,0.109356508,-0.205039278,0.008921184
-0.811499176,-1.218577981,0.443540186,41.110718,-1,2430,-0.202874794,-0.304644495,0.110885046
1.128765526,0.363806665,-1.512265682,41.210718,-1,2431,0.282191381,0.090951666,-0.378066421
0.027859154,0.552256465,0.094966099,41.310718,-1,2432,0.006964788,0.138064116,0.023741525
-1.283303795,-0.55967474,-0.718804121,41.410718,-1,2433,-0.320825949,-0.139918685,-0.17970103
-2.453661499,-0.417555869,-1.066319466,41.510718,-1,2434,-0.613415375,-0.104388967,-0.266579866
1.685675087,1.120723724,1.282215357,41.610718,-1,2435,0.421418772,0.280180931,0.320553839
-1.290563164,0.872668207,-0.706520319,41.71071801,-1,2436,-0.322640791,0.218167052,-0.17663008
0.792470398,2.484326839,1.262663484,41.81071801,-1,2437,0.198117599,0.62108171,0.315665871
-0.353471336,0.539453387,1.87246418,41.91071801,-1,2438,-0.088367834,0.134863347,0.468116045
-0.652234612,-0.127292246,2.116513729,42.01071801,-1,2439,-0.163058653,-0.031823061,0.529128432
-1.119113503,-0.035429806,0.301129371,42.11071801,-1,2440,-0.279778376,-0.008857451,0.075282343
-0.057050285,-0.441884577,1.247826815,42.21071801,-1,2441,-0.014262571,-0.110471144,0.311956704
-1.571369705,0.548659265,-1.246589303,42.31071801,-1,2442,-0.392842426,0.137164816,-0.311647326
1.49399704,-1.529102087,-0.455123603,42.41071802,-1,2443,0.37349926,-0.382275522,-0.113780901
0.369268837,0.446126252,-1.387921214,42.51071802,-1,2444,0.092317209,0.111531563,-0.346980304
-0.235707817,-1.529013276,1.407129645,42.61071802,-1,2445,-0.058926954,-0.382253319,0.351782411
0.671370926,0.801081598,1.532692552,42.71071802,-1,2446,0.167842731,0.200270399,0.383173138
-1.010994492,-0.11460989,-3.271575689,42.81071802,-1,2447,-0.252748623,-0.028652472,-0.817893922
2.277918282,-1.986047029,-1.58554256,42.91071802,-1,2448,0.56947957,-0.496511757,-0.39638564
-0.494230804,-1.900481105,-0.204889029,43.01071803,-1,2449,-0.123557701,-0.475120276,-0.051222257
-1.277411041,-0.511809051,-0.963551044,43.11071803,-1,2450,-0.31935276,-0.127952263,-0.240887761
0.447637024,2.160819769,-0.713713944,43.21071803,-1,2451,0.111909256,0.540204942,-0.178428486
-2.589555321,1.592045307,-2.439038754,43.31071803,-1,2452,-0.64738883,0.398011327,-0.609759688
0.310699883,-0.920499563,0.49038893,43.41071803,-1,2453,0.077674971,-0.230124891,0.122597232
0.914721909,-0.730927587,1.283614516,43.51071803,-1,2454,0.228680477,-0.182731897,0.320903629
0.870850983,1.141931534,3.726464748,43.61071803,-1,2455,0.217712746,0.285482883,0.931616187
-2.443725643,0.064157806,2.318657875,43.71071804,-1,2456,-0.610931411,0.016039452,0.579664469
-2.023401794,2.478982449,2.839357138,43.81071804,-1,2457,-0.505850449,0.619745612,0.709839284
0.487692299,2.180227757,-0.067271218,43.91071804,-1,2458,0.121923075,0.545056939,-0.016817804
0.227998199,0.449252337,2.592516899,44.01071804,-1,2459,0.05699955,0.112313084,0.648129225
1.670154991,-0.373802036,-1.580768943,44.11071804,-1,2460,0.417538748,-0.093450509,-0.395192236
-0.781587181,-1.832083583,-0.919895828,44.21071804,-1,2461,-0.195396795,-0.458020896,-0.229973957
2.576532784,1.050611019,1.124920487,44.31071804,-1,2462,0.644133196,0.262652755,0.281230122
-3.44220787,-0.435664147,-2.449842691,44.41071805,-1,2463,-0.860551968,-0.108916037,-0.612460673
-0.295592842,-1.097288966,0.710221231,44.51071805,-1,2464,-0.073898211,-0.274322242,0.177555308
-1.136329231,1.322848082,0.468380153,44.61071805,-1,2465,-0.284082308,0.33071202,0.117095038
-0.831484375,0.358831108,-1.279028058,44.71071805,-1,2466,-0.207871094,0.089707777,-0.319757015
0.754945221,1.119288325,-1.330929518,44.81071805,-1,2467,0.188736305,0.279822081,-0.332732379
-0.17156559,-0.421036124,-2.756396055,44.91071805,-1,2468,-0.042891397,-0.105259031,-0.689099014
2.022995415,-0.098379821,-1.031659007,45.01071806,-1,2469,0.505748854,-0.024594955,-0.257914752
-0.559155998,-0.213856727,-0.3482216,45.11071806,-1,2470,-0.139789,-0.053464182,-0.0870554
0.072015228,2.059724569,-0.706918538,45.21071806,-1,2471,0.018003807,0.514931142,-0.176729634
1.527993622,0.060452312,-0.376555204,45.31071806,-1,2472,0.381998405,0.015113078,-0.094138801
0.692182961,-1.257918596,-0.021624435,45.41071806,-1,2473,0.17304574,-0.314479649,-0.005406109
-2.666542587,-0.618488908,-0.666631162,45.51071806,-1,2474,-0.666635647,-0.154622227,-0.166657791
-0.327883301,0.725306153,-0.831849098,45.61071806,-1,2475,-0.081970825,0.181326538,-0.207962275
1.122138443,-0.136896759,0.450134665,45.71071807,-1,2476,0.280534611,-0.03422419,0.112533666
1.765102806,-0.171245694,-0.915879369,45.81071807,-1,2477,0.441275702,-0.042811424,-0.228969842
-0.280500946,-0.833367944,1.154778242,45.91071807,-1,2478,-0.070125237,-0.208341986,0.288694561
-1.663012085,-0.645849049,-1.247786641,46.01071807,-1,2479,-0.415753021,-0.161462262,-0.31194666
-1.939933357,-2.71785903,3.435925961,46.11071807,-1,2480,-0.484983339,-0.679464757,0.85898149
7.421737137,-0.243419901,-0.676688194,46.21071807,-1,2481,1.855434284,-0.060854975,-0.169172049
1.92559761,1.20279634,0.508111596,46.31071807,-1,2482,0.481399403,0.300699085,0.127027899
-5.751577435,1.390060544,2.461937904,46.41071808,-1,2483,-1.437894359,0.347515136,0.615484476
-0.376701889,-1.862941504,0.451855779,46.51071808,-1,2484,-0.094175472,-0.465735376,0.112963945
2.134526672,0.543755233,-44.32154465,46.61071808,-1,2485,0.533631668,0.135938808,-11.08038616
