-0.26185197
0.61808956
0.028587744
-0.608088
-1.2355986
-0.9395468
1.2436455
-0.6430164
-0.64747155
-0.6276704
-1.3259078
-0.23555386
1.9164945
-1.9283777
-2.4520779
0.9916824
0.8681209
-1.4144804
0.46767306
1.0089447
-1.6106396
-0.49947634
1.7371291
0.94412625
-1.8150423
0.8576652
1.1254499
0.22578314
-0.57168865
1.7905881
0.64743716
-1.0760243
0.07895991
2.049875
-1.4832278
-0.14720304
1.3777933
-0.70945096
0.10699496
0.77239084
-0.8709968
-0.71693504
1.1458178
-0.80257416
-1.0419681
0.7812516
0.13868578
-1.6742964
0.9656162
0.38707244
-1.3630259
0.058514357
1.3120137
-0.9856989
0.86680174
1.5042534
-0.2742755
0.0873878
1.5091854
0.551888
-0.5679146
2.2056508
1.0417564
-0.1213066
1.3060799
1.6817652
-0.14921808
0.55900043
1.6269115
-0.3302474
-1.0927494
2.2112648
1.4874626
-1.1537609
0.03835094
1.6142617
0.34113148
-0.18638584
1.061731
1.414701
-0.9277849
0.78250325
1.4318331
-0.6659056
0.49360514
0.43399006
1.635047
-0.5900763
1.5521638
1.3528769
1.6727649
0.9861944
1.6611207
2.295426
1.6629808
3.1447084
1.9477738
1.9880445
2.656991
1.9945287
0.6107452
2.8960598
0.30862957
1.695672
0.2989072
0.9884687
1.2200887
-0.36534935
-0.17220154
1.296822
0.13223204
0.0056591034
1.0350003
1.0286794
0.74438584
-0.9932239
0.38933578
0.45049393
-0.118907094
-1.2030511
0.08948597
-0.82706976
-0.26954293
-0.42762673
-0.4705308
-0.063724756
