x,y,z,Event Time,Event Type,Frame,x_modified,y_modified,z_modified
-0.588923035,1.570067406,-0.747879803,639.9808125,-1,7395,-0.147230759,0.392516851,-0.186969951
-1.137388763,-0.639864981,-0.216921777,640.0808125,-1,7396,-0.284347191,-0.159966245,-0.054230444
-0.239731369,0.445280522,-0.454637438,640.1808125,-1,7397,-0.059932842,0.111320131,-0.11365936
-1.387627182,0.62391907,-1.135844231,640.2808126,-1,7398,-0.346906796,0.155979767,-0.283961058
-1.234531937,-2.221613646,-0.165416583,640.3808126,-1,7399,-0.308632984,-0.555403411,-0.041354146
-0.638971863,-1.607217908,0.366441488,640.4808126,-1,7400,-0.159742966,-0.401804477,0.091610372
-0.155744133,1.482923269,0.209358767,640.5808126,-1,7401,-0.038936033,0.370730817,0.052339692
0.454229774,1.024712443,1.410124063,640.6808126,-1,7402,0.113557444,0.256178111,0.352531016
0.678563538,-0.043340947,-0.391943574,640.7808126,-1,7403,0.169640884,-0.010835237,-0.097985893
0.224339905,1.508267522,-0.068230294,640.8808126,2,7404,0.056084976,0.37706688,-0.017057573
0.671809616,-2.758179188,0.105732441,641.0808126,2,7406,0.167952404,-0.689544797,0.02643311
1.330799522,-4.734289169,-2.891583204,641.1808126,2,7407,0.332699881,-1.183572292,-0.722895801
1.725194397,-8.163851738,-2.358435154,641.2808126,2,7408,0.431298599,-2.040962934,-0.589608788
0.001234474,-7.774207115,-0.104906023,641.3808126,2,7409,0.000308619,-1.943551779,-0.026226506
-2.648241577,-9.527093887,2.222414494,641.4808126,2,7410,-0.662060394,-2.381773472,0.555603623
2.406228485,-13.37220573,4.349566936,641.5808126,2,7411,0.601557121,-3.343051434,1.087391734
-0.1189571,-11.63176918,2.48786974,641.6808126,2,7412,-0.029739275,-2.907942295,0.621967435
0.449025574,-12.32372856,-1.255426168,641.7808126,2,7413,0.112256393,-3.08093214,-0.313856542
-1.941853104,-9.733939171,0.471908748,641.8808126,2,7414,-0.485463276,-2.433484793,0.117977187
-0.025023041,-10.10120201,0.421198368,641.9808126,2,7415,-0.00625576,-2.525300503,0.105299592
-2.719337997,-10.88743496,0.510016441,642.0808126,2,7416,-0.679834499,-2.72185874,0.12750411
0.076044502,-11.82827759,0.205404758,642.1808126,2,7417,0.019011126,-2.957069397,0.05135119
-0.289897499,-11.0067873,1.743150711,642.2808126,2,7418,-0.072474375,-2.751696825,0.435787678
-0.227912483,-8.795583725,3.433000088,642.3808126,2,7419,-0.056978121,-2.198895931,0.858250022
-0.554739532,-12.52702522,0.921496987,642.4808126,2,7420,-0.138684883,-3.131756306,0.230374247
1.325874748,-8.040472031,6.070598125,642.5808126,2,7421,0.331468687,-2.010118008,1.517649531
-0.259910164,-4.866483212,2.997951269,642.6808126,2,7422,-0.064977541,-1.216620803,0.749487817
0.961158218,-4.144263744,1.762847066,642.7808126,2,7423,0.240289555,-1.036065936,0.440711766
2.582965317,-0.244551718,0.303087324,642.8808126,2,7424,0.645741329,-0.06113793,0.075771831
-0.632667122,0.541936517,-1.229050398,642.9808126,2,7425,-0.15816678,0.135484129,-0.307262599
-0.063168106,0.124977216,-0.702383935,643.0808126,-1,7426,-0.015792027,0.031244304,-0.175595984
0.427534523,-0.835422039,0.034729645,643.1808126,-1,7427,0.106883631,-0.20885551,0.008682411
-0.82185894,-1.227907658,0.440863729,643.2808126,-1,7428,-0.205464735,-0.306976914,0.110215932
1.118996086,0.361027986,-1.511149764,643.3808126,-1,7429,0.279749022,0.090256996,-0.377787441
0.019634666,0.547784984,0.094878674,643.4808126,-1,7430,0.004908667,0.136946246,0.023719668
-1.290204582,-0.563381732,-0.716017246,643.5808126,-1,7431,-0.322551146,-0.140845433,-0.179004312
-2.458986816,-0.413522154,-1.066560984,643.6808126,-1,7432,-0.614746704,-0.103380539,-0.266640246
1.668755951,1.120124221,1.288990021,643.7808126,-1,7433,0.417188988,0.280031055,0.322247505
-1.271859703,0.869811416,-0.711469889,643.8808126,-1,7434,-0.317964926,0.217452854,-0.177867472
0.781903687,2.487145424,1.264753342,643.9808126,-1,7435,0.195475922,0.621786356,0.316188335
-0.356465874,0.536420584,1.876144767,644.0808126,-1,7436,-0.089116468,0.134105146,0.469036192
-0.653813896,-0.125618294,2.115656376,644.1808126,-1,7437,-0.163453474,-0.031404573,0.528914094
-1.120341835,-0.038191997,0.304451436,644.2808126,-1,7438,-0.280085459,-0.009547999,0.076112859
