x,y,z,Event Time,Event Type,Frame,x_modified,y_modified,z_modified
-2.113877354,-0.476585329,2.003258705,693.5808133,-1,7931,-0.528469338,-0.119146332,0.500814676
0.307848396,1.540548921,-1.057568312,693.6808133,-1,7932,0.076962099,0.38513723,-0.264392078
0.246818008,-1.341314077,-2.399970531,693.7808133,-1,7933,0.061704502,-0.335328519,-0.599992633
-0.033529816,-0.899435639,1.440758467,693.8808133,-1,7934,-0.008382454,-0.22485891,0.360189617
0.075739326,-0.956408083,0.321466982,693.9808134,-1,7935,0.018934832,-0.239102021,0.080366746
0.575829926,-1.713184357,-0.04678414,694.0808134,-1,7936,0.143957481,-0.428296089,-0.011696035
-0.160600243,0.720620036,1.295384765,694.1808134,-1,7937,-0.040150061,0.180155009,0.323846191
-1.817660866,3.831252337,-0.569534659,694.2808134,-1,7938,-0.454415216,0.957813084,-0.142383665
-1.073798714,-2.756692648,-1.245257974,694.3808134,-1,7939,-0.268449678,-0.689173162,-0.311314493
0.847258034,1.387314916,-1.795363426,694.4808134,-1,7940,0.211814508,0.346828729,-0.448840857
0.391688766,0.916904807,-1.631164908,694.6808134,4,7942,0.097922192,0.229226202,-0.407791227
0.476050797,1.911423922,-5.721960068,694.7808134,4,7943,0.119012699,0.47785598,-1.430490017
1.222743454,-0.507176042,-10.23957729,694.8808134,4,7944,0.305685863,-0.12679401,-2.559894323
-1.051104126,-1.209626198,-11.75205231,694.9808134,4,7945,-0.262776031,-0.302406549,-2.938013077
-1.855680523,0.009757635,-13.55535793,695.0808134,4,7946,-0.463920131,0.002439409,-3.388839483
1.073451462,0.537800968,-14.05213356,695.1808134,4,7947,0.268362865,0.134450242,-3.51303339
2.245278778,0.662731826,-15.6938858,695.2808134,4,7948,0.561319695,0.165682957,-3.923471451
2.842171135,-1.042438865,-13.46302128,695.3808134,4,7949,0.710542784,-0.260609716,-3.36575532
0.225090446,1.072132468,-11.75449467,695.4808134,4,7950,0.056272612,0.268033117,-2.938623667
2.0237183,0.410704195,-13.2793932,695.5808134,4,7951,0.505929575,0.102676049,-3.319848299
1.963675919,0.554283679,-12.10217381,695.6808134,4,7952,0.49091898,0.13857092,-3.025543451
-0.293880043,-0.461263001,-14.11880589,695.7808134,4,7953,-0.073470011,-0.11531575,-3.529701471
0.13347477,-0.431265205,-11.24952507,695.8808134,4,7954,0.033368692,-0.107816301,-2.812381268
0.560565414,0.38316384,-12.94996929,695.9808134,4,7955,0.140141354,0.09579096,-3.237492323
0.424467506,0.347591162,-12.29030895,696.0808134,4,7956,0.106116877,0.08689779,-3.072577238
0.163112106,0.754822373,-13.38080311,696.1808134,4,7957,0.040778027,0.188705593,-3.345200777
0.351329269,-0.777588665,-11.3403635,696.2808134,4,7958,0.087832317,-0.194397166,-2.835090876
-0.864538727,0.766828597,-2.206080437,696.3808134,4,7959,-0.216134682,0.191707149,-0.551520109
0.598594131,-1.015437484,0.027799547,696.4808134,4,7960,0.149648533,-0.253859371,0.006949887
0.04405159,-1.786345363,-0.006278908,696.5808134,-1,7961,0.011012897,-0.446586341,-0.001569727
-0.365683136,-1.408964753,0.96343559,696.6808134,-1,7962,-0.091420784,-0.352241188,0.240858898
0.105297508,0.744146883,1.025793433,696.7808134,-1,7963,0.026324377,0.186036721,0.256448358
0.019710007,0.265751004,-0.685735822,696.8808134,-1,7964,0.004927502,0.066437751,-0.171433955
-2.293875275,0.422453105,-0.69429785,696.9808134,-1,7965,-0.573468819,0.105613276,-0.173574463
-0.227172432,-1.410023928,-1.332837343,697.0808134,-1,7966,-0.056793108,-0.352505982,-0.333209336
