1.1738691
4.137065
1.2021611
4.381561
3.9431818
1.2775288
4.5887027
5.1675625
-0.7288747
3.5862865
7.0219145
1.6491508
1.6944182
6.709504
3.2416697
1.3451695
4.50549
5.1534066
1.9086627
2.4751518
4.855355
2.4539511
5.2780423
1.7609878
3.9019518
4.4790945
1.4875382
3.963821
4.016632
3.0351162
4.1390996
4.6221027
2.488678
3.5080223
5.2984395
3.3301551
3.786156
3.4478855
3.3317351
4.551972
2.18817
4.552238
3.9705446
3.0168223
4.0954647
3.9360976
3.5764856
3.5733786
3.2100987
2.5537217
5.0830636
3.6506188
2.6706998
4.753373
3.7412233
2.688987
4.1605816
2.4434233
4.3937025
3.4043143
3.1140358
4.4004145
2.7502449
3.4964423
3.2310028
3.4545126
2.8227668
3.4179542
3.3273783
2.2817817
3.9576612
2.007318
3.3817616
3.1816354
1.4189248
4.1147566
1.7117419
2.087899
2.759888
1.4254861
2.3931127
1.7366252
2.0601854
1.4901431
2.0977328
1.3309071
1.8311596
1.8933128
1.6644309
2.433626
1.3826821
1.8354223
2.3883414
0.63010025
2.477171
1.5059922
1.4257865
1.9735634
1.2053485
1.5728035
1.4183478
1.2335913
0.93203664
1.3654602
0.31827497
1.3700247
0.1956017
-0.0807693
0.7492931
-1.3635356
-0.49311745
-1.143713
-2.056092
-1.4511368
-2.1170802
-1.9822624
-2.1802516
-1.7573884
-2.295346
-2.028666
-2.2718062
-2.2266958
-1.8852894
-2.8063338
-1.7270129
-2.4950624
-2.0681248
-2.0210538
