-1.2806462
1.0825634
0.52827406
0.18324627
1.2390625
-0.6605657
0.65723884
0.02073802
-0.42708284
1.2860943
-1.8320485
0.6568871
1.5974625
-1.8755295
1.6328988
-0.67315805
-1.1330018
2.4990883
-0.7235842
1.1869783
1.3708383
-1.2799132
1.9089861
0.28551358
0.56385255
0.0094817355
-1.3006481
1.2514713
-1.8802493
-0.24630137
1.4366956
-0.87310505
-0.49353433
3.4335108
-2.1402926
-0.16737297
2.3913956
-2.2373633
1.8875623
0.5898303
-1.8134388
2.8531659
-1.6627871
-0.966689
4.3841305
-1.6814002
-1.3099859
3.3929784
-3.011308
0.1890952
2.4027643
-2.673219
1.1499379
0.5294478
-2.5007648
2.726012
-0.4314396
-1.3214159
3.3228369
-1.6246579
-0.95568347
2.9008207
-1.5313562
0.38740814
2.3389835
-0.341103
2.829464
-0.44178241
0.2476953
3.2613015
-1.041103
1.0526241
2.8936393
-1.4418595
2.4678345
1.0911323
-1.1137717
2.3894923
0.42214113
0.34889126
2.0314047
0.12830564
0.7065115
1.428792
-0.15942359
1.1858245
0.71495014
0.026976913
1.2567663
0.3546802
0.4555513
1.0369118
-2.4857552
3.5352182
1.688542
-2.766391
3.7372503
-1.6910701
0.002933085
3.7889972
-1.8803427
-0.34547892
1.7513726
-1.6546626
3.0904436
-0.6901654
-2.565609
7.689101
-4.5470686
-0.34373784
4.2230663
-4.8634996
2.4486055
1.1018372
-5.3247886
5.249112
-1.7926269
-0.76748955
4.6870623
-4.211631
0.5378623
2.5470679
-5.2823935
4.5480027
-0.94441736
-4.0230308
5.0883007
-4.149049
-1.7882915
3.8656042
-4.431686
0.3359023
1.5962007
-4.5193396
2.283256
-0.4333859
-2.0408635
3.4184294
-2.5694609
0.42883122
1.9211936
-4.029676
3.8126936
0.48398083
-3.5026999
4.761673
-2.282904
-0.70173836
4.4281783
-3.699944
2.572269
0.47883904
-2.5397635
3.0478637
-1.573349
0.12023617
1.8072464
-0.927737
0.9244242
-0.8543674
1.1090006
1.2644056
-1.3132894
2.1179
-1.1013498
2.27148
0.5802491
-1.7742599
1.9854063
0.71030045
-1.3860939
0.85043323
0.57928747
-0.25291514
1.0049074
-0.25595796
-0.05912696
2.1913965
0.38090205
-1.4869481
1.3665206
1.073868
0.39173523
0.07593989
0.5970596
0.19875851
-0.16852134
-0.631256
0.5631752
1.7301501
-0.7329413
0.08447516
1.9045378
-0.3605771
1.4748927
0.27105635
-0.95981157
3.2133076
-1.2100562
-0.9152207
3.650329
-0.852405
-1.6222465
3.21084
-0.16683793
-0.96855277
2.2635093
-1.4222381
0.40078402
2.0656698
-2.2662842
1.4351244
1.6503198
-1.8520603
1.0292764
1.4680591
-1.7715896
2.109151
-0.79707104
-0.27760398
1.9722878
-1.6403129
0.8070386
2.6922512
-3.291363
2.7537436
1.653373
-1.4420104
2.5144894
0.71643436
-1.0386736
3.5643334
-1.8654965
0.0399286
3.8236315
-2.0933647
0.25785872
1.8770828
-2.2303872
2.254331
0.21822706
-2.5070162
3.0418386
1.2576387
-2.3205233
3.4146667
-1.0305171
-0.19304046
3.124209
-2.264958
-1.1988945
4.746435
-3.0834599
-0.4764514
4.9490232
-2.5300796
-0.09309721
2.0589342
-2.6365871
2.7873409
0.7515603
-3.0841064
3.7646637
-1.1399864
-0.24434191
1.3796043
0.30589885
-0.5038587
0.473947
2.302573
-1.118063
1.1098014
0.815323
-0.43495035
1.915542
-0.918222
0.87853205
1.1753402
-1.4552917
1.3741971
-0.3287673
0.0006055804
2.4954672
-1.1299956
-0.25835845
0.8669977
-1.2491078
-0.58123773
0.75630194
1.1186754
-0.008527428
-0.18765244
0.73492515
-0.5479585
3.775217
-2.2906206
-0.092115164
3.2692597
-2.2951632
1.0749732
1.9264452
-1.022687
-0.17022477
0.28486204
-0.05393046
-0.055448204
0.6978134
-1.909899
0.47056815
1.0492753
-0.8360592
1.5484574
0.1095742
-0.8629099
1.8758011
0.050771385
-0.81445813
3.120406
-1.5434062
-0.48916274
0.84324056
-1.0974945
2.1514535
-1.2349045
-2.1083322
3.0120742
-1.9105749
-0.9505292
1.8072826
0.7585707
0.0010857135
0.5086502
-0.24365328
2.401775
0.32160735
-1.3309604
2.1331434
0.39678216
-0.7674089
2.8135648
-1.4165385
1.2310036
2.5638533
-2.4546108
2.1575124
1.3499511
-1.5244029
2.5056324
0.15752964
-1.0228604
4.906464
-2.2466817
-1.0005888
3.954752
-1.1823654
0.3101483
2.7728505
-0.99370915
1.1968734
1.1563398
-1.5385542
2.1347249
0.5087839
-1.6618736
3.1589363
-1.4538392
-0.7148112
3.9189084
-2.6485705
1.5116366
2.3089838
-3.0479007
1.3788621
1.7516408
-1.7699503
2.2170496
0.33991125
-0.48507005
3.1012776
-0.060039937
-1.0309498
4.4554396
-2.7872703
-0.15777132
3.44842
-1.788923
1.2072911
0.84438455
-1.5848644
2.7743983
-0.15178278
-0.7015007
1.8669944
-1.7501094
1.7267734
-0.49035096
0.36642802
1.6937714
-0.8623429
0.7652111
0.8551983
-0.084393084
2.1077185
0.5775621
0.32062748
1.1918705
-0.4724632
0.27477485
1.7521803
0.057108123
0.11634681
1.0325823
-0.07478576
1.3396811
0.046883225
0.6383649
2.2241719
-0.764119
-0.19509947
1.4989411
1.0198034
-0.1743224
0.9057356
-0.59773743
0.0448896
0.9759226
0.22208337
-1.3348382
1.0336217
1.8519158
-1.1895571
0.92251587
0.49835947
0.10383608
2.4150438
-1.0842446
0.6295719
2.010507
-0.69458574
0.7580577
0.28215542
2.2418103
0.9344
-0.35863918
1.0077709
0.1456235
-0.5588081
1.9379535
-0.845316
0.44668972
0.7967307
-2.1336308
0.489362
1.0398952
-1.2790167
1.6616702
-0.41469502
-1.3827866
2.0884378
-1.0299672
-0.56544757
1.8235328
-1.1169397
1.6856477
0.25279713
-1.7525961
2.9145465
-0.17170283
0.077019125
1.3086448
-1.9960947
3.1437469
-0.6509601
-1.5398763
3.4240062
-1.3715365
-0.35169888
3.6380324
-1.2670029
-0.6606133
3.853701
-2.4397635
1.4986296
1.0768207
-2.79431
1.8397241
0.6125888
-0.7383787
0.92997974
-0.19730902
0.3164289
1.9007959
-2.8827748
3.5704632
