0.18650788
-0.447452644
0.5912121
-0.32297401
-0.167053588
-0.182375334
-0.113127897
0.145215606
-0.202462766
0.256431769
-0.15344991
-0.043121527
-0.272666172
0.211726566
0.150328255
-0.234470557
-0.00100403
0.116554258
0.017159653
0.024209021
0.058517073
0.000680542
0.077859306
-0.014805601
-0.1769413
-0.071958921
