3.75526668
4.43059082
4.072948808
4.32674902
4.23100566
3.99632082
4.83542502
4.65571002
4.66794426
4.4191886
4.3556817
4.27837846
4.18600124
3.89369922
3.69756244
3.20191652
2.39227412
2.1048859
1.97539228
1.873893
1.78601036
1.006504224
-0.525867066
-2.23938942
-2.4330223
-2.5128929
