"CSVFiles/KFoldStratified10LAGDriverBehaviour05.21.2021, 00.29.35/Run_1"
Accuracy,0.9612903225806452
Weighted Precision Score,0.9619788685075156
Weighted Recall Score,0.9612903225806452
Weighted F1 Score,0.9609488207414789
-------------------------------
Distribution of Train Events
Non Aggressive Event,Aggressive Right Turn,Aggressive Left Turn,Aggressive Acceleration,Aggressive Braking,Aggressive Left Lane Change,Aggressive Right Lane Change
296,226,226,259,142,38,52
Distribution of Test Events
Non Aggressive Event,Aggressive Right Turn,Aggressive Left Turn,Aggressive Acceleration,Aggressive Braking,Aggressive Left Lane Change,Aggressive Right Lane Change
74,57,56,64,36,10,13
Confusion Matrix
,,,,Predicated Class
,,Non Aggressive Event,Aggressive Right Turn,Aggressive Left Turn,Aggressive Acceleration,Aggressive Braking,Aggressive Left Lane Change,Aggressive Right Lane Change
,Non Aggressive Event,72,0,0,2,0,0,0
,Aggressive Right Turn,1,55,0,0,1,0,0
,Aggressive Left Turn,1,0,54,1,0,0,0
,Aggressive Acceleration,0,0,0,64,0,0,0
Actual Class,Aggressive Braking,2,0,0,0,34,0,0
,Aggressive Left Lane Change,0,0,0,0,0,9,1
,Aggressive Right Lane Change,2,0,1,0,0,0,10

----------------------------
Multi Label Confusion Matrix
Non Aggressive Event
,Predicated Class
230,6
2,72
Actual Class

Aggressive Right Turn
,Predicated Class
253,0
2,55
Actual Class

Aggressive Left Turn
,Predicated Class
253,1
2,54
Actual Class

Aggressive Acceleration
,Predicated Class
243,3
0,64
Actual Class

Aggressive Braking
,Predicated Class
273,1
2,34
Actual Class

Aggressive Left Lane Change
,Predicated Class
300,0
1,9
Actual Class

Aggressive Right Lane Change
,Predicated Class
296,1
3,10
Actual Class


----------------------------
