1.2819623
0.7047608
-2.0607946
1.2882358
-1.706013
0.11065769
0.52901757
0.2111311
-0.14661258
-0.33906972
0.5748151
-0.042792164
-1.1543926
-0.173947
0.25782907
-1.1495696
-0.1227954
-0.32813427
0.039605618
-0.11023982
1.0018789
0.35869136
-0.9282806
1.7586143
-0.08117074
-1.2624096
0.93638676
-0.9470291
-0.27161956
-0.063633025
-1.3142378
-0.10735452
-0.39577574
-1.8543128
-0.0013363361
-1.5339527
-3.2608597
0.50496554
-3.3808708
-2.7257137
-1.0788656
-4.4860168
-2.8392744
-1.6921104
-4.8366146
-4.3645377
-1.5660312
-5.9108763
-5.235379
-4.147663
-7.15436
-3.8284638
-4.593545
-7.518317
-4.0154824
-5.55451
-8.033089
-3.7782643
-6.8128633
-6.6039543
-3.877812
-6.4346952
-5.186647
-6.162069
-6.447279
-7.375608
-6.7481146
-5.7543645
-6.3746347
-7.012124
-4.29842
-7.361352
-6.7965937
-4.7606893
-8.419639
-6.009106
-6.4814835
-8.371716
-6.235072
-6.384592
-4.773726
-8.1811495
-6.394757
-5.6826286
-8.923164
-4.929434
-5.41256
-9.728448
-3.083042
-5.6065764
-8.293607
-2.9171286
-11.365959
-5.5631514
-3.0411503
-8.56394
-5.175559
-3.9738595
-8.288649
-3.3063838
-4.4988194
-7.393935
-2.6125095
-4.5345483
-1.006243
-1.1480454
-3.9817173
0.24064174
0.26395375
-2.0431256
1.452648
0.7481963
