0.494029476
0.225088369
-0.347688332
0.143308512
-0.244312138
-0.12023408
-0.060507912
-0.043027762
-0.24823554
-0.114347113
-0.257666596
-0.326985806
-0.703277392
-0.854860771
-0.913800398
-0.432540212
-0.57643156
-0.674022044
-0.927630456
-0.11779518
-0.231122172
0.53950328
-0.710890658
-0.403776054
0.18069356
0.331440444
0.501804894
0.180899154
-0.007344711
-0.37264418
-0.241227404
-0.661517494
-0.664259264
-0.346164908
-0.267412303
-0.144314118
-0.232807528
-0.748406494
-0.44088397
-0.18113856
-1.0414133
-0.651047914
0.156424116
-0.490181142
-0.71852517
-0.420688684
-0.299927416
-0.480935329
-0.178956154
-0.503445024
-0.711812583
-0.40426658
0.384355958
-0.503455126
-0.500797812
-0.12610355
0.303362855
-0.36326795
-0.669949102
0.4393458
-0.297064734
-0.612777388
-0.2521432
-0.39654402
0.05225774
-0.181154314
-0.380625691
-0.27263162
-0.30011264
-0.055658687
-0.646574278
-0.931605278
-0.12181992
0.402812908
-0.433589834
-0.42487953
-0.15036046
-0.155590606
-0.626259668
-0.458814946
-0.12005064
-0.379457376
-0.119259417
-0.404693206
-0.190974486
-0.116770266
-0.285212408
-0.050782946
-0.325013658
-0.010569706
-0.337596852
-0.75892008
-0.631315943
-0.022889742
0.160076795
-0.076698162
-0.305837366
-0.359891534
-0.306127506
