x,y,z,Event Time,Event Type,Frame,x_modified,y_modified,z_modified
-0.364281235,1.083469868,-1.951056123,11.63184125,-1,429,-0.091070309,0.270867467,-0.487764031
-2.113911686,-0.476426929,2.004269361,11.73184125,-1,430,-0.528477921,-0.119106732,0.50106734
0.30785984,1.54088223,-1.057805181,11.83184125,-1,431,0.07696496,0.385220557,-0.264451295
0.246798935,-1.340990067,-2.399582624,11.93184125,-1,432,0.061699734,-0.335247517,-0.599895656
-0.033468781,-0.899345994,1.441143036,12.03184126,-1,433,-0.008367195,-0.224836498,0.360285759
0.075663033,-0.956084132,0.321855009,12.13184126,-1,434,0.018915758,-0.239021033,0.080463752
0.575818481,-1.712938547,-0.046397258,12.23184126,-1,435,0.14395462,-0.428234637,-0.011599314
-0.160527763,0.720865905,1.295771718,12.33184126,-1,436,-0.040131941,0.180216476,0.32394293
-1.817668495,3.831420183,-0.569148898,12.43184126,-1,437,-0.454417124,0.957855046,-0.142287225
-1.073783455,-2.756290436,-1.244868755,12.53184126,-1,438,-0.268445864,-0.689072609,-0.311217189
2.180271568,0.09297435,99.9,12.73184127,-1,440,0.545067892,0.023243587,24.975
-0.053315697,0.907814205,3.658963919,12.83184127,-1,441,-0.013328924,0.226953551,0.91474098
0.401037636,1.905173779,1.336620569,12.93184127,-1,442,0.100259409,0.476293445,0.334155142
1.376145782,-0.509607375,1.629354835,13.03184127,-1,443,0.344036446,-0.127401844,0.407338709
-0.853528557,-1.211533785,0.938954175,13.13184127,-1,444,-0.213382139,-0.302883446,0.234738544
-1.703358231,0.008591378,-0.841885149,13.23184127,-1,445,-0.425839558,0.002147845,-0.210471287
1.170187416,0.536934435,-1.348382235,13.33184128,-1,446,0.292546854,0.134233609,-0.337095559
2.302276077,0.662484765,-3.006365299,13.43184128,-1,447,0.575569019,0.165621191,-0.751591325
2.878093185,-1.043216586,-0.791393161,13.53184128,-1,448,0.719523296,-0.260804147,-0.19784829
0.253262939,1.071747661,0.896329343,13.63184128,-1,449,0.063315735,0.267936915,0.224082336
2.051584663,0.410331547,-0.650737166,13.73184128,-1,450,0.512896166,0.102582887,-0.162684292
1.994595947,0.553805053,0.506878555,13.83184128,-1,451,0.498648987,0.138451263,0.126719639
-0.259444771,-0.461612523,-1.534254789,13.93184128,-1,452,-0.064861193,-0.115403131,-0.383563697
0.195648613,-0.431738406,1.306438088,14.03184129,-1,453,0.048912153,-0.107934602,0.326609522
0.581664505,0.38269043,-0.414804727,14.13184129,-1,454,0.145416126,0.095672607,-0.103701182
0.453982773,0.347148389,0.237652421,14.23184129,-1,455,0.113495693,0.086787097,0.059413105
0.202280464,0.759496391,-0.865715683,14.33184129,-1,456,0.050570116,0.189874098,-0.216428921
0.402603569,-0.785328865,-1.517484307,14.43184129,-1,457,0.100650892,-0.196332216,-0.379371077
-0.835485992,0.77219969,-1.717655063,14.53184129,-1,458,-0.208871498,0.193049923,-0.429413766
0.589447441,-1.015582919,0.049530547,14.63184129,-1,459,0.14736186,-0.25389573,0.012382637
0.02429718,-1.787999034,0.006448539,14.7318413,-1,460,0.006074295,-0.446999758,0.001612135
-0.38595253,-1.410291433,0.983628511,14.8318413,0,461,-0.096488132,-0.352572858,0.245907128
0.104130211,0.743451416,1.029087901,14.9318413,0,462,0.026032553,0.185862854,0.257271975
0.019061508,0.265227795,-0.683694303,15.0318413,0,463,0.004765377,0.066306949,-0.170923576
-2.294401703,0.421940178,-0.692886531,15.1318413,0,464,-0.573600426,0.105485044,-0.173221633
-0.227424202,-1.410558105,-1.330170989,15.2318413,0,465,-0.05685605,-0.352639526,-0.332542747
-0.931412277,1.376065373,0.748814702,15.3318413,0,466,-0.232853069,0.344016343,0.187203676
0.818252029,0.730032623,-2.359350204,15.43184131,0,467,0.204563007,0.182508156,-0.589837551
1.280845108,-2.54829812,-0.13290596,15.53184131,0,468,0.320211277,-0.63707453,-0.03322649
0.362717094,2.706009388,-0.813655496,15.63184131,0,469,0.090679274,0.676502347,-0.203413874
-3.951573429,1.585319638,-2.517577887,15.73184131,0,470,-0.987893357,0.39632991,-0.629394472
-0.356945572,-1.288758039,0.358438879,15.83184131,0,471,-0.089236393,-0.32218951,0.08960972
1.390372696,-1.593030334,-2.512834311,15.93184131,0,472,0.347593174,-0.398257583,-0.628208578
-0.589864311,0.205640972,-0.855695188,16.03184132,0,473,-0.147466078,0.051410243,-0.213923797
-0.541383324,2.500696421,-2.756456852,16.13184132,0,474,-0.135345831,0.625174105,-0.689114213
1.025510254,-2.102589369,-0.469633639,16.23184132,0,475,0.256377563,-0.525647342,-0.11740841
-0.656993446,0.977384448,-2.214727879,16.33184132,0,476,-0.164248362,0.244346112,-0.55368197
-0.312620697,-0.675884366,-1.035948753,16.43184132,0,477,-0.078155174,-0.168971092,-0.258987188
-1.283952293,0.599940658,-0.015049115,16.53184132,0,478,-0.320988073,0.149985164,-0.003762279
-0.395143089,0.73608911,-0.767270565,16.63184132,0,479,-0.098785772,0.184022278,-0.191817641
1.75631279,-0.740713418,2.690816402,16.73184133,0,480,0.439078197,-0.185178354,0.672704101
-1.31485611,-0.536024749,-0.214286938,16.83184133,0,481,-0.328714027,-0.134006187,-0.053571735
0.181463661,0.248804256,-1.938099384,16.93184133,0,482,0.045365915,0.062201064,-0.484524846
-0.481289444,-0.576146126,-0.170941874,17.03184133,0,483,-0.120322361,-0.144036531,-0.042735469
0.254652443,-2.206203699,0.042552378,17.13184133,0,484,0.063663111,-0.551550925,0.010638095
1.639676514,-0.656698167,1.046140194,17.23184133,0,485,0.409919128,-0.164174542,0.261535048
2.153972092,0.463079304,1.130967021,17.33184133,0,486,0.538493023,0.115769826,0.282741755
0.506453934,-0.74002558,1.338709235,17.43184134,0,487,0.126613483,-0.185006395,0.334677309
-0.589069901,1.569699645,-0.751492798,17.53184134,0,488,-0.147267475,0.392424911,-0.1878732
-1.137263832,-0.640406847,-0.219282031,17.63184134,0,489,-0.284315958,-0.160101712,-0.054820508
-0.239717064,0.444845796,-0.458871365,17.73184134,0,490,-0.059929266,0.111211449,-0.114717841
-1.38759285,0.623593986,-1.136951208,17.83184134,-1,491,-0.346898212,0.155898497,-0.284237802
-1.234513817,-2.222056866,-0.169025585,17.93184134,-1,492,-0.308628454,-0.555514216,-0.042256396
-0.639003334,-1.607904196,0.363454014,18.03184135,-1,493,-0.159750834,-0.401976049,0.090863504
-0.155760345,1.482800841,0.205129445,18.13184135,-1,494,-0.038940086,0.37070021,0.051282361
0.454424324,1.02407515,1.409012437,18.23184135,-1,495,0.113606081,0.256018788,0.352253109
0.678394737,-0.043710809,-0.395551354,18.33184135,-1,496,0.169598684,-0.010927702,-0.098887838
0.224300804,1.507831573,-0.072464213,18.43184135,-1,497,0.056075201,0.376957893,-0.018116053
-1.98522049,0.476071358,-0.197254568,18.53184135,-1,498,-0.496305122,0.119017839,-0.049313642
0.669909897,0.478413045,0.597972274,18.63184135,-1,499,0.167477474,0.119603261,0.149493068
1.353703918,1.370555162,-0.810836256,18.73184136,-1,500,0.33842598,0.342638791,-0.202709064
1.816457214,-0.434659421,-0.347602695,18.83184136,-1,501,0.454114304,-0.108664855,-0.086900674
0.153785172,1.785482883,0.905415356,18.93184136,-1,502,0.038446293,0.446370721,0.226353839
-2.459780273,1.334117413,1.933199048,19.03184136,-1,503,-0.614945068,0.333529353,0.483299762
2.601520004,-2.061165571,3.055420876,19.13184136,-1,504,0.650380001,-0.515291393,0.763855219
0.067233505,-0.602983236,1.180808067,19.23184136,-1,505,0.016808376,-0.150745809,0.295202017
0.614264908,-1.459738016,-2.479976892,19.33184136,-1,506,0.153566227,-0.364934504,-0.619994223
-1.782966194,1.023880243,-0.713082135,19.43184137,-1,507,-0.445741549,0.255970061,-0.178270534
0.132785263,0.607200801,-0.75520587,19.53184137,-1,508,0.033196316,0.1518002,-0.188801467
-2.561858711,-0.200760707,-0.673261404,19.63184137,-1,509,-0.640464678,-0.050190177,-0.168315351
0.235166016,-1.132681608,-0.978043377,19.73184137,-1,510,0.058791504,-0.283170402,-0.244510844
-0.13178688,-0.302203506,0.550973415,19.83184137,-1,511,-0.03294672,-0.075550877,0.137743354
-0.061339912,1.909083128,2.237647057,19.93184137,-1,512,-0.015334978,0.477270782,0.559411764
-0.378714142,-1.10944736,-1.849015832,20.03184137,-1,513,-0.094678535,-0.27736184,-0.462253958
1.459974709,0.006464174,-0.267461151,20.13184138,-1,514,0.364993677,0.001616043,-0.066865288
-0.242034492,1.447590113,0.571016729,20.23184138,-1,515,-0.060508623,0.361897528,0.142754182
0.914349022,-0.178770363,1.628107548,20.33184138,-1,516,0.228587255,-0.044692591,0.407026887
2.557698669,0.497021019,0.311329275,20.43184138,-1,517,0.639424667,0.124255255,0.077832319
-0.639681396,0.691765606,-1.221689105,20.53184138,-1,518,-0.159920349,0.172941402,-0.305422276
-0.058338699,0.156731755,-0.69628489,20.63184138,-1,519,-0.014584675,0.039182939,-0.174071223
0.437089386,-0.821506381,0.035234682,20.73184139,-1,520,0.109272346,-0.205376595,0.008808671
-0.811469612,-1.219465375,0.438101739,20.83184139,-1,521,-0.202867403,-0.304866344,0.109525435
1.128894272,0.362831056,-1.511449695,20.93184139,-1,522,0.282223568,0.090707764,-0.377862424
0.027804794,0.551180124,0.092035338,21.03184139,-1,523,0.006951199,0.137795031,0.023008835
-1.283262787,-0.560717642,-0.719233871,21.13184139,-1,524,-0.320815697,-0.140179411,-0.179808468
-2.453662453,-0.418342054,-1.067990303,21.23184139,-1,525,-0.613415613,-0.104585513,-0.266997576
1.685735168,1.119799614,1.279292226,21.33184139,-1,526,0.421433792,0.279949903,0.319823056
-1.290434418,0.87133342,-0.708199561,21.4318414,-1,527,-0.322608604,0.217833355,-0.17704989
0.792207184,2.484223843,1.262263298,21.5318414,-1,528,0.198051796,0.621055961,0.315565825
-0.353236732,0.537586093,1.869532466,21.6318414,-1,529,-0.088309183,0.134396523,0.467383116
-0.652292786,-0.128549024,2.114835739,21.7318414,-1,530,-0.163073196,-0.032137256,0.528708935
-1.119156418,-0.036235228,0.300708413,21.8318414,-1,531,-0.279789104,-0.009058807,0.075177103
-0.057058868,-0.442984998,1.246151328,21.9318414,-1,532,-0.014264717,-0.11074625,0.311537832
-1.571439323,0.54767853,-1.250763416,22.0318414,-1,533,-0.392859831,0.136919633,-0.312690854
1.493984642,-1.53008306,-0.454297155,22.13184141,-1,534,0.373496161,-0.382520765,-0.113574289
0.369626465,0.445390016,-1.390868068,22.23184141,-1,535,0.092406616,0.111347504,-0.347717017
-0.236368713,-1.529970765,1.406701088,22.33184141,-1,536,-0.059092178,-0.382492691,0.351675272
0.671747627,0.800163031,1.529764295,22.43184141,-1,537,0.167936907,0.200040758,0.382441074
-1.011025963,-0.115182087,-3.271993399,22.53184141,-1,538,-0.252756491,-0.028795522,-0.81799835
2.277988853,-1.987170339,-1.590968966,22.63184141,-1,539,0.569497213,-0.496792585,-0.397742242
-0.49427372,-1.901340961,-0.206561118,22.73184142,-1,540,-0.12356843,-0.47533524,-0.05164028
-1.277411995,-0.512676179,-0.965223253,22.83184142,-1,541,-0.319352999,-0.128169045,-0.241305813
0.447597923,2.159802437,-0.715388238,22.93184142,-1,542,0.111899481,0.539950609,-0.17884706
-2.589457092,1.591021895,-2.440713406,23.03184142,-1,543,-0.647364273,0.397755474,-0.610178351
0.310550156,-0.921441436,0.488715798,23.13184142,-1,544,0.077637539,-0.230360359,0.122178949
0.914770546,-0.731716394,1.28194356,23.23184142,-1,545,0.228692636,-0.182929099,0.32048589
0.870850029,1.140735745,3.726037979,23.33184142,-1,546,0.217712507,0.285183936,0.931509495
-2.44374567,0.063407339,2.314481974,23.43184143,-1,547,-0.610936418,0.015851835,0.578620493
-1.983741341,2.544845819,2.86113739,23.53184143,-1,548,-0.495935335,0.636211455,0.715284348
0.224294128,2.056589365,-0.099125125,23.63184143,-1,549,0.056073532,0.514147341,-0.024781281
0.531239929,0.493915856,2.593597412,23.73184143,-1,550,0.132809982,0.123478964,0.648399353
1.598101082,-0.366353542,-1.563676238,23.83184143,-1,551,0.39952527,-0.091588385,-0.39091906
-0.766193924,-1.825178623,-0.927609324,23.93184143,-1,552,-0.191548481,-0.456294656,-0.231902331
2.572915497,1.051100969,1.11958909,24.03184143,-1,553,0.643228874,0.262775242,0.279897273
-3.446965752,-0.436463684,-2.44898057,24.13184144,-1,554,-0.861741438,-0.109115921,-0.612245142
-0.30691391,-1.107989907,0.71157527,24.23184144,-1,555,-0.076728477,-0.276997477,0.177893817
-1.088753281,1.338972569,0.481210619,24.33184144,-1,556,-0.27218832,0.334743142,0.120302655
-0.88317543,0.302663714,-1.297426701,24.43184144,-1,557,-0.220793858,0.075665928,-0.324356675
0.756756248,1.106888175,-1.336332917,24.53184144,-1,558,0.189189062,0.276722044,-0.334083229
-0.173454819,-0.425150663,-2.756780863,24.63184144,-1,559,-0.043363705,-0.106287666,-0.689195216
2.02231163,-0.100099012,-1.032058358,24.73184144,-1,560,0.505577908,-0.025024753,-0.25801459
-0.559191284,-0.215077356,-0.35113427,24.83184145,-1,561,-0.139797821,-0.053769339,-0.087783568
0.072346153,2.058771133,-0.707336724,24.93184145,-1,562,0.018086538,0.514692783,-0.176834181
1.528282585,0.059464328,-0.379479796,25.03184145,-1,563,0.382070646,0.014866082,-0.094869949
0.692418518,-1.259034157,-0.022055741,25.13184145,-1,564,0.17310463,-0.314758539,-0.005513935
-2.66637188,-0.619210541,-0.667051077,25.23184145,-1,565,-0.66659297,-0.154802635,-0.166762769
-0.327586708,0.724185348,-0.837275565,25.33184145,-1,566,-0.081896677,0.181046337,-0.209318891
1.122297707,-0.137814954,0.452212006,25.43184146,-1,567,0.280574427,-0.034453738,0.113053001
1.765147629,-0.172438234,-0.921307385,25.53184146,-1,568,0.441286907,-0.043109559,-0.230326846
-0.280482826,-0.834055007,1.156859279,25.63184146,-1,569,-0.070120707,-0.208513752,0.28921482
-1.662921486,-0.646813214,-1.253210783,25.73184146,-1,570,-0.415730371,-0.161703303,-0.313302696
-1.939751205,-2.718933344,3.437995434,25.83184146,-1,571,-0.484937801,-0.679733336,0.859498858
0.583321991,-0.241568446,-0.0944001,25.93184146,-1,572,0.145830498,-0.060392112,-0.023600025
0.327288094,1.231225252,2.021410942,26.03184146,-1,573,0.081822023,0.307806313,0.505352736
0.916778984,1.327806592,0.338777453,26.13184147,-1,574,0.229194746,0.331951648,0.084694363
1.751435699,-1.932339907,-0.521607161,26.23184147,-1,575,0.437858925,-0.483084977,-0.13040179
1.009646835,0.509079218,-0.67963177,26.33184147,-1,576,0.252411709,0.127269804,-0.169907942
0.362676086,-2.331635237,1.230942249,26.43184147,-1,577,0.090669022,-0.582908809,0.307735562
0.794206085,0.33282274,-0.833220184,26.53184147,-1,578,0.198551521,0.083205685,-0.208305046
-2.665467796,0.902853012,-0.876613498,26.63184147,-1,579,-0.666366949,0.225713253,-0.219153374
-0.334178505,-1.138375163,-0.711984336,26.73184147,-1,580,-0.083544626,-0.284593791,-0.177996084
-1.460017738,-2.347366095,0.974199414,26.83184148,-1,581,-0.365004435,-0.586841524,0.243549854
-0.397598801,1.288751721,-0.199668735,26.93184148,-1,582,-0.0993997,0.32218793,-0.049917184
2.448397102,-0.146372035,0.813719749,27.03184148,-1,583,0.612099276,-0.036593009,0.203429937
-1.552610931,0.657499015,0.345000267,27.13184148,-1,584,-0.388152733,0.164374754,0.086250067
-0.691040573,3.100715876,1.567131639,27.23184148,-1,585,-0.172760143,0.775178969,0.39178291
-0.053606567,-0.038790483,0.062869348,27.33184148,-1,586,-0.013401642,-0.009697621,0.015717337
1.220942917,0.313112915,2.232016087,27.43184149,-1,587,0.305235729,0.078278229,0.558004022
-0.921814499,1.069662333,-0.810565412,27.53184149,-1,588,-0.230453625,0.267415583,-0.202641353
0.721738281,-0.681408942,0.999831796,27.63184149,-1,589,0.18043457,-0.170352235,0.249957949
0.742429199,-1.195516944,-1.410755992,27.73184149,-1,590,0.1856073,-0.298879236,-0.352688998
0.256460609,-2.675526381,0.019419976,27.83184149,-1,591,0.064115152,-0.668881595,0.004854994
2.877040329,2.367811441,-0.029051295,27.93184149,-1,592,0.719260082,0.59195286,-0.007262824
-0.06873661,0.992668211,2.430312872,28.03184149,-1,593,-0.017184153,0.248167053,0.607578218
1.306820335,1.070885539,-0.983596146,28.1318415,-1,594,0.326705084,0.267721385,-0.245899037
0.63388485,0.71554774,0.67997545,28.2318415,-1,595,0.158471212,0.178886935,0.169993863
0.304977837,0.554687679,0.885060728,28.3318415,-1,596,0.076244459,0.13867192,0.221265182
1.042721214,-0.991377473,-1.204664707,28.4318415,-1,597,0.260680304,-0.247844368,-0.301166177
0.1432547,0.596590459,-2.07031846,28.5318415,-1,598,0.035813675,0.149147615,-0.517579615
-0.748802719,1.315155745,-0.018187558,28.6318415,-1,599,-0.18720068,0.328788936,-0.00454689
2.485680046,1.464401245,1.151106119,28.7318415,-1,600,0.621420012,0.366100311,0.28777653
-2.146371899,-2.472537279,-0.283413649,28.83184151,-1,601,-0.536592975,-0.61813432,-0.070853412
3.456519547,1.70944345,-2.923519135,28.93184151,-1,602,0.864129887,0.427360862,-0.730879784
-3.954103527,1.355219722,4.11755085,29.03184151,-1,603,-0.988525882,0.33880493,1.029387712
-1.067200241,0.903020322,0.074274242,29.13184151,-1,604,-0.26680006,0.225755081,0.01856856
