x,y,z,Event Time,Event Type,Frame,x_modified,y_modified,z_modified
2.057073059,-0.061163146,-0.770290911,13.36755917,-1,602,0.514268265,-0.015290787,-0.192572728
-0.364281235,1.083475113,-1.951054931,13.46755917,-1,603,-0.091070309,0.270868778,-0.487763733
-2.113911686,-0.476421684,2.004270554,13.56755917,-1,604,-0.528477921,-0.119105421,0.501067638
0.30785984,1.540887475,-1.057803988,13.66755917,-1,605,0.07696496,0.385221869,-0.264450997
0.246798935,-1.340984821,-2.399581432,13.76755917,-1,606,0.061699734,-0.335246205,-0.599895358
-0.033468781,-0.899340749,1.441144228,13.86755918,-1,607,-0.008367195,-0.224835187,0.360286057
0.075663033,-0.956078887,0.321856201,13.96755918,-1,608,0.018915758,-0.239019722,0.08046405
0.575818481,-1.712933302,-0.046396088,14.06755918,-1,609,0.14395462,-0.428233325,-0.011599022
-0.160527763,0.72087115,1.29577291,14.16755918,-1,610,-0.040131941,0.180217788,0.323943228
-1.817668495,3.831425428,-0.569147766,14.26755918,-1,611,-0.454417124,0.957856357,-0.142286941
0.84724659,1.387409806,-1.794977665,14.46755918,-1,613,0.211811647,0.346852452,-0.448744416
1.435211601,0.084956817,0.496198535,14.56755919,-1,614,0.3588029,0.021239204,0.124049634
0.379428329,0.9170596,-0.262455463,14.66755919,-1,615,0.094857082,0.2292649,-0.065613866
0.456739845,1.911779523,1.133329868,14.76755919,-1,616,0.114184961,0.477944881,0.283332467
1.242473068,-0.506914496,1.627463102,14.86755919,-1,617,0.310618267,-0.126728624,0.406865776
-0.99994236,-1.20932591,0.971438825,14.96755919,-1,618,-0.24998559,-0.302331477,0.242859706
-1.802935181,0.009995725,-0.808337569,15.06755919,-1,619,-0.450733795,0.002498931,-0.202084392
1.123054924,0.538027704,-1.323247433,15.1675592,-1,620,0.280763731,0.134506926,-0.330811858
2.292582932,0.663196445,-2.990265846,15.2675592,-1,621,0.573145733,0.165799111,-0.747566462
2.888180199,-1.042404056,-0.782660484,15.3675592,-1,622,0.72204505,-0.260601014,-0.195665121
0.270323219,1.072548866,0.901133657,15.4675592,-1,623,0.067580805,0.268137217,0.225283414
2.068483772,0.410947651,-0.648638427,15.5675592,-1,624,0.517120943,0.102736913,-0.162159607
1.964748802,0.554532826,0.507396579,15.6675592,-1,625,0.491187201,0.138633206,0.126849145
-0.22223526,-0.460987449,-1.531710386,15.7675592,-1,626,-0.055558815,-0.115246862,-0.382927597
0.213113251,-0.430951297,1.308730721,15.86755921,-1,627,0.053278313,-0.107737824,0.32718268
0.591159286,0.383307606,-0.41156587,15.96755921,-1,628,0.147789822,0.095826901,-0.102891468
0.458710136,0.347846836,0.240569934,16.06755921,-1,629,0.114677534,0.086961709,0.060142484
0.207378807,0.756462216,-0.861168683,16.16755921,-1,630,0.051844702,0.189115554,-0.215292171
0.40421814,-0.782653749,-1.515027046,16.26755921,-1,631,0.101054535,-0.195663437,-0.378756762
-0.834500847,0.770546675,-1.715762854,16.36755921,-1,632,-0.208625212,0.192636669,-0.428940713
0.583195152,-1.01526475,0.052603215,16.46755921,-1,633,0.145798788,-0.253816187,0.013150804
0.02956337,-1.786051989,0.011473025,16.56755922,-1,634,0.007390842,-0.446512997,0.002868256
-0.384666023,-1.40876472,0.987439334,16.66755922,-1,635,-0.096166506,-0.35219118,0.246859834
0.105187836,0.744392455,1.031035662,16.76755922,-1,636,0.026296959,0.186098114,0.257758915
0.01971096,0.265996605,-0.680493653,16.86755922,-1,637,0.00492774,0.066499151,-0.170123413
-2.293874321,0.422698706,-0.689055681,16.96755922,-1,638,-0.57346858,0.105674677,-0.17226392
-0.227171478,-1.409778357,-1.327595115,17.06755922,-1,639,-0.05679287,-0.352444589,-0.331898779
-1.028061447,1.366938353,2.696343422,17.16755923,-1,640,-0.257015362,0.341734588,0.674085855
0.781675758,0.729084015,0.255531788,17.26755923,-1,641,0.19541894,0.182271004,0.063882947
1.287490311,-2.527196407,2.356076956,17.36755923,-1,642,0.321872578,-0.631799102,0.589019239
0.38301033,2.700183153,1.555360079,17.46755923,-1,643,0.095752583,0.675045788,0.38884002
-3.957742748,1.587038636,0.14167738,17.56755923,-1,644,-0.989435687,0.396759659,0.035419345
-0.36885601,-1.287017941,3.100792646,17.66755923,-1,645,-0.092214003,-0.321754485,0.775198162
1.393619003,-1.59081471,-0.090811729,17.76755923,-1,646,0.348404751,-0.397703677,-0.022702932
-0.601418076,0.207329407,1.547835231,17.86755924,-1,647,-0.150354519,0.051832352,0.386958808
-0.564513741,2.502664566,-0.302990913,17.96755924,-1,648,-0.141128435,0.625666142,-0.075747728
0.996177139,-2.100725651,2.061463118,18.06755924,-1,649,0.249044285,-0.525181413,0.515365779
-0.690301476,0.979233384,0.447500229,18.16755924,-1,650,-0.172575369,0.244808346,0.111875057
-0.348187981,-0.673756599,1.786417365,18.26755924,-1,651,-0.087046995,-0.16843915,0.446604341
-1.320399818,0.602304637,2.986009121,18.36755924,-1,652,-0.330099955,0.150576159,0.74650228
-0.43353611,0.7384547,2.434608698,18.46755924,-1,653,-0.108384027,0.184613675,0.608652174
1.714857521,-0.738386512,6.092402935,18.56755925,-1,654,0.42871438,-0.184596628,1.523100734
-1.25524765,-0.532224,1.769545913,18.66755925,-1,655,-0.313811913,-0.133056,0.442386478
0.279454651,0.25087139,-2.054639101,18.76755925,-1,656,0.069863663,0.062717848,-0.513659775
-0.485913811,-0.574349046,-0.195302263,18.86755925,-1,657,-0.121478453,-0.143587261,-0.048825566
0.212628784,-2.205095768,0.047758132,18.96755925,-1,658,0.053157196,-0.551273942,0.011939533
1.596137466,-0.656526446,1.042104602,19.06755925,-1,659,0.399034367,-0.164131612,0.26052615
1.989283981,0.463109881,3.580901623,19.16755925,-1,660,0.497320995,0.11577747,0.895225406
0.268127861,-0.738071561,7.88667345,19.26755926,-1,661,0.067031965,-0.18451789,1.971668363
-0.636833725,1.573278785,5.16210413,19.36755926,-1,662,-0.159208431,0.393319696,1.290526032
-1.167052803,-0.634971917,5.457105637,19.46755926,-1,663,-0.291763201,-0.158742979,1.364276409
-0.275229034,0.451825857,5.154603004,19.56755926,-1,664,-0.068807259,0.112956464,1.288650751
-1.446118889,0.631555855,4.39594841,19.66755926,-1,665,-0.361529722,0.157888964,1.098987103
-1.314039764,-2.213033438,5.269032955,19.76755926,-1,666,-0.328509941,-0.553258359,1.317258239
-0.731492577,-1.59831214,5.689310074,19.86755927,-1,667,-0.182873144,-0.399578035,1.422327518
-0.253520546,1.49258399,5.407269955,19.96755927,-1,668,-0.063380136,0.373145998,1.351817489
0.356947365,1.03463304,6.481684685,20.06755927,-1,669,0.089236841,0.25865826,1.620421171
0.584613266,-0.032710787,4.551830769,20.16755927,-1,670,0.146153316,-0.008177697,1.137957692
0.135122719,1.519147992,4.75061512,20.26755927,-1,671,0.03378068,0.379786998,1.18765378
-2.069457588,0.488011569,4.503578663,20.36755927,-1,672,-0.517364397,0.122002892,1.125894666
0.590503159,0.491033405,5.179697514,20.46755927,-1,673,0.14762579,0.122758351,1.294924378
1.284135284,1.383804798,3.581735849,20.56755928,-1,674,0.321033821,0.3459512,0.895433962
1.832607689,-0.420946896,2.791182518,20.66755928,-1,675,0.458151922,-0.105236724,0.69779563
0.287076416,1.797971249,0.882654548,20.76755928,-1,676,0.071769104,0.449492812,0.220663637
-2.466388283,1.341780066,1.763678193,20.86755928,-1,677,-0.616597071,0.335445017,0.440919548
2.539680901,-2.059406281,2.929512501,20.96755928,-1,678,0.634920225,-0.51485157,0.732378125
-0.005209503,-0.596860886,1.045450449,21.06755928,-1,679,-0.001302376,-0.149215221,0.261362612
0.514090958,-1.457735419,-1.719931364,21.16755928,-1,680,0.128522739,-0.364433855,-0.429982841
-2.028522072,1.026114106,4.452925205,21.26755929,-1,681,-0.507130518,0.256528527,1.113231301
0.071886482,0.636582434,4.069179535,21.36755929,-1,682,0.017971621,0.159145609,1.017294884
-2.508959351,-0.213812739,3.60191679,21.46755929,-1,683,-0.627239838,-0.053453185,0.900479198
0.247096481,-1.091774106,3.038613796,21.56755929,-1,684,0.06177412,-0.272943527,0.759653449
-0.13793045,-0.288925767,4.441824436,21.66755929,-1,685,-0.034482613,-0.072231442,1.110456109
-0.094655571,1.919174314,6.047208786,21.76755929,-1,686,-0.023663893,0.479793578,1.511802197
-0.425132332,-1.106211662,1.900753379,21.8675593,-1,687,-0.106283083,-0.276552916,0.475188345
1.398449364,0.017382868,3.427404642,21.9675593,-1,688,0.349612341,0.004345717,0.856851161
-0.301769791,1.468941927,4.202970505,22.0675593,-1,689,-0.075442448,0.367235482,1.050742626
0.862945976,-0.162499845,5.204503536,22.1675593,-1,690,0.215736494,-0.040624961,1.301125884
2.505925598,0.51800102,3.83958602,22.2675593,-1,691,0.6264814,0.129500255,0.959896505
-0.671540794,0.712255955,2.062024117,22.3675593,-1,692,-0.167885199,0.178063989,0.515506029
0.025606575,0.177377686,0.560233533,22.4675593,-1,693,0.006401644,0.044344421,0.140058383
0.559277,-0.805556595,-1.295491099,22.56755931,-1,694,0.13981925,-0.201389149,-0.323872775
-0.799120483,-1.210191488,-1.851956964,22.66755931,-1,695,-0.199780121,-0.302547872,-0.462989241
0.984858932,0.366046757,-2.158429384,22.76755931,-1,696,0.246214733,0.091511689,-0.539607346
-0.069104729,0.55043453,-0.146457866,22.86755931,-1,697,-0.017276182,0.137608632,-0.036614466
-1.318552551,-0.562420785,-1.035902023,22.96755931,-1,698,-0.329638138,-0.140605196,-0.258975506
-2.456921158,-0.420448482,-1.420217872,23.06755931,-1,699,-0.614230289,-0.105112121,-0.355054468
1.694915237,1.11825037,0.91192019,23.16755931,-1,700,0.423728809,0.279562593,0.227980047
-1.260433731,0.87073034,-1.469005346,23.26755932,-1,701,-0.315108433,0.217682585,-0.367251337
0.828476372,2.482037544,-0.197113514,23.36755932,-1,702,0.207119093,0.620509386,-0.049278378
-0.347812233,0.535682678,0.17932725,23.46755932,-1,703,-0.086953058,0.13392067,0.044831812
-0.670808372,-0.132558957,0.392670751,23.56755932,-1,704,-0.167702093,-0.033139739,0.098167688
-1.146779594,-0.041822631,-1.37524581,23.66755932,-1,705,-0.286694899,-0.010455658,-0.343811452
-0.083625374,-0.449224263,-0.344434142,23.76755932,-1,706,-0.020906343,-0.112306066,-0.086108536
-1.591433105,0.540681601,-2.750629902,23.86755932,-1,707,-0.397858276,0.1351704,-0.687657475
1.480699959,-1.53702879,-1.869402409,23.96755933,-1,708,0.37017499,-0.384257197,-0.467350602
0.361409607,0.438955426,-2.712471962,24.06755933,-1,709,0.090352402,0.109738857,-0.67811799
-0.241678772,-1.535802841,0.179377317,24.16755933,-1,710,-0.060419693,-0.38395071,0.044844329
0.667661133,0.795002282,0.415534019,24.26755933,-1,711,0.166915283,0.19875057,0.103883505
-1.013822136,-0.119883202,-4.282587051,24.36755933,-1,712,-0.253455534,-0.029970801,-1.070646763
2.276275101,-1.991022825,-2.501202822,24.46755933,-1,713,0.569068775,-0.497755706,-0.625300705
-0.495734749,-1.904815197,-1.0221802,24.56755934,-1,714,-0.123933687,-0.476203799,-0.25554505
-1.27903038,-0.515781462,-1.666786671,24.66755934,-1,715,-0.319757595,-0.128945366,-0.416696668
0.446490707,2.158071756,-1.320378661,24.76755934,-1,716,0.111622677,0.539517939,-0.330094665
-2.589842377,1.58841598,-2.944861174,24.86755934,-1,717,-0.647460594,0.397103995,-0.736215293
0.310406151,-0.922653615,0.075401843,24.96755934,-1,718,0.077601538,-0.230663404,0.018850461
0.914081039,-0.73295927,0.988298774,25.06755934,-1,719,0.22852026,-0.183239818,0.247074693
0.870672646,1.140512824,3.527106047,25.16755934,-1,720,0.217668161,0.285128206,0.881776512
-2.443472919,0.063219078,2.213935375,25.26755935,-1,721,-0.61086823,0.015804769,0.553483844
-1.983332214,2.544740438,2.851412535,25.36755935,-1,722,-0.495833054,0.63618511,0.712853134
0.223296585,2.058401585,0.005902663,25.46755935,-1,723,0.055824146,0.514600396,0.001475666
0.531085434,0.495019853,2.798366785,25.56755935,-1,724,0.132771358,0.123754963,0.699591696
1.59799427,-0.36459893,-1.260450125,25.66755935,-1,725,0.399498568,-0.091149732,-0.315112531
-0.766736565,-1.82306993,-0.532218397,25.76755935,-1,726,-0.191684141,-0.455767483,-0.133054599
2.571390572,1.053424358,1.628522873,25.86755935,-1,727,0.642847643,0.26335609,0.407130718
-3.448790131,-0.433333248,-1.833936691,25.96755936,-1,728,-0.862197533,-0.108333312,-0.458484173
-0.308931885,-1.104825258,1.42773807,26.06755936,-1,729,-0.077232971,-0.276206315,0.356934518
-1.092028198,1.342776775,1.313637733,26.16755936,-1,730,-0.27300705,0.335694194,0.328409433
-0.886672554,0.307021439,-0.358689904,26.26755936,-1,731,-0.221668139,0.07675536,-0.089672476
0.753005447,1.111531734,-0.297601581,26.36755936,-1,732,0.188251362,0.277882934,-0.074400395
-0.177873192,-0.419808924,-1.620653391,26.46755936,-1,733,-0.044468298,-0.104952231,-0.405163348
2.016932907,-0.094381876,0.206381202,26.56755937,-1,734,0.504233227,-0.023595469,0.0515953
-0.565525589,-0.208698928,0.980823398,26.66755937,-1,735,-0.141381397,-0.052174732,0.245205849
0.06468338,2.065659285,0.726881921,26.76755937,-1,736,0.016170845,0.516414821,0.18172048
1.519506874,0.066666573,1.153277397,26.86755937,-1,737,0.379876719,0.016666643,0.288319349
0.682306709,-1.250971794,1.614299059,26.96755937,-1,738,0.170576677,-0.312742949,0.403574765
-2.678023872,-0.610709548,1.076768994,27.06755937,-1,739,-0.669505968,-0.152677387,0.269192249
-0.341658173,0.733543217,1.030568123,27.16755937,-1,740,-0.085414543,0.183385804,0.257642031
1.106876793,-0.127810299,2.445559978,27.26755938,-1,741,0.276719198,-0.031952575,0.611389995
1.748712006,-0.161887407,1.190119028,27.36755938,-1,742,0.437178001,-0.040471852,0.297529757
-0.298409996,-0.822623193,3.378857851,27.46755938,-1,743,-0.074602499,-0.205655798,0.844714463
-1.682688293,-0.634313762,1.081829786,27.56755938,-1,744,-0.420672073,-0.158578441,0.270457447
-1.961783943,-2.705856323,5.893587112,27.66755938,-1,745,-0.490445986,-0.676464081,1.473396778
0.559517326,-0.227199048,2.471706152,27.76755938,-1,746,0.139879332,-0.056799762,0.617926538
0.301701965,1.246137381,4.699150085,27.86755938,-1,747,0.075425491,0.311534345,1.174787521
0.89233345,1.343758821,3.057477713,27.96755939,-1,748,0.223083363,0.335939705,0.764369428
1.727797928,-1.915024161,2.214477062,28.06755939,-1,749,0.431949482,-0.47875604,0.553619266
0.985761108,0.5268749,2.05148387,28.16755939,-1,750,0.246440277,0.131718725,0.512870967
0.337824287,-2.31280303,3.952504635,28.26755939,-1,751,0.084456072,-0.578200758,0.988126159
0.76818222,0.35198465,1.871971369,28.36755939,-1,752,0.192045555,0.087996162,0.467992842
-2.692138252,0.922931433,1.805664778,28.46755939,-1,753,-0.673034563,0.230732858,0.451416194
-0.361225662,-1.118467927,1.94973135,28.56755939,-1,754,-0.090306416,-0.279616982,0.487432837
-1.487241325,-2.326535463,3.6215868,28.6675594,-1,755,-0.371810331,-0.581633866,0.9053967
-0.424567757,1.30977881,2.424632072,28.7675594,-1,756,-0.106141939,0.327444702,0.606158018
2.421751442,-0.124565914,3.413719177,28.8675594,-1,757,0.60543786,-0.031141479,0.853429794
-1.578938065,0.679068804,2.924452305,28.9675594,-1,758,-0.394734516,0.169767201,0.731113076
-0.716981468,3.123329878,4.126068115,29.0675594,-1,759,-0.179245367,0.780832469,1.031517029
-0.079165039,-0.01648408,2.605034828,29.1675594,-1,760,-0.01979126,-0.00412102,0.651258707
1.195694389,0.336236387,4.748682022,29.26755941,-1,761,0.298923597,0.084059097,1.187170506
-0.946684418,1.093017936,1.685600996,29.36755941,-1,762,-0.236671104,0.273254484,0.421400249
0.697206917,-0.657484412,3.480505943,29.46755941,-1,763,0.174301729,-0.164371103,0.870126486
0.718182983,-1.171426415,1.041920543,29.56755941,-1,764,0.179545746,-0.292856604,0.260480136
0.232553902,-2.651512623,2.460355997,29.66755941,-1,765,0.058138475,-0.662878156,0.615088999
2.853466454,2.393091679,2.383916855,29.76755941,4,766,0.713366613,0.59827292,0.595979214
-0.013177452,1.018586516,3.618280411,29.86755941,4,767,-0.003294363,0.254646629,0.904570103
1.576336327,1.092577577,-5.420467854,29.96755942,4,768,0.394084082,0.273144394,-1.355116963
0.837553444,0.713767111,-13.44470406,30.06755942,4,769,0.209388361,0.178441778,-3.361176014
-0.238477287,0.520024121,-16.37404823,30.16755942,4,770,-0.059619322,0.13000603,-4.093512058
0.004771652,-1.058322787,-17.4995327,30.26755942,4,771,0.001192913,-0.264580697,-4.374883175
-1.201040802,0.469593585,-17.41027641,30.36755942,4,772,-0.300260201,0.117398396,-4.352569103
-2.057400761,1.16567409,-14.74684906,30.46755942,4,773,-0.51435019,0.291418523,-3.686712265
-1.847825584,1.379783154,-17.8734169,30.56755942,4,774,-0.461956396,0.344945788,-4.468354225
-0.871309814,-2.610803127,-17.79567719,30.66755943,4,775,-0.217827454,-0.652700782,-4.448919296
-2.720750389,1.975067854,-16.87261581,30.76755943,4,776,-0.680187597,0.493766963,-4.218153954
-0.926874695,1.631687284,-13.07139397,30.86755943,4,777,-0.231718674,0.407921821,-3.267848492
0.360343399,0.997043312,-17.42673874,30.96755943,4,778,0.09008585,0.249260828,-4.356684685
-3.873671112,1.565968513,-19.15893745,31.06755943,4,779,-0.968417778,0.391492128,-4.789734364
-2.225142059,0.593472362,-16.06162643,31.16755943,4,780,-0.556285515,0.14836809,-4.015406609
0.038769188,-0.984151602,-17.03503799,31.26755944,4,781,0.009692297,-0.2460379,-4.258759499
-1.027973709,1.438241959,-8.486439705,31.36755944,4,782,-0.256993427,0.35956049,-2.121609926
1.244713249,-0.559261084,1.53232789,31.46755944,4,783,0.311178312,-0.139815271,0.383081973
-0.581602631,0.345208913,-0.652217448,31.56755944,-1,784,-0.145400658,0.086302228,-0.163054362
0.469882431,1.73684001,-0.688381374,31.66755944,-1,785,0.117470608,0.434210002,-0.172095343
2.047374191,2.383752108,1.265346169,31.76755944,-1,786,0.511843548,0.595938027,0.316336542
1.481647911,1.289582372,-0.458496064,31.86755944,-1,787,0.370411978,0.322395593,-0.114624016
0.494702759,-0.461301088,0.235567793,31.96755945,-1,788,0.12367569,-0.115325272,0.058891948
-0.852869568,-2.29464674,-0.325527638,32.06755945,-1,789,-0.213217392,-0.573661685,-0.08138191
-0.611695824,0.120939344,-0.259455442,32.16755945,-1,790,-0.152923956,0.030234836,-0.064863861
0.194725456,-1.99431181,-0.604302108,32.26755945,-1,791,0.048681364,-0.498577952,-0.151075527
-2.386170921,0.358510584,1.440415502,32.36755945,-1,792,-0.59654273,0.089627646,0.360103875
0.381180229,-2.025885582,-0.954224825,32.46755945,-1,793,0.095295057,-0.506471395,-0.238556206
2.421707573,-0.306541622,-2.867269278,32.56755945,-1,794,0.605426893,-0.076635405,-0.716817319
0.038931313,0.06667801,-1.169920802,32.66755946,-1,795,0.009732828,0.016669502,-0.292480201
-0.118580399,0.299598217,1.113114357,32.76755946,-1,796,-0.0296451,0.074899554,0.278278589
-0.551483688,1.721109509,-0.458605677,32.86755946,-1,797,-0.137870922,0.430277377,-0.114651419
0.530496063,1.788863778,2.222886324,32.96755946,-1,798,0.132624016,0.447215945,0.555721581
0.767903748,-0.05298068,-0.646932781,33.06755946,-1,799,0.191975937,-0.01324517,-0.161733195
1.810506287,-0.986159205,0.042621594,33.16755946,-1,800,0.452626572,-0.246539801,0.010655398
0.712590637,-0.175317779,-0.143342867,33.26755947,-1,801,0.178147659,-0.043829445,-0.035835717
-0.199056206,0.675059915,0.441895574,33.36755947,-1,802,-0.049764051,0.168764979,0.110473894
-1.771091042,0.472430348,-0.865762234,33.46755947,-1,803,-0.44277276,0.118107587,-0.216440558
-0.088370857,0.562044501,-1.182615757,33.56755947,-1,804,-0.022092714,0.140511125,-0.295653939
-0.52391201,1.090370536,0.507496893,33.66755947,-1,805,-0.130978003,0.272592634,0.126874223
0.662206116,-0.832525909,-2.351858377,33.76755947,-1,806,0.165551529,-0.208131477,-0.587964594
0.30025238,-0.793426752,-1.316174507,33.86755947,-1,807,0.075063095,-0.198356688,-0.329043627
1.168951454,-3.037142515,-0.143713847,33.96755948,-1,808,0.292237864,-0.759285629,-0.035928462
-0.606275139,1.514251828,-0.610901117,34.06755948,-1,809,-0.151568785,0.378562957,-0.152725279
1.409367981,-1.268853307,-2.501784563,34.16755948,-1,810,0.352341995,-0.317213327,-0.625446141
0.788736763,1.160028696,2.018659592,34.26755948,-1,811,0.197184191,0.290007174,0.504664898
1.718114319,0.321549863,-0.715439498,34.36755948,-1,812,0.42952858,0.080387466,-0.178859875
-0.27599865,0.186291948,0.138033599,34.46755948,-1,813,-0.068999662,0.046572987,0.0345084
0.861373367,-0.506503105,0.167791039,34.56755948,-1,814,0.215343342,-0.126625776,0.04194776
-1.791869698,-0.131150305,0.723494649,34.66755949,-1,815,-0.447967424,-0.032787576,0.180873662
1.497220459,0.22872372,-0.273708403,34.76755949,-1,816,0.374305115,0.05718093,-0.068427101
-0.204933701,1.102313757,1.589794159,34.86755949,-1,817,-0.051233425,0.275578439,0.39744854
0.867105904,-0.6664868,-0.455115825,34.96755949,-1,818,0.216776476,-0.1666217,-0.113778956
-1.194320259,0.885567665,1.194246411,35.06755949,-1,819,-0.298580065,0.221391916,0.298561603
1.065891685,-1.626282334,-0.835443914,35.16755949,-1,820,0.266472921,-0.406570584,-0.208860978
1.231920662,-1.163333416,0.34859401,35.26755949,-1,821,0.307980165,-0.290833354,0.087148502
-0.671353874,1.90843904,0.217303604,35.3675595,-1,822,-0.167838469,0.47710976,0.054325901
1.178166809,-0.813514054,1.83990705,35.4675595,-1,823,0.294541702,-0.203378513,0.459976763
-0.780137596,1.283646226,1.636467099,35.5675595,-1,824,-0.195034399,0.320911556,0.409116775
0.139644089,1.963699102,-1.72606051,35.6675595,-1,825,0.034911022,0.490924776,-0.431515127
0.784723701,0.175811231,0.139529586,35.7675595,-1,826,0.196180925,0.043952808,0.034882396
2.473299446,-1.245241284,2.158694744,35.8675595,-1,827,0.618324862,-0.311310321,0.539673686
-0.994037209,0.468127161,1.228354812,35.96755951,-1,828,-0.248509302,0.11703179,0.307088703
1.728024902,1.272949934,1.380506516,36.06755951,-1,829,0.432006226,0.318237484,0.345126629
-1.270090637,-0.84302026,0.858705699,36.16755951,-1,830,-0.317522659,-0.210755065,0.214676425
0.729949417,1.054772139,-0.78360498,36.26755951,-1,831,0.182487354,0.263693035,-0.195901245
-0.913960037,3.283962965,0.964259446,36.36755951,-1,832,-0.228490009,0.820990741,0.241064861
-3.270608482,0.314455181,4.794048309,36.46755951,-1,833,-0.817652121,0.078613795,1.198512077
-1.914480743,1.78678,2.656042099,36.56755951,-1,834,-0.478620186,0.446695,0.664010525
0.064509811,0.7109676,0.187587619,36.66755952,-1,835,0.016127453,0.1777419,0.046896905
-1.915161667,0.225600347,1.048177958,36.76755952,-1,836,-0.478790417,0.056400087,0.262044489
1.597505989,0.582026064,1.070172787,36.86755952,-1,837,0.399376497,0.145506516,0.267543197
-3.208219109,-0.746729255,4.145385265,36.96755952,-1,838,-0.802054777,-0.186682314,1.036346316
-1.064320145,2.933192492,2.182647943,37.06755952,-1,839,-0.266080036,0.733298123,0.545661986
-2.714767036,1.787949443,0.131695256,37.16755952,-1,840,-0.678691759,0.446987361,0.032923814
-2.595017014,-1.234292507,-0.176840588,37.26755952,-1,841,-0.648754253,-0.308573127,-0.044210147
0.28281826,-0.077805564,-0.377443314,37.36755953,-1,842,0.070704565,-0.019451391,-0.094360828
1.053466263,-1.062905669,-0.318206847,37.46755953,-1,843,0.263366566,-0.265726417,-0.079551712
-0.497931061,-0.552534699,-1.044811726,37.56755953,-1,844,-0.124482765,-0.138133675,-0.261202931
-0.376904068,1.348812103,2.035865068,37.66755953,-1,845,-0.094226017,0.337203026,0.508966267
-0.337464867,0.279795855,1.522215128,37.76755953,-1,846,-0.084366217,0.069948964,0.380553782
0.58978981,0.513077855,3.509560108,37.86755953,-1,847,0.147447453,0.128269464,0.877390027
1.915269318,-0.24258396,1.667827368,37.96755954,-1,848,0.478817329,-0.06064599,0.416956842
0.879359665,2.363253355,3.959268093,38.06755954,-1,849,0.219839916,0.590813339,0.989817023
-0.967296181,1.413652897,3.136866808,38.16755954,-1,850,-0.241824045,0.353413224,0.784216702
-0.456411896,0.371197402,1.15318656,38.26755954,-1,851,-0.114102974,0.092799351,0.28829664
-2.279785213,-2.763420105,5.229592323,38.36755954,-1,852,-0.569946303,-0.690855026,1.307398081
-1.203742561,2.880208492,3.357771873,38.46755954,-1,853,-0.30093564,0.720052123,0.839442968
-0.754465637,1.213060141,4.901912212,38.56755954,-1,854,-0.188616409,0.303265035,1.225478053
1.389273109,-0.782622159,3.080171585,38.66755955,-1,855,0.347318277,-0.19565554,0.770042896
-0.289413986,-0.300348818,2.866660118,38.76755955,-1,856,-0.072353497,-0.075087205,0.71666503
-0.62585598,-0.338677049,1.62650013,38.86755955,-1,857,-0.156463995,-0.084669262,0.406625032
-0.030972061,0.227807462,5.108281612,38.96755955,-1,858,-0.007743015,0.056951866,1.277070403
0.554004135,0.357360631,2.431267738,39.06755955,-1,859,0.138501034,0.089340158,0.607816935
0.456437531,-1.583790779,-0.747980237,39.16755955,-1,860,0.114109383,-0.395947695,-0.186995059
-0.361445961,0.079776376,0.010111738,39.26755955,-1,861,-0.09036149,0.019944094,0.002527934
0.273371162,-1.066342711,0.587976933,39.36755956,-1,862,0.068342791,-0.266585678,0.146994233
-2.11295372,-1.556418657,-1.166530728,39.46755956,-1,863,-0.52823843,-0.389104664,-0.291632682
-2.26127964,-0.806218147,3.032378197,39.56755956,-1,864,-0.56531991,-0.201554537,0.758094549
-2.131443558,-0.907154381,6.001428604,39.66755956,-1,865,-0.532860889,-0.226788595,1.500357151
0.253393593,0.171343565,5.792963505,39.76755956,-1,866,0.063348398,0.042835891,1.448240876
-1.042136726,-2.132672071,5.714559078,39.86755956,-1,867,-0.260534182,-0.533168018,1.42863977
-1.957358418,-0.030015264,5.87991333,39.96755956,-1,868,-0.489339604,-0.007503816,1.469978333
0.856528702,1.130627155,4.800379276,40.06755957,-1,869,0.214132175,0.282656789,1.200094819
0.219633522,-1.169783473,2.346747637,40.16755957,-1,870,0.054908381,-0.292445868,0.586686909
0.874587479,-1.815572977,5.210783482,40.26755957,-1,871,0.21864687,-0.453893244,1.30269587
0.639241638,-1.901268601,6.159720421,40.36755957,-1,872,0.15981041,-0.47531715,1.539930105
1.231038513,0.777855575,6.183987617,40.46755957,-1,873,0.307759628,0.194463894,1.545996904
-0.204896507,-1.137636065,4.415254593,40.56755957,-1,874,-0.051224127,-0.284409016,1.103813648
-1.292140541,-1.408947229,3.464116096,40.66755958,-1,875,-0.323035135,-0.352236807,0.866029024
-0.364522514,-1.372849226,3.091789246,40.76755958,-1,876,-0.091130629,-0.343212306,0.772947311
0.289716187,-0.825772524,3.653470755,40.86755958,-1,877,0.072429047,-0.206443131,0.913367689
-0.362933693,1.120045424,5.637546062,40.96755958,-1,878,-0.090733423,0.280011356,1.409386516
0.200899544,-1.388770938,-0.5074929,41.06755958,-1,879,0.050224886,-0.347192734,-0.126873225
1.148612442,-0.55543673,-1.011366367,41.16755958,-1,880,0.287153111,-0.138859183,-0.252841592
-0.409568367,-1.569586396,0.275927186,41.26755958,-1,881,-0.102392092,-0.392396599,0.068981797
0.016189995,0.263089359,-0.151777387,41.36755959,-1,882,0.004047499,0.06577234,-0.037944347
0.29716629,1.750488758,-0.230309799,41.46755959,-1,883,0.074291573,0.43762219,-0.05757745
-0.150471268,1.259375215,1.833714247,41.56755959,-1,884,-0.037617817,0.314843804,0.458428562
-1.449802933,-1.580785751,4.132330894,41.66755959,-1,885,-0.362450733,-0.395196438,1.033082724
-0.750207481,-1.006782889,3.260648727,41.76755959,-1,886,-0.18755187,-0.251695722,0.815162182
0.684033813,-0.114867032,2.329154015,41.86755959,-1,887,0.171008453,-0.028716758,0.582288504
0.070519867,-1.637406588,3.755259037,41.96755959,-1,888,0.017629967,-0.409351647,0.938814759
1.272420349,-0.307458848,2.732616425,42.0675596,-1,889,0.318105087,-0.076864712,0.683154106
-3.060004768,1.669463754,3.42698431,42.1675596,-1,890,-0.765001192,0.417365938,0.856746078
0.06857914,-0.946645916,0.512816846,42.2675596,-1,891,0.017144785,-0.236661479,0.128204212
6.360434952,0.288837105,-0.705643117,42.3675596,-1,892,1.590108738,0.072209276,-0.176410779
-2.708918152,-2.749957085,-4.677962303,42.4675596,-1,893,-0.677229538,-0.687489271,-1.169490576
2.456777992,-1.455167532,-6.236017704,42.5675596,-1,894,0.614194498,-0.363791883,-1.559004426
-2.870804844,-1.265215635,-2.789276838,42.66755961,-1,895,-0.717701211,-0.316303909,-0.69731921
-2.106977997,-1.24413085,-4.560056686,42.76755961,-1,896,-0.526744499,-0.311032712,-1.140014172
-2.659633217,-0.171686471,-2.096173763,42.86755961,-1,897,-0.664908304,-0.042921618,-0.524043441
