x,y,z,Event Time,Event Type,Frame,x_modified,y_modified,z_modified
-1.57137352,0.548120916,-1.246398926,837.33489,-1,8502,-0.39284338,0.137030229,-0.311599731
1.493974152,-1.529605985,-0.452432394,837.43489,-1,8503,0.373493538,-0.382401496,-0.113108099
0.369589272,0.445770264,-1.38775456,837.53489,-1,8504,0.092397318,0.111442566,-0.34693864
-0.236352501,-1.529511929,1.409815788,837.63489,-1,8505,-0.059088125,-0.382377982,0.352453947
0.671752396,0.800777614,1.53288126,837.73489,-1,8506,0.167938099,0.200194404,0.383220315
-1.0110746,-0.114957467,-3.268882036,837.83489,-1,8507,-0.25276865,-0.028739367,-0.817220509
2.278021278,-1.986609817,-1.584102392,837.93489,-1,8508,0.56950532,-0.496652454,-0.396025598
-0.494249878,-1.900941372,-0.20469752,838.03489,-1,8509,-0.123562469,-0.475235343,-0.05117438
-1.277407227,-0.512390971,-0.960861027,838.13489,-1,8510,-0.319351807,-0.128097743,-0.240215257
0.447591248,2.160437822,-0.713521242,838.23489,-1,8511,0.111897812,0.540109456,-0.178380311
0.310646477,-0.920886874,0.490581632,838.43489,-1,8513,0.077661619,-0.230221719,0.122645408
1.971295776,-0.718708813,99.9,838.53489,-1,8514,0.492823944,-0.179677203,24.975
0.276864471,1.12734282,8.242456436,838.63489,-1,8515,0.069216118,0.281835705,2.060614109
-2.521282253,0.053450558,2.561553717,838.73489,-1,8516,-0.630320563,0.01336264,0.640388429
-1.801296768,2.539328337,2.867940664,838.83489,-1,8517,-0.450324192,0.634832084,0.716985166
0.427084389,2.054490328,-0.132359192,838.93489,-1,8518,0.106771097,0.513622582,-0.033089798
0.669177475,0.492138684,2.5561831,839.03489,-1,8519,0.167294369,0.123034671,0.639045775
1.662175598,-0.3670789,-1.590007067,839.13489,-1,8520,0.4155439,-0.091769725,-0.397501767
-0.754611549,-1.825980544,-0.944647908,839.23489,-1,8521,-0.188652887,-0.456495136,-0.236161977
2.556763115,1.050649881,1.113692641,839.33489,-1,8522,0.639190779,0.26266247,0.27842316
-3.47281414,-0.436644822,-2.452266693,839.43489,-1,8523,-0.868203535,-0.109161206,-0.613066673
-0.331930695,-1.108570576,0.710579932,839.53489,-1,8524,-0.082982674,-0.277142644,0.177644983
-1.109158096,1.338808298,0.483308345,839.63489,-1,8525,-0.277289524,0.334702075,0.120827086
-0.898064194,0.302387089,-1.298958182,839.73489,-1,8526,-0.224516048,0.075596772,-0.324739546
0.746423187,1.106482387,-1.334503174,839.83489,-1,8527,0.186605797,0.276620597,-0.333625793
-0.180718002,-0.425186604,-2.758088112,839.93489,-1,8528,-0.045179501,-0.106296651,-0.689522028
2.017150345,-0.100519583,-1.03179872,840.03489,-1,8529,0.504287586,-0.025129896,-0.25794968
-0.562941132,-0.215506151,-0.353042185,840.13489,-1,8530,-0.140735283,-0.053876538,-0.088260546
0.06942791,2.058650732,-0.706104755,840.23489,-1,8531,0.017356977,0.514662683,-0.176526189
1.52594799,0.059123617,-0.381991178,840.33489,-1,8532,0.381486998,0.014780904,-0.095497794
0.690411987,-1.2593503,-0.020806067,840.43489,-1,8533,0.172602997,-0.314837575,-0.005201517
-2.667871056,-0.619552553,-0.669557571,840.53489,-1,8534,-0.666967764,-0.154888138,-0.167389393
-0.328918037,0.724112868,-0.836652935,840.63489,-1,8535,-0.082229509,0.181028217,-0.209163234
1.121363106,-0.138084143,0.45033139,840.73489,-1,8536,0.280340776,-0.034521036,0.112582847
1.764277878,-0.172822997,-0.920689404,840.83489,-1,8537,0.441069469,-0.043205749,-0.230172351
-0.281146584,-0.834298015,1.155604124,840.93489,-1,8538,-0.070286646,-0.208574504,0.288901031
-1.663455544,-0.647073328,-1.253216147,841.03489,-1,8539,-0.415863886,-0.161768332,-0.313304037
-1.940186081,-2.719369888,3.436737299,841.13489,-1,8540,-0.48504652,-0.679842472,0.859184325
0.583051147,-0.241621822,-0.095027715,841.23489,-1,8541,0.145762787,-0.060405456,-0.023756929
0.32699913,1.230783463,2.023277998,841.33489,-1,8542,0.081749783,0.307695866,0.505819499
0.916584435,1.3273983,0.338144749,841.43489,-1,8543,0.229146109,0.331849575,0.084536187
1.751325073,-1.932434201,-0.522235394,841.53489,-1,8544,0.437831268,-0.48310855,-0.130558848
1.009469452,0.508788705,-0.6827631,841.63489,-1,8545,0.252367363,0.127197176,-0.170690775
0.362574043,-2.332001209,1.232810378,841.73489,-1,8546,0.090643511,-0.583000302,0.308202595
0.794068756,0.332616836,-0.83447504,841.83489,-1,8547,0.198517189,0.083154209,-0.20861876
-2.665383873,0.902554572,-0.876619697,841.93489,-1,8548,-0.666345968,0.225638643,-0.219154924
-0.334282455,-1.138903379,-0.715119064,842.03489,-1,8549,-0.083570614,-0.284725845,-0.178779766
-1.460157928,-2.347495079,0.97607094,842.13489,6,8550,-0.365039482,-0.58687377,0.244017735
-0.397625504,1.288499475,-0.200299263,842.23489,6,8551,-0.099406376,0.322124869,-0.050074816
2.448507729,-0.14650625,0.813090861,842.33489,6,8552,0.612126932,-0.036626562,0.203272715
-1.552238998,3.972318411,0.104485229,842.43489,6,8553,-0.38805975,0.993079603,0.026121307
-0.756651459,6.106074333,1.494424105,842.53489,6,8554,-0.189162865,1.526518583,0.373606026
-0.312381325,6.086303711,0.282015115,842.63489,6,8555,-0.078095331,1.521575928,0.070503779
0.703902664,10.83507156,2.149130106,842.73489,6,8556,0.175975666,2.708767891,0.537282526
-1.713336525,12.20972824,-0.243960738,842.83489,6,8557,-0.428334131,3.05243206,-0.060990185
-0.512396393,13.46286488,2.358778,842.93489,6,8558,-0.128099098,3.365716219,0.5896945
-0.222262917,9.861157417,0.975396752,843.03489,6,8559,-0.055565729,2.465289354,0.243849188
-0.459173737,10.69333935,1.539516807,843.13489,6,8560,-0.114793434,2.673334837,0.384879202
2.803236427,7.330132484,0.105495162,843.2348901,6,8561,0.700809107,1.832533121,0.026373791
-0.012363968,2.323625565,2.327443123,843.3348901,6,8562,-0.003090992,0.580906391,0.581860781
1.408026161,-2.951226234,-0.931872129,843.4348901,6,8563,0.35200654,-0.737806559,-0.232968032
0.303905907,-8.742485046,0.427871376,843.5348901,6,8564,0.075976477,-2.185621262,0.106967844
-0.360650597,-10.01931953,1.325252056,843.6348901,6,8565,-0.090162649,-2.504829884,0.331313014
-0.273331223,-16.36786652,-0.593834817,843.7348901,6,8566,-0.068332806,-4.091966629,-0.148458704
-1.058815536,-10.95280075,0.785516739,843.8348901,6,8567,-0.264703884,-2.738200188,0.196379185
-1.774132309,-13.23730373,2.28076148,843.9348901,6,8568,-0.443533077,-3.309325933,0.57019037
-1.859519539,-8.965611458,1.142409801,844.0348901,6,8569,-0.464879885,-2.241402864,0.28560245
0.163335266,-8.094139099,-1.276452422,844.1348901,6,8570,0.040833817,-2.023534775,-0.319113106
-1.791282234,-0.899638414,0.052232876,844.2348901,6,8571,-0.447820559,-0.224909604,0.013058219
0.068816605,-0.042425752,3.603949547,844.3348901,6,8572,0.017204151,-0.010606438,0.900987387
1.324120941,0.1704368,-0.816842616,844.4348901,6,8573,0.331030235,0.0426092,-0.204210654
-2.951366005,1.117934465,-2.564405441,844.5348901,6,8574,-0.737841501,0.279483616,-0.64110136
-1.37452179,0.376885235,0.443789661,844.6348901,-1,8575,-0.343630447,0.094221309,0.110947415
0.859556618,-1.128290892,-0.824410439,844.7348901,-1,8576,0.214889154,-0.282072723,-0.20610261
-0.406921921,1.340807199,0.078188851,844.8348901,-1,8577,-0.10173048,0.3352018,0.019547213
1.481365623,-0.588718295,1.641801119,844.9348901,-1,8578,0.370341406,-0.147179574,0.41045028
-0.588271675,0.328233451,-0.430329889,845.0348901,-1,8579,-0.147067919,0.082058363,-0.107582472
0.37159771,1.727860928,-0.485844582,845.1348901,-1,8580,0.092899427,0.431965232,-0.121461146
1.91063446,2.379067659,1.426498175,845.2348901,-1,8581,0.477658615,0.594766915,0.356624544
1.350573006,1.287009954,-0.345805854,845.3348901,-1,8582,0.337643251,0.321752489,-0.086451463
0.396703186,-0.46277681,0.293289602,845.4348901,-1,8583,0.099175797,-0.115694202,0.0733224
-0.911711273,-2.295910597,-0.297561646,845.5348901,-1,8584,-0.227927818,-0.573977649,-0.074390411
-0.639958916,0.119760193,-0.253232986,845.6348901,-1,8585,-0.159989729,0.029940048,-0.063308246
0.204255524,-1.996387243,-0.631811798,845.7348901,-1,8586,0.051063881,-0.499096811,-0.157952949
-2.388328133,0.357729197,1.425385594,845.8348901,-1,8587,-0.597082033,0.089432299,0.356346399
0.379526558,-2.027421713,-0.969228864,845.9348901,-1,8588,0.094881639,-0.506855428,-0.242307216
2.420285645,-0.307247162,-2.883551359,846.0348901,-1,8589,0.605071411,-0.07681179,-0.72088784
0.037831726,0.065204851,-1.183675766,846.1348901,-1,8590,0.009457932,0.016301213,-0.295918941
-0.119452057,0.298872054,1.098083973,846.2348901,-1,8591,-0.029863014,0.074718013,0.274520993
-0.552188454,1.719562888,-0.474859327,846.3348901,-1,8592,-0.138047113,0.429890722,-0.118714832
0.529968681,1.787793517,2.209118128,846.4348901,-1,8593,0.13249217,0.446948379,0.552279532
0.767454567,-0.053980939,-0.663204849,846.5348901,-1,8594,0.191863642,-0.013495235,-0.165801212
1.810161057,-0.987033725,0.0275962,846.6348901,-1,8595,0.452540264,-0.246758431,0.00689905
0.712302628,-0.176428765,-0.158360437,846.7348901,-1,8596,0.178075657,-0.044107191,-0.039590109
-0.199154434,0.674064159,0.425623417,846.8348901,-1,8597,-0.049788609,0.16851604,0.106405854
-1.771400986,0.471437693,-0.879533112,846.9348901,-1,8598,-0.442850246,0.117859423,-0.219883278
-0.088456688,0.561009645,-1.197636008,847.0348901,-1,8599,-0.022114172,0.140252411,-0.299409002
-0.523985443,1.089381337,0.493725926,847.1348901,-1,8600,-0.130996361,0.272345334,0.123431481
0.662100258,-0.833519757,-2.368130445,847.2348901,-1,8601,0.165525064,-0.208379939,-0.592032611
0.30016655,-0.794615567,-1.331189513,847.3348901,-1,8602,0.075041637,-0.198653892,-0.332797378
1.168880882,-3.03832674,-0.158728868,847.4348901,-1,8603,0.292220221,-0.759581685,-0.039682217
-0.606238899,1.513217688,-0.625921428,847.5348901,-1,8604,-0.151559725,0.378304422,-0.156480357
1.409358444,-1.270198464,-2.516794205,847.6348901,-1,8605,0.352339611,-0.317549616,-0.629198551
0.788612785,1.159074187,2.003636837,847.7348901,-1,8606,0.197153196,0.289768547,0.500909209
1.718108597,0.320515543,-0.730459809,847.8348901,-1,8607,0.429527149,0.080128886,-0.182614952
-0.275928078,0.185259655,0.123013303,847.9348901,-1,8608,-0.068982019,0.046314914,0.030753326
0.869228783,-0.507010877,0.095051497,848.0348901,-1,8609,0.217307196,-0.126752719,0.023762874
-1.813427505,-0.13207449,0.778644264,848.1348901,-1,8610,-0.453356876,-0.033018623,0.194661066
1.493682327,0.227889836,-0.290053338,848.2348901,-1,8611,0.373420582,0.056972459,-0.072513334
-0.199355659,1.101163983,1.544612765,848.3348901,-1,8612,-0.049838915,0.275290996,0.386153191
0.874914589,-0.666902721,-0.545377851,848.4348901,-1,8613,0.218728647,-0.16672568,-0.136344463
-1.19018322,0.884925067,1.06466496,848.5348901,-1,8614,-0.297545805,0.221231267,0.26616624
1.063040199,-1.627121091,-0.835846663,848.6348901,-1,8615,0.26576005,-0.406780273,-0.208961666
1.231519165,-1.16376245,0.345049888,848.7348901,-1,8616,0.307879791,-0.290940613,0.086262472
-0.703127441,1.8585428,0.198769569,848.8348901,-1,8617,-0.17578186,0.4646357,0.049692392
1.194247665,-0.757020831,1.845587254,848.9348901,-1,8618,0.298561916,-0.189255208,0.461396813
-0.763428268,1.26271677,1.676059961,849.0348901,-1,8619,-0.190857067,0.315679193,0.41901499
0.154434624,1.959949255,-1.880613565,849.1348901,-1,8620,0.038608656,0.489987314,-0.470153391
0.819324913,0.169006765,-0.692719638,849.2348901,-1,8621,0.204831228,0.042251691,-0.17317991
2.490163269,-1.245445728,0.996944427,849.3348901,-1,8622,0.622540817,-0.311361432,0.249236107
-1.00435215,0.480956644,0.130025819,849.4348901,-1,8623,-0.251088037,0.120239161,0.032506455
1.718979301,1.250951409,0.17089659,849.5348901,-1,8624,0.429744825,0.312737852,0.042724147
-1.268717346,-0.814683795,-0.55428952,849.6348901,-1,8625,-0.317179337,-0.203670949,-0.13857238
0.73305172,1.047370911,-2.321354628,849.7348901,-1,8626,0.18326293,0.261842728,-0.580338657
-0.908754883,3.274178743,-0.679270267,849.8348901,-1,8627,-0.227188721,0.818544686,-0.169817567
-3.262898979,0.304319292,3.036496878,849.9348902,-1,8628,-0.815724745,0.076079823,0.759124219
-1.906487999,1.780560136,0.825195253,850.0348902,-1,8629,-0.476622,0.445140034,0.206298813
0.07052845,0.709254324,-1.632816672,850.1348902,-1,8630,0.017632113,0.177313581,-0.408204168
-1.907673416,0.223413482,-0.794727266,850.2348902,-1,8631,-0.476918354,0.055853371,-0.198681816
1.608762207,0.580470324,-0.821334064,850.3348902,-1,8632,0.402190552,0.145117581,-0.205333516
-3.193890152,-0.748750687,2.186212778,850.4348902,-1,8633,-0.798472538,-0.187187672,0.546553195
-1.113396225,2.931490421,1.300548911,850.5348902,-1,8634,-0.278349056,0.732872605,0.325137228
-2.755868492,1.786644697,0.18383196,850.6348902,-1,8635,-0.688967123,0.446661174,0.04595799
-2.584847031,-1.235885143,-0.179393455,850.7348902,-1,8636,-0.646211758,-0.308971286,-0.044848364
0.30920929,-0.078609228,-0.387046099,850.8348902,-1,8637,0.077302322,-0.019652307,-0.096761525
1.077978554,-1.06381619,-0.32419619,850.9348902,-1,8638,0.269494638,-0.265954047,-0.081049047
-0.549620209,-0.553186655,0.463169664,851.0348902,-1,8639,-0.137405052,-0.138296664,0.115792416
-0.302362976,1.349037647,2.317407131,851.1348902,-1,8640,-0.075590744,0.337259412,0.579351783
-0.214742241,0.279099762,-0.575034559,851.2348902,-1,8641,-0.05368556,0.069774941,-0.14375864
0.640537682,0.512242258,0.813647032,851.3348902,-1,8642,0.16013442,0.128060564,0.203411758
1.919581833,-0.244155049,-1.268321633,851.4348902,-1,8643,0.479895458,-0.061038762,-0.317080408
0.90579361,2.276637077,0.863064289,851.5348902,-1,8644,0.226448402,0.569159269,0.215766072
-0.992275772,1.512912989,-0.13699311,851.6348902,-1,8645,-0.248068943,0.378228247,-0.034248278
-1.436363754,-0.133012027,-2.643882036,851.7348902,-1,8646,-0.359090939,-0.033253007,-0.660970509
-1.582755623,-2.190978765,1.791488051,851.8348902,-1,8647,-0.395688906,-0.547744691,0.447872013
1.200165215,4.596885681,-0.049406126,851.9348902,-1,8648,0.300041304,1.14922142,-0.012351532
0.815236511,-2.519159317,3.286005974,852.0348902,-1,8649,0.203809128,-0.629789829,0.821501493
7.187928619,0.654675543,-5.09440279,852.1348902,-1,8650,1.796982155,0.163668886,-1.273600698
-2.506009159,-0.020506769,-1.570914984,852.3348902,-1,8652,-0.62650229,-0.005126692,-0.392728746
1.950252953,-2.765954494,-99.9,852.4348902,-1,8653,0.487563238,-0.691488624,-24.975
