x,y,z,Event Time,Event Type,Frame,x_modified,y_modified,z_modified
1.471144142,1.053452134,0.543717325,77.73184223,-1,1090,0.367786036,0.263363034,0.135929331
0.670384827,1.698553681,-0.848732769,77.83184224,-1,1091,0.167596207,0.42463842,-0.212183192
-1.70793396,0.46269539,0.067130871,77.93184224,-1,1092,-0.42698349,0.115673847,0.016782718
-0.499656258,-0.917352319,-1.540485978,78.03184224,-1,1093,-0.124914064,-0.22933808,-0.385121495
0.809602203,0.51206708,0.523293793,78.13184224,-1,1094,0.202400551,0.12801677,0.130823448
0.740084114,1.570370078,2.69147563,78.23184224,-1,1095,0.185021029,0.39259252,0.672868907
0.806872787,0.176805928,-0.052899599,78.33184224,-1,1096,0.201718197,0.044201482,-0.0132249
-1.074579773,-0.793832362,1.238737106,78.43184225,-1,1097,-0.268644943,-0.19845809,0.309684277
0.107963982,1.28733933,1.606546998,78.53184225,-1,1098,0.026990995,0.321834832,0.40163675
2.12096447,-1.272307873,-2.383914948,78.63184225,-1,1099,0.530241117,-0.318076968,-0.595978737
0.402504387,-1.392187834,92.87800598,78.83184225,-1,1101,0.100626097,-0.348046958,23.2195015
-0.862995682,1.07838428,5.708576202,78.93184225,-1,1102,-0.21574892,0.26959607,1.427144051
0.932005348,0.556130171,-1.784431815,79.03184225,-1,1103,0.233001337,0.139032543,-0.446107954
-0.319958267,-1.300758123,-0.998544753,79.13184226,-1,1104,-0.079989567,-0.325189531,-0.249636188
-3.104071674,-1.364686489,-1.063664794,79.23184226,-1,1105,-0.776017919,-0.341171622,-0.265916198
0.20116848,-0.726262689,-1.562921286,79.33184226,-1,1106,0.05029212,-0.181565672,-0.390730321
2.039111557,0.911962271,1.005960464,79.43184226,-1,1107,0.509777889,0.227990568,0.251490116
1.15195507,0.74044627,-1.592811227,79.53184226,-1,1108,0.287988768,0.185111567,-0.398202807
-1.043798981,-1.805474639,-0.628407359,79.63184226,-1,1109,-0.260949745,-0.45136866,-0.15710184
-1.882804451,-1.685522199,-1.732981205,79.73184226,-1,1110,-0.470701113,-0.42138055,-0.433245301
2.266499939,-0.313117802,-1.980927229,79.83184227,-1,1111,0.566624985,-0.078279451,-0.495231807
-1.985166607,0.060635757,-0.160991371,79.93184227,-1,1112,-0.496291652,0.015158939,-0.040247843
1.294204178,-1.85627532,0.973365545,80.03184227,-1,1113,0.323551044,-0.46406883,0.243341386
-3.63095623,1.196283698,-0.708274066,80.13184227,-1,1114,-0.907739058,0.299070925,-0.177068517
-1.247469482,1.71512115,-1.928207278,80.23184227,-1,1115,-0.311867371,0.428780288,-0.48205182
1.056399765,-0.149013907,0.103118323,80.33184227,-1,1116,0.264099941,-0.037253477,0.025779581
-0.980590401,-0.354260951,-1.193814874,80.43184227,-1,1117,-0.2451476,-0.088565238,-0.298453718
0.655968132,0.253760993,1.801295042,80.53184228,-1,1118,0.163992033,0.063440248,0.450323761
1.651612701,0.536209881,0.515563369,80.63184228,-1,1119,0.412903175,0.13405247,0.128890842
-1.217565117,-1.447120428,-0.487009495,80.73184228,-1,1120,-0.304391279,-0.361780107,-0.121752374
0.274690094,0.171229228,-1.368674755,80.83184228,-1,1121,0.068672523,0.042807307,-0.342168689
0.712046089,-0.716509044,2.095813513,80.93184228,-1,1122,0.178011522,-0.179127261,0.523953378
-2.591955719,-1.013953328,-1.685835481,81.03184228,-1,1123,-0.64798893,-0.253488332,-0.42145887
-0.662609634,0.108967371,-1.085947514,81.13184229,-1,1124,-0.165652409,0.027241843,-0.271486878
0.813088837,3.404733896,-0.830562592,81.23184229,-1,1125,0.203272209,0.851183474,-0.207640648
-0.364902077,-0.405453682,-0.989063084,81.33184229,-1,1126,-0.091225519,-0.10136342,-0.247265771
-1.102595863,-0.162045091,2.393222809,81.43184229,-1,1127,-0.275648966,-0.040511273,0.598305702
-0.283813057,0.501529753,0.936015487,81.53184229,-1,1128,-0.070953264,0.125382438,0.234003872
2.056928101,-0.061763648,-0.772538483,81.63184229,-1,1129,0.514232025,-0.015440912,-0.193134621
-0.364315567,1.083264112,-1.953296781,81.73184229,-1,1130,-0.091078892,0.270816028,-0.488324195
-2.11398798,-0.477023214,2.002022982,81.8318423,-1,1131,-0.528496995,-0.119255804,0.500505745
0.307909431,1.540538788,-1.061298013,81.9318423,-1,1132,0.076977358,0.385134697,-0.265324503
0.246665421,-1.341526866,-2.400578022,82.0318423,-1,1133,0.061666355,-0.335381716,-0.600144506
-0.033484039,-0.899629056,1.438901186,82.1318423,-1,1134,-0.00837101,-0.224907264,0.359725296
0.07563633,-0.956679642,0.319608599,82.2318423,-1,1135,0.018909082,-0.239169911,0.07990215
0.575787964,-1.713221312,-0.048639052,82.3318423,-1,1136,0.143946991,-0.428305328,-0.012159763
-0.160543022,0.720348775,1.293526411,82.4318423,-1,1137,-0.040135756,0.180087194,0.323381603
-1.817691383,3.83105731,-0.571391881,82.53184231,-1,1138,-0.454422846,0.957764328,-0.14284797
-1.073798714,-2.756653309,-1.247111678,82.63184231,-1,1139,-0.268449678,-0.689163327,-0.31177792
0.847261848,1.386888862,-1.797224164,82.73184231,-1,1140,0.211815462,0.346722215,-0.449306041
1.435211601,0.084592089,0.49395439,82.83184231,-1,1141,0.3588029,0.021148022,0.123488598
0.379413071,0.916534603,-0.264701903,82.93184231,-1,1142,0.094853268,0.229133651,-0.066175476
0.45680088,1.911566973,1.131088018,83.03184231,-1,1143,0.11420022,0.477891743,0.282772005
1.242423477,-0.507280409,1.625218987,83.13184232,-1,1144,0.310605869,-0.126820102,0.406304747
-0.999969063,-1.209926128,0.969191253,83.23184232,-1,1145,-0.249992266,-0.302481532,0.242297813
-1.802881775,0.009609543,-0.809331834,83.33184232,-1,1146,-0.450720444,0.002402386,-0.202332959
1.123005333,0.537522316,-1.326743722,83.43184232,-1,1147,0.280751333,0.134380579,-0.33168593
2.292617264,0.6629076,-2.99250865,83.53184232,-1,1148,0.573154316,0.1657269,-0.748127162
2.888142052,-1.042927265,-0.784906924,83.63184232,-1,1149,0.722035513,-0.260731816,-0.196226731
0.270311775,1.07218194,0.898889542,83.73184232,-1,1150,0.067577944,0.268045485,0.224722385
2.06850666,0.410346329,-0.650885999,83.83184233,-1,1151,0.517126665,0.102586582,-0.1627215
2.008255424,0.554322362,0.505154908,83.93184233,-1,1152,0.502063856,0.13858059,0.126288727
-0.249567566,-0.461512208,-1.533956885,84.03184233,-1,1153,-0.062391891,-0.115378052,-0.383489221
0.202592316,-0.43139708,1.306485415,84.13184233,-1,1154,0.050648079,-0.10784927,0.326621354
0.586352768,0.382940084,-0.413810015,84.23184233,-1,1155,0.146588192,0.095735021,-0.103452504
0.457306328,0.347322494,0.238323495,84.33184233,-1,1156,0.114326582,0.086830623,0.059580874
0.206963005,0.75617224,-0.863411665,84.43184233,-1,1157,0.051740751,0.18904306,-0.215852916
0.403935852,-0.781962752,-1.517296672,84.53184234,-1,1158,0.100983963,-0.195490688,-0.379324168
-0.833936272,0.769391537,-1.718034267,84.63184234,-1,1159,-0.208484068,0.192347884,-0.429508567
0.580808105,-1.013402581,0.053151179,84.73184234,-1,1160,0.145202026,-0.253350645,0.013287795
0.034952583,-1.790335894,0.006785324,84.83184234,-1,1161,0.008738146,-0.447583973,0.001696331
-0.386005936,-1.409979343,0.982714415,84.93184234,-1,1162,-0.096501484,-0.352494836,0.245678604
0.104513588,0.743562639,1.032530308,85.03184234,-1,1163,0.026128397,0.18589066,0.258132577
0.01940197,0.265318692,-0.683997393,85.13184234,-1,1164,0.004850492,0.066329673,-0.170999348
-2.293912468,0.422402442,-0.69131428,85.23184235,-1,1165,-0.573478117,0.10560061,-0.17282857
-0.227217255,-1.410387039,-1.329858422,85.33184235,-1,1166,-0.056804314,-0.35259676,-0.332464606
-0.931129036,1.376311779,0.749763787,85.43184235,-1,1167,-0.232782259,0.344077945,0.187440947
0.818558159,0.730504334,-2.357772589,85.53184235,-1,1168,0.20463954,0.182626083,-0.589443147
1.280971947,-2.54811883,-0.132582873,85.63184235,-1,1169,0.320242987,-0.637029707,-0.033145718
0.36282486,2.70617938,-0.812707484,85.73184235,-1,1170,0.090706215,0.676544845,-0.203176871
-3.951473293,1.585557699,-2.516003847,85.83184236,-1,1171,-0.987868323,0.396389425,-0.629000962
-0.37137085,-1.568482757,0.356518805,85.93184236,-1,1172,-0.092842712,-0.392120689,0.089129701
1.143504562,-1.297913074,-2.271483421,86.03184236,-1,1173,0.285876141,-0.324478269,-0.567870855
-0.125815926,-0.181547001,-1.008205175,86.13184236,-1,1174,-0.031453981,-0.04538675,-0.252051294
-0.534164009,2.446535826,-2.813906431,86.23184236,-1,1175,-0.133541002,0.611633956,-0.703476608
0.961141052,-2.181264639,-0.459550142,86.33184236,-1,1176,0.240285263,-0.54531616,-0.114887536
-0.747730789,1.171597242,-2.235787868,86.43184236,-1,1177,-0.186932697,0.292899311,-0.558946967
-0.421187935,-0.611896932,-0.978166878,86.53184237,-1,1178,-0.105296984,-0.152974233,-0.24454172
-1.312510071,0.626984,0.011696694,86.63184237,-1,1179,-0.328127518,0.156746,0.002924174
-0.384825287,0.748732746,-0.757083774,86.73184237,-1,1180,-0.096206322,0.187183186,-0.189270943
1.778212013,-0.734307051,2.688371658,86.83184237,-1,1181,0.444553003,-0.183576763,0.672092915
-1.295033035,-0.532154143,-0.218583807,86.93184237,-1,1182,-0.323758259,-0.133038536,-0.054645952
0.195314827,0.250794083,-1.939192653,87.03184237,-1,1183,0.048828707,0.062698521,-0.484798163
-0.473198471,-0.574582398,-0.172979429,87.13184237,-1,1184,-0.118299618,-0.143645599,-0.043244857
0.258413734,-2.205264568,0.041198269,87.23184238,-1,1185,0.064603434,-0.551316142,0.010299567
1.641455116,-0.65616411,1.047871232,87.33184238,-1,1186,0.410363779,-0.164041027,0.261967808
2.154472771,0.463624358,1.131393313,87.43184238,1,1187,0.538618193,0.11590609,0.282848328
0.506667557,-0.739436567,1.337208629,87.53184238,1,1188,0.126666889,-0.184859142,0.334302157
-0.589251099,1.569443822,-0.74736613,87.63184238,1,1189,-0.147312775,0.392360955,-0.186841533
-1.129740295,2.201128483,-0.441136897,87.73184238,1,1190,-0.282435074,0.550282121,-0.110284224
-0.26382309,2.271122932,-0.545339882,87.83184239,1,1191,-0.065955772,0.567780733,-0.136334971
-1.500852165,3.6709342,-1.097467065,87.93184239,1,1192,-0.375213041,0.91773355,-0.274366766
-1.379447517,1.527895451,-0.101602465,88.03184239,1,1193,-0.344861879,0.381973863,-0.025400616
-0.803406296,2.426052094,0.45258069,88.13184239,1,1194,-0.200851574,0.606513023,0.113145173
-0.333813248,5.640707016,0.31191802,88.23184239,1,1195,-0.083453312,1.410176754,0.077979505
0.179282608,7.442830563,0.956360698,88.33184239,1,1196,0.044820652,1.860707641,0.239090174
0.347140732,5.404366016,-0.4687666,88.43184239,1,1197,0.086785183,1.351091504,-0.11719165
-0.285715637,8.102781296,0.193978742,88.5318424,1,1198,-0.071428909,2.025695324,0.048494685
-2.56556469,7.846014023,0.165642425,88.6318424,1,1199,-0.641391172,1.961503506,0.041410606
0.055287781,8.222593307,1.018683314,88.7318424,1,1200,0.013821945,2.055648327,0.254670829
0.719608727,9.310350418,-0.365613282,88.8318424,1,1201,0.179902182,2.327587605,-0.09140332
1.046837273,9.206571579,-0.609246254,88.9318424,1,1202,0.261709318,2.301642895,-0.152311563
-0.314705429,10.20371342,1.242628813,89.0318424,1,1203,-0.078676357,2.550928354,0.310657203
-3.45322567,10.93819618,2.736209393,89.1318424,1,1204,-0.863306417,2.734549046,0.684052348
1.523088875,8.319702148,3.950438499,89.23184241,1,1205,0.380772219,2.079925537,0.987609625
-0.763620911,9.801649094,2.161272287,89.33184241,1,1206,-0.190905228,2.450412273,0.540318072
-0.522846756,9.772021294,-2.17130065,89.43184241,1,1207,-0.130711689,2.443005323,-0.542825162
-3.065422592,12.00808334,0.274084985,89.53184241,1,1208,-0.766355648,3.002020836,0.068521246
-0.958516655,12.26507568,0.965252399,89.63184241,1,1209,-0.239629164,3.066268921,0.2413131
-3.850446281,14.16777897,1.59320116,89.73184241,1,1210,-0.96261157,3.541944742,0.39830029
-1.22811657,11.35520935,1.092877865,89.83184242,1,1211,-0.307029142,2.838802338,0.273219466
-0.748728333,9.96909523,4.819052696,89.93184242,1,1212,-0.187182083,2.492273808,1.204763174
-1.093061981,13.5305891,4.86002779,90.03184242,1,1213,-0.273265495,3.382647276,1.215006948
-0.467469749,6.315964222,-1.319993377,90.13184242,1,1214,-0.116867437,1.578991055,-0.329998344
1.129628601,2.94198966,-0.123528153,90.23184242,1,1215,0.28240715,0.735497415,-0.030882038
-0.484326897,2.598763466,0.74530381,90.33184242,1,1216,-0.121081724,0.649690866,0.186325952
1.112929764,0.245547041,1.633385539,90.43184242,1,1217,0.278232441,0.06138676,0.408346385
2.655057373,0.703148127,0.285192996,90.53184243,1,1218,0.663764343,0.175787032,0.071298249
-0.576019821,0.789218307,-1.244618535,90.63184243,1,1219,-0.144004955,0.197304577,-0.311154634
-0.028955994,0.213602379,-0.709526241,90.73184243,1,1220,-0.007238998,0.053400595,-0.17738156
0.392026367,-0.847731531,0.017156735,90.83184243,1,1221,0.098006592,-0.211932883,0.004289184
-0.048574982,-1.039770007,0.590785205,90.93184243,-1,1222,-0.012143745,-0.259942502,0.147696301
0.848467293,0.446531743,-1.657408237,91.03184243,-1,1223,0.212116823,0.111632936,-0.414352059
-0.336628494,0.573959053,-0.017572612,91.13184243,-1,1224,-0.084157124,0.143489763,-0.004393153
-1.730331955,-0.698013604,-0.607650578,91.23184244,-1,1225,-0.432582989,-0.174503401,-0.151912645
-2.019605217,-0.507749438,-0.864217401,91.33184244,-1,1226,-0.504901304,-0.12693736,-0.21605435
1.254042091,1.35062933,1.087979555,91.43184244,-1,1227,0.313510523,0.337657332,0.271994889
-0.804717598,0.691592574,-0.773873806,91.53184244,-1,1228,-0.201179399,0.172898144,-0.193468451
0.763112488,3.001367331,1.347459435,91.63184244,-1,1229,0.190778122,0.750341833,0.336864859
0.976126137,2.881335735,3.473862648,91.73184244,-1,1230,0.244031534,0.720333934,0.868465662
-0.790401993,-1.518305779,1.68857336,91.83184244,-1,1231,-0.197600498,-0.379576445,0.42214334
1.529746475,1.3762815,-1.317569017,91.93184245,-1,1232,0.382436619,0.344070375,-0.329392254
-1.913788376,-1.099267721,1.577761889,92.03184245,-1,1233,-0.478447094,-0.27481693,0.394440472
