x,y,z,Event Time,Event Type,Frame,x_modified,y_modified,z_modified
0.818561974,0.730544448,-2.356064081,138.0305104,-1,1410,0.204640493,0.182636112,-0.58901602
1.281078758,-2.547846317,-0.13087602,138.1305104,-1,1411,0.32026969,-0.636961579,-0.032719005
0.362916412,2.706373692,-0.811001778,138.2305104,-1,1412,0.090729103,0.676593423,-0.202750444
-3.951526699,1.585669756,-2.514330626,138.3305104,-1,1413,-0.987881675,0.396417439,-0.628582656
-0.357226906,-1.288503885,0.362934887,138.4305104,-1,1414,-0.089306726,-0.322125971,0.090733722
1.390536728,-1.592397451,-2.512734413,138.5305104,-1,1415,0.347634182,-0.398099363,-0.628183603
-0.590038834,0.205915034,-0.852475226,138.6305104,-1,1416,-0.147509708,0.051478758,-0.213118806
-0.541313705,2.50129962,-2.754482031,138.7305104,-1,1417,-0.135328426,0.625324905,-0.688620508
1.025597992,-2.102381468,-0.467039734,138.8305104,-1,1418,0.256399498,-0.525595367,-0.116759934
-0.657026825,0.977736652,-2.211506605,138.9305104,-1,1419,-0.164256706,0.244434163,-0.552876651
-1.292867241,-3.864824533,-0.632953405,139.1305104,2,1421,-0.32321681,-0.966206133,-0.158238351
-0.443499146,-4.971824646,-3.322996378,139.2305104,2,1422,-0.110874786,-1.242956161,-0.830749094
1.298703613,-7.136368752,-0.000743389,139.3305104,2,1423,0.324675903,-1.784092188,-0.000185847
-2.542360363,-9.998679161,-2.272925854,139.4305104,2,1424,-0.635590091,-2.49966979,-0.568231463
-1.311434326,-9.973725319,-2.562805653,139.5305104,2,1425,-0.327858582,-2.49343133,-0.640701413
-2.363349018,-10.21793747,0.661156774,139.6305104,2,1426,-0.590837255,-2.554484367,0.165289193
-1.004158554,-17.64621544,2.573125362,139.7305104,2,1427,-0.251039639,-4.41155386,0.643281341
0.385966721,-16.77433014,4.016967297,139.8305104,2,1428,0.09649168,-4.193582535,1.004241824
1.076296272,-17.12416649,5.914047241,139.9305104,2,1429,0.269074068,-4.281041622,1.47851181
-0.32655674,-20.48807716,7.442677021,140.0305104,2,1430,-0.081639185,-5.122019291,1.860669255
-1.305586395,-19.69443893,6.097408772,140.1305104,2,1431,-0.326396599,-4.923609734,1.524352193
-1.919627724,-22.89122581,7.085454941,140.2305104,2,1432,-0.479906931,-5.722806454,1.771363735
-1.368933258,-21.9528389,7.447631359,140.3305104,2,1433,-0.342233315,-5.488209724,1.86190784
-3.005581436,-16.23013306,9.852059364,140.4305104,2,1434,-0.751395359,-4.057533264,2.463014841
-1.942466316,-18.10232353,5.982695103,140.5305104,2,1435,-0.485616579,-4.525580883,1.495673776
-0.464545784,-19.28120041,3.080221891,140.6305104,2,1436,-0.116136446,-4.820300102,0.770055473
-0.191306648,-9.269335747,1.138917923,140.7305104,2,1437,-0.047826662,-2.317333937,0.284729481
0.282736244,-5.010959625,1.686231613,140.8305104,2,1438,0.070684061,-1.252739906,0.421557903
0.426013412,-3.302750349,-0.307066768,140.9305104,2,1439,0.106503353,-0.825687587,-0.076766692
-0.055680809,-0.20524931,-0.03904663,141.0305104,2,1440,-0.013920202,-0.051312327,-0.009761658
-2.247283516,-0.420350909,-0.172987267,141.1305104,-1,1441,-0.561820879,-0.105087727,-0.043246817
0.458325806,0.013608694,0.618086696,141.2305104,-1,1442,0.114581451,0.003402174,0.154521674
1.20911068,1.135677457,-0.796223223,141.3305104,-1,1443,0.30227767,0.283919364,-0.199055806
1.741515579,-0.553714573,-0.333662778,141.4305104,-1,1444,0.435378895,-0.138428643,-0.083415695
0.139111938,1.723329067,0.916439056,141.5305104,-1,1445,0.034777985,0.430832267,0.229109764
-2.430615959,1.304388881,1.938253641,141.6305104,-1,1446,-0.60765399,0.32609722,0.48456341
2.65879673,-2.079153538,3.052502155,141.7305104,-1,1447,0.664699183,-0.519788384,0.763125539
0.121301117,-0.607094944,1.183755279,141.8305104,-1,1448,0.030325279,-0.151773736,0.29593882
0.668125572,-1.461012721,-2.483693838,141.9305104,-1,1449,0.167031393,-0.36525318,-0.62092346
