0.097235572
-0.059474192
-0.4692743
0.177001648
0.64981494
2.0135355
2.624546032
3.6653686
5.16914492
5.02709436
4.19378368
2.183267276
-0.411893934
-3.108614249
-4.42224818
-5.41151648
-5.3039076
-5.21728902
-3.486510712
-2.101938
-0.17363682
0.73663421
0.552048472
-0.202039742
-0.52003682
