0.278390908
0.201659026
-0.231961848
-0.399859066
0.344034306
0.867223096
1.500327626
1.612680244
2.11475974
1.51936848
1.52894188
1.7076983
1.769752874
1.080393455
1.859913814
1.019691926
1.116996374
1.089478896
1.412594932
1.444239368
1.345266644
0.916183017
1.125253267
1.155950636
0.940547918
