x,y,z,Event Time,Event Type,Frame,x_modified,y_modified,z_modified
0.670384827,1.698668599,-0.848832071,49.52284712,-1,811,0.167596207,0.42466715,-0.212208018
-1.70793396,0.462810338,0.067031592,49.62284712,-1,812,-0.42698349,0.115702584,0.016757898
-0.499656258,-0.917237341,-1.540585279,49.72284713,-1,813,-0.124914064,-0.229309335,-0.38514632
0.809602203,0.512182057,0.523194492,49.82284713,-1,814,0.202400551,0.128045514,0.130798623
0.740084114,1.570484996,2.691376448,49.92284713,-1,815,0.185021029,0.392621249,0.672844112
0.806872787,0.176920876,-0.052998878,50.02284713,-1,816,0.201718197,0.044230219,-0.01324972
-1.074579773,-0.793717384,1.238637805,50.12284713,-1,817,-0.268644943,-0.198429346,0.309659451
0.107963982,1.287454247,1.606447697,50.22284713,-1,818,0.026990995,0.321863562,0.401611924
2.12096447,-1.272192955,-2.38401413,50.32284714,-1,819,0.530241117,-0.318048239,-0.596003532
-0.26208168,0.671602547,1.77381444,50.42284714,-1,820,-0.06552042,0.167900637,0.44345361
-0.326763687,1.079614162,96.17494202,50.62284714,-1,822,-0.081690922,0.269903541,24.0437355
0.78992218,0.56162256,1.610745311,50.72284714,-1,823,0.197480545,0.14040564,0.402686328
-0.348944244,-1.298901796,-0.858733118,50.82284714,-1,824,-0.087236061,-0.324725449,-0.214683279
-3.140420017,-1.36390698,-1.048612833,50.92284714,-1,825,-0.785105004,-0.340976745,-0.262153208
0.167602959,-0.725575984,-1.546015382,51.02284715,-1,826,0.04190074,-0.181393996,-0.386503845
2.019185486,0.912343383,1.017652512,51.12284715,-1,827,0.504796371,0.228085846,0.254413128
1.145738068,0.741012692,-1.585198641,51.22284715,-1,828,0.286434517,0.185253173,-0.39629966
-1.041577873,-1.805144668,-0.62559104,51.32284715,-1,829,-0.260394468,-0.451286167,-0.15639776
-1.876971779,-1.685117364,-1.729798794,51.42284715,-1,830,-0.469242945,-0.421279341,-0.432449698
2.272736969,-0.312712342,-1.982453108,51.52284715,-1,831,0.568184242,-0.078178085,-0.495613277
-1.980260906,0.060830183,-0.158560783,51.62284715,-1,832,-0.495065227,0.015207546,-0.039640196
1.297877731,-1.855905294,0.974653363,51.72284716,-1,833,0.324469433,-0.463976324,0.243663341
-3.628598747,1.19669354,-0.709443867,51.82284716,-1,834,-0.907149687,0.299173385,-0.177360967
-1.245829163,1.715553164,-1.925626159,51.92284716,-1,835,-0.311457291,0.428888291,-0.48140654
1.057326736,-0.148794696,0.104446366,52.02284716,-1,836,0.264331684,-0.037198674,0.026111592
-0.979617653,-0.353710532,-1.193732023,52.12284716,-1,837,-0.244904413,-0.088427633,-0.298433006
0.656547966,0.254058301,1.802603483,52.22284716,-1,838,0.164136992,0.063514575,0.450650871
1.652051392,0.536566913,0.518122852,52.32284717,-1,839,0.413012848,0.134141728,0.129530713
-1.217095909,-1.446880817,-0.486957282,52.42284717,-1,840,-0.304273977,-0.361720204,-0.12173932
0.275048676,0.171587557,-1.366120458,52.52284717,-1,841,0.068762169,0.042896889,-0.341530114
0.712351265,-0.716056645,2.097119331,52.62284717,-1,842,0.178087816,-0.179014161,0.524279833
-2.59169632,-1.013560414,-1.685780883,52.72284717,-1,843,-0.64792408,-0.253390104,-0.421445221
-0.662396011,0.109248996,-1.083389163,52.82284717,-1,844,-0.165599003,0.027312249,-0.270847291
0.813283386,3.405112505,-0.829252839,52.92284717,-1,845,0.203320847,0.851278126,-0.20731321
-0.364787636,-0.405059695,-0.989008427,53.02284718,-1,846,-0.091196909,-0.101264924,-0.247252107
-1.102496681,-0.161766723,2.395776033,53.12284718,-1,847,-0.27562417,-0.040441681,0.598944008
-0.283744392,0.501671493,0.937321723,53.22284718,-1,848,-0.070936098,0.125417873,0.234330431
2.057050171,-0.060978234,-0.772472739,53.32284718,-1,849,0.514262543,-0.015244558,-0.193118185
-0.364292679,1.083388209,-1.950745821,53.42284718,-1,850,-0.09107317,0.270847052,-0.487686455
-2.113961277,-0.47662735,2.002077579,53.52284718,-1,851,-0.528490319,-0.119156837,0.500519395
0.307890358,1.540956736,-1.057487369,53.62284718,-1,852,0.076972589,0.385239184,-0.264371842
0.246814194,-1.341149926,-2.39926815,53.72284719,-1,853,0.061703548,-0.335287482,-0.599817038
-0.033510742,-0.89935267,1.436453819,53.82284719,-1,854,-0.008377686,-0.224838167,0.359113455
0.075647774,-0.956087708,0.322166473,53.92284719,-1,855,0.018911943,-0.239021927,0.080541618
0.57583374,-1.713079572,-0.047332782,54.02284719,-1,856,0.143958435,-0.428269893,-0.011833196
-0.160512505,0.720959187,1.29483974,54.12284719,-1,857,-0.040128126,0.180239797,0.323709935
-1.817706642,3.831122875,-0.570086777,54.22284719,-1,858,-0.454426661,0.957780719,-0.142521694
-1.073730049,-2.756040812,-1.245798469,54.32284719,-1,859,-0.268432512,-0.689010203,-0.311449617
0.847219887,1.387185335,-1.795915604,54.4228472,-1,860,0.211804972,0.346796334,-0.448978901
1.435203972,0.084966742,0.495264173,54.5228472,-1,861,0.358800993,0.021241685,0.123816043
0.379432144,0.916775823,-0.264644355,54.6228472,-1,862,0.094858036,0.229193956,-0.066161089
0.456709328,1.911926866,1.13364768,54.7228472,-1,863,0.114177332,0.477981716,0.28341192
1.242530289,-0.506982684,1.626522303,54.8228472,-1,864,0.310632572,-0.126745671,0.406630576
-1.000026283,-1.209394097,0.970498085,54.9228472,-1,865,-0.250006571,-0.302348524,0.242624521
-1.802893219,0.009927538,-0.809273064,55.02284721,-1,866,-0.450723305,0.002481885,-0.202318266
1.123047295,0.537959516,-1.324182987,55.12284721,-1,867,0.280761824,0.134489879,-0.331045747
2.292617264,0.663206339,-2.991200209,55.22284721,-1,868,0.573154316,0.165801585,-0.747800052
2.888119164,-1.042512774,-0.786096871,55.32284721,-1,869,0.722029791,-0.260628194,-0.196524218
0.270376625,1.07252121,0.902699053,55.42284721,-1,870,0.067594156,0.268130302,0.225674763
2.068468513,0.410801351,-0.649575114,55.52284721,-1,871,0.517117128,0.102700338,-0.162393779
2.008247795,0.554387629,0.506454825,55.62284721,-1,872,0.502061949,0.138596907,0.126613706
-0.24957901,-0.460803211,-1.533897519,55.72284722,-1,873,-0.062394753,-0.115200803,-0.38347438
0.202641907,-0.43111667,1.309043884,55.82284722,-1,874,0.050660477,-0.107779168,0.327260971
0.586364212,0.383239299,-0.412501395,55.92284722,-1,875,0.146591053,0.095809825,-0.103125349
0.457008781,0.347564906,0.239600748,56.02284722,-1,876,0.114252195,0.086891226,0.059900187
0.207142296,0.756628394,-0.862105906,56.12284722,-1,877,0.051785574,0.189157099,-0.215526477
0.40452713,-0.782643855,-1.515966654,56.22284722,-1,878,0.101131783,-0.195660964,-0.378991663
-0.834172783,0.770639956,-1.716696024,56.32284722,-1,879,-0.208543196,0.192659989,-0.429174006
0.583523216,-1.01546514,0.050415497,56.42284723,-1,880,0.145880804,-0.253866285,0.012603874
0.029769363,-1.786217093,0.011786184,56.52284723,-1,881,0.007442341,-0.446554273,0.002946546
-0.384860573,-1.408676744,0.986506224,56.62284723,-1,882,-0.096215143,-0.352169186,0.246626556
0.105336609,0.744324267,1.030100107,56.72284723,-1,883,0.026334152,0.186081067,0.257525027
0.019646111,0.265850276,-0.68143034,56.82284723,-1,884,0.004911528,0.066462569,-0.170357585
-2.293897209,0.422708631,-0.689995229,56.92284723,-1,885,-0.573474302,0.105677158,-0.172498807
-0.227190552,-1.409768462,-1.328534722,57.02284724,-1,886,-0.056797638,-0.352442116,-0.332133681
-0.931052742,1.376534581,0.751071215,57.12284724,-1,887,-0.232763186,0.344133645,0.187767804
0.818375053,0.730823994,-2.357713938,57.22284724,-1,888,0.204593763,0.182705998,-0.589428484
1.280979576,-2.547682524,-0.130022094,57.32284724,-1,889,0.320244894,-0.636920631,-0.032505523
0.362874451,2.70655632,-0.811397731,57.42284724,-1,890,0.090718613,0.67663908,-0.202849433
-3.95151144,1.585862279,-2.514695168,57.52284724,-1,891,-0.98787786,0.39646557,-0.628673792
-0.356940804,-1.288117647,0.360072911,57.62284724,-1,892,-0.089235201,-0.322029412,0.090018228
1.390525284,-1.592326641,-2.510579348,57.72284725,-1,893,0.347631321,-0.39808166,-0.627644837
-0.589722214,0.206257641,-0.852816582,57.82284725,-1,894,-0.147430553,0.05156441,-0.213204145
-0.541473923,2.50132966,-2.754827976,57.92284725,-1,895,-0.135368481,0.625332415,-0.688706994
1.025670471,-2.101863861,-0.468628585,58.02284725,-1,896,0.256417618,-0.525465965,-0.117157146
-0.65715271,0.977826118,-2.210596323,58.12284725,-1,897,-0.164288177,0.24445653,-0.552649081
-0.312047539,-0.674949348,-1.034285188,58.22284725,-1,898,-0.078011885,-0.168737337,-0.258571297
-1.284241257,0.600254536,-0.012794849,58.32284725,-1,899,-0.321060314,0.150063634,-0.003198712
-0.395519791,0.736861825,-0.76438421,58.42284726,-1,900,-0.098879948,0.184215456,-0.191096053
1.756538811,-0.740226388,2.691823244,58.52284726,-1,901,0.439134703,-0.185056597,0.672955811
-1.331169662,-0.512791038,-0.219543755,58.62284726,-1,902,-0.332792416,-0.128197759,-0.054885939
0.19222683,0.237723142,-1.925281644,58.72284726,-1,903,0.048056707,0.059430785,-0.481320411
-0.570615349,-0.641281188,-0.120523609,58.82284726,-1,904,-0.142653837,-0.160320297,-0.030130902
0.619573059,-2.104493141,-0.027370509,58.92284726,-1,905,0.154893265,-0.526123285,-0.006842627
1.333121719,-0.703029931,1.073170543,59.02284727,1,906,0.33328043,-0.175757483,0.268292636
2.161682549,0.463849306,1.132358432,59.12284727,1,907,0.540420637,0.115962327,0.283089608
0.512345734,-0.739321709,1.348326802,59.22284727,1,908,0.128086433,-0.184830427,0.337081701
-0.543718872,4.017404556,-1.068012714,59.32284727,1,909,-0.135929718,1.004351139,-0.267003179
-1.149488029,1.684197903,-0.35631457,59.42284727,1,910,-0.287372007,0.421049476,-0.089078642
-0.309903679,3.893601418,-0.383843184,59.52284727,1,911,-0.07747592,0.973400354,-0.095960796
-1.460950432,4.381700516,-1.047766685,59.62284727,1,912,-0.365237608,1.095425129,-0.261941671
-1.307169495,1.603430748,-0.055720098,59.72284728,1,913,-0.326792374,0.400857687,-0.013930025
-0.710255203,2.241182566,0.469939113,59.82284728,1,914,-0.177563801,0.560295641,0.117484778
-0.232401428,7.281878471,-0.273621529,59.92284728,1,915,-0.058100357,1.820469618,-0.068405382
0.303611221,6.612264156,1.3875947,60.02284728,1,916,0.075902805,1.653066039,0.346898675
0.446819725,6.749186039,-0.042542756,60.12284728,1,917,0.111704931,1.68729651,-0.010635689
-0.016016541,8.713132858,0.337352872,60.22284728,1,918,-0.004004135,2.178283215,0.084338218
-2.226490555,7.78938961,0.236203447,60.32284728,1,919,-0.556622639,1.947347403,0.059050862
0.428630295,7.828802586,1.03295517,60.42284729,1,920,0.107157574,1.957200646,0.258238792
1.08389801,10.19849205,-1.125679731,60.52284729,1,921,0.270974503,2.549623013,-0.281419933
1.471575203,8.080144882,-0.042320013,60.62284729,1,922,0.367893801,2.020036221,-0.010580003
-0.28917366,11.47698784,1.721400976,60.72284729,1,923,-0.072293415,2.86924696,0.430350244
-2.919808922,11.5339365,2.853862762,60.82284729,1,924,-0.72995223,2.883484125,0.713465691
2.140436592,8.304601669,4.013713837,60.92284729,1,925,0.535109148,2.076150417,1.003428459
-0.268852768,5.038330078,3.502676487,61.02284729,1,926,-0.067213192,1.25958252,0.875669122
0.501063766,3.655875683,-1.398782969,61.1228473,1,927,0.125265942,0.913968921,-0.349695742
-1.677177963,2.387784243,-0.632974148,61.2228473,1,928,-0.419294491,0.596946061,-0.158243537
0.138638916,0.982979774,-0.799791455,61.3228473,1,929,0.034659729,0.245744944,-0.199947864
-1.641866264,-0.604751825,-0.457805395,61.4228473,1,930,-0.410466566,-0.151187956,-0.114451349
-0.626254616,-0.975634396,-1.117040396,61.5228473,1,931,-0.156563654,-0.243908599,-0.279260099
0.003028336,-0.463371694,0.454988837,61.6228473,-1,932,0.000757084,-0.115842924,0.113747209
-0.186461029,2.117678642,2.155301332,61.72284731,-1,933,-0.046615257,0.529419661,0.538825333
-0.610375938,-1.099165559,-1.72580862,61.82284731,-1,934,-0.152593985,-0.27479139,-0.431452155
1.326527061,0.029606013,-0.155285895,61.92284731,-1,935,0.331631765,0.007401503,-0.038821474
0.053015175,1.464310765,0.5029791,62.02284731,-1,936,0.013253794,0.366077691,0.125744775
0.97496933,-0.172644988,1.593945742,62.12284731,-1,937,0.243742332,-0.043161247,0.398486435
2.560275497,0.502134919,0.312832862,62.22284731,-1,938,0.640068874,0.12553373,0.078208216
-0.641030846,0.69678247,-1.218410254,62.32284731,-1,939,-0.160257711,0.174195617,-0.304602563
-0.058776436,0.160644785,-0.695063233,62.42284732,-1,940,-0.014694109,0.040161196,-0.173765808
0.437841835,-0.822759986,0.039321501,62.52284732,-1,941,0.109460459,-0.205689996,0.009830375
-0.810518799,-1.21882081,0.441652149,62.62284732,-1,942,-0.2026297,-0.304705203,0.110413037
1.129879417,0.363710374,-1.509837985,62.72284732,-1,943,0.282469854,0.090927593,-0.377459496
0.028820457,0.551564395,0.094008707,62.82284732,-1,944,0.007205114,0.137891099,0.023502177
-1.282662926,-0.560084462,-0.716969848,62.92284732,-1,945,-0.320665731,-0.140021116,-0.179242462
-2.452967224,-0.417790204,-1.065732598,63.02284732,-1,946,-0.613241806,-0.104447551,-0.26643315
1.686121407,1.12037611,1.281842232,63.12284733,-1,947,0.421530352,0.280094028,0.320460558
-1.290116844,0.871940792,-0.704690814,63.22284733,-1,948,-0.322529211,0.217985198,-0.176172704
0.792680206,2.484267712,1.261997581,63.32284733,-1,949,0.198170052,0.621066928,0.315499395
-0.353372154,0.536533892,1.875148296,63.42284733,-1,950,-0.088343039,0.134133473,0.468787074
-0.651979027,-0.125369594,2.11528182,63.52284733,-1,951,-0.162994757,-0.031342398,0.528820455
-1.118991432,-0.035897683,0.302378982,63.62284733,-1,952,-0.279747858,-0.008974421,0.075594746
