x,y,z,Event Time,Event Type,Frame,x_modified,y_modified,z_modified
-2.113949833,-0.476575762,2.002686024,194.5038921,-1,2346,-0.528487458,-0.119143941,0.500671506
0.307806435,1.540549278,-1.057516098,194.6038921,-1,2347,0.076951609,0.38513732,-0.264379025
0.246776047,-1.341148257,-2.400540829,194.7038921,-1,2348,0.061694012,-0.335287064,-0.600135207
-0.033529816,-0.899679005,1.441432118,194.8038921,-1,2349,-0.008382454,-0.224919751,0.36035803
0.075655403,-0.956242263,0.320896626,194.9038921,-1,2350,0.018913851,-0.239060566,0.080224156
0.575818481,-1.7132622,-0.046733055,195.0038921,-1,2351,0.14395462,-0.42831555,-0.011683264
-0.160581169,0.720689118,1.296063185,195.1038921,-1,2352,-0.040145292,0.180172279,0.324015796
-1.817676125,3.831105709,-0.570109665,195.2038921,-1,2353,-0.454419031,0.957776427,-0.142527416
-1.073783455,-2.756536007,-1.245203376,195.3038921,-1,2354,-0.268445864,-0.689134002,-0.311300844
0.84723896,1.387149692,-1.794688582,195.4038921,-1,2355,0.21180974,0.346787423,-0.448672146
0.382894936,-0.591065347,-0.322260648,195.6038921,5,2357,0.095723734,-0.147766337,-0.080565162
0.452156487,0.176360011,1.151539087,195.7038921,5,2358,0.113039122,0.044090003,0.287884772
1.21597332,-3.86979866,1.700149536,195.8038921,5,2359,0.30399333,-0.967449665,0.425037384
-1.034579811,-5.224009037,1.068630934,195.9038921,5,2360,-0.258644953,-1.306002259,0.267157733
-1.842197475,-4.258365631,-0.701658487,196.0038921,5,2361,-0.460549369,-1.064591408,-0.175414622
1.08177227,-3.829102039,-1.209115863,196.1038921,5,2362,0.270443068,-0.95727551,-0.302278966
2.251319351,-3.742647648,-2.878856421,196.2038921,5,2363,0.562829838,-0.935661912,-0.719714105
2.847726288,-5.46185112,-0.664522588,196.3038921,5,2364,0.711931572,-1.36546278,-0.166130647
0.230970802,-3.35259676,1.016299248,196.4038921,5,2365,0.057742701,-0.83814919,0.254074812
2.04748291,-1.522941351,-0.57267493,196.5038921,5,2366,0.511870728,-0.380735338,-0.143168733
1.998176041,-1.066020608,0.522085547,196.6038921,5,2367,0.49954401,-0.266505152,0.130521387
-0.227140961,0.616831064,-1.520931125,196.7038921,5,2368,-0.05678524,0.154207766,-0.380232781
0.19963974,1.647321463,1.332101464,196.8038921,5,2369,0.049909935,0.411830366,0.333025366
0.574628296,2.835010529,-0.378031671,196.9038921,5,2370,0.143657074,0.708752632,-0.094507918
0.441574516,2.939783335,0.27977255,197.0038921,5,2371,0.110393629,0.734945834,0.069943137
0.189621391,3.400956631,-0.818510175,197.1038921,5,2372,0.047405348,0.850239158,-0.204627544
0.387595596,1.880236864,-1.475622416,197.2038921,5,2373,0.096898899,0.470059216,-0.368905604
-0.849861679,3.440410376,-1.673108578,197.3038921,5,2374,-0.21246542,0.860102594,-0.418277144
0.5688414,1.65697217,0.095288873,197.4038921,5,2375,0.14221035,0.414243042,0.023822218
0.015299263,0.886560202,0.051905096,197.5038921,5,2376,0.003824816,0.22164005,0.012976274
-0.398894844,1.264303327,1.028162003,197.6038921,5,2377,-0.099723711,0.316075832,0.257040501
0.091074409,3.417462587,1.074590802,197.7038921,5,2378,0.022768602,0.854365647,0.268647701
0.005463066,2.939164162,-0.63784498,197.8038921,5,2379,0.001365767,0.73479104,-0.159461245
-2.308274803,3.095760822,-0.647299826,197.9038921,5,2380,-0.577068701,0.773940206,-0.161824957
-0.241526184,1.263290405,-1.286727309,198.0038921,5,2381,-0.060381546,0.315822601,-0.321681827
-0.945541916,4.049826622,0.791993976,198.1038921,5,2382,-0.236385479,1.012456656,0.197998494
0.807367744,2.407985926,-2.310057163,198.2038921,5,2383,0.201841936,0.601996481,-0.577514291
1.274479332,-0.943926454,-0.116639733,198.3038921,5,2384,0.318619833,-0.235981613,-0.029159933
0.363875809,3.275178909,-0.808065176,198.4038921,5,2385,0.090968952,0.818794727,-0.202016294
-3.949182568,1.788673759,-2.515484571,198.5038921,-1,2386,-0.987295642,0.44716844,-0.628871143
-0.354976234,-1.216405869,0.361243725,198.6038921,-1,2387,-0.088744059,-0.304101467,0.090310931
1.391246262,-1.568078279,-2.510173321,198.7038921,-1,2388,0.347811565,-0.39201957,-0.62754333
-0.589817581,0.215644658,-0.851770401,198.8038921,-1,2389,-0.147454395,0.053911164,-0.2129426
