2.007368066
3.371079764
2.763392623
2.721748198
2.03165178
3.924169132
2.749793324
1.958467658
2.76532898
2.47121584
2.908143989
1.2213223
2.17257152
2.00002206
2.47208392
3.0033626
2.46782838
2.492670756
3.46903986
3.0854768
3.72205866
3.47949578
4.20038098
4.39655174
3.65435118
4.11328118
3.73466106
3.82589042
3.6553674
2.94766842
2.74755358
1.69107692
0.499834246
-0.212066146
-1.104648265
-1.8870694
-2.08738274
