-3.37077902
-4.05974248
-3.3504649
-3.75640747
-2.95291778
-3.45643248
-3.033563464
-3.57141726
-3.46644414
-2.34609962
-1.928167292
-2.678838978
-2.82893498
-2.30671828
-1.812428196
-2.07169006
-2.494959094
-3.1359941
-2.76416802
-2.7454152
-2.85273932
-2.49250868
-3.23807628
-3.00673294
-2.86719912
-2.96493992
-2.43397942
-2.46778336
-2.10306172
-1.86194606
-1.461395328
-0.843079043
-0.351548485
0.079238811
0.674448706
1.08710728
1.060485654
