6.4498715
10.670569
10.647232
7.1502147
8.52077
9.491852
10.627461
10.301813
9.722398
8.487409
11.771629
10.859385
8.315193
9.498985
10.606306
7.7785597
8.509341
9.751102
8.162662
7.0674953
8.775092
8.5097885
7.294823
8.359416
7.947323
8.211845
8.276547
7.6435113
7.630736
7.7320437
8.049223
10.053036
11.262661
10.1045475
10.540893
11.523539
10.310481
10.624215
11.973455
8.644297
8.147066
10.434835
9.61315
7.2296314
9.039859
8.297594
7.235538
7.2260723
6.964805
6.5494432
8.423623
7.168199
7.30345
8.406583
9.060852
7.7871346
10.367097
11.566792
9.967596
9.12965
11.86332
10.630623
10.632479
10.214677
9.212771
9.678525
10.439239
8.296793
8.594682
9.445073
8.307337
7.7280335
8.311898
7.292972
7.7137356
8.439932
8.345704
8.331937
8.689816
7.944624
9.614768
8.7415
8.423234
9.573404
9.95961
9.1819105
10.540154
10.197947
10.555531
10.3605585
10.215004
10.296755
10.711333
10.488224
10.521916
9.615907
10.682262
10.366744
8.710827
10.084109
10.017326
9.069043
9.182388
8.877723
9.906937
9.792241
8.857127
9.203803
9.20534
8.929372
9.049421
9.368644
10.107948
9.189739
8.194676
8.982513
10.052842
10.071789
8.528301
8.938205
9.118105
8.20211
10.106606
8.26389
6.917648
8.992488
7.8213024
7.0956993
9.237316
8.288272
7.739807
7.795703
9.068866
8.167869
8.3422575
