x,y,z,Event Time,Event Type,Frame,x_modified,y_modified,z_modified
-0.364627419,-0.405257136,-0.987674057,211.2743483,-1,4392,-0.091156855,-0.101314284,-0.246918514
-1.102504311,-0.161876529,2.396486759,211.3743483,-1,4393,-0.275626078,-0.040469132,0.59912169
-0.283683357,0.501649082,0.937403381,211.4743483,-1,4394,-0.070920839,0.12541227,0.234350845
2.057023468,-0.061428674,-0.769897282,211.5743483,-1,4395,0.514255867,-0.015357168,-0.192474321
-0.364311752,1.083218932,-1.951286316,211.6743483,-1,4396,-0.091077938,0.270804733,-0.487821579
-2.113896427,-0.476668537,2.003414392,211.7743483,-1,4397,-0.528474107,-0.119167134,0.500853598
0.307825508,1.540621996,-1.057410359,211.8743483,-1,4398,0.076956377,0.385155499,-0.26435259
0.246768417,-1.341231704,-2.400437593,211.9743483,-1,4399,0.061692104,-0.335307926,-0.600109398
-0.03347641,-0.899606287,1.441537857,212.0743483,-1,4400,-0.008369102,-0.224901572,0.360384464
0.075663033,-0.956325769,0.32099995,212.1743483,-1,4401,0.018915758,-0.239081442,0.080249988
-0.154357491,0.720659018,0.245645165,212.3743483,4,4403,-0.038589373,0.180164754,0.061411291
-1.809215126,3.831252813,-5.433016777,212.4743484,4,4404,-0.452303782,0.957813203,-1.358254194
-1.08167511,-2.756399393,-9.71941185,212.5743484,4,4405,-0.270418777,-0.689099848,-2.429852962
0.826827469,1.387695551,-10.82542038,212.6743484,4,4406,0.206706867,0.346923888,-2.706355095
1.41491169,0.085279815,-8.531145096,212.7743484,4,4407,0.353727922,0.021319954,-2.132786274
0.360408249,0.917309403,-9.273355484,212.8743484,4,4408,0.090102062,0.229327351,-2.318338871
0.438558044,1.91229403,-7.861901283,212.9743484,4,4409,0.109639511,0.478073508,-1.965475321
1.224813881,-0.506498516,-7.349348545,213.0743484,4,4410,0.30620347,-0.126624629,-1.837337136
-1.017356453,-1.20882988,-7.9880476,213.1743484,4,4411,-0.254339113,-0.30220747,-1.9970119
-1.820151386,0.010316871,-9.74916935,213.2743484,4,4412,-0.455037847,0.002579218,-2.437292337
1.106004181,0.538462698,-10.24913502,213.3743484,4,4413,0.276501045,0.134615675,-2.562283754
2.275559845,0.663236141,-11.89868259,213.4743484,4,4414,0.568889961,0.165809035,-2.974670649
2.871192398,-1.042134762,-9.673588753,213.5743484,4,4415,0.7177981,-0.26053369,-2.418397188
0.253441277,1.072554111,-7.976052284,213.6743484,4,4416,0.063360319,0.268138528,-1.994013071
2.051616135,0.411101222,-9.508320808,213.7743484,4,4417,0.512904034,0.102775306,-2.377080202
1.991370621,0.554477751,-8.337286949,213.8743484,4,4418,0.497842655,0.138619438,-2.084321737
-0.266342697,-0.460918874,-10.36264133,213.9743484,4,4419,-0.066585674,-0.115229718,-2.590660334
0.185869637,-0.431088299,-7.508452415,214.0743484,4,4420,0.046467409,-0.107772075,-1.877113104
0.569564285,0.383263975,-9.212490082,214.1743484,4,4421,0.142391071,0.095815994,-2.30312252
0.440629425,0.347712785,-8.549103737,214.2743484,4,4422,0.110157356,0.086928196,-2.137275934
0.163357201,0.756224155,-9.632032394,214.3743484,4,4423,0.0408393,0.189056039,-2.408008099
0.410217705,-0.782848001,-10.27848244,214.4743484,4,4424,0.102554426,-0.195712,-2.569620609
-0.841646729,0.770380676,-10.4654398,214.5743484,4,4425,-0.210411682,0.192595169,-2.616359949
0.566645088,-1.015464187,-8.688296318,214.6743484,4,4426,0.141661272,-0.253866047,-2.17207408
0.011430206,-1.786323309,-8.719423294,214.7743484,4,4427,0.002857552,-0.446580827,-2.179855824
-0.402006683,-1.409685969,-8.364265442,214.8743484,4,4428,-0.100501671,-0.352421492,-2.09106636
0.076073112,0.745239735,-2.393710136,214.9743484,4,4429,0.019018278,0.186309934,-0.598427534
0.021473351,0.265764564,-0.689291298,215.0743484,4,4430,0.005368338,0.066441141,-0.172322825
-2.286325989,0.422343552,-0.701992869,215.1743484,4,4431,-0.571581497,0.105585888,-0.175498217
-0.215807495,-1.409961462,-1.346782088,215.2743484,-1,4432,-0.053951874,-0.352490366,-0.336695522
-0.931156693,1.376428604,0.747831702,215.3743484,-1,4433,-0.232789173,0.344107151,0.186957926
0.818484726,0.730621159,-2.359704733,215.4743484,-1,4434,0.204621181,0.18265529,-0.589926183
1.280970993,-2.547925949,-0.1345191,215.5743484,-1,4435,0.320242748,-0.636981487,-0.033629775
0.362823906,2.706372261,-0.814643681,215.6743484,-1,4436,0.090705976,0.676593065,-0.20366092
