x,y,z,Event Time,Event Type,Frame,x_modified,y_modified,z_modified
2.057073059,-0.061314672,-0.77041769,32.77434567,-1,2607,0.514268265,-0.015328668,-0.192604423
-0.364281235,1.083323598,-1.951181769,32.87434568,-1,2608,-0.091070309,0.270830899,-0.487795442
-2.113911686,-0.476573229,2.004143953,32.97434568,-1,2609,-0.528477921,-0.119143307,0.501035988
0.30785984,1.54073596,-1.057930827,33.07434568,-1,2610,0.07696496,0.38518399,-0.264482707
0.246798935,-1.341136336,-2.399708033,33.17434568,-1,2611,0.061699734,-0.335284084,-0.599927008
-0.033468781,-0.899492264,1.441017389,33.27434568,-1,2612,-0.008367195,-0.224873066,0.360254347
0.075663033,-0.956230402,0.321729392,33.37434568,-1,2613,0.018915758,-0.2390576,0.080432348
0.575818481,-1.713084817,-0.046522886,33.47434568,-1,2614,0.14395462,-0.428271204,-0.011630721
-0.160527763,0.720719635,1.295646071,33.57434569,-1,2615,-0.040131941,0.180179909,0.323911518
-1.817668495,3.831273794,-0.569274545,33.67434569,-1,2616,-0.454417124,0.957818449,-0.142318636
0.919797363,1.386811614,99.9,33.87434569,-1,2618,0.229949341,0.346702904,24.975
1.396661224,0.085181758,3.608208656,33.97434569,-1,2619,0.349165306,0.021295439,0.902052164
0.391407433,0.916652381,-0.196175694,34.07434569,-1,2620,0.097851858,0.229163095,-0.049043924
0.464468422,1.911834359,1.132574916,34.17434569,-1,2621,0.116117105,0.47795859,0.283143729
1.24516243,-0.507313669,1.626020193,34.2743457,-1,2622,0.311290607,-0.126828417,0.406505048
-0.999358711,-1.209494472,0.970458388,34.3743457,-1,2623,-0.249839678,-0.302373618,0.242614597
-1.803255615,0.009820815,-0.808609486,34.4743457,-1,2624,-0.450813904,0.002455204,-0.202152371
1.122402611,0.537701249,-1.323792338,34.5743457,-1,2625,0.280600653,0.134425312,-0.330948085
2.291751328,0.662858605,-2.990159512,34.6743457,-1,2626,0.572937832,0.165714651,-0.747539878
2.887459221,-1.04250288,-0.782863319,34.7743457,-1,2627,0.721864805,-0.26062572,-0.19571583
0.269602242,1.072293639,0.900949419,34.8743457,-1,2628,0.06740056,0.26807341,0.225237355
2.06813282,0.410770565,-0.648821533,34.97434571,-1,2629,0.517033205,0.102692641,-0.162205383
2.007652702,0.554200649,0.507211268,35.07434571,-1,2630,0.501913176,0.138550162,0.126802817
-0.249865112,-0.461321473,-1.531895876,35.17434571,-1,2631,-0.062466278,-0.115330368,-0.382973969
0.202413025,-0.431128651,1.308547616,35.27434571,-1,2632,0.050603256,-0.107782163,0.327136904
0.586081924,0.38305226,-0.411750138,35.37434571,-1,2633,0.146520481,0.095763065,-0.102937534
0.457230034,0.347600937,0.239760727,35.47434571,-1,2634,0.114307508,0.086900234,0.059940182
0.206711235,0.756197691,-0.860728025,35.57434572,-1,2635,0.051677809,0.189049423,-0.215182006
0.404370728,-0.782908976,-1.515211344,35.67434572,-1,2636,0.101092682,-0.195727244,-0.378802836
-0.834184227,0.770213366,-1.715948343,35.77434572,-1,2637,-0.208546057,0.192553341,-0.428987086
0.583420219,-1.015451193,0.053045046,35.87434572,-1,2638,0.145855055,-0.253862798,0.013261261
0.029639664,-1.786297917,0.010663822,35.97434572,-1,2639,0.007409916,-0.446574479,0.002665956
-0.384727058,-1.408941865,0.987256229,36.07434572,-1,2640,-0.096181765,-0.352235466,0.246814057
0.105233612,0.743981004,1.03084898,36.17434572,-1,2641,0.026308403,0.185995251,0.257712245
0.019657555,0.26581952,-0.680676758,36.27434573,0,2642,0.004914389,0.06645488,-0.17016919
-2.293839989,0.422443479,-0.689239919,36.37434573,0,2643,-0.573459997,0.10561087,-0.17230998
-0.227125702,-1.410033584,-1.327779412,36.47434573,0,2644,-0.056781425,-0.352508396,-0.331944853
-0.931293068,1.376425624,0.751828909,36.57434573,0,2645,-0.232823267,0.344106406,0.187957227
0.818523827,0.730540097,-2.355708599,36.67434573,0,2646,0.204630957,0.182635024,-0.58892715
1.280964317,-2.547850847,-0.130520716,36.77434573,0,2647,0.320241079,-0.636962712,-0.032630179
0.362901154,2.7063694,-0.810646474,36.87434573,0,2648,0.090725288,0.67659235,-0.202661619
-3.951580105,1.585748196,-2.513942957,36.97434574,0,2649,-0.987895026,0.396437049,-0.628485739
-0.356925545,-1.288388014,0.360823005,37.07434574,0,2650,-0.089231386,-0.322097003,0.090205751
1.390502396,-1.592476368,-2.512322664,37.17434574,0,2651,0.347625599,-0.398119092,-0.628080666
-0.589748917,0.206061289,-0.851435184,37.27434574,0,2652,-0.147437229,0.051515322,-0.212858796
-0.541401443,2.501211405,-2.753445387,37.37434574,0,2653,-0.135350361,0.625302851,-0.688361347
1.025639954,-2.10222578,-0.466624588,37.47434574,0,2654,0.256409988,-0.525556445,-0.116656147
-0.657114563,0.977667272,-2.21171999,37.57434575,0,2655,-0.164278641,0.244416818,-0.552929997
-0.312547264,-0.675291717,-1.032936335,37.67434575,0,2656,-0.078136816,-0.168822929,-0.258234084
-1.28387886,0.600301921,-0.012040101,37.77434575,0,2657,-0.320969715,0.15007548,-0.003010025
-0.395298538,0.73652792,-0.764260292,37.87434575,0,2658,-0.098824635,0.18413198,-0.191065073
1.756538811,-0.740344584,2.693200588,37.97434575,0,2659,0.439134703,-0.185086146,0.673300147
-1.314901886,-0.535439312,-0.210649505,38.07434575,0,2660,-0.328725471,-0.133859828,-0.052662376
0.181441727,0.249007359,-1.935092568,38.17434575,0,2661,0.045360432,0.06225184,-0.483773142
-0.481269417,-0.575474322,-0.167928249,38.27434576,0,2662,-0.120317354,-0.14386858,-0.041982062
0.254580917,-2.205765724,0.045562577,38.37434576,0,2663,0.063645229,-0.551441431,0.011390644
1.639765205,-0.656493068,1.04914701,38.47434576,0,2664,0.409941301,-0.164123267,0.262286752
2.153995934,0.463663489,1.134604335,38.57434576,0,2665,0.538498983,0.115915872,0.283651084
0.506420555,-0.73955065,1.339219689,38.67434576,0,2666,0.126605139,-0.184887663,0.334804922
-0.589075623,1.569955707,-0.746604979,38.77434576,0,2667,-0.147268906,0.392488927,-0.186651245
-1.137190399,-0.639879823,-0.216895625,38.87434576,0,2668,-0.2842976,-0.159969956,-0.054223906
-0.239758072,0.445343792,-0.454610169,38.97434577,0,2669,-0.059939518,0.111335948,-0.113652542
-1.387627182,0.623904228,-1.135818124,39.07434577,0,2670,-0.346906796,0.155976057,-0.283954531
-1.23455101,-2.221628428,-0.165390462,39.17434577,0,2671,-0.308637753,-0.555407107,-0.041347615
-0.638857422,-1.607292175,0.365216613,39.27434577,-1,2672,-0.159714355,-0.401823044,0.091304153
-0.155854759,1.482967854,0.2106359,39.37434577,-1,2673,-0.03896369,0.370741963,0.052658975
0.454252663,1.024697542,1.41015017,39.47434577,-1,2674,0.113563166,0.256174386,0.352537543
0.678613129,-0.043355796,-0.391917437,39.57434577,-1,2675,0.169653282,-0.010838949,-0.097979359
0.224240723,1.508252621,-0.068204165,39.67434578,-1,2676,0.056060181,0.377063155,-0.017051041
-1.985211906,0.476412982,-0.192995697,39.77434578,-1,2677,-0.496302977,0.119103245,-0.048248924
0.669942322,0.478885353,0.598482728,39.87434578,-1,2678,0.16748558,0.119721338,0.149620682
1.353681984,1.37122643,-0.807822585,39.97434578,-1,2679,0.338420496,0.342806607,-0.201955646
1.816481056,-0.434551835,-0.343347311,40.07434578,-1,2680,0.454120264,-0.108637959,-0.085836828
0.15378994,1.78605783,0.909677684,40.17434578,-1,2681,0.038447485,0.446514457,0.227419421
-2.459764061,1.334555387,1.936209202,40.27434579,-1,2682,-0.614941015,0.333638847,0.4840523
2.604868355,-2.063506126,3.054377317,40.37434579,-1,2683,0.651217089,-0.515876532,0.763594329
0.060990753,-0.598569036,1.186253786,40.47434579,-1,2684,0.015247688,-0.149642259,0.296563447
0.615852776,-1.457731962,-2.476980925,40.57434579,-1,2685,0.153963194,-0.364432991,-0.619245231
-1.781855164,1.025095582,-0.708805799,40.67434579,-1,2686,-0.445463791,0.256273896,-0.17720145
0.133110466,0.607902944,-0.753421426,40.77434579,-1,2687,0.033277617,0.151975736,-0.188355356
-2.561800537,-0.200333744,-0.668985724,40.87434579,-1,2688,-0.640450134,-0.050083436,-0.167246431
0.235189857,-1.132142067,-0.976266265,40.9743458,-1,2689,0.058797464,-0.283035517,-0.244066566
-0.128847656,-0.306786895,0.554112077,41.0743458,-1,2690,-0.032211914,-0.076696724,0.138528019
-0.066070137,1.911357284,2.24093461,41.1743458,-1,2691,-0.016517534,0.477839321,0.560233653
-0.372029839,-1.116479397,-1.848702669,41.2743458,-1,2692,-0.09300746,-0.279119849,-0.462175667
1.455246391,0.004786525,-0.260776311,41.3743458,-1,2693,0.363811598,0.001196631,-0.065194078
-0.245494423,1.454028964,0.572720051,41.4743458,-1,2694,-0.061373606,0.363507241,0.143180013
0.916519585,-0.179126948,1.629671097,41.5743458,-1,2695,0.229129896,-0.044781737,0.407417774
2.556430283,0.500326514,0.31556499,41.67434581,-1,2696,0.639107571,0.125081629,0.078891248
-0.63833004,0.693483353,-1.217415452,41.77434581,-1,2697,-0.15958251,0.173370838,-0.304353863
-0.057738838,0.157724932,-0.694501221,41.87434581,-1,2698,-0.01443471,0.039431233,-0.173625305
0.437410774,-0.820915282,0.038267888,41.97434581,-1,2699,0.109352694,-0.20522882,0.009566972
-0.811407623,-1.218966365,0.442378551,42.07434581,-1,2700,-0.202851906,-0.304741591,0.110594638
1.128750267,0.363347501,-1.508427978,42.17434581,-1,2701,0.282187567,0.090836875,-0.377106994
0.027855339,0.551619887,0.0950507,42.27434582,-1,2702,0.006963835,0.137904972,0.023762675
-1.283322868,-0.560258031,-0.717468381,42.37434582,-1,2703,-0.320830717,-0.140064508,-0.179367095
-2.453665314,-0.417923003,-1.063730359,42.47434582,-1,2704,-0.613416328,-0.104480751,-0.26593259
1.68569416,1.120316267,1.282303452,42.57434582,-1,2705,0.42142354,0.280079067,0.320575863
-1.290525017,0.871694326,-0.705190599,42.67434582,-1,2706,-0.322631254,0.217923582,-0.17629765
0.792432251,2.484140158,1.264005065,42.77434582,-1,2707,0.198108063,0.621035039,0.316001266
-0.353494225,0.538791955,1.873798609,42.87434582,-1,2708,-0.088373556,0.134697989,0.468449652
-0.652226982,-0.127952695,2.117848158,42.97434583,-1,2709,-0.163056746,-0.031988174,0.529462039
-1.119025764,-0.035792213,0.303718507,43.07434583,-1,2710,-0.279756441,-0.008948053,0.075929627
-0.05711895,-0.442292511,1.24791503,43.17434583,-1,2711,-0.014279737,-0.110573128,0.311978757
-1.57143837,0.547925949,-1.245255947,43.27434583,-1,2712,-0.392859592,0.136981487,-0.311313987
1.494065704,-1.529451132,-0.453784436,43.37434583,-1,2713,0.373516426,-0.382362783,-0.113446109
0.369566383,0.445575297,-1.386611581,43.47434583,-1,2714,0.092391596,0.111393824,-0.346652895
-0.236383018,-1.529531956,1.409711242,43.57434583,-1,2715,-0.059095755,-0.382382989,0.35242781
0.67125267,0.800989091,1.531571031,43.67434584,-1,2716,0.167813168,0.200247273,0.382892758
-1.010391769,-0.115191288,-3.267744303,43.77434584,-1,2717,-0.252597942,-0.028797822,-0.816936076
2.277658882,-1.986385822,-1.584187746,43.87434584,-1,2718,0.569414721,-0.496596456,-0.396046937
-0.493811188,-1.901870489,-0.206050217,43.97434584,-1,2719,-0.123452797,-0.475467622,-0.051512554
-1.277510223,-0.512576342,-0.959702313,44.07434584,-1,2720,-0.319377556,-0.128144085,-0.239925578
0.447648468,2.160438061,-0.714865148,44.17434584,-1,2721,0.111912117,0.540109515,-0.178716287
-2.589669762,1.591113925,-2.435197592,44.27434584,-1,2722,-0.64741744,0.397778481,-0.608799398
0.310646477,-0.920905232,0.490487576,44.37434585,-1,2723,0.077661619,-0.230226308,0.122621894
0.914721909,-0.731431127,1.28496182,44.47434585,-1,2724,0.228680477,-0.182857782,0.321240455
0.870892944,1.141331792,3.729060888,44.57434585,-1,2725,0.217723236,0.285332948,0.932265222
-2.443798122,0.063692689,2.317500353,44.67434585,-1,2726,-0.610949531,0.015923172,0.579375088
-1.983557281,2.545140266,2.864134789,44.77434585,-1,2727,-0.49588932,0.636285067,0.716033697
0.223726692,2.057145596,-0.097363956,44.87434585,-1,2728,0.055931673,0.514286399,-0.024340989
0.530717316,0.495112091,2.595440149,44.97434586,-1,2729,0.132679329,0.123778023,0.648860037
1.599627914,-0.366400212,-1.559402585,45.07434586,-1,2730,0.399906979,-0.091600053,-0.389850646
-0.766627846,-1.82409811,-0.925818861,45.17434586,-1,2731,-0.191656961,-0.456024528,-0.231454715
2.572813454,1.051592946,1.123871088,45.27434586,-1,2732,0.643203363,0.262898237,0.280967772
-3.447056351,-0.43599236,-2.448449135,45.37434586,-1,2733,-0.861764088,-0.10899809,-0.612112284
-0.306855736,-1.10765326,0.715849817,45.47434586,-1,2734,-0.076713934,-0.276913315,0.178962454
-1.08871418,1.339547515,0.485488564,45.57434586,-1,2735,-0.272178545,0.334886879,0.121372141
-0.883246956,0.30295983,-1.295653105,45.67434587,-1,2736,-0.220811739,0.075739957,-0.323913276
0.756772461,1.107303977,-1.332057238,45.77434587,-1,2737,0.189193115,0.276825994,-0.333014309
-0.173503456,-0.424580216,-2.75750351,45.87434587,-1,2738,-0.043375864,-0.106145054,-0.689375877
2.02229351,-0.099720694,-1.025282979,45.97434587,-1,2739,0.505573378,-0.024930174,-0.256320745
-0.559152184,-0.214779288,-0.349360645,46.07434587,-1,2740,-0.139788046,-0.053694822,-0.087340161
0.072289886,2.059342623,-0.703058839,46.17434587,-1,2741,0.018072472,0.514835656,-0.17576471
1.528336945,0.059837002,-0.377705038,46.27434587,-1,2742,0.382084236,0.014959251,-0.094426259
0.692392769,-1.258658886,-0.020275781,46.37434588,-1,2743,0.173098192,-0.314664721,-0.005068945
-2.66632515,-0.618795693,-0.662775457,46.47434588,-1,2744,-0.666581287,-0.154698923,-0.165693864
-0.327612457,0.724758506,-0.83299768,46.57434588,-1,2745,-0.081903114,0.181189626,-0.20824942
1.122260513,-0.137361988,0.453987926,46.67434588,-1,2746,0.280565128,-0.034340497,0.113496982
1.765186729,-0.172100544,-0.917032897,46.77434588,-1,2747,0.441296682,-0.043025136,-0.229258224
-0.280527649,-0.833604097,1.158635139,46.87434588,-1,2748,-0.070131912,-0.208401024,0.289658785
-1.662806091,-0.646281183,-1.25143373,46.97434589,-1,2749,-0.415701523,-0.161570296,-0.312858433
-1.939868507,-2.718673944,3.442268848,47.07434589,-1,2750,-0.484967127,-0.679668486,0.860567212
4.532187881,-0.188187495,0.240276366,47.17434589,-1,2751,1.13304697,-0.047046874,0.060069092
-1.092624245,1.164436102,2.885732174,47.27434589,-1,2752,-0.273156061,0.291109025,0.721433043
7.258721771,1.381588697,-3.743271589,47.37434589,-1,2753,1.814680443,0.345397174,-0.935817897
-6.741872368,-1.896354437,2.941630125,47.47434589,-1,2754,-1.685468092,-0.474088609,0.735407531
0.469258728,0.571049869,-0.205324709,47.57434589,-1,2755,0.117314682,0.142762467,-0.051331177
1.662687721,-2.244705915,-99.9,47.6743459,-1,2756,0.41567193,-0.561176479,-24.975
