x,y,z,Event Time,Event Type,Frame,x_modified,y_modified,z_modified
-0.363570747,-0.405804902,-0.987656116,264.7743491,-1,4927,-0.090892687,-0.101451226,-0.246914029
-1.103000221,-0.16218996,2.396508217,264.8743491,-1,4928,-0.275750055,-0.04054749,0.599127054
-0.283679543,0.501491904,0.937427163,264.9743491,-1,4929,-0.070919886,0.125372976,0.234356791
2.05693573,-0.061429627,-0.769871116,265.0743491,-1,4930,0.514233932,-0.015357407,-0.192467779
-0.364208755,1.083217978,-1.95126009,265.1743491,-1,4931,-0.091052189,0.270804495,-0.487815022
-2.114033756,-0.476708561,2.003439903,265.2743491,-1,4932,-0.528508439,-0.11917714,0.500859976
0.307905617,1.540660024,-1.057383657,265.3743491,-1,4933,0.076976404,0.385165006,-0.264345914
0.246779861,-1.341232657,-2.400411367,265.4743491,-1,4934,0.061694965,-0.335308164,-0.600102842
-0.033510742,-0.899607241,1.441563964,265.5743491,-1,4935,-0.008377686,-0.22490181,0.360390991
0.075689735,-0.956326723,0.321026087,265.6743491,-1,4936,0.018922434,-0.239081681,0.080256522
-0.158562241,1.904171705,1.258138776,265.8743491,6,4938,-0.03964056,0.476042926,0.314534694
-1.820584831,5.962288857,-0.531694293,265.9743491,6,4939,-0.455146208,1.490572214,-0.132923573
-1.085277138,1.63765049,-1.117898941,266.0743492,6,4940,-0.271319284,0.409412622,-0.279474735
0.830900612,6.744121552,-1.619297147,266.1743492,6,4941,0.207725153,1.686030388,-0.404824287
1.415623131,5.851922989,0.694303572,266.2743492,6,4942,0.353905783,1.462980747,0.173575893
0.358323517,6.860931396,-0.055501148,266.3743492,6,4943,0.089580879,1.715232849,-0.013875287
0.434791985,7.931563854,1.350188136,266.4743492,6,4944,0.108697996,1.982890964,0.337547034
1.227637711,3.707062721,1.760230184,266.5743492,6,4945,0.306909428,0.92676568,0.440057546
-1.00457531,1.584720016,0.996314645,266.6743492,6,4946,-0.251143827,0.396180004,0.249078661
-1.802012024,-0.673690915,-0.804625213,266.7743492,6,4947,-0.450503006,-0.168422729,-0.201156303
1.129145088,-1.548642159,-1.292125106,266.8743492,6,4948,0.282286272,-0.38716054,-0.323031276
2.288266602,-1.99181807,-2.948993444,266.9743492,6,4949,0.57206665,-0.497954518,-0.737248361
2.88344902,-3.931759834,-0.731536627,267.0743492,6,4950,0.720862255,-0.982939959,-0.182884157
0.264968338,-1.913576603,0.951686978,267.1743492,6,4951,0.066242085,-0.478394151,0.237921745
2.062774124,-2.61612463,-0.594772041,267.2743492,6,4952,0.515693531,-0.654031157,-0.14869301
2.002362671,-2.489461184,0.561789989,267.3743492,6,4953,0.500590668,-0.622365296,0.140447497
-0.255316315,-3.51232481,-1.475474358,267.4743492,6,4954,-0.063829079,-0.878081203,-0.368868589
0.196756783,-3.485383034,1.362342358,267.5743492,6,4955,0.049189196,-0.871345758,0.340585589
0.580447617,-2.672269821,-0.359085977,267.6743492,6,4956,0.145111904,-0.668067455,-0.089771494
0.45157856,-2.708725214,0.295743644,267.7743492,6,4957,0.11289464,-0.677181304,0.073935911
0.20099968,-2.299942493,-0.805709243,267.8743492,6,4958,0.05024992,-0.574985623,-0.201427311
0.398644867,-3.839515924,-1.45927,267.9743492,6,4959,0.099661217,-0.959878981,-0.3648175
-0.84000927,-2.286155462,-1.662183881,268.0743492,6,4960,-0.210002317,-0.571538866,-0.41554597
0.578376236,-3.440603256,0.099005625,268.1743492,6,4961,0.144594059,-0.860150814,0.024751406
0.02728981,-3.729762554,0.027672194,268.2743492,6,4962,0.006822453,-0.932440639,0.006918048
-0.384943542,-2.186276436,0.987787783,268.3743492,6,4963,-0.096235886,-0.546569109,0.246946946
0.105603638,0.434434086,1.032671571,268.4743492,6,4964,0.026400909,0.108608522,0.258167893
0.020087662,0.141971648,-0.682703912,268.5743492,6,4965,0.005021915,0.035492912,-0.170675978
-2.293636856,0.372922093,-0.688565791,268.6743492,6,4966,-0.573409214,0.093230523,-0.172141448
-0.226929245,-1.430024028,-1.327525735,268.7743492,-1,4967,-0.056732311,-0.357506007,-0.331881434
-0.930999336,1.368008494,0.751918852,268.8743492,-1,4968,-0.232749834,0.342002124,0.187979713
0.818561974,0.727231622,-2.355688095,268.9743492,-1,4969,0.204640493,0.181807905,-0.588922024
