x,y,z,Event Time,Event Type,Frame,x_modified,y_modified,z_modified
0.818462791,0.730549693,-2.355666876,79.17434637,-1,3071,0.204615698,0.182637423,-0.588916719
1.28099102,-2.547841072,-0.130478904,79.27434637,-1,3072,0.320247755,-0.636960268,-0.032619726
0.362832489,2.706378937,-0.810604692,79.37434637,-1,3073,0.090708122,0.676594734,-0.202651173
-3.951488552,1.585795164,-2.516400814,79.47434637,-1,3074,-0.987872138,0.396448791,-0.629100204
-0.356975136,-1.288493752,0.363363355,79.57434637,-1,3075,-0.089243784,-0.322123438,0.090840839
1.390529099,-1.592504025,-2.509781122,79.67434637,-1,3076,0.347632275,-0.398126006,-0.627445281
-0.589726028,0.206236482,-0.852015972,79.77434637,-1,3077,-0.147431507,0.05155912,-0.213003993
-0.541454849,2.501074314,-2.754030943,79.87434638,-1,3078,-0.135363712,0.625268579,-0.688507736
1.025670471,-2.102138042,-0.466581643,79.97434638,1,3079,0.256417618,-0.525534511,-0.116645411
-0.657175598,0.977589428,-2.211054325,80.07434638,1,3080,-0.1642939,0.244397357,-0.552763581
-1.282099304,3.577493906,-0.438637167,80.27434638,1,3082,-0.320524826,0.894373477,-0.109659292
-0.430502472,7.590509415,-2.343158007,80.37434638,1,3083,-0.107625618,1.897627354,-0.585789502
1.61348671,10.135005,1.696687937,80.47434638,1,3084,0.403371677,2.533751249,0.424171984
-1.556845245,13.67938995,0.138499528,80.57434639,1,3085,-0.389211311,3.419847488,0.034624882
-0.113043365,16.22138596,-0.298676968,80.67434639,1,3086,-0.028260841,4.055346489,-0.074669242
-0.791844902,15.72579002,2.293387413,80.77434639,1,3087,-0.197961226,3.931447506,0.573346853
-0.043441353,13.82625198,2.459774256,80.87434639,1,3088,-0.010860338,3.456562996,0.614943564
1.348831596,15.24546051,3.42717123,80.97434639,1,3089,0.337207899,3.811365128,0.856792808
1.866080704,16.30509949,3.501563311,81.07434639,1,3090,0.466520176,4.076274872,0.875390828
0.219188156,15.08491325,3.710330486,81.17434639,1,3091,0.054797039,3.771228313,0.927582622
-0.877338943,17.39957047,1.625820637,81.2743464,1,3092,-0.219334736,4.349892616,0.406455159
-1.426809845,15.19266891,2.165649414,81.3743464,1,3093,-0.356702461,3.798167229,0.541412354
-0.547644196,16.90347862,3.34352541,81.4743464,1,3094,-0.136911049,4.225869656,0.835881352
-1.623627243,14.14478493,5.611725807,81.5743464,1,3095,-0.405906811,3.536196232,1.402931452
-1.332104263,8.841456413,2.288802624,81.6743464,1,3096,-0.333026066,2.210364103,0.572200656
-0.63256794,3.887360096,0.560407519,81.7743464,1,3097,-0.158141985,0.971840024,0.14010188
-0.140963135,2.665732384,0.209276855,81.87434641,1,3098,-0.035240784,0.666433096,0.052319214
0.458678665,1.279101133,1.403500557,81.97434641,1,3099,0.114669666,0.319775283,0.350875139
0.675287666,0.02696459,-0.39638716,82.07434641,1,3100,0.168821917,0.006741147,-0.09909679
0.217868271,1.52923882,-0.071381621,82.17434641,-1,3101,0.054467068,0.382309705,-0.017845405
-1.992613373,0.48866418,-0.193875611,82.27434641,-1,3102,-0.498153343,0.122166045,-0.048468903
0.654841843,0.475077093,0.594973207,82.37434641,-1,3103,0.163710461,0.118769273,0.148743302
1.352185669,1.379156232,-0.804228246,82.47434641,-1,3104,0.338046417,0.344789058,-0.201057062
1.818048897,-0.43315357,-0.34549436,82.57434642,-1,3105,0.454512224,-0.108288392,-0.08637359
0.149273338,1.789001584,0.910223603,82.67434642,-1,3106,0.037318335,0.447250396,0.227555901
-2.463506279,1.332398772,1.93571043,82.77434642,-1,3107,-0.61587657,0.333099693,0.483927608
2.602034035,-2.060835838,3.054638863,82.87434642,-1,3108,0.650508509,-0.51520896,0.763659716
0.058759155,-0.59856075,1.187850952,82.97434642,-1,3109,0.014689789,-0.149640188,0.296962738
0.61410183,-1.460021615,-2.478718042,83.07434642,-1,3110,0.153525457,-0.365005404,-0.619679511
-1.783285675,1.027562618,-0.70854032,83.17434642,-1,3111,-0.445821419,0.256890655,-0.17713508
0.132240715,0.607995868,-0.753378451,83.27434643,-1,3112,0.033060179,0.151998967,-0.188344613
