x,y,z,Event Time,Event Type,Frame,x_modified,y_modified,z_modified
-0.364627419,-0.405257136,-0.987674057,235.0743487,-1,4630,-0.091156855,-0.101314284,-0.246918514
-1.102504311,-0.161876529,2.396486759,235.1743487,-1,4631,-0.275626078,-0.040469132,0.59912169
-0.283683357,0.501649082,0.937403381,235.2743487,-1,4632,-0.070920839,0.12541227,0.234350845
2.057023468,-0.061428674,-0.769897282,235.3743487,-1,4633,0.514255867,-0.015357168,-0.192474321
-0.364311752,1.083218932,-1.951286316,235.4743487,-1,4634,-0.091077938,0.270804733,-0.487821579
-2.113896427,-0.476668537,2.003414392,235.5743487,-1,4635,-0.528474107,-0.119167134,0.500853598
0.307825508,1.540621996,-1.057410359,235.6743487,-1,4636,0.076956377,0.385155499,-0.26435259
0.246768417,-1.341231704,-2.400437593,235.7743487,-1,4637,0.061692104,-0.335307926,-0.600109398
-0.03347641,-0.899606287,1.441537857,235.8743487,-1,4638,-0.008369102,-0.224901572,0.360384464
0.075663033,-0.956325769,0.32099995,235.9743487,-1,4639,0.018915758,-0.239081442,0.080249988
-0.15860611,-0.463145673,1.260519862,236.1743487,5,4641,-0.039651527,-0.115786418,0.315129966
-1.820529518,1.700143099,-0.53485328,236.2743487,5,4642,-0.45513238,0.425035775,-0.13371332
-1.085201797,-7.150674343,-1.117228627,236.3743487,5,4643,-0.271300449,-1.787668586,-0.279307157
0.830756607,-3.969858646,-1.620890141,236.4743487,5,4644,0.207689152,-0.992464662,-0.405222535
1.415689888,-5.682692528,0.694557786,236.5743487,5,4645,0.353922472,-1.420673132,0.173639446
0.358272018,-5.027047157,-0.052604377,236.6743487,5,4646,0.089568005,-1.256761789,-0.013151094
0.434796753,-4.108465195,1.347600102,236.7743487,5,4647,0.108699188,-1.027116299,0.336900026
1.220059814,-6.560936928,1.842850208,236.8743487,5,4648,0.305014954,-1.640234232,0.460712552
-1.014627037,-5.437523842,1.11077261,236.9743487,5,4649,-0.253656759,-1.35938096,0.277693152
-1.807745514,-2.791994333,-0.789508283,237.0743487,5,4650,-0.451936378,-0.697998583,-0.197377071
1.12404007,1.218963146,-1.316120505,237.1743487,5,4651,0.281010017,0.304740787,-0.329030126
2.298711243,2.748576641,-2.95992136,237.2743487,5,4652,0.574677811,0.68714416,-0.73998034
2.883939209,1.611371398,-0.741946042,237.3743487,5,4653,0.720984802,0.402842849,-0.18548651
0.265733185,3.960884571,0.948497832,237.4743487,5,4654,0.066433296,0.990221143,0.237124458
2.063066902,3.397192001,-0.594157577,237.5743487,5,4655,0.515766726,0.849298,-0.148539394
2.002527657,3.58046484,0.560413361,237.6743487,5,4656,0.500631914,0.89511621,0.14010334
-0.255339203,2.58303237,-1.474455476,237.7743487,5,4657,-0.063834801,0.645758092,-0.368613869
0.196768227,2.619501114,1.36041224,237.8743487,5,4658,0.049192057,0.654875278,0.34010306
0.580478134,3.437199593,-0.357508719,237.9743487,5,4659,0.145119534,0.859299898,-0.08937718
0.451425018,3.403019905,0.294750988,238.0743487,5,4660,0.112856255,0.850754976,0.073687747
0.201163712,3.812349796,-0.805523574,238.1743487,5,4661,0.050290928,0.953087449,-0.201380894
0.398521843,2.273504734,-1.456603885,238.2743487,5,4662,0.099630461,0.568376184,-0.364150971
-0.839986382,3.826774359,-1.663278937,238.3743487,5,4663,-0.209996595,0.95669359,-0.415819734
0.577775421,2.041030884,0.105415449,238.4743487,5,4664,0.144443855,0.510257721,0.026353862
0.024549904,0.638751507,0.05795835,238.5743487,5,4665,0.006137476,0.159687877,0.014489587
-0.387150345,0.534398794,1.002460361,238.6743487,5,4666,-0.096787586,0.133599699,0.25061509
0.105014267,1.521440983,1.034653425,238.7743487,5,4667,0.026253567,0.380360246,0.258663356
0.020122948,0.575424075,-0.681813955,238.8743487,5,4668,0.005030737,0.143856019,-0.170453489
-2.293512878,0.546094239,-0.688458264,238.9743487,5,4669,-0.57337822,0.13652356,-0.172114566
-0.226960716,-1.360464931,-1.32574296,239.0743487,5,4670,-0.056740179,-0.340116233,-0.33143574
-0.930928764,1.396586537,0.750870347,239.1743487,-1,4671,-0.232732191,0.349146634,0.187717587
0.818554344,0.738950968,-2.355613708,239.2743488,-1,4672,0.204638586,0.184737742,-0.588903427
1.281174126,-2.544566631,-0.131755173,239.3743488,-1,4673,0.320293531,-0.636141658,-0.032938793
