0.961167556
0.57908361
0.939395796
1.089791688
0.647834094
0.607420584
0.90453705
0.23644596
0.66063625
0.91818806
0.91719824
1.922342804
1.49305588
2.31177766
2.08011176
2.93372322
2.902384
3.05249208
3.60747114
3.3459908
2.73191562
2.38365368
2.70090902
2.36103748
2.03164928
