8.593998
8.870392
9.5884285
9.254327
7.7238235
8.920765
10.940151
7.9522753
7.1392927
10.969724
9.667213
7.475659
9.443044
10.303167
8.716106
9.238858
9.300077
8.816896
9.84601
9.303471
9.372157
8.689187
9.679002
10.051057
10.024066
8.608414
9.63061
10.238216
9.894957
8.975438
9.561308
10.881584
9.673883
9.906371
9.9641075
9.713569
8.890491
9.481708
8.554856
9.498372
8.933791
8.5675
8.701358
9.558336
8.536517
8.616474
8.430208
9.140996
8.988875
8.323856
8.739969
10.454717
8.6477995
8.657564
9.439442
9.180881
8.288648
9.50705
10.183615
9.220465
8.639272
8.957432
9.598813
10.244524
8.966399
6.8548117
9.433087
10.134037
7.8580894
8.039475
9.55318
8.651242
8.545898
8.7291975
8.781855
7.8645563
8.197392
8.876145
8.633772
8.686187
7.8218036
8.279942
9.436126
8.632003
7.103391
8.896067
9.726861
7.6571445
8.294921
9.222812
8.471613
8.206668
8.73315
9.696247
8.764567
8.861902
8.701356
9.835322
9.197584
7.4456778
9.034108
10.479821
8.365389
8.803406
9.618657
8.097013
8.911107
9.097866
8.007238
8.241682
10.199453
8.471029
8.068821
10.072067
9.630229
7.6619115
9.319803
9.659804
8.445966
8.581846
9.101164
8.4837475
9.447912
8.757271
8.2902775
9.230605
8.467542
8.313367
9.048954
8.478109
8.255431
8.312134
9.402625
9.056265
8.699006
9.673339
9.681699
8.47657
8.979716
11.044653
8.861866
8.267611
10.843857
9.48525
8.375222
10.391188
10.44005
8.10406
