-0.8457402
4.2124977
-3.7961903
1.0131669
3.5474699
-3.760267
3.9358096
1.1333493
-0.031468358
2.3895133
0.8964857
-0.83772767
2.2393208
1.0751696
0.28982013
0.48197573
2.2273378
0.046010792
-0.53711003
2.7542515
-0.52837807
0.15705158
3.0983
0.5720093
-0.14051473
2.919534
0.61166084
-0.0019281656
2.5731726
2.3922834
-0.5297553
2.626694
3.071081
-0.93109906
3.0235403
2.5927403
0.028558433
1.8647367
2.2755532
2.055424
0.60347646
1.4057401
1.5412079
2.3969364
1.3397477
3.986189
2.9320443
0.34198308
6.1342735
2.2949257
1.8023098
3.1963387
4.1765375
1.4745127
4.1193733
4.486459
1.1293061
4.2764015
3.6172476
3.0873837
4.8919935
2.9171891
4.9392996
6.4405966
3.0081172
7.2163515
5.0830393
2.8840692
8.987322
5.5996614
4.660301
9.093914
6.4538937
6.5778375
10.229727
5.78118
8.435403
8.799547
5.242842
9.187874
9.673525
4.900232
9.819561
7.189868
6.5480084
9.681908
6.865254
8.094807
8.674311
6.0411434
9.739742
7.661022
6.178017
12.534407
5.2360687
6.7996807
8.86853
6.680903
9.442625
7.058627
7.1983786
9.5227165
6.841116
5.667901
9.273223
5.8367496
5.5610623
8.258223
6.0971575
8.098041
7.356159
4.229049
6.717944
5.080964
5.429269
7.4429526
3.6301768
8.283052
5.534994
4.2618265
8.780588
4.549087
3.162081
5.9460645
2.4033802
3.9284956
5.6426473
2.4603827
3.4804535
4.586713
2.750749
3.0365658
4.066288
2.1494012
2.256227
3.6553419
0.7242669
0.9832921
3.0519602
0.34503073
1.5348407
4.331033
2.252923
-0.036150552
2.3512797
3.756507
0.4432037
1.1893795
1.1734717
-0.7094994
2.7161107
2.4015374
-0.15067802
3.5375683
2.2409248
-0.5600446
3.0498009
3.3272831
1.2191257
1.4169261
2.554434
-0.5399275
