0.697947668
0.656308572
0.63776896
-0.136328074
0.752152184
0.981625708
0.60177908
0.418426702
-0.13469197
0.268082171
0.57492838
0.759270618
0.626590025
0.521123041
0.788906766
0.26603038
-0.049895515
0.29135518
0.647570892
0.51413545
0.525653628
0.1267854
0.288340172
0.788540194
0.797014098
0.207396106
0.388287894
-0.15934946
-0.132195106
-0.096184114
0.167085507
0.478175628
0.179132756
0.474634786
0.366176844
0.206184644
-0.394374087
0.292452876
0.841689196
-0.25216086
0.259608954
0.55074228
-0.03892908
-0.07146898
0.483499652
-0.2544863
0.029574044
-0.039629293
0.624442874
0.2986964
