x,y,z,Event Time,Event Type,Frame,x_modified,y_modified,z_modified
0.670384827,1.698590279,-0.848832071,253.7808068,-1,3533,0.167596207,0.42464757,-0.212208018
-1.70793396,0.462731957,0.067031592,253.8808068,-1,3534,-0.42698349,0.115682989,0.016757898
-0.499656258,-0.917315722,-1.540585279,253.9808068,-1,3535,-0.124914064,-0.22932893,-0.38514632
0.809602203,0.512103677,0.523194492,254.0808068,-1,3536,0.202400551,0.128025919,0.130798623
0.740084114,1.570406675,2.691376448,254.1808068,-1,3537,0.185021029,0.392601669,0.672844112
0.806872787,0.176842511,-0.052998878,254.2808068,-1,3538,0.201718197,0.044210628,-0.01324972
-1.074579773,-0.793795764,1.238637805,254.3808068,-1,3539,-0.268644943,-0.198448941,0.309659451
0.107963982,1.287375927,1.606447697,254.4808068,-1,3540,0.026990995,0.321843982,0.401611924
2.12096447,-1.272271276,-2.38401413,254.5808068,-1,3541,0.530241117,-0.318067819,-0.596003532
-0.26208168,0.671524167,1.77381444,254.6808068,-1,3542,-0.06552042,0.167881042,0.44345361
-0.550987778,1.083259344,99.9,254.8808068,-1,3544,-0.137746944,0.270814836,24.975
0.950425568,0.557810307,0.757709861,254.9808068,-1,3545,0.237606392,0.139452577,0.189427465
-0.372921524,-1.299700975,-0.944806159,255.0808068,-1,3546,-0.093230381,-0.324925244,-0.23620154
-3.168539104,-1.364112139,-1.040317655,255.1808068,-1,3547,-0.792134776,-0.341028035,-0.260079414
0.154054108,-0.725905418,-1.540760398,255.2808068,-1,3548,0.038513527,-0.181476355,-0.385190099
2.016311111,0.912319601,1.023382068,255.3808068,-1,3549,0.504077778,0.2280799,0.255845517
1.147378387,0.74065119,-1.583090305,255.4808068,-1,3550,0.286844597,0.185162798,-0.395772576
-1.038865623,-1.805356026,-0.623850465,255.5808068,-1,3551,-0.259716406,-0.451339006,-0.155962616
-1.874133644,-1.68522191,-1.729015231,255.6808068,-1,3552,-0.468533411,-0.421305478,-0.432253808
2.274774017,-0.313152671,-1.980111957,255.7808068,-1,3553,0.568693504,-0.078288168,-0.495027989
-1.978120861,0.060820565,-0.159333155,255.8808068,-1,3554,-0.494530215,0.015205141,-0.039833289
1.299262466,-1.856241465,0.974813759,255.9808068,-1,3555,0.324815617,-0.464060366,0.24370344
-3.627564964,1.19648087,-0.70709908,256.0808068,-1,3556,-0.906891241,0.299120218,-0.17677477
-1.245081482,1.715304494,-1.926094651,256.1808068,-1,3557,-0.31127037,0.428826123,-0.481523663
1.057940903,-0.14898397,0.105228893,256.2808068,-1,3558,0.264485226,-0.037245993,0.026307223
-0.979232368,-0.353918523,-1.191699624,256.3808068,-1,3559,-0.244808092,-0.088479631,-0.297924906
0.656063499,0.255325288,1.802419782,256.4808068,-1,3560,0.164015875,0.063831322,0.450604945
1.652757111,0.53638953,0.518915892,256.5808068,-1,3561,0.413189278,0.134097382,0.129728973
-1.21607357,-1.446525455,-0.485218704,256.6808068,-1,3562,-0.304018393,-0.361631364,-0.121304676
0.27511734,0.171428904,-1.366577268,256.7808068,0,3563,0.068779335,0.042857226,-0.341644317
0.712305489,-0.716234028,2.097912312,256.8808068,0,3564,0.178076372,-0.179058507,0.524478078
-2.591459808,-1.013834596,-1.683739066,256.9808068,0,3565,-0.647864952,-0.253458649,-0.420934767
-0.662548599,0.109246582,-1.083848834,257.0808068,0,3566,-0.16563715,0.027311645,-0.270962209
0.813249054,3.404778957,-0.828467369,257.1808068,0,3567,0.203312263,0.851194739,-0.207116842
-0.364730415,-0.405255854,-0.986965537,257.2808068,0,3568,-0.091182604,-0.101313964,-0.246741384
-1.102397499,-0.161847249,2.395320415,257.3808068,0,3569,-0.275599375,-0.040461812,0.598830104
-0.283797798,0.501572251,0.938110709,257.4808068,0,3570,-0.07094945,0.125393063,0.234527677
2.057038727,-0.061330609,-0.770437419,257.5808068,0,3571,0.514259682,-0.015332652,-0.192609355
-0.364182053,1.08315146,-1.951203823,257.6808068,0,3572,-0.091045513,0.270787865,-0.487800956
-2.114026127,-0.476667285,2.004122972,257.7808069,0,3573,-0.528506532,-0.119166821,0.501030743
0.307852211,1.540641904,-1.057951689,257.8808069,0,3574,0.076963053,0.385160476,-0.264487922
0.246837082,-1.34115231,-2.399727821,257.9808069,0,3575,0.06170927,-0.335288078,-0.599931955
-0.033522186,-0.899664462,1.440995336,258.0808069,0,3576,-0.008380547,-0.224916115,0.360248834
0.075754585,-0.956324458,0.3217085,258.1808069,0,3577,0.018938646,-0.239081115,0.080427125
0.575749817,-1.713178873,-0.046543784,258.2808069,0,3578,0.143937454,-0.428294718,-0.011635946
-0.160577354,0.720703661,1.295626402,258.3808069,0,3579,-0.040144339,0.180175915,0.3239066
-1.81755024,3.831101656,-0.569296598,258.4808069,0,3580,-0.45438756,0.957775414,-0.14232415
-1.073890266,-2.756530762,-1.245015264,258.5808069,0,3581,-0.268472567,-0.68913269,-0.311253816
0.847280922,1.387164235,-1.795125365,258.6808069,0,3582,0.21182023,0.346791059,-0.448781341
1.435165825,0.084789351,0.496051997,258.7808069,0,3583,0.358791456,0.021197338,0.124012999
0.379458847,0.916745245,-0.263229281,258.8808069,0,3584,0.094864712,0.229186311,-0.06580732
0.456770363,1.911524534,1.133807063,258.9808069,0,3585,0.114192591,0.477881134,0.283451766
1.242442551,-0.507150769,1.626690388,259.0808069,0,3586,0.310610638,-0.126787692,0.406672597
-0.999846992,-1.209493399,0.971292317,259.1808069,0,3587,-0.249961748,-0.30237335,0.242823079
-1.80306488,0.009672028,-0.808486402,259.2808069,0,3588,-0.45076622,0.002418007,-0.202121601
1.123112144,0.537782133,-1.323395133,259.3808069,0,3589,0.280778036,0.134445533,-0.330848783
2.292582932,0.662941515,-2.989788532,259.4808069,0,3590,0.573145733,0.165735379,-0.747447133
2.88815731,-1.042562127,-0.783431947,259.5808069,0,3591,0.722039328,-0.260640532,-0.195857987
0.270407143,1.072225213,0.900984824,259.6808069,0,3592,0.067601786,0.268056303,0.225246206
2.06838459,0.41070205,-0.648786128,259.7808069,-1,3593,0.517096148,0.102675512,-0.162196532
2.008228722,0.554279029,0.507873952,259.8808069,-1,3594,0.50205718,0.138569757,0.126968488
-0.249537048,-0.461146265,-1.532481909,259.9808069,-1,3595,-0.062384262,-0.115286566,-0.383120477
0.202634277,-0.431275278,1.308581829,260.0808069,-1,3596,0.050658569,-0.10781882,0.327145457
0.586455765,0.383061886,-0.41171357,260.1808069,-1,3597,0.146613941,0.095765471,-0.102928393
0.457146111,0.347591877,0.241047159,260.2808069,-1,3598,0.114286528,0.086897969,0.06026179
0.20695919,0.756225944,-0.861941278,260.3808069,-1,3599,0.051739798,0.189056486,-0.215485319
0.404416504,-0.782821238,-1.515173554,260.4808069,-1,3600,0.101104126,-0.19570531,-0.378793389
-0.834168968,0.770222962,-1.715911746,260.5808069,-1,3601,-0.208542242,0.19255574,-0.428977937
0.583694878,-1.015510321,0.052455518,260.6808069,-1,3602,0.145923719,-0.25387758,0.01311388
0.02949852,-1.786278844,0.01007547,260.7808069,-1,3603,0.00737463,-0.446569711,0.002518868
-0.384677467,-1.408950925,0.988542676,260.8808069,-1,3604,-0.096169367,-0.352237731,0.247135669
0.105195465,0.744068742,1.030886769,260.9808069,-1,3605,0.026298866,0.186017185,0.257721692
0.019752922,0.26576969,-0.681891203,261.0808069,-1,3606,0.004938231,0.066442423,-0.170472801
-2.293897209,0.422434419,-0.687953472,261.1808069,-1,3607,-0.573474302,0.105608605,-0.171988368
-0.227171478,-1.40992713,-1.328991532,261.2808069,-1,3608,-0.05679287,-0.352481782,-0.332247883
-0.931079445,1.376338482,0.753114164,261.3808069,-1,3609,-0.232769861,0.34408462,0.188278541
0.818424644,0.730627835,-2.355670929,261.4808069,-1,3610,0.204606161,0.182656959,-0.588917732
1.281010094,-2.547900677,-0.131735161,261.5808069,-1,3611,0.320252523,-0.636975169,-0.03293379
0.362832489,2.706438303,-0.809358895,261.6808069,-1,3612,0.090708122,0.676609576,-0.202339724
-3.951515255,1.58567977,-2.513907433,261.7808069,-1,3613,-0.987878814,0.396419942,-0.628476858
-0.356952248,-1.288359642,0.359609693,261.8808069,-1,3614,-0.089238062,-0.322089911,0.089902423
1.390529099,-1.59252274,-2.508536577,261.9808069,-1,3615,0.347632275,-0.398130685,-0.627134144
-0.58976799,0.206169471,-0.853277445,262.0808069,-1,3616,-0.147441998,0.051542368,-0.213319361
-0.541409073,2.501282215,-2.752788067,262.1808069,-1,3617,-0.135352268,0.625320554,-0.688197017
1.025548401,-2.102302074,-0.466594428,262.2808069,-1,3618,0.2563871,-0.525575519,-0.116648607
-0.656969604,0.977756798,-2.212312222,262.3808069,-1,3619,-0.164242401,0.2444392,-0.553078055
-0.312615929,-0.67537719,-1.03228116,262.4808069,-1,3620,-0.078153982,-0.168844298,-0.25807029
-1.283871231,0.600478888,-0.013256276,262.5808069,-1,3621,-0.320967808,0.150119722,-0.003314069
-0.395229874,0.73642385,-0.762355328,262.6808069,-1,3622,-0.098807468,0.184105963,-0.190588832
1.756447258,-0.740333259,2.692606926,262.7808069,-1,3623,0.439111814,-0.185083315,0.673151731
-1.314863739,-0.535496712,-0.21186918,262.8808069,-1,3624,-0.328715935,-0.133874178,-0.052967295
0.181449356,0.249059498,-1.933185339,262.9808069,-1,3625,0.045362339,0.062264875,-0.483296335
-0.481242714,-0.575462997,-0.168521821,263.0808069,-1,3626,-0.120310678,-0.143865749,-0.042130455
0.254538956,-2.205744982,0.044344068,263.1808069,-1,3627,0.063634739,-0.551436245,0.011086017
1.639788094,-0.656519055,1.051053047,263.2808069,-1,3628,0.409947023,-0.164129764,0.262763262
2.154015007,0.463624775,1.132134795,263.3808069,-1,3629,0.538503752,0.115906194,0.283033699
0.506306114,-0.739604652,1.343000531,263.4808069,-1,3630,0.126576529,-0.184901163,0.335750133
-0.588900146,1.570210814,-0.74781996,263.5808069,-1,3631,-0.147225037,0.392552704,-0.18695499
-1.137377319,-0.640015364,-0.218116462,263.6808069,-1,3632,-0.28434433,-0.160003841,-0.054529116
-0.239647446,0.445327163,-0.453328967,263.7808069,-1,3633,-0.059911861,0.111331791,-0.113332242
-1.387623367,0.623846829,-1.137037873,263.8808069,-1,3634,-0.346905842,0.155961707,-0.284259468
-1.23455101,-2.221567154,-0.164108083,263.9808069,-1,3635,-0.308637753,-0.555391788,-0.041027021
-0.638937531,-1.607308865,0.366497815,264.0808069,-1,3636,-0.159734383,-0.401827216,0.091624454
-0.155789909,1.48292923,0.208166361,264.1808069,-1,3637,-0.038947477,0.370732307,0.05204159
0.454245033,1.024837136,1.411433697,264.2808069,-1,3638,0.113561258,0.256209284,0.352858424
0.678704681,-0.043509986,-0.39188844,264.3808069,-1,3639,0.16967617,-0.010877497,-0.09797211
0.224145355,1.508351445,-0.0694215,264.480807,-1,3640,0.056036339,0.377087861,-0.017355375
-1.985204277,0.476396352,-0.191714495,264.580807,-1,3641,-0.496301069,0.119099088,-0.047928624
0.66990799,0.478965521,0.598515272,264.680807,-1,3642,0.167476997,0.11974138,0.149628818
1.353720131,1.370975375,-0.8065449,264.780807,-1,3643,0.338430033,0.342743844,-0.201636225
1.816473427,-0.434356183,-0.345813334,264.880807,-1,3644,0.454118357,-0.108589046,-0.086453333
0.153797569,1.786041141,0.910958886,264.980807,-1,3645,0.038449392,0.446510285,0.227739722
-2.45977169,1.334479332,1.936239362,265.080807,-1,3646,-0.614942923,0.333619833,0.48405984
2.604891243,-2.063407421,3.053160191,265.180807,-1,3647,0.651222811,-0.515851855,0.763290048
0.060983124,-0.598604321,1.188784838,265.280807,-1,3648,0.015245781,-0.14965108,0.297196209
0.615833702,-1.457633138,-2.47819829,265.380807,-1,3649,0.153958426,-0.364408284,-0.619549572
-1.781961975,1.025038242,-0.71002543,265.480807,-1,3650,-0.445490494,0.256259561,-0.177506357
0.133343163,0.607964396,-0.752139032,265.580807,-1,3651,0.033335791,0.151991099,-0.188034758
-2.561930237,-0.200391129,-0.670205414,265.680807,-1,3652,-0.640482559,-0.050097782,-0.167551354
0.235170784,-1.132080555,-0.974983871,265.780807,-1,3653,0.058792696,-0.283020139,-0.243745968
-0.128840027,-0.306803524,0.555393279,265.880807,-1,3654,-0.032210007,-0.076700881,0.13884832
-0.06603199,1.911474824,2.238467455,265.980807,-1,3655,-0.016507998,0.477868706,0.559616864
-0.372022209,-1.11665225,-1.847423792,266.080807,-1,3656,-0.093005552,-0.279163063,-0.461855948
1.45520443,0.004807256,-0.261994839,266.180807,-1,3657,0.363801107,0.001201814,-0.06549871
-0.245471535,1.454012394,0.574001312,266.280807,-1,3658,-0.061367884,0.363503098,0.143500328
0.916527214,-0.179046795,1.629703641,266.380807,-1,3659,0.229131804,-0.044761699,0.40742591
2.556388321,0.5003286,0.315596342,266.480807,-1,3660,0.63909708,0.12508215,0.078899086
-0.638249931,0.693485379,-1.2173841,266.580807,-1,3661,-0.159562483,0.173371345,-0.304346025
-0.057765541,0.157648847,-0.694471061,266.680807,-1,3662,-0.014441385,0.039412212,-0.173617765
0.43739933,-0.820816398,0.037050549,266.780807,-1,3663,0.109349833,-0.205204099,0.009262637
-0.811461029,-1.218983054,0.443659753,266.880807,-1,3664,-0.202865257,-0.304745764,0.110914938
1.127853813,0.362456292,-1.510970712,266.980807,-1,3665,0.281963453,0.090614073,-0.377742678
0.02827877,0.551599205,0.096331902,267.080807,-1,3666,0.007069693,0.137899801,0.024082975
-1.282476006,-0.560825527,-0.716195345,267.180807,-1,3667,-0.320619001,-0.140206382,-0.179048836
-2.453753052,-0.418043882,-1.066200972,267.280807,-1,3668,-0.613438263,-0.10451097,-0.266550243
1.685656013,1.120217443,1.283583522,267.380807,-1,3669,0.421414003,0.280054361,0.32089588
-1.290586052,0.871770442,-0.705158055,267.480807,-1,3670,-0.322646513,0.21794261,-0.176289514
0.792436066,2.484216213,1.264037609,267.580807,-1,3671,0.198109016,0.621054053,0.316009402
-0.353570518,0.538771331,1.87507987,267.680807,-1,3672,-0.08839263,0.134692833,0.468769968
-0.65257412,-0.127908722,2.115349531,267.780807,-1,3673,-0.16314353,-0.03197718,0.528837383
-1.118979988,-0.035652637,0.305002034,267.880807,-1,3674,-0.279744997,-0.008913159,0.076250508
-0.056508598,-0.442285866,1.249185801,267.980807,-1,3675,-0.01412715,-0.110571466,0.31229645
-1.571716843,0.548104227,-1.24647212,268.080807,-1,3676,-0.392929211,0.137026057,-0.31161803
1.476283493,-1.522338986,-0.456115544,268.180807,-1,3677,0.369070873,-0.380584747,-0.114028886
0.376081886,0.45314154,-1.380120635,268.280807,-1,3678,0.094020472,0.113285385,-0.345030159
-0.218324242,-1.522677064,1.407532692,268.380807,-1,3679,-0.05458106,-0.380669266,0.351883173
0.67144722,0.804457664,1.527933836,268.480807,-1,3680,0.167861805,0.201114416,0.381983459
-1.01340538,-0.11407993,-3.26390624,268.580807,-1,3681,-0.253351345,-0.028519982,-0.81597656
2.276728096,-1.986212373,-1.586649656,268.680807,-1,3682,0.569182024,-0.496553093,-0.396662414
-0.494967041,-1.900847554,-0.204759032,268.780807,-1,3683,-0.12374176,-0.475211889,-0.051189758
-1.278093872,-0.51225692,-0.958421648,268.880807,-1,3684,-0.319523468,-0.12806423,-0.239605412
0.447225037,2.160387039,-0.716090083,268.980807,-1,3685,0.111806259,0.54009676,-0.179022521
-2.589803276,1.591531038,-2.436415434,269.080807,-1,3686,-0.647450819,0.39788276,-0.609103858
0.310429039,-0.920975447,0.49051252,269.180807,-1,3687,0.07760726,-0.230243862,0.12262813
0.914592209,-0.731479764,1.288737535,269.280807,-1,3688,0.228648052,-0.182869941,0.322184384
0.870713654,1.141474366,3.725338459,269.380807,-1,3689,0.217678413,0.285368592,0.931334615
-2.443855343,0.063603818,2.318775177,269.480807,-1,3690,-0.610963836,0.015900955,0.579693794
-1.983503876,2.544894457,2.865407228,269.580807,-1,3691,-0.495875969,0.636223614,0.716351807
0.223669472,2.058078289,-0.09731856,269.680807,-1,3692,0.055917368,0.514519572,-0.02432964
0.531430664,0.494309783,2.595392942,269.780807,-1,3693,0.132857666,0.123577446,0.648848236
1.598044815,-0.365564853,-1.55686903,269.880807,-1,3694,0.399511204,-0.091391213,-0.389217257
-0.766173897,-1.824827433,-0.928309381,269.980807,-1,3695,-0.191543474,-0.456206858,-0.232077345
2.573080482,1.051606894,1.123892069,270.080807,-1,3696,0.643270121,0.262901723,0.280973017
-3.447224197,-0.436053604,-2.443428993,270.180807,-1,3697,-0.861806049,-0.109013401,-0.610857248
-0.306665001,-1.107564092,0.710871279,270.280807,-1,3698,-0.07666625,-0.276891023,0.17771782
-1.088962135,1.339405298,0.485507101,270.380807,-1,3699,-0.272240534,0.334851325,0.121376775
-0.883182106,0.303208113,-1.295628667,270.480807,-1,3700,-0.220795527,0.075802028,-0.323907167
0.756822052,1.10704577,-1.329540133,270.580807,-1,3701,0.189205513,0.276761442,-0.332385033
-0.173545418,-0.424409449,-2.757480383,270.680807,-1,3702,-0.043386354,-0.106102362,-0.689370096
2.02230114,-0.099825643,-1.027764082,270.780807,-1,3703,0.505575285,-0.024956411,-0.25694102
3.846007767,-0.037645012,-0.747778594,270.880807,-1,3704,0.961501942,-0.009411253,-0.186944649
-2.017466125,1.964884758,0.729519665,270.980807,-1,3705,-0.504366531,0.491221189,0.182379916
5.705396118,0.021170732,-3.057579041,271.080807,-1,3706,1.42634903,0.005292683,-0.76439476
-4.431943474,-1.143415451,1.849773407,271.1808071,-1,3707,-1.107985868,-0.285853863,0.462443352
-3.932157097,-0.534119844,0.197235942,271.2808071,-1,3708,-0.983039274,-0.133529961,0.049308985
-0.361733017,0.749495924,-0.807109714,271.3808071,-1,3709,-0.090433254,0.187373981,-0.201777428
