x,y,z,Event Time,Event Type,Frame,x_modified,y_modified,z_modified
-2.1139078712463384,-0.47662341594696045,2.0028319358825684,420.0808092691004,-1,5196,-0.5284769678115846,-0.11915585398674011,0.5007079839706421
0.3078255081176753,1.5405795574188232,-1.0573692321777344,420.18080927059054,-1,5197,0.07695637702941882,0.3851448893547058,-0.2643423080444336
0.24679893493652294,-1.3411959409713745,-2.400395154953003,420.28080927208066,-1,5198,0.061699733734130735,-0.33529898524284363,-0.6000987887382507
-0.03335052490234425,-0.8996486067771912,1.441578984260559,420.3808092735708,-1,5199,-0.008337631225586062,-0.2249121516942978,0.36039474606513977
0.07551044464111278,-0.9563383460044861,0.3216666877269745,420.4808092750609,-1,5200,0.018877611160278196,-0.23908458650112152,0.08041667193174362
0.5758413696289058,-1.7131444215774536,-0.047209933400154114,420.580809276551,-1,5201,0.14396034240722644,-0.4282861053943634,-0.011802483350038528
-0.1605239486694341,0.7206023335456848,1.2962082624435425,420.6808092780411,-1,5202,-0.04013098716735852,0.1801505833864212,0.3240520656108856
-1.8176456069946294,3.8311362266540527,-0.569962739944458,420.78080927953124,-1,5203,-0.45441140174865735,0.9577840566635132,-0.1424906849861145
-1.0737300491333013,-2.7565150260925293,-1.2444316148757935,420.88080928102136,-1,5204,-0.2684325122833253,-0.6891287565231323,-0.31110790371894836
0.8471588516235347,1.3871206045150757,-1.7957926988601685,420.9808092825115,-1,5205,0.21178971290588366,0.3467801511287689,-0.4489481747150421
0.3834022903442378,2.2842633724212646,-0.29977941513061523,421.1808092854917,6,5207,0.09585057258605945,0.5710658431053162,-0.07494485378265381
0.4874720001220698,4.138189792633057,1.1667338609695435,421.2808092869818,6,5208,0.12186800003051745,1.0345474481582642,0.29168346524238586
1.2253422164916987,3.9748287200927734,1.7694547176361084,421.38080928847194,6,5209,0.3063355541229247,0.9937071800231934,0.4423636794090271
-1.0219264602661138,4.160818576812744,1.1651103496551514,421.48080928996205,6,5210,-0.25548161506652844,1.040204644203186,0.29127758741378784
-1.8274355506896978,5.722766399383545,-0.5940303802490234,421.58080929145217,6,5211,-0.45685888767242444,1.4306915998458862,-0.14850759506225586
1.0975431823730464,6.384913444519043,-1.1014668941497803,421.6808092929423,6,5212,0.2743857955932616,1.5962283611297607,-0.27536672353744507
2.2666601562499995,6.562678813934326,-2.7639758586883545,421.7808092944324,6,5213,0.5666650390624999,1.6406697034835815,-0.6909939646720886
2.8713240051269526,2.803421974182129,-0.6273173689842224,421.8808092959225,6,5214,0.7178310012817382,0.7008554935455322,-0.1568293422460556
0.2645201110839839,3.7566921710968018,0.9251145124435425,421.98080929741263,6,5215,0.06613002777099597,0.9391730427742004,0.23127862811088562
2.069548072814941,-0.15552332997322083,-0.6414472460746765,422.08080929890275,6,5216,0.5173870182037352,-0.038880832493305206,-0.16036181151866913
2.013132514953613,-1.1783398389816284,0.5283486247062683,422.18080930039287,6,5217,0.5032831287384032,-0.2945849597454071,0.13208715617656708
-0.2511125183105474,-2.611924648284912,-1.5012693405151367,422.280809301883,6,5218,-0.06277812957763684,-0.652981162071228,-0.3753173351287842
0.19879669189453075,-2.7341320514678955,1.3429291248321533,422.3808093033731,6,5219,0.04969917297363269,-0.6835330128669739,0.33573228120803833
0.5821375274658198,-1.9763140678405762,-0.37685340642929077,422.4808093048632,6,5220,0.14553438186645495,-0.49407851696014404,-0.09421335160732269
0.45308155059814403,-2.0328915119171143,0.27704232931137085,422.58080930635333,6,5221,0.11327038764953601,-0.5082228779792786,0.06926058232784271
0.2024826431274409,-1.6324344873428345,-0.8245463371276855,422.68080930784345,6,5222,0.05062066078186023,-0.4081086218357086,-0.2061365842819214
0.40004199981689403,-3.174717664718628,-1.4787214994430542,422.78080930933356,6,5223,0.10001049995422351,-0.793679416179657,-0.36968037486076355
-0.838462409973145,-1.6228151321411133,-1.6794711351394653,422.8808093108237,6,5224,-0.20961560249328626,-0.4057037830352783,-0.41986778378486633
0.5791839981079097,-3.4092371463775635,0.08774612098932266,422.9808093123138,6,5225,0.14479599952697741,-0.8523092865943909,0.021936530247330666
0.02534336090087841,-4.1803483963012695,0.050558704882860184,423.0808093138039,6,5226,0.006335840225219602,-1.0450870990753174,0.012639676220715046
-0.3890538787841802,-3.8029751777648926,1.0230096578598022,423.180809315294,6,5227,-0.09726346969604505,-0.9507437944412231,0.25575241446495056
0.10109657287597607,-1.6502530574798584,1.0693519115447998,423.28080931678414,6,5228,0.025274143218994016,-0.4125632643699646,0.26733797788619995
0.015395584106444815,-2.128157615661621,-0.6481198072433472,423.38080931827426,-1,5229,0.0038488960266112038,-0.5320394039154053,-0.1620299518108368
-2.298145828247071,-1.971846580505371,-0.6488810777664185,423.4808093197644,-1,5230,-0.5745364570617677,-0.4929616451263428,-0.16222026944160461
-0.23147159576416065,-3.8043081760406494,-1.2908446788787842,423.5808093212545,-1,5231,-0.05786789894104016,-0.9510770440101624,-0.32271116971969604
-0.9354110336303716,-1.0180444717407227,0.7878508567810059,423.6808093227446,-1,5232,-0.2338527584075929,-0.25451111793518066,0.19696271419525146
0.8145365142822261,-1.0377655029296875,-2.3247480392456055,423.7808093242347,-1,5233,0.20363412857055652,-0.2594413757324219,-0.5811870098114014
1.2792400741577143,-3.9845786094665527,-0.11960314214229584,423.88080932572484,-1,5234,0.3198100185394286,-0.9961446523666382,-0.02990078553557396
0.3629612350463862,2.2020115852355957,-0.8097844123840332,423.98080932721496,-1,5235,0.09074030876159656,0.5505028963088989,-0.2024461030960083
-3.9511929130554204,1.4087342023849487,-2.5139756202697754,424.0808093287051,-1,5236,-0.9877982282638551,0.3521835505962372,-0.6284939050674438
-0.3566279983520513,-1.3509279489517212,0.36125221848487854,424.1808093301952,-1,5237,-0.08915699958801282,-0.3377319872379303,0.09031305462121964
1.3907713317871089,-1.6152656078338623,-2.5096724033355713,424.2808093316853,-1,5238,0.3476928329467772,-0.4038164019584656,-0.6274181008338928
