x,y,z,Event Time,Event Type,Frame,x_modified,y_modified,z_modified
-0.589788971,1.570161104,-0.747790098,293.1808074,-1,3927,-0.147447243,0.392540276,-0.186947525
-1.137899933,-0.639927447,-0.216834083,293.2808074,-1,3928,-0.284474983,-0.159981862,-0.054208521
-0.240177689,0.445358664,-0.454542249,293.3808074,-1,3929,-0.060044422,0.111339666,-0.113635562
-1.387905655,0.623970807,-1.133249521,293.4808074,-1,3930,-0.346976414,0.155992702,-0.28331238
-1.234871445,-2.221509218,-0.167821571,293.5808074,-1,3931,-0.308717861,-0.555377305,-0.041955393
-0.639200745,-1.607374191,0.366533577,293.6808074,-1,3932,-0.159800186,-0.401843548,0.091633394
-0.15591198,1.483001471,0.20945397,293.7808074,-1,3933,-0.038977995,0.370750368,0.052363493
0.454103889,1.024634242,1.410217285,293.8808074,-1,3934,0.113525972,0.256158561,0.352554321
0.678578796,-0.043262824,-0.391848713,293.9808074,1,3935,0.169644699,-0.010815706,-0.097962178
0.224145355,1.508241057,-0.065636374,294.0808074,1,3936,0.056036339,0.377060264,-0.016409094
0.67208046,3.297262907,0.187958777,294.2808074,1,3938,0.168020115,0.824315727,0.046989694
1.32668251,7.496636868,-2.444061995,294.3808074,1,3939,0.331670628,1.874159217,-0.611015499
1.712229195,7.892451286,-1.939195037,294.4808074,1,3940,0.428057299,1.973112822,-0.484798759
-0.015831528,11.80345535,0.16132772,294.5808074,1,3941,-0.003957882,2.950863838,0.04033193
-2.663441238,12.35129166,2.305924416,294.6808074,1,3942,-0.66586031,3.087822914,0.576481104
2.391210976,9.131221771,4.224096298,294.7808074,1,3943,0.597802744,2.282805443,1.056024075
-0.138341484,10.2642355,2.310438156,294.8808074,1,3944,-0.034585371,2.566058874,0.577609539
0.424769821,9.245402336,-1.388584375,294.9808074,1,3945,0.106192455,2.311350584,-0.347146094
-1.968783913,11.65189934,0.369612634,295.0808074,1,3946,-0.492195978,2.912974834,0.092403159
-0.052340088,11.20780659,0.318327427,295.1808074,1,3947,-0.013085022,2.801951647,0.079581857
-2.747177658,10.38890266,0.404191971,295.2808074,1,3948,-0.686794415,2.597225666,0.101047993
0.04898304,9.454396248,0.10030365,295.3808074,1,3949,0.01224576,2.363599062,0.025075912
-0.315949974,10.28504467,1.633441925,295.4808074,1,3950,-0.078987494,2.571261168,0.408360481
-0.254093704,12.51019287,3.321406841,295.5808074,1,3951,-0.063523426,3.127548218,0.83035171
-0.572556076,10.04459286,0.657491326,295.6808074,1,3952,-0.143139019,2.511148214,0.164372832
1.316889229,7.898622036,5.261758327,295.7808074,1,3953,0.329222307,1.974655509,1.315439582
-0.283910332,7.008832455,2.221901655,295.8808074,1,3954,-0.070977583,1.752208114,0.555475414
0.940518799,2.41276741,1.688390613,295.9808074,1,3955,0.2351297,0.603191853,0.422097653
2.571950378,0.868203163,0.306300551,296.0808074,1,3956,0.642987595,0.217050791,0.076575138
-0.634399948,0.770342886,-1.224756122,296.1808074,1,3957,-0.158599987,0.192585722,-0.30618903
-0.060348091,0.182528436,-0.698857188,296.2808074,1,3958,-0.015087023,0.045632109,-0.174714297
0.432247581,-0.80889827,0.035801303,296.3808074,-1,3959,0.108061895,-0.202224568,0.008950326
-0.817314682,-1.212462187,0.441066235,296.4808074,-1,3960,-0.204328671,-0.303115547,0.110266559
1.1233601,0.365702808,-1.510731339,296.5808074,-1,3961,0.280840025,0.091425702,-0.377682835
0.0231213,0.552837193,0.094696663,296.6808074,-1,3962,0.005780325,0.138209298,0.023674166
-1.287259636,-0.556850433,-0.716620147,296.7808074,-1,3963,-0.321814909,-0.139212608,-0.179155037
-2.456755219,-0.417561442,-1.064642787,296.8808074,-1,3964,-0.614188805,-0.10439036,-0.266160697
1.683168831,1.12039423,1.282353401,296.9808074,-1,3965,0.420792208,0.280098557,0.32058835
-1.292382774,0.869646847,-0.705002487,297.0808074,-1,3966,-0.323095694,0.217411712,-0.176250622
0.790822449,2.486625433,1.263638854,297.1808074,-1,3967,0.197705612,0.621656358,0.315909714
-0.354569969,0.538819492,1.875111222,297.2808074,-1,3968,-0.088642492,0.134704873,0.468777806
-0.653111992,-0.127824113,2.116354942,297.3808074,-1,3969,-0.163277998,-0.031956028,0.529088736
-1.119861183,-0.038288567,0.303582668,297.4808074,-1,3970,-0.279965296,-0.009572142,0.075895667
