"CSVFiles/KFoldStratified50LAGAccDataData06.01.2021, 08.35.01/Run_0"
Accuracy,0.9993506493506493
Weighted Precision Score,0.9993524043524044
Weighted Recall Score,0.9993506493506493
Weighted F1 Score,0.999348532196177
-------------------------------
Distribution of Train Events
Non Aggressive Event,Aggressive Right Turn,Aggressive Left Turn,Aggressive Acceleration,Aggressive Braking,Aggressive Left Lane Change,Aggressive Right Lane Change
1473,1127,1126,1292,699,184,255
Distribution of Test Events
Non Aggressive Event,Aggressive Right Turn,Aggressive Left Turn,Aggressive Acceleration,Aggressive Braking,Aggressive Left Lane Change,Aggressive Right Lane Change
369,282,281,322,175,47,64
Confusion Matrix
,,,,Predicated Class
,,Non Aggressive Event,Aggressive Right Turn,Aggressive Left Turn,Aggressive Acceleration,Aggressive Braking,Aggressive Left Lane Change,Aggressive Right Lane Change
,Non Aggressive Event,369,0,0,0,0,0,0
,Aggressive Right Turn,0,282,0,0,0,0,0
,Aggressive Left Turn,0,0,281,0,0,0,0
,Aggressive Acceleration,0,0,0,322,0,0,0
Actual Class,Aggressive Braking,0,0,0,0,175,0,0
,Aggressive Left Lane Change,0,0,0,0,0,47,0
,Aggressive Right Lane Change,1,0,0,0,0,0,63

----------------------------
Multi Label Confusion Matrix
Non Aggressive Event
,Predicated Class
1170,1
0,369
Actual Class

Aggressive Right Turn
,Predicated Class
1258,0
0,282
Actual Class

Aggressive Left Turn
,Predicated Class
1259,0
0,281
Actual Class

Aggressive Acceleration
,Predicated Class
1218,0
0,322
Actual Class

Aggressive Braking
,Predicated Class
1365,0
0,175
Actual Class

Aggressive Left Lane Change
,Predicated Class
1493,0
0,47
Actual Class

Aggressive Right Lane Change
,Predicated Class
1476,0
1,63
Actual Class


----------------------------
