x,y,z,Event Time,Event Type,Frame,x_modified,y_modified,z_modified
-0.499662933,-0.906468391,-1.535863161,498.3107248,-1,7002,-0.124915733,-0.226617098,-0.38396579
0.809595528,0.522951007,0.52791661,498.4107248,-1,7003,0.202398882,0.130737752,0.131979153
0.740077438,1.581254005,2.696098328,498.5107248,-1,7004,0.18501936,0.395313501,0.674024582
0.806866112,0.187689856,-0.048276789,498.6107248,-1,7005,0.201716528,0.046922464,-0.012069197
-1.074586449,-0.782948434,1.243359923,498.7107248,-1,7006,-0.268646612,-0.195737109,0.310839981
0.107957306,1.298223257,1.611169815,498.8107248,-1,7007,0.026989326,0.324555814,0.402792454
2.120957794,-1.261423945,-2.37929225,498.9107248,-1,7008,0.530239449,-0.315355986,-0.594823062
-0.262088356,0.682371497,1.778536558,499.0107248,-1,7009,-0.065522089,0.170592874,0.44463414
-0.04927021,-1.385334015,-1.111600518,499.1107248,-1,7010,-0.012317553,-0.346333504,-0.27790013
-0.589341698,1.094138741,2.803584337,499.2107248,-1,7011,-0.147335424,0.273534685,0.700896084
-0.366010246,-1.288794756,-0.996704996,499.4107248,-1,7013,-0.091502562,-0.322198689,-0.249176249
-3.167489109,-1.353360534,-1.035722256,499.5107248,-1,7014,-0.791872277,-0.338340133,-0.258930564
0.150331917,-0.714956462,-1.53450036,499.6107248,-1,7015,0.037582979,-0.178739116,-0.38362509
2.006785812,0.923032999,1.028577447,499.7107248,-1,7016,0.501696453,0.23075825,0.257144362
1.136797371,0.75160563,-1.578267455,499.8107248,-1,7017,0.284199343,0.187901407,-0.394566864
-1.038658676,-1.794389367,-0.618746936,499.9107248,-1,7018,-0.259664669,-0.448597342,-0.154686734
-1.874552307,-1.67441678,-1.724247694,500.0107248,-1,7019,-0.468638077,-0.418604195,-0.431061924
2.274706306,-0.302108616,-1.975653291,500.1107248,-1,7020,0.568676577,-0.075527154,-0.493913323
-1.978566227,0.071627766,-0.154273912,500.2107248,-1,7021,-0.494641557,0.017906941,-0.038568478
1.299354973,-1.845204115,0.980189204,500.3107248,-1,7022,0.324838743,-0.461301029,0.245047301
-3.627296982,1.207376122,-0.702663302,500.4107248,-1,7023,-0.906824245,0.301844031,-0.175665826
-1.244878349,1.726195097,-1.921346426,500.5107248,-1,7024,-0.311219587,0.431548774,-0.480336607
1.058071556,-0.138093382,0.109977104,500.6107248,-1,7025,0.264517889,-0.034523346,0.027494276
-0.9790979,-0.343027949,-1.186951399,500.7107248,-1,7026,-0.244774475,-0.085756987,-0.29673785
0.657048645,0.264700234,1.806883216,500.8107248,-1,7027,0.164262161,0.066175058,0.451720804
1.652338448,0.547346354,0.523654819,500.9107248,-1,7028,0.413084612,0.136836588,0.130913705
-1.216858444,-1.436120152,-0.480175465,501.0107248,-1,7029,-0.304214611,-0.359030038,-0.120043866
0.185329857,0.182254851,0.048433185,501.1107249,-1,7030,0.046332464,0.045563713,0.012108296
0.338176193,-0.705773711,12.70224285,501.2107249,-1,7031,0.084544048,-0.176443428,3.175560713
-2.59728199,-1.002962112,8.923052788,501.3107249,-1,7032,-0.649320498,-0.250740528,2.230763197
-0.646333275,0.11987713,8.382436752,501.4107249,-1,7033,-0.161583319,0.029969282,2.095609188
0.769852104,3.414638758,7.799757481,501.5107249,-1,7034,0.192463026,0.853659689,1.94993937
-0.432291565,-0.395566672,6.850395679,501.6107249,-1,7035,-0.108072891,-0.098891668,1.71259892
-1.152189789,-0.15245457,9.290493011,501.7107249,-1,7036,-0.288047447,-0.038113642,2.322623253
-0.373080788,0.510841846,6.89743948,501.8107249,-1,7037,-0.093270197,0.127710462,1.72435987
2.001494827,-0.052201133,4.31957674,501.9107249,-1,7038,0.500373707,-0.013050283,1.079894185
-0.403020439,1.092514634,2.374223948,502.0107249,-1,7039,-0.10075511,0.273128659,0.593555987
-2.144272861,-0.467460901,5.663580894,502.1107249,-1,7040,-0.536068215,-0.116865225,1.415895224
0.283322754,1.549881577,2.028048277,502.2107249,-1,7041,0.070830688,0.387470394,0.507012069
0.227114143,-1.331837058,0.194365978,502.3107249,-1,7042,0.056778536,-0.332959265,0.048591495
-0.049337921,-0.889959276,3.617147923,502.4107249,-1,7043,-0.01233448,-0.222489819,0.904286981
0.062962952,-0.946483791,2.145328999,502.5107249,-1,7044,0.015740738,-0.236620948,0.53633225
0.573321762,-1.703767061,1.376917601,502.6107249,-1,7045,0.143330441,-0.425941765,0.3442294
-0.128559647,0.730672956,1.417922139,502.7107249,-1,7046,-0.032139912,0.182668239,0.354480535
-1.837226448,3.841651678,-0.725288332,502.8107249,-1,7047,-0.459306612,0.96041292,-0.181322083
-1.096931038,-2.746004581,-1.402477384,502.9107249,-1,7048,-0.274232759,-0.686501145,-0.350619346
0.833984795,1.39791429,-1.962707639,503.0107249,3,7049,0.208496199,0.349478573,-0.49067691
1.418319168,0.095498227,0.460370749,503.1107249,3,7050,0.354579792,0.023874557,0.115092687
0.232013168,0.927687824,3.008089781,503.2107249,3,7051,0.058003292,0.231921956,0.752022445
0.430999222,1.92143786,6.052597523,503.3107249,3,7052,0.107749805,0.480359465,1.513149381
1.256324234,-0.498158902,6.812764645,503.4107249,3,7053,0.314081059,-0.124539725,1.703191161
-1.003865776,-1.201284289,6.283548832,503.5107249,3,7054,-0.250966444,-0.300321072,1.570887208
-1.822521267,0.017348573,4.470826626,503.6107249,3,7055,-0.455630317,0.004337143,1.117706656
1.103660049,0.545184255,3.606272221,503.7107249,3,7056,0.275915012,0.136296064,0.901568055
2.268500748,0.670006394,1.526355505,503.8107249,3,7057,0.567125187,0.167501599,0.381588876
2.861093941,-1.03553319,3.350148439,503.9107249,3,7058,0.715273485,-0.258883297,0.83753711
0.243809166,1.079234958,4.676291466,504.0107249,3,7059,0.060952291,0.269808739,1.169072866
2.044455948,0.417674661,2.795675278,504.1107249,3,7060,0.511113987,0.104418665,0.698918819
1.987122002,0.561581969,3.643399239,504.2107249,3,7061,0.4967805,0.140395492,0.91084981
-0.279307899,-0.450952947,1.331155181,504.3107249,3,7062,-0.069826975,-0.112738237,0.332788795
0.208344879,-0.428636551,3.901428461,504.4107249,3,7063,0.05208622,-0.107159138,0.975357115
0.565411987,0.388216138,1.958973408,504.5107249,3,7064,0.141352997,0.097054034,0.489743352
0.444858971,0.355138302,2.380602598,504.6107249,3,7065,0.111214743,0.088784575,0.59515065
0.261575165,0.763987005,-0.255227208,504.7107249,3,7066,0.065393791,0.190996751,-0.063806802
0.400871696,-0.774361193,-1.842653036,504.8107249,-1,7067,0.100217924,-0.193590298,-0.460663259
-0.866082726,0.780027092,-2.022907257,504.9107249,-1,7068,-0.216520681,0.195006773,-0.505726814
0.562443199,-1.005252838,-0.269253552,505.0107249,-1,7069,0.1406108,-0.25131321,-0.067313388
0.0191502,-1.775726795,-0.320557296,505.1107249,-1,7070,0.00478755,-0.443931699,-0.080139324
-0.485271034,-1.398015141,2.598455667,505.2107249,-1,7071,-0.121317759,-0.349503785,0.649613917
0.056984367,0.753910661,4.726464748,505.3107249,-1,7072,0.014246092,0.188477665,1.181616187
0.031273308,0.274005294,3.408546448,505.4107249,-1,7073,0.007818327,0.068501323,0.852136612
-2.288381157,0.42927599,3.614323616,505.5107249,-1,7074,-0.572095289,0.107318997,0.903580904
-0.236874161,-1.40423727,3.071035624,505.6107249,-1,7075,-0.05921854,-0.351059318,0.767758906
-0.951990662,1.381295085,5.171383381,505.7107249,-1,7076,-0.237997665,0.345323771,1.292845845
0.791419449,0.735263288,2.040051937,505.8107249,-1,7077,0.197854862,0.183815822,0.510012984
1.250952187,-2.543686628,4.215672016,505.9107249,-1,7078,0.312738047,-0.635921657,1.053918004
0.331999245,2.710327387,3.466146469,506.0107249,-1,7079,0.082999811,0.677581847,0.866536617
-3.978237209,1.58910799,1.608181715,506.1107249,-1,7080,-0.994559302,0.397276998,0.402045429
-0.380972443,-1.284742117,4.257355213,506.2107249,-1,7081,-0.095243111,-0.321185529,1.064338803
1.36665863,-1.58921659,1.171293259,506.3107249,-1,7082,0.341664658,-0.397304147,0.292823315
-0.61280304,0.209208682,2.621049881,506.4107249,-1,7083,-0.15320076,0.052302171,0.65526247
-0.562914429,2.504773617,0.524854183,506.5107249,-1,7084,-0.140728607,0.626193404,0.131213546
1.005782547,-2.098940134,2.627601385,506.6107249,-1,7085,0.251445637,-0.524735034,0.656900346
-0.6067453,0.980727017,-0.455297112,506.7107249,-1,7086,-0.151686325,0.245181754,-0.113824278
-0.274148521,-0.671286106,-1.468278885,506.8107249,-1,7087,-0.06853713,-0.167821527,-0.367069721
-1.325701294,0.606794596,-0.498117954,506.9107249,-1,7088,-0.331425323,0.151698649,-0.124529488
-0.430026588,0.744547188,-1.258443356,507.0107249,-1,7089,-0.107506647,0.186136797,-0.314610839
1.737980309,-0.730875492,2.182012796,507.1107249,-1,7090,0.434495077,-0.182718873,0.545503199
-1.380602417,-0.524990261,0.318123043,507.2107249,-1,7091,-0.345150604,-0.131247565,0.079530761
0.115553322,0.258973628,0.887077808,507.3107249,-1,7092,0.02888833,0.064743407,0.221769452
-0.469952164,-0.567517281,3.047472954,507.4107249,-1,7093,-0.117488041,-0.14187932,0.761868238
0.26748127,-2.199997663,3.444931984,507.5107249,-1,7094,0.066870317,-0.549999416,0.861232996
1.639710846,-0.652356565,4.542401314,507.6107249,-1,7095,0.409927711,-0.163089141,1.135600328
2.14338726,0.466841429,4.654277802,507.7107249,-1,7096,0.535846815,0.116710357,1.16356945
0.489742699,-0.737179101,4.857153416,507.810725,-1,7097,0.122435675,-0.184294775,1.214288354
-0.60888916,1.571836352,2.741431713,507.910725,-1,7098,-0.15222229,0.392959088,0.685357928
-1.158573685,-0.638459504,3.238411903,508.010725,-1,7099,-0.289643421,-0.159614876,0.809602976
-0.261478958,0.446693569,2.956552267,508.110725,-1,7100,-0.06536974,0.111673392,0.739138067
-1.409379539,0.625112891,2.231111288,508.210725,-1,7101,-0.352344885,0.156278223,0.557777822
-1.256027756,-2.22074914,3.153510809,508.310725,-1,7102,-0.314006939,-0.555187285,0.788377702
-0.66015583,-1.606555939,3.644822836,508.410725,-1,7103,-0.165038958,-0.401638985,0.911205709
-0.176506577,1.483405113,3.43969202,508.510725,-1,7104,-0.044126644,0.370851278,0.859923005
0.433932724,1.025289774,4.594911575,508.610725,-1,7105,0.108483181,0.256322443,1.148727894
0.702448311,-0.043433949,2.095094204,508.710725,-1,7106,0.175612078,-0.010858487,0.523773551
0.302706184,1.508422971,-0.325567365,508.810725,-1,7107,0.075676546,0.377105743,-0.081391841
-2.016963539,0.478512079,-0.854654968,508.910725,-1,7108,-0.504240885,0.11962802,-0.213663742
0.629002991,0.484082699,-0.067745805,509.010725,-1,7109,0.157250748,0.121020675,-0.016936451
