x,y,z,Event Time,Event Type,Frame,x_modified,y_modified,z_modified
0.818738403,0.741360784,-2.352723598,476.0107245,-1,6779,0.204684601,0.185340196,-0.5881809
1.281021538,-2.537145853,-0.125037059,476.1107245,-1,6780,0.320255384,-0.634286463,-0.031259265
0.362994614,2.717227459,-0.810161054,476.2107245,-1,6781,0.090748653,0.679306865,-0.202540264
-3.951412258,1.596531153,-2.508458138,476.3107245,-1,6782,-0.987853065,0.399132788,-0.627114534
-0.356923637,-1.277530074,0.361308366,476.4107245,-1,6783,-0.089230909,-0.319382519,0.090327092
1.390586319,-1.581730723,-2.504338264,476.5107245,-1,6784,0.34764658,-0.395432681,-0.626084566
-0.589800415,0.216928527,-0.851574719,476.6107245,-1,6785,-0.147450104,0.054232132,-0.21289368
-0.541308937,2.51204133,-2.751085281,476.7107245,-1,6786,-0.135327234,0.628010333,-0.68777132
1.025594177,-2.091442823,-0.461139768,476.8107245,-1,6787,0.256398544,-0.522860706,-0.115284942
-0.657070694,0.988515794,-2.210603714,476.9107245,2,6788,-0.164267673,0.247128949,-0.552650928
-1.280797539,-3.144674063,-0.542103887,477.1107245,2,6790,-0.320199385,-0.786168516,-0.135525972
-0.543558655,-6.495967388,-2.794451714,477.2107245,2,6791,-0.135889664,-1.623991847,-0.698612928
0.985538902,-12.01819038,1.088950634,477.3107245,2,6792,0.246384726,-3.004547596,0.272237659
-2.698603687,-15.67088699,-0.91533649,477.4107245,2,6793,-0.674650922,-3.917721748,-0.228834122
-1.275907097,-14.85539246,-0.135599136,477.5107245,2,6794,-0.318976774,-3.713848114,-0.033899784
-1.812821445,-19.95954132,3.861013412,477.6107245,2,6795,-0.453205361,-4.98988533,0.965253353
-1.183357773,-21.42442703,4.121661186,477.7107245,2,6796,-0.295839443,-5.356106758,1.030415297
0.248254242,-19.92425537,5.055726051,477.8107245,2,6797,0.06206356,-4.981063843,1.263931513
0.801004829,-18.64910698,4.955881119,477.9107245,2,6798,0.200251207,-4.662276745,1.23897028
-0.837575493,-19.28323364,4.91793108,478.0107245,2,6799,-0.209393873,-4.820808411,1.22948277
-1.901453075,-16.6913147,2.71004343,478.1107245,2,6800,-0.475363269,-4.172828674,0.677510858
-2.569054184,-19.05899048,5.058744431,478.2107245,2,6801,-0.642263546,-4.76474762,1.264686108
-1.773666916,-15.15811062,8.483070374,478.3107245,2,6802,-0.443416729,-3.789527655,2.120767593
-1.947615204,-13.67440796,2.886132479,478.4107245,2,6803,-0.486903801,-3.41860199,0.72153312
-0.99615818,-9.996890068,0.240499899,478.5107245,2,6804,-0.249039545,-2.499222517,0.060124975
-0.434995232,-3.483559608,0.327490896,478.6107245,2,6805,-0.108748808,-0.870889902,0.081872724
-0.074165878,0.987640142,0.16661042,478.7107245,2,6806,-0.01854147,0.246910036,0.041652605
0.45924324,0.851213753,1.391667724,478.8107245,2,6807,0.11481081,0.212803438,0.347916931
0.651951256,-0.108300149,-0.399781764,478.9107245,-1,6808,0.162987814,-0.027075037,-0.099945441
0.191069069,1.480532646,-0.069481537,479.0107245,-1,6809,0.047767267,0.370133162,-0.017370384
-2.014660416,0.464063019,-0.19056116,479.1107245,-1,6810,-0.503665104,0.116015755,-0.04764029
0.646066132,0.480126768,0.601837754,479.2107245,-1,6811,0.161516533,0.120031692,0.150459439
1.332923355,1.379454732,-0.807364821,479.3107245,-1,6812,0.333230839,0.344863683,-0.201841205
1.800749245,-0.4297674,-0.339500219,479.4107245,-1,6813,0.450187311,-0.10744185,-0.084875055
0.141759338,1.793800116,0.913170755,479.5107245,-1,6814,0.035439835,0.448450029,0.228292689
-2.468913612,1.344910502,1.938750386,479.6107245,-1,6815,-0.617228403,0.336227626,0.484687597
2.596381607,-2.034968138,3.081302166,479.7107245,-1,6816,0.649095402,-0.508742034,0.770325541
0.059064331,-0.615414262,1.168676734,479.8107245,-1,6817,0.014766083,-0.153853565,0.292169183
