x,y,z,Event Time,Event Type,Frame,x_modified,y_modified,z_modified
0.670378151,1.709437609,-0.844109952,398.0107233,-1,5999,0.167594538,0.427359402,-0.211027488
-1.707940636,0.473579317,0.071753681,398.1107233,-1,6000,-0.426985159,0.118394829,0.01793842
-0.499662933,-0.906468391,-1.535863161,398.2107233,-1,6001,-0.124915733,-0.226617098,-0.38396579
0.809595528,0.522951007,0.52791661,398.3107233,-1,6002,0.202398882,0.130737752,0.131979153
0.740077438,1.581254005,2.696098328,398.4107233,-1,6003,0.18501936,0.395313501,0.674024582
0.806866112,0.187689856,-0.048276789,398.5107233,-1,6004,0.201716528,0.046922464,-0.012069197
-1.074586449,-0.782948434,1.243359923,398.6107233,-1,6005,-0.268646612,-0.195737109,0.310839981
0.107957306,1.298223257,1.611169815,398.7107233,-1,6006,0.026989326,0.324555814,0.402792454
2.120957794,-1.261423945,-2.37929225,398.8107233,-1,6007,0.530239449,-0.315355986,-0.594823062
-0.262088356,0.682371497,1.778536558,398.9107233,-1,6008,-0.065522089,0.170592874,0.44463414
0.320535126,1.096123695,99.9,399.1107233,-1,6010,0.080133781,0.274030924,24.975
0.345405998,0.566858947,3.47074461,399.2107233,-1,6011,0.0863515,0.141714737,0.867686152
-0.259784279,-1.289297581,-0.758705616,399.3107233,-1,6012,-0.06494607,-0.322324395,-0.189676404
-2.994080601,-1.353203416,-1.065673113,399.4107233,-1,6013,-0.74852015,-0.338300854,-0.266418278
0.243240776,-0.714756131,-1.564628243,399.5107233,-1,6014,0.060810194,-0.178689033,-0.391157061
2.04303688,0.923002183,1.011276245,399.6107233,-1,6015,0.51075922,0.230750546,0.252819061
1.145746651,0.744855285,-1.624747396,399.7107233,-1,6016,0.286436663,0.186213821,-0.406186849
-1.052478371,-1.759700775,-0.586312175,399.8107233,-1,6017,-0.263119593,-0.439925194,-0.146578044
-1.882979927,-1.66286087,-1.727531433,399.9107233,-1,6018,-0.470744982,-0.415715218,-0.431882858
2.259885254,-0.301160783,-1.977397084,400.0107233,-1,6019,0.564971313,-0.075290196,-0.494349271
-1.985641537,0.071171418,-0.156970099,400.1107233,-1,6020,-0.496410384,0.017792854,-0.039242525
1.292172852,-1.845743418,0.977804184,400.2107233,-1,6021,0.323043213,-0.461435854,0.244451046
-3.632973251,1.20747292,-0.705682158,400.3107233,-1,6022,-0.908243313,0.30186823,-0.17642054
-1.24934536,1.725883603,-1.923121095,400.4107234,-1,6023,-0.31233634,0.431470901,-0.480780274
1.054893913,-0.138154849,0.1072689,400.5107234,-1,6024,0.263723478,-0.034538712,0.026817225
-0.981485901,-0.343019903,-1.18903327,400.6107234,-1,6025,-0.245371475,-0.085754976,-0.297258317
0.655213776,0.264566869,1.803861618,400.7107234,0,6026,0.163803444,0.066141717,0.450965405
1.651014748,0.547282219,0.521259487,400.8107234,0,6027,0.412753687,0.136820555,0.130314872
-1.217964706,-1.436105967,-0.482569546,400.9107234,0,6028,-0.304491177,-0.359026492,-0.120642386
0.274443092,0.182087824,-1.36423707,401.0107234,0,6029,0.068610773,0.045521956,-0.341059268
0.711879196,-0.705418706,2.100254774,401.1107234,0,6030,0.177969799,-0.176354676,0.525063694
-2.592004356,-1.003097177,-1.681397676,401.2107234,0,6031,-0.648001089,-0.250774294,-0.420349419
-0.662669716,0.120071687,-1.082131147,401.3107234,0,6032,-0.165667429,0.030017922,-0.270532787
0.812982979,3.415501595,-0.825509131,401.4107234,0,6033,0.203245745,0.853875399,-0.206377283
-0.364904938,-0.394601554,-0.984633446,401.5107234,0,6034,-0.091226234,-0.098650388,-0.246158361
-1.102575836,-0.15103662,2.39765501,401.6107234,0,6035,-0.275643959,-0.037759155,0.599413753
-0.283861694,0.512382865,0.940445244,401.7107234,0,6036,-0.070965424,0.128095716,0.235111311
2.057062569,-0.050597955,-0.768104017,401.8107234,0,6037,0.514265642,-0.012649489,-0.192026004
-0.364432869,1.093962073,-1.948869348,401.9107234,0,6038,-0.091108217,0.273490518,-0.487217337
-2.11394125,-0.465768933,2.005833626,402.0107234,0,6039,-0.528485312,-0.116442233,0.501458406
0.307803574,1.551365018,-1.054993391,402.1107234,0,6040,0.076950893,0.387841254,-0.263748348
0.246811333,-1.330497742,-2.397395611,402.2107234,0,6041,0.061702833,-0.332624435,-0.599348903
-0.033490715,-0.888697445,1.443332195,402.3107234,0,6042,-0.008372679,-0.222174361,0.360833049
0.075637283,-0.945513725,0.324043036,402.4107234,0,6043,0.018909321,-0.236378431,0.081010759
0.575750771,-1.702349186,-0.045459099,402.5107234,0,6044,0.143937693,-0.425587296,-0.011364775
-0.160545883,0.731280088,1.297957301,402.6107234,0,6045,-0.040136471,0.182820022,0.324489325
-1.817606506,3.84190321,-0.566337109,402.7107234,0,6046,-0.454401627,0.960475802,-0.141584277
-1.073805389,-2.74563241,-1.243304491,402.8107234,0,6047,-0.268451347,-0.686408103,-0.310826123
0.847197952,1.397896886,-1.792792082,402.9107234,0,6048,0.211799488,0.349474221,-0.44819802
1.435204926,0.095590651,0.499011487,403.0107234,0,6049,0.358801231,0.023897663,0.124752872
0.379406395,0.927556098,-0.260894716,403.1107234,0,6050,0.094851599,0.231889024,-0.065223679
0.45679039,1.922266603,1.135515571,403.2107234,0,6051,0.114197598,0.480566651,0.283878893
1.242397728,-0.49628076,1.630275965,403.3107234,0,6052,0.310599432,-0.12407019,0.407568991
-0.999899445,-1.198829293,0.972999632,403.4107234,0,6053,-0.249974861,-0.299707323,0.243249908
-1.802975235,0.020560881,-0.806150675,403.5107234,0,6054,-0.450743809,0.00514022,-0.201537669
1.123067322,0.548592925,-1.321060658,403.6107234,0,6055,0.28076683,0.137148231,-0.330265164
2.292552414,0.673439682,-2.987458706,403.7107234,-1,6056,0.573138103,0.16835992,-0.746864676
2.888291779,-1.031741619,-0.781722248,403.8107234,-1,6057,0.722072945,-0.257935405,-0.195430562
0.270194473,1.083094954,0.904570341,403.9107234,-1,6058,0.067548618,0.270773739,0.226142585
2.068465652,0.421453655,-0.647702575,404.0107234,-1,6059,0.517116413,0.105363414,-0.161925644
2.008202972,0.565080166,0.510833442,404.1107234,-1,6060,0.502050743,0.141270041,0.127708361
-0.24946743,-0.450422883,-1.529523492,404.2107234,-1,6061,-0.062366858,-0.112605721,-0.382380873
0.202555122,-0.420367509,1.309667706,404.3107234,-1,6062,0.050638781,-0.105091877,0.327416927
0.586324158,0.393853724,-0.408129156,404.4107234,-1,6063,0.146581039,0.098463431,-0.102032289
0.457326355,0.358411998,0.242756784,404.5107234,-1,6064,0.114331589,0.089602999,0.060689196
0.206933441,0.767046332,-0.860231638,404.6107234,-1,6065,0.05173336,0.191761583,-0.215057909
0.404406013,-0.772102296,-1.511590362,404.7107234,-1,6066,0.101101503,-0.193025574,-0.37789759
-0.834141312,0.780979812,-1.714828253,404.8107234,-1,6067,-0.208535328,0.195244953,-0.428707063
0.583482208,-1.004791498,0.056038734,404.9107234,-1,6068,0.145870552,-0.251197875,0.014009683
0.02967495,-1.7754035,0.01366107,405.0107234,-1,6069,0.007418737,-0.443850875,0.003415267
-0.384748993,-1.398253441,0.988375187,405.1107234,-1,6070,-0.096187248,-0.34956336,0.247093797
0.105307045,0.754865825,1.034471154,405.2107234,-1,6071,0.026326761,0.188716456,0.258617789
0.019650879,0.276645064,-0.678305626,405.3107234,-1,6072,0.00491272,0.069161266,-0.169576406
-2.293865738,0.433209956,-0.688119829,405.4107234,-1,6073,-0.573466434,0.108302489,-0.172029957
-0.227143822,-1.399226904,-1.32415843,405.5107234,-1,6074,-0.056785955,-0.349806726,-0.331039608
-0.931204376,1.387251258,0.754200041,405.6107234,-1,6075,-0.232801094,0.346812814,0.18855001
0.818520966,0.741462827,-2.354586363,405.7107234,-1,6076,0.204630241,0.185365707,-0.588646591
1.280904236,-2.537200451,-0.126902089,405.8107234,-1,6077,0.320226059,-0.634300113,-0.031725522
0.362867775,2.717038631,-0.808277726,405.9107234,-1,6078,0.090716944,0.679259658,-0.202069432
-3.951521931,1.596514583,-2.512822866,406.0107234,-1,6079,-0.987880483,0.399128646,-0.628205717
-0.356966553,-1.277581334,0.364443988,406.1107234,-1,6080,-0.089241638,-0.319395334,0.091110997
1.390550079,-1.581669092,-2.508701801,406.2107234,-1,6081,0.34763752,-0.395417273,-0.62717545
-0.589759407,0.216877356,-0.848439097,406.3107234,-1,6082,-0.147439852,0.054219339,-0.212109774
-0.541408119,2.512124538,-2.751698017,406.4107234,-1,6083,-0.13535203,0.628031135,-0.687924504
1.025542679,-2.091537476,-0.465505689,406.5107234,-1,6084,0.25638567,-0.522884369,-0.116376422
-0.657067833,0.988542736,-2.207472801,406.6107234,-1,6085,-0.164266958,0.247135684,-0.5518682
-0.312458572,-0.664534807,-1.03119123,406.7107234,-1,6086,-0.078114643,-0.166133702,-0.257797807
-1.284011421,0.611224473,-0.010917677,406.8107234,-1,6087,-0.321002855,0.152806118,-0.002729419
-0.395190773,0.747320116,-0.760015547,406.9107234,-1,6088,-0.098797693,0.186830029,-0.190003887
1.75640625,-0.72967118,2.69494319,407.0107234,-1,6089,0.439101562,-0.182417795,0.673735797
-1.314880905,-0.524678051,-0.209530577,407.1107235,-1,6090,-0.328720226,-0.131169513,-0.052382644
0.181518974,0.25979951,-1.930847883,407.2107235,-1,6091,0.045379744,0.064949878,-0.482711971
-0.481325684,-0.564644635,-0.166183218,407.3107235,-1,6092,-0.120331421,-0.141161159,-0.041545805
0.254555168,-2.194964409,0.049182389,407.4107235,-1,6093,0.063638792,-0.548741102,0.012295597
1.639792862,-0.645741165,1.050890803,407.5107235,-1,6094,0.409948215,-0.161435291,0.262722701
2.153920593,0.474483579,1.136974335,407.6107235,-1,6095,0.538480148,0.118620895,0.284243584
0.506429138,-0.728826761,1.342838287,407.7107235,-1,6096,0.126607285,-0.18220669,0.335709572
-0.589018402,1.58093214,-0.744232655,407.8107235,-1,6097,-0.147254601,0.395233035,-0.186058164
-1.137288628,-0.629118621,-0.215776682,407.9107235,-1,6098,-0.284322157,-0.157279655,-0.05394417
-0.239703712,0.456091315,-0.452240229,408.0107235,-1,6099,-0.059925928,0.114022829,-0.113060057
-1.387614784,0.634476602,-1.132200718,408.1107235,-1,6100,-0.346903696,0.158619151,-0.283050179
-1.234511909,-2.210783958,-0.164269179,408.2107235,-1,6101,-0.308627977,-0.55269599,-0.041067295
-0.638948021,-1.596504211,0.370087475,408.3107235,-1,6102,-0.159737005,-0.399126053,0.092521869
-0.155830917,1.493752956,0.210506111,408.4107235,-1,6103,-0.038957729,0.373438239,0.052626528
0.454230728,1.035582304,1.413772345,408.5107235,-1,6104,0.113557682,0.258895576,0.353443086
0.678591194,-0.032511223,-0.390796185,408.6107235,-1,6105,0.169647799,-0.008127806,-0.097699046
0.224344673,1.519078374,-0.06583301,408.7107235,-1,6106,0.056086168,0.379769593,-0.016458252
-1.98530632,0.487219602,-0.189374745,408.8107235,-1,6107,-0.49632658,0.1218049,-0.047343686
0.669938507,0.489711225,0.60085386,408.9107235,-1,6108,0.167484627,0.122427806,0.150213465
1.353614273,1.381895542,-0.805453837,409.0107235,-1,6109,0.338403568,0.345473886,-0.201363459
1.816531601,-0.423556238,-0.34222132,409.1107235,-1,6110,0.4541329,-0.10588906,-0.08555533
0.15383667,1.796722054,0.912048757,409.2107235,-1,6111,0.038459167,0.449180514,0.228012189
-2.459808884,1.345200658,1.939830184,409.3107235,-1,6112,-0.614952221,0.336300164,0.484957546
2.604873123,-2.05258894,3.055502176,409.4107235,-1,6113,0.651218281,-0.513147235,0.763875544
0.060923042,-0.587864339,1.19112587,409.5107235,-1,6114,0.015230761,-0.146966085,0.297781467
0.615880432,-1.446795821,-2.477106094,409.6107235,-1,6115,0.153970108,-0.361698955,-0.619276524
-1.781949577,1.035818934,-0.705183625,409.7107235,-1,6116,-0.445487394,0.258954734,-0.176295906
0.133374634,0.618820548,-0.752296567,409.8107235,-1,6117,0.033343658,0.154705137,-0.188074142
-2.562017021,-0.189513609,-0.666612327,409.9107235,-1,6118,-0.640504255,-0.047378402,-0.166653082
0.235156479,-1.121262431,-0.972641766,410.0107235,-1,6119,0.05878912,-0.280315608,-0.243160442
-0.128861961,-0.295985162,0.557735384,410.1107235,-1,6120,-0.03221549,-0.073996291,0.139433846
-0.065939484,1.922118306,2.242057085,410.2107235,-1,6121,-0.016484871,0.480529577,0.560514271
-0.372108994,-1.105659008,-1.846329212,410.3107235,-1,6122,-0.093027248,-0.276414752,-0.461582303
1.455201569,0.015606855,-0.258402854,410.4107235,-1,6123,0.363800392,0.003901714,-0.064600714
-0.245497284,1.464733481,0.577592075,410.5107235,-1,6124,-0.061374321,0.36618337,0.144398019
0.91654438,-0.168268651,1.629544854,410.6107235,-1,6125,0.229136095,-0.042067163,0.407386214
2.556393089,0.511206388,0.319189519,410.7107235,-1,6126,0.639098272,0.127801597,0.07979738
-0.638302383,0.704244316,-1.216292977,410.8107235,-1,6127,-0.159575596,0.176061079,-0.304073244
-0.057722626,0.168545291,-0.692127764,410.9107235,-1,6128,-0.014430656,0.042136323,-0.173031941
0.437393608,-0.810205579,0.043137554,411.0107235,-1,6129,0.109348402,-0.202551395,0.010784389
-0.811512527,-1.208337307,0.442246407,411.1107235,-1,6130,-0.202878132,-0.302084327,0.110561602
1.128877106,0.37419191,-1.507306576,411.2107235,-1,6131,0.282219276,0.093547978,-0.376826644
0.027856293,0.562523603,0.097423032,411.3107235,-1,6132,0.006964073,0.140630901,0.024355758
-1.283478317,-0.549451172,-0.713847399,411.4107235,-1,6133,-0.320869579,-0.137362793,-0.17846185
-2.45360714,-0.406960338,-1.060106993,411.5107235,-1,6134,-0.613401785,-0.101740085,-0.265026748
1.685715141,1.130945325,1.282171369,411.6107235,-1,6135,0.421428785,0.282736331,0.320542842
-1.290539322,0.88234508,-0.701572001,411.7107235,-1,6136,-0.32263483,0.22058627,-0.175393
0.792505684,2.495296955,1.265131116,411.8107235,-1,6137,0.198126421,0.623824239,0.316282779
-0.353633461,0.54940474,1.879916906,411.9107235,-1,6138,-0.088408365,0.137351185,0.469979227
-0.652179298,-0.117070496,2.116469622,412.0107235,-1,6139,-0.163044825,-0.029267624,0.529117405
-1.119089661,-0.024971824,0.306088448,412.1107235,-1,6140,-0.279772415,-0.006242956,0.076522112
-0.05707222,-0.43195945,1.251527786,412.2107235,-1,6141,-0.014268055,-0.107989863,0.312881947
-1.57132679,0.558999419,-1.24413228,412.3107235,-1,6142,-0.392831697,0.139749855,-0.31103307
1.716841164,-1.351244688,-0.57790339,412.4107235,-1,6143,0.429210291,-0.337811172,-0.144475847
5.21251339,0.149301797,1.083106875,412.5107235,-1,6144,1.303128347,0.037325449,0.270776719
4.293693962,-1.18901372,-3.119809866,412.6107235,-1,6145,1.073423491,-0.29725343,-0.779952466
-7.414257345,0.884780705,3.642302275,412.7107235,-1,6146,-1.853564336,0.221195176,0.910575569
-3.206120548,-0.027514398,-2.236682653,412.8107235,-1,6147,-0.801530137,-0.0068786,-0.559170663
4.94784111,-0.232802629,-46.02590561,412.9107235,-1,6148,1.236960278,-0.058200657,-11.5064764
