-0.6656935
-0.45535517
0.80868244
-0.98784196
-0.035717428
-0.1046958
0.27711082
-0.8908451
-0.45171142
0.37730563
-0.21383281
-1.0341961
0.71398854
0.5917442
-1.0878882
0.047561646
0.44549692
-1.1674135
1.3864524
0.96752816
0.36669743
0.24223763
0.14926696
1.58098
0.5405995
-1.4044147
2.099752
0.52584225
-0.66364443
2.157542
-0.43746686
0.24423772
0.8911058
-0.10784876
1.3913056
0.36399272
0.17104608
1.9075553
-0.1457338
1.3085259
1.7839004
-0.29132098
2.061333
2.3212774
1.1059663
2.1080806
2.1937551
0.23908204
2.097324
2.0060813
1.9415417
1.8169947
0.7398617
1.8572708
0.7684753
1.2020669
0.48891646
0.083884835
-0.93661076
-0.17838925
0.092315614
-2.0306706
-1.4136181
-0.5819305
-1.1851618
-2.6765537
-2.218667
-1.1798112
-4.211093
-3.1316128
-2.3356864
-4.253197
-4.254608
-4.319233
-4.1988177
-3.4789495
-4.2348185
-4.0317307
-3.2849226
-4.6254535
-3.5932076
-3.0597198
-4.489128
-4.0547876
-4.32914
-4.387645
-2.413356
-6.328344
-3.1793327
-3.1004786
-5.4930687
-2.7699957
-3.5390315
-3.5281584
-2.4177094
-4.2974877
-3.3702333
-1.9206761
-3.3766415
-1.6709872
-2.0154111
-2.4501565
-1.4306908
-1.6759436
-0.35010523
0.34991384
-2.3168616
0.43518865
0.5211265
-0.3781513
1.1481341
-0.22012597
-0.0686042
-0.10784173
-1.9361495
0.20525092
0.026258588
-1.8432901
-0.45621693
-1.5453223
-1.0587375
0.287952
-2.0845137
-0.48427555
0.11345819
-3.1555293
-0.15396109
-1.0129925
