7.472097
7.9423294
10.305107
9.19736
8.209749
9.98906
9.639485
7.699372
9.772545
9.316365
8.79374
9.645708
10.391666
8.545576
8.612852
9.456314
10.508182
7.9057775
8.347079
10.224535
9.856333
8.676654
8.859222
8.951733
8.808414
8.56754
9.291771
8.640259
7.56111
9.564906
7.7213144
8.275843
9.793483
8.834853
7.3321853
8.8938055
9.619776
8.720453
7.928011
10.43805
10.226619
8.257817
10.429163
10.880843
8.564476
9.340341
11.8933325
10.479236
10.153102
9.405895
10.017296
9.094494
9.183958
9.958786
8.621668
9.39242
8.882405
7.8198814
7.7013574
9.912782
8.263264
6.691361
8.964224
9.80816
6.4841576
7.4721346
9.046607
8.771371
6.378662
8.797164
9.187722
7.7113075
8.790234
9.719898
9.14461
9.01822
8.927518
9.043373
9.7623825
9.05684
8.274962
8.7891865
8.940312
8.340903
7.4188423
8.202169
9.139785
7.2804956
7.949911
8.242631
8.117939
8.43997
7.4621778
8.260727
8.705544
8.642848
9.010663
9.076981
7.9939575
8.897639
9.465053
8.990438
9.718037
10.246792
8.416767
8.371878
8.900562
10.034152
9.430711
8.012803
8.774965
9.959834
8.942127
8.417794
8.805435
9.514066
8.75794
8.093397
9.391604
9.554627
8.619039
8.807634
9.008796
9.244573
9.62995
8.426123
8.754987
8.541335
