0.428648973
0.342498362
0.549295907
0.70684886
0.70489831
0.809770326
1.08006936
1.2937249
1.946239352
3.22212666
4.29008674
5.66093504
6.14470032
7.2055744
7.09949474
7.80439552
7.144354
8.07460266
8.56796414
7.50134034
7.18215598
6.0789547
5.47785788
3.75220618
1.38875422
