-0.427311219
-0.40008413
-0.341566512
-0.136076268
0.244880382
0.64351393
-0.115524046
0.135346268
-0.12688158
-0.309189576
0.551176859
0.26125422
1.22278914
0.12273941
0.839515828
0.340678548
0.49520519
1.12455526
1.95008606
1.83961664
1.237547454
0.42231837
0.364100149
-0.078528503
-0.411698995
