x,y,z,Event Time,Event Type,Frame,x_modified,y_modified,z_modified
0.847417297,0.750766098,-2.347734451,1068.910733,-1,12708,0.211854324,0.187691525,-0.586933613
1.31035656,-2.541707516,-0.129058883,1069.010733,-1,12709,0.32758914,-0.635426879,-0.032264721
0.384758415,2.708868504,-0.818624556,1069.110733,-1,12710,0.096189604,0.677217126,-0.204656139
-3.938900051,1.586718082,-2.511671305,1069.210733,-1,12711,-0.984725013,0.396679521,-0.627917826
-0.349757729,-1.287712455,0.358196169,1069.310733,-1,12712,-0.087439432,-0.321928114,0.089549042
1.394748154,-1.59232688,-2.509919882,1069.410733,-1,12713,0.348687038,-0.39808172,-0.62747997
-0.587078629,0.206241712,-0.852141201,1069.510733,-1,12714,-0.146769657,0.051560428,-0.2130353
-0.539444504,2.501470089,-2.754150152,1069.610733,-1,12715,-0.134861126,0.625367522,-0.688537538
1.026841583,-2.102300167,-0.466709495,1069.710733,-1,12716,0.256710396,-0.525575042,-0.116677374
-0.656076965,0.977699101,-2.208677769,1069.810733,2,12717,-0.164019241,0.244424775,-0.552169442
-1.281993446,-2.764544487,-0.549583793,1070.010733,2,12719,-0.320498362,-0.691136122,-0.137395948
-0.4450317,-6.129687786,-2.861894131,1070.110733,2,12720,-0.111257925,-1.532421947,-0.715473533
1.546036186,-11.17216396,1.234791636,1070.210733,2,12721,0.386509047,-2.793040991,0.308697909
-1.672249374,-14.30426884,-0.199093491,1070.310733,2,12722,-0.418062344,-3.576067209,-0.049773373
-0.246869621,-15.14281559,-0.640063047,1070.410733,2,12723,-0.061717405,-3.785703897,-0.160015762
-0.919211922,-16.00970459,2.019729853,1070.510733,2,12724,-0.22980298,-4.002426147,0.504932463
-0.136300621,-17.10945511,2.144429922,1070.610733,2,12725,-0.034075155,-4.277363777,0.536107481
1.282018127,-15.32473183,3.104968786,1070.710733,2,12726,0.320504532,-3.831182957,0.776242197
1.810477676,-14.11601162,3.183901072,1070.810733,2,12727,0.452619419,-3.529002905,0.795975268
0.167111816,-15.31174278,3.395502567,1070.910733,2,12728,0.041777954,-3.827935696,0.848875642
-0.930492935,-13.00503063,1.325026512,1071.010733,2,12729,-0.232623234,-3.251257658,0.331256628
-1.483114777,-15.24379826,1.870384336,1071.110733,2,12730,-0.370778694,-3.810949564,0.467596084
-0.589384613,-14.17689991,1.647217274,1071.210733,2,12731,-0.147346153,-3.544224977,0.411804318
-1.775888023,-14.80783367,2.6657269,1071.310733,2,12732,-0.443972006,-3.701958418,0.666431725
-1.55429512,-14.8914566,7.551454067,1071.410733,2,12733,-0.38857378,-3.722864151,1.887863517
-0.735254822,-12.71267223,3.707561255,1071.510733,2,12734,-0.183813705,-3.178168058,0.926890314
-0.101477203,-4.963762283,0.483709395,1071.610733,2,12735,-0.025369301,-1.240940571,0.120927349
0.496237221,-0.452200532,1.408069015,1071.710733,2,12736,0.124059305,-0.113050133,0.352017254
0.683964195,-0.364734888,-0.402799189,1071.810733,2,12737,0.170991049,-0.091183722,-0.100699797
0.208651962,1.429170132,-0.072800554,1071.910733,2,12738,0.052162991,0.357292533,-0.018200139
-2.007216034,0.458246738,-0.195708632,1072.010733,-1,12739,-0.501804008,0.114561684,-0.048927158
0.648660126,0.472742826,0.598951936,1072.110733,-1,12740,0.162165031,0.118185706,0.149737984
1.33577198,1.368291378,-0.809491992,1072.210733,-1,12741,0.333942995,0.342072845,-0.202372998
1.802217903,-0.434473842,-0.343201667,1072.310733,-1,12742,0.450554476,-0.108618461,-0.085800417
0.142780724,1.786068082,0.909670234,1072.410733,-1,12743,0.035695181,0.44651702,0.227417558
-2.46828228,1.336902261,1.935230851,1072.510733,-1,12744,-0.61707057,0.334225565,0.483807713
2.598589363,-2.063459635,3.054450989,1072.610733,-1,12745,0.649647341,-0.515864909,0.763612747
0.056184235,-0.598652005,1.187121749,1072.710733,-1,12746,0.014046059,-0.149663001,0.296780437
