x,y,z,Event Time,Event Type,Frame,x_modified,y_modified,z_modified
-0.364829597,-0.404645622,-0.986629009,226.6010374,-1,2603,-0.091207399,-0.101161405,-0.246657252
-1.102435646,-0.161139965,2.394408226,226.7010374,-1,2604,-0.275608912,-0.040284991,0.598602057
-0.283790169,0.502173007,0.939072251,226.8010374,-1,2605,-0.070947542,0.125543252,0.234768063
2.057038727,-0.060696207,-0.771350682,226.9010374,-1,2606,0.514259682,-0.015174052,-0.19283767
-0.364262161,1.083932519,-1.951489806,227.0010374,-1,2607,-0.09106554,0.27098313,-0.487872452
-2.113919315,-0.476129949,2.004458427,227.1010374,-1,2608,-0.528479829,-0.119032487,0.501114607
0.307821693,1.541505456,-1.058861494,227.2010374,-1,2609,0.076955423,0.385376364,-0.264715374
0.246867599,-1.340610743,-2.4000175,227.3010374,-1,2610,0.0617169,-0.335152686,-0.600004375
-0.033522186,-0.899054229,1.441331863,227.4010374,-1,2611,-0.008380547,-0.224763557,0.360332966
0.0756287,-0.955533803,0.320797592,227.5010374,-1,2612,0.018907175,-0.238883451,0.080199398
-0.158537445,-0.620620549,1.248758674,227.7010374,5,2614,-0.039634361,-0.155155137,0.312189668
-1.821571884,1.698844194,-0.53496474,227.8010374,5,2615,-0.455392971,0.424711049,-0.133741185
-1.093061028,-7.420813084,-1.097259164,227.9010374,5,2616,-0.273265257,-1.855203271,-0.274314791
0.819122734,-4.380837917,-1.589825273,228.0010374,5,2617,0.204780684,-1.095209479,-0.397456318
1.401728096,-6.167862892,0.737652779,228.1010374,5,2618,0.350432024,-1.541965723,0.184413195
0.343411865,-5.552101135,-0.010144114,228.2010374,5,2619,0.085852966,-1.388025284,-0.002536029
0.419830742,-4.653988361,1.393476367,228.3010374,5,2620,0.104957685,-1.16349709,0.348369092
1.205496254,-7.115587711,1.890928507,228.4010374,5,2621,0.301374063,-1.778896928,0.472732127
-1.022179184,-5.754938602,1.153666735,228.5010374,5,2622,-0.255544796,-1.438734651,0.288416684
-1.81139761,-3.359517097,-0.781914949,228.6010374,5,2623,-0.452849402,-0.839879274,-0.195478737
1.125952187,1.089722395,-1.318527222,228.7010374,5,2624,0.281488047,0.272430599,-0.329631805
2.300174179,2.837784767,-2.960020781,228.8010374,5,2625,0.575043545,0.709446192,-0.740005195
2.880460205,1.80575192,-0.730982006,228.9010374,5,2626,0.720115051,0.45143798,-0.182745501
0.261469307,4.204837799,0.959732771,229.0010374,5,2627,0.065367327,1.05120945,0.239933193
2.058699074,3.663935423,-0.585395515,229.1010374,5,2628,0.514674768,0.915983856,-0.146348879
1.998304787,3.859265804,0.573403955,229.2010374,5,2629,0.499576197,0.964816451,0.143350989
-0.259300766,2.865288496,-1.468176484,229.3010374,5,2630,-0.064825191,0.716322124,-0.367044121
0.193034592,2.904960632,1.376625299,229.4010374,5,2631,0.048258648,0.726240158,0.344156325
0.576701584,3.722851992,-0.344765007,229.5010374,5,2632,0.144175396,0.930712998,-0.086191252
0.447913589,3.689009666,0.305332303,229.6010374,5,2633,0.111978397,0.922252417,0.076333076
0.197475853,4.098469734,-0.794547021,229.7010374,5,2634,0.049368963,1.024617434,-0.198636755
0.39493412,2.559597492,-1.447708845,229.8010374,5,2635,0.09873353,0.639899373,-0.361927211
-0.843620834,4.112886906,-1.651452422,229.9010374,5,2636,-0.210905209,1.028221726,-0.412863106
0.574108543,2.327233315,0.122683331,230.0010374,5,2637,0.143527136,0.581808329,0.030670833
0.022028389,0.84332633,0.067278661,230.1010374,5,2638,0.005507097,0.210831583,0.016819665
-0.389151154,0.821366191,1.009841084,230.2010374,5,2639,-0.097287788,0.205341548,0.252460271
0.10519165,1.663166046,1.032278657,230.3010374,5,2640,0.026297913,0.415791512,0.258069664
0.020388069,0.641839027,-0.680653453,230.4010374,5,2641,0.005097017,0.160459757,-0.170163363
-2.293165741,0.575986385,-0.684294343,230.5010374,5,2642,-0.573291435,0.143996596,-0.171073586
-0.22668129,-1.347073674,-1.334424853,230.6010374,5,2643,-0.056670322,-0.336768419,-0.333606213
-0.930889664,1.402412295,0.753279746,230.7010374,-1,2644,-0.232722416,0.350603074,0.188319936
0.81860775,0.741509318,-2.355775118,230.8010374,-1,2645,0.204651937,0.18537733,-0.588943779
1.281052055,-2.54313612,-0.130697861,230.9010374,-1,2646,0.320263014,-0.63578403,-0.032674465
