x,y,z,Event Time,Event Type,Frame,x_modified,y_modified,z_modified
-2.113966999,-0.465754569,2.004798412,994.3738164,-1,10663,-0.52849175,-0.116438642,0.501199603
0.307781639,1.551057935,-1.055408597,994.4738164,-1,10664,0.07694541,0.387764484,-0.263852149
0.246739807,-1.330336332,-2.397803783,994.5738164,-1,10665,0.061684952,-0.332584083,-0.599450946
-0.033402023,-0.888770282,1.442920566,994.6738164,-1,10666,-0.008350506,-0.222192571,0.360730141
0.075565758,-0.945586681,0.323631406,994.7738164,-1,10667,0.018891439,-0.23639667,0.080907851
0.57574791,-1.702284813,-0.044618551,994.8738164,-1,10668,0.143936977,-0.425571203,-0.011154638
-0.160510597,0.731363475,1.297548056,994.9738164,-1,10669,-0.040127649,0.182840869,0.324387014
-1.817655144,3.841995955,-0.567371368,995.0738164,-1,10670,-0.454413786,0.960498989,-0.141842842
-1.073854027,-2.745720148,-1.243090034,995.1738164,4,10671,-0.268463507,-0.686430037,-0.310772508
0.847313347,1.39766264,-1.793204784,995.2738164,4,10672,0.211828337,0.34941566,-0.448301196
0.429042282,0.927657485,-2.190207481,995.4738164,4,10674,0.107260571,0.231914371,-0.54755187
0.658846321,1.923324227,-8.438611031,995.5738164,4,10675,0.16471158,0.480831057,-2.109652758
1.04842514,-0.497311652,-13.26681232,995.6738164,4,10676,0.262106285,-0.124327913,-3.316703081
-1.466553268,-1.201264858,-14.12406921,995.7738164,4,10677,-0.366638317,-0.300316215,-3.531017303
-2.257391033,0.018025935,-16.0148716,995.8738164,4,10678,-0.564347758,0.004506484,-4.003717899
0.710646095,0.545915961,-16.6578846,995.9738164,4,10679,0.177661524,0.13647899,-4.164471149
1.905744019,0.67117548,-18.37768555,996.0738164,4,10680,0.476436005,0.16779387,-4.594421387
2.513884964,-1.034339905,-16.17798042,996.1738164,4,10681,0.628471241,-0.258584976,-4.044495106
-0.097838936,1.080492973,-14.47982979,996.2738164,4,10682,-0.024459734,0.270123243,-3.619957447
1.703267517,0.419883609,-16.00606537,996.3738164,4,10683,0.425816879,0.104970902,-4.001516342
1.623475494,0.563597023,-14.81069279,996.4738164,4,10684,0.405868874,0.140899256,-3.702673197
-0.599135933,-0.450841516,-16.85067749,996.5738164,4,10685,-0.149783983,-0.112710379,-4.212669373
-0.146803436,-0.420470327,-13.98525906,996.6738164,4,10686,-0.036700859,-0.105117582,-3.496314764
0.205419006,0.39504531,-14.59591675,996.7738164,4,10687,0.051354752,0.098761328,-3.648979187
0.050906601,0.357162952,-2.727648973,996.8738164,4,10688,0.01272665,0.089290738,-0.681912243
0.262042465,0.766956747,-0.969548583,996.9738164,4,10689,0.065510616,0.191739187,-0.242387146
0.559278908,-0.771101594,-1.649306297,997.0738164,4,10690,0.139819727,-0.192775398,-0.412326574
-0.721705017,0.781465054,-1.801273465,997.1738164,-1,10691,-0.180426254,0.195366263,-0.450318366
0.643831673,-1.004137158,0.013864435,997.2738164,-1,10692,0.160957918,-0.25103429,0.003466109
0.056553307,-1.775449157,-0.002056682,997.3738164,-1,10693,0.014138327,-0.443862289,-0.00051417
-0.370546875,-1.398286462,0.981403708,997.4738165,-1,10694,-0.092636719,-0.349571615,0.245350927
0.105291786,0.75494194,1.03499651,997.5738165,-1,10695,0.026322947,0.188735485,0.258749127
0.019704285,0.276546121,-0.676532745,997.6738165,-1,10696,0.004926071,0.06913653,-0.169133186
-2.293880997,0.433248222,-0.685094774,997.7738165,-1,10697,-0.573470249,0.108312055,-0.171273693
-0.227178154,-1.399228811,-1.323634267,997.8738165,-1,10698,-0.056794538,-0.349807203,-0.330908567
