x,y,z,Event Time,Event Type,Frame,x_modified,y_modified,z_modified
-1.137337265,-0.629022121,-0.216002136,805.2738136,-1,8772,-0.284334316,-0.15725553,-0.054000534
-0.239712296,0.456126839,-0.448717237,805.3738136,-1,8773,-0.059928074,0.11403171,-0.112179309
-1.387618599,0.634646535,-1.132426023,805.4738136,-1,8774,-0.34690465,0.158661634,-0.283106506
-1.2345224,-2.210692644,-0.164495781,805.5738136,-1,8775,-0.3086306,-0.552673161,-0.041123945
-0.638990936,-1.596527815,0.372359425,805.6738136,-1,8776,-0.159747734,-0.399131954,0.093089856
-0.155777512,1.493806958,0.212779254,805.7738136,-1,8777,-0.038944378,0.37345174,0.053194813
0.454250755,1.035555363,1.411043644,805.8738136,-1,8778,0.113562689,0.258888841,0.352760911
0.678521576,-0.032650925,-0.386025697,805.9738136,-1,8779,0.169630394,-0.008162731,-0.096506424
0.224359932,1.519151211,-0.06480974,806.0738136,1,8780,0.056089983,0.379787803,-0.016202435
-1.985286293,0.487270683,-0.192102209,806.1738136,1,8781,-0.496321573,0.121817671,-0.048025552
1.362504425,4.900444984,-1.313827753,806.3738136,1,8783,0.340626106,1.225111246,-0.328456938
1.698124352,6.049219131,-2.46147871,806.4738136,1,8784,0.424531088,1.512304783,-0.615369678
-0.394435463,10.29559994,-1.296637297,806.5738136,1,8785,-0.098608866,2.573899984,-0.324159324
-3.473376808,12.24825191,0.1165272,806.6738136,1,8786,-0.868344202,3.062062979,0.0291318
1.653061333,7.504022121,3.190983534,806.7738136,1,8787,0.413265333,1.87600553,0.797745883
-1.173742828,13.18138027,3.783663034,806.8738136,1,8788,-0.293435707,3.295345068,0.945915759
-0.310810623,13.96278572,0.530895472,806.9738136,1,8789,-0.077702656,3.49069643,0.132723868
-2.870228348,15.36016178,1.81922245,807.0738136,1,8790,-0.717557087,3.840040445,0.454805613
-0.900803146,14.49956226,1.57202816,807.1738136,1,8791,-0.225200787,3.624890566,0.39300704
-3.54555851,13.41956234,1.523469448,807.2738136,1,8792,-0.886389627,3.354890585,0.380867362
-0.732513962,12.2626667,1.089300632,807.3738136,1,8793,-0.18312849,3.065666676,0.272325158
-1.078736839,12.76815414,2.49354744,807.4738136,1,8794,-0.26968421,3.192038536,0.62338686
-1.133379517,15.06630898,6.059986591,807.5738136,1,8795,-0.283344879,3.766577244,1.514996648
-1.481513557,9.050875664,5.712123394,807.6738136,1,8796,-0.370378389,2.262718916,1.428030849
1.163822594,8.830316544,2.728776932,807.7738136,1,8797,0.290955648,2.207579136,0.682194233
0.082041206,5.681554317,0.7005741,807.8738136,1,8798,0.020510302,1.420388579,0.175143525
1.361945572,0.747138858,1.630214095,807.9738136,1,8799,0.340486393,0.186784714,0.407553524
2.457016411,0.691875398,0.237261102,808.0738136,1,8800,0.614254103,0.17296885,0.059315275
-0.578422127,0.660473943,-1.422245145,808.1738136,-1,8801,-0.144605532,0.165118486,-0.355561286
-0.237384377,0.406434059,-0.637797296,808.2738136,-1,8802,-0.059346094,0.101608515,-0.159449324
0.335073891,-0.82280153,0.100019872,808.3738136,-1,8803,0.083768473,-0.205700383,0.025004968
-0.940085945,-1.355951071,0.43538636,808.4738136,-1,8804,-0.235021486,-0.338987768,0.10884659
1.25443119,0.71065104,-1.492022157,808.5738136,-1,8805,0.313607798,0.17766276,-0.373005539
0.02645153,0.63650924,0.10218057,808.6738136,-1,8806,0.006612883,0.15912731,0.025545143
-1.269597588,-0.53004694,-0.719538569,808.7738136,-1,8807,-0.317399397,-0.132511735,-0.179884642
-2.449269829,-0.400451273,-1.06701231,808.8738136,-1,8808,-0.612317457,-0.100112818,-0.266753078
1.683385315,1.130882978,1.281736016,808.9738136,-1,8809,0.420846329,0.282720745,0.320434004
-1.295143661,0.886215866,-0.70131427,809.0738136,-1,8810,-0.323785915,0.221553966,-0.175328568
0.787596169,2.498023033,1.266025424,809.1738136,-1,8811,0.196899042,0.624505758,0.316506356
