"CSVFiles/KFoldStratifiedShuffle=True05.18.2021, 16.43.00/Run_2"
Accuracy,0.9872611464968153
Weighted Precision Score,0.9873808963624466
Weighted Recall Score,0.9872611464968153
Weighted F1 Score,0.9871815568651211
-------------------------------
Distribution of Train Events
Non Aggressive Event,Aggressive Right Turn,Aggressive Left Turn,Aggressive Acceleration,Aggressive Braking,Aggressive Left Lane Change,Aggressive Right Lane Change
1754,1347,1345,1531,939,265,356
Distribution of Test Events
Non Aggressive Event,Aggressive Right Turn,Aggressive Left Turn,Aggressive Acceleration,Aggressive Braking,Aggressive Left Lane Change,Aggressive Right Lane Change
438,337,337,383,235,66,88
Confusion Matrix
,,,,Predicated Class
,,Non Aggressive Event,Aggressive Right Turn,Aggressive Left Turn,Aggressive Acceleration,Aggressive Braking,Aggressive Left Lane Change,Aggressive Right Lane Change
,Non Aggressive Event,437,0,0,0,0,1,0
,Aggressive Right Turn,0,337,0,0,0,0,0
,Aggressive Left Turn,0,0,334,2,1,0,0
,Aggressive Acceleration,0,0,0,383,0,0,0
Actual Class,Aggressive Braking,7,1,0,0,224,1,2
,Aggressive Left Lane Change,1,0,0,0,1,64,0
,Aggressive Right Lane Change,6,1,0,0,0,0,81

----------------------------
Multi Label Confusion Matrix
Non Aggressive Event
,Predicated Class
1432,14
1,437
Actual Class

Aggressive Right Turn
,Predicated Class
1545,2
0,337
Actual Class

Aggressive Left Turn
,Predicated Class
1547,0
3,334
Actual Class

Aggressive Acceleration
,Predicated Class
1499,2
0,383
Actual Class

Aggressive Braking
,Predicated Class
1647,2
11,224
Actual Class

Aggressive Left Lane Change
,Predicated Class
1816,2
2,64
Actual Class

Aggressive Right Lane Change
,Predicated Class
1794,2
7,81
Actual Class


----------------------------
