0.189037124
0.733363172
0.291844344
-1.30318276
-0.602945672
-1.19928876
-2.14261668
-1.68464974
-4.9986053
-5.13486848
-5.70284748
-5.2908884
-3.47601069
-0.47828925
1.107169536
3.173242662
4.02779317
4.065741208
4.58539494
5.54695818
5.73539874
5.00015344
3.58581214
1.010939828
-0.69190812
-0.179381768
