-0.261622812
-0.523104474
0.620454208
0.724727439
-0.24862271
-0.548783576
-1.571370308
-0.45128973
0.30493031
1.384597234
0.151965244
-0.8557561
-0.65283289
-1.080321894
-0.550931356
-0.210795222
0.062382688
0.204050348
0.113011744
0.104147148
-0.345593064
-0.163396164
-0.308463094
0.101666532
0.559912872
0.562406736
