0.489511126
-0.193916692
0.582971476
0.009450334
0.012600126
0.09828357
-0.424296858
-0.323514556
0.226207734
0.67507743
-0.371094782
-0.615895264
-0.084716986
0.127929694
0.1986308
-0.420094102
0.405342112
0.153892138
0.25204868
-0.27741574
-0.58315324
0.328006634
0.00216696
-0.167771822
0.125632768
-0.133500866
-0.045038029
-0.11024265
-0.189672276
0.281910706
-0.147206114
0.104950903
0.067596817
-0.091892815
0.027923392
-0.016107942
-0.1035099
