3.83226188
5.3003366
4.31424134
4.60768346
3.557417832
5.19565776
4.09917066
3.9113037
4.40187362
3.434394016
3.44134194
2.69015042
3.532048659
3.039316365
3.0580154
3.610460459
3.55149682
3.96017012
4.49919472
4.1188757
4.6521581
4.38361384
5.37010782
5.38805368
4.74707768
5.14673154
4.56098058
4.66174232
4.30273732
3.66527092
3.18589466
1.99254034
0.643893418
-0.256817985
-1.327070946
-2.2575022
-2.4402742
