x,y,z,Event Time,Event Type,Frame,x_modified,y_modified,z_modified
0.670384827,1.698741794,-0.8487432,584.6499321,-1,5871,0.167596207,0.424685448,-0.2121858
-1.70793396,0.462883502,0.067120418,584.7499321,-1,5872,-0.42698349,0.115720876,0.016780104
-0.499656258,-0.917164207,-1.540496469,584.8499321,-1,5873,-0.124914064,-0.229291052,-0.385124117
0.809602203,0.512255192,0.523283362,584.9499321,-1,5874,0.202400551,0.128063798,0.130820841
0.740084114,1.57055819,2.691465139,585.0499321,-1,5875,0.185021029,0.392639548,0.672866285
0.806872787,0.176994026,-0.052910049,585.1499321,-1,5876,0.201718197,0.044248506,-0.013227512
-1.074579773,-0.793644249,1.238726616,585.2499322,-1,5877,-0.268644943,-0.198411062,0.309681654
0.107963982,1.287527442,1.606536508,585.3499322,-1,5878,0.026990995,0.32188186,0.401634127
2.12096447,-1.272119761,-2.383925438,585.4499322,-1,5879,0.530241117,-0.31802994,-0.595981359
-0.26208168,0.671675682,1.773903251,585.5499322,-1,5880,-0.06552042,0.167918921,0.443475813
-0.62577301,1.083442211,2.798951149,585.7499322,-1,5882,-0.156443253,0.270860553,0.699737787
1.003524246,0.558008194,-1.92618072,585.8499322,-1,5883,0.250881062,0.139502048,-0.48154518
-0.375250397,-1.299584746,-1.00134635,585.9499322,-1,5884,-0.093812599,-0.324896187,-0.250336587
-3.176034985,-1.363987207,-1.040358186,586.0499322,-1,5885,-0.794008746,-0.340996802,-0.260089546
0.14954895,-0.725650847,-1.539133072,586.1499322,-1,5886,0.037387238,-0.181412712,-0.384783268
2.015620651,0.91234684,1.023948193,586.2499322,-1,5887,0.503905163,0.22808671,0.255987048
1.146825256,0.740921378,-1.582895875,586.3499322,-1,5888,0.286706314,0.185230345,-0.395723969
-1.038835106,-1.805084944,-0.623380065,586.4499322,-1,5889,-0.259708776,-0.451271236,-0.155845016
-1.874164162,-1.68511188,-1.728880644,586.5499322,-1,5890,-0.46854104,-0.42127797,-0.432220161
2.275384369,-0.312803656,-1.980286241,586.6499322,-1,5891,0.568846092,-0.078200914,-0.49507156
-1.97812849,0.060932539,-0.158906907,586.7499322,-1,5892,-0.494532123,0.015233135,-0.039726727
1.299617233,-1.855899811,0.975556016,586.8499322,-1,5893,0.324904308,-0.463974953,0.243889004
-3.627420006,1.196680307,-0.70729655,586.9499322,-1,5894,-0.906855001,0.299170077,-0.176824138
-1.244871674,1.715499282,-1.925979733,587.0499322,-1,5895,-0.311217918,0.42887482,-0.481494933
1.058078232,-0.148789212,0.105343841,587.1499322,-1,5896,0.264519558,-0.037197303,0.02633596
-0.979091225,-0.353723764,-1.191584706,587.2499322,-1,5897,-0.244772806,-0.088430941,-0.297896177
0.657055321,0.254004419,1.802249908,587.3499322,-1,5898,0.16426383,0.063501105,0.450562477
1.652345123,0.536650538,0.519021571,587.4499322,-1,5899,0.413086281,0.134162635,0.129755393
-1.216851768,-1.446815968,-0.484808743,587.5499322,-1,5900,-0.304212942,-0.361703992,-0.121202186
0.250591698,0.171710849,1.905756831,587.6499322,-1,5901,0.062647924,0.042927712,0.476439208
0.713379326,-0.716274083,7.67521143,587.7499322,-1,5902,0.178344831,-0.179068521,1.918802857
-2.583160934,-1.013217688,2.148272038,587.8499322,-1,5903,-0.645790234,-0.253304422,0.537068009
-0.660662231,0.109161302,1.922124505,587.9499322,-1,5904,-0.165165558,0.027290326,0.480531126
0.813128891,3.404865503,1.818458796,588.0499322,-1,5905,0.203282223,0.851216376,0.454614699
-0.367307243,-0.405390739,1.655054212,588.1499322,-1,5906,-0.091826811,-0.101347685,0.413763553
-1.105767784,-0.161824942,5.13750267,588.2499322,-1,5907,-0.276441946,-0.040456235,1.284375668
-0.287165222,0.501556993,3.818831205,588.3499322,-1,5908,-0.071791306,0.125389248,0.954707801
2.053679886,-0.061368708,2.269625664,588.4499322,-1,5909,0.513419971,-0.015342177,0.567406416
-0.368227539,1.083348632,1.256164312,588.5499322,-1,5910,-0.092056885,0.270837158,0.314041078
-2.117638645,-0.476654351,5.378246307,588.6499322,-1,5911,-0.529409661,-0.119163588,1.344561577
0.304182472,1.540739298,2.529557467,588.7499322,-1,5912,0.076045618,0.385184824,0.632389367
0.241151276,-1.341464043,1.377870798,588.8499322,-1,5913,0.060287819,-0.335366011,0.3444677
-0.037576256,-0.899191856,5.383327484,588.9499322,-1,5914,-0.009394064,-0.224797964,1.345831871
0.10230011,-0.95636344,4.419004917,589.0499322,-1,5915,0.025575027,-0.23909086,1.104751229
0.555422249,-1.713219762,2.856813192,589.1499322,-1,5916,0.138855562,-0.42830494,0.714203298
-0.15910965,0.720566154,1.299396396,589.2499322,-1,5917,-0.039777412,0.180141538,0.324849099
-1.822477875,3.83119607,-0.656489432,589.3499322,-1,5918,-0.455619469,0.957799017,-0.164122358
-1.076789436,-2.756510496,-1.333932281,589.4499322,-1,5919,-0.269197359,-0.689127624,-0.33348307
0.845568123,1.387135029,-1.886690974,589.5499322,-1,5920,0.211392031,0.346783757,-0.471672744
1.420694771,0.084615365,1.844171762,589.6499322,-1,5921,0.355173693,0.021153841,0.461042941
0.360160294,0.916895509,5.623176575,589.7499322,-1,5922,0.090040073,0.229223877,1.405794144
0.460275116,1.911436915,6.861717701,589.8499322,-1,5923,0.115068779,0.477859229,1.715429425
1.242540779,-0.506919026,7.031418324,589.9499322,-1,5924,0.310635195,-0.126729757,1.757854581
-1.003780899,-1.2097224,6.166894913,590.0499322,-1,5925,-0.250945225,-0.3024306,1.541723728
-1.808680115,0.009882304,4.242871761,590.1499322,-1,5926,-0.452170029,0.002470576,1.06071794
1.116390648,0.537693858,3.617263317,590.2499322,-1,5927,0.279097662,0.134423465,0.904315829
2.285596313,0.662851274,1.861967802,590.3499322,-1,5928,0.571399078,0.165712819,0.465491951
2.881186905,-1.0426898,3.992206812,590.4499322,-1,5929,0.720296726,-0.26067245,0.998051703
0.263405266,1.072449803,5.605818272,590.5499322,-1,5930,0.065851316,0.268112451,1.401454568
2.061711731,0.410549492,3.992105007,590.6499322,-1,5931,0.515427933,0.102637373,0.998026252
2.001563492,0.554308295,5.084217072,590.7499322,-1,5932,0.500390873,0.138577074,1.271054268
-0.255944786,-0.461098194,2.984940529,590.8499322,-1,5933,-0.063986197,-0.115274549,0.746235132
0.19629425,-0.431286901,5.767087936,590.9499322,-1,5934,0.049073563,-0.107821725,1.441771984
0.580153885,0.383089095,3.991632462,591.0499322,-1,5935,0.145038471,0.095772274,0.997908115
0.45838398,0.347681344,4.037527084,591.1499322,-1,5936,0.114595995,0.086920336,1.009381771
0.220875206,0.756108522,-0.502225399,591.2499322,-1,5937,0.055218801,0.189027131,-0.12555635
0.398280563,-0.782840371,-1.761079311,591.3499322,-1,5938,0.099570141,-0.195710093,-0.440269828
-0.840303001,0.77028656,-1.964043021,591.4499322,-1,5939,-0.21007575,0.19257164,-0.491010755
0.579899254,-1.015588999,-0.197662428,591.5499322,-1,5940,0.144974813,-0.25389725,-0.049415607
1.008554878,-2.877236605,0.667048514,591.6499322,-1,5941,0.25213872,-0.719309151,0.166762128
-1.022216377,-0.282429218,4.884931564,591.7499322,-1,5942,-0.255554094,-0.070607305,1.221232891
-0.822018204,0.370706022,5.695286274,591.8499322,-1,5943,-0.205504551,0.092676505,1.423821568
0.071098747,-0.036181867,3.823409081,591.9499323,-1,5944,0.017774687,-0.009045467,0.95585227
-2.127296982,0.337647945,3.551743507,592.0499323,-1,5945,-0.531824245,0.084411986,0.887935877
-0.112927017,-1.424322605,2.724995375,592.1499323,-1,5946,-0.028231754,-0.356080651,0.681248844
-0.870181618,1.380622149,4.672773838,592.2499323,-1,5947,-0.217545404,0.345155537,1.16819346
0.846787872,0.737885892,1.472014904,592.3499323,-1,5948,0.211696968,0.184471473,0.368003726
1.292229118,-2.541626215,3.628780127,592.4499323,-1,5949,0.32305728,-0.635406554,0.907195032
0.36562294,2.710846901,2.890221596,592.5499323,-1,5950,0.091405735,0.677711725,0.722555399
-3.952541409,1.588557482,1.143223763,592.6499323,-1,5951,-0.988135352,0.39713937,0.285805941
-0.359800873,-1.286283612,3.973879814,592.7499323,-1,5952,-0.089950218,-0.321570903,0.993469954
1.386931839,-1.591258645,1.067361116,592.8499323,-1,5953,0.34673296,-0.397814661,0.266840279
-0.59368187,0.206783861,2.690572262,592.9499323,-1,5954,-0.148420467,0.051695965,0.672643065
-0.545308647,2.501652241,0.752177954,593.0499323,-1,5955,-0.136327162,0.62541306,0.188044488
1.023442688,-2.101658106,2.879139423,593.1499323,-1,5956,0.255860672,-0.525414526,0.719784856
-0.643201408,0.977479577,-1.426323652,593.2499323,-1,5957,-0.160800352,0.244369894,-0.356580913
-0.314992485,-0.675147176,-1.431497335,593.3499323,-1,5958,-0.078748121,-0.168786794,-0.357874334
-1.289520798,0.60084492,-0.407461107,593.4499323,-1,5959,-0.322380199,0.15021123,-0.101865277
-0.398777542,0.736512005,-1.164469838,593.5499323,-1,5960,-0.099694386,0.184128001,-0.29111746
1.753426971,-0.740410388,2.37894249,593.6499323,-1,5961,0.438356743,-0.185102597,0.594735622
-1.331364212,-0.535504103,1.937427163,593.7499323,-1,5962,-0.332841053,-0.133876026,0.484356791
0.181596222,0.249004409,1.320273876,593.8499323,-1,5963,0.045399055,0.062251102,0.330068469
-0.47871357,-0.575650454,2.987099409,593.9499323,-1,5964,-0.119678392,-0.143912613,0.746774852
0.254846992,-2.205738068,3.141999006,594.0499323,-1,5965,0.063711748,-0.551434517,0.785499752
1.638874474,-0.656024039,4.095350266,594.1499323,-1,5966,0.409718618,-0.16400601,1.023837566
2.151755753,0.463548571,4.147215843,594.2499323,-1,5967,0.537938938,0.115887143,1.036803961
0.503986778,-0.739399016,4.323769569,594.3499323,-1,5968,0.125996695,-0.184849754,1.080942392
-0.591707764,1.570120931,2.20606637,594.4499323,-1,5969,-0.147926941,0.392530233,0.551516593
-1.144140778,-0.633119524,2.711680412,594.5499323,-1,5970,-0.286035194,-0.158279881,0.677920103
-0.234732208,0.436013997,2.454096794,594.6499323,-1,5971,-0.058683052,0.109003499,0.613524199
-1.393725929,0.630242586,1.748149872,594.7499323,-1,5972,-0.348431482,0.157560647,0.437037468
-1.237037239,-2.220357418,2.698425531,594.8499323,-1,5973,-0.30925931,-0.555089355,0.674606383
-0.642186699,-1.606011271,3.20773387,594.9499323,-1,5974,-0.160546675,-0.401502818,0.801933467
-0.158501205,1.483864069,3.03185463,595.0499323,4,5975,-0.039625301,0.370966017,0.757963657
0.455035629,1.025725484,3.861828089,595.1499323,4,5976,0.113758907,0.256431371,0.965457022
0.704706612,-0.043239813,-1.949968576,595.2499323,4,5977,0.176176653,-0.010809953,-0.487492144
0.239307823,1.508376122,-8.849549294,595.3499323,4,5978,0.059826956,0.37709403,-2.212387323
-2.019551811,0.476670414,-12.59405231,595.4499323,4,5979,-0.504887953,0.119167604,-3.148513079
0.615851822,0.478953481,-12.20764351,595.5499323,4,5980,0.153962955,0.11973837,-3.051910877
1.300936165,1.371289134,-13.62737179,595.6499323,4,5981,0.325234041,0.342822284,-3.406842947
1.761071625,-0.434568316,-9.636536598,595.7499323,4,5982,0.440267906,-0.108642079,-2.40913415
0.14039463,1.786211491,-7.354535103,595.8499323,4,5983,0.035098658,0.446552873,-1.838633776
-2.476566849,1.334242582,-8.716104507,595.9499323,4,5984,-0.619141712,0.333560646,-2.179026127
2.572102013,-2.063243628,-8.795312881,596.0499323,4,5985,0.643025503,-0.515810907,-2.19882822
0.012808266,-0.601112545,-11.20614815,596.1499323,4,5986,0.003202066,-0.150278136,-2.801537037
0.584796371,-1.441065907,-15.24243355,596.2499323,4,5987,0.146199093,-0.360266477,-3.810608387
-1.834914742,1.024141073,-13.61420059,596.3499323,4,5988,-0.458728685,0.256035268,-3.403550148
0.084949913,0.603903711,-13.66565514,596.4499323,4,5989,0.021237478,0.150975928,-3.416413784
-2.608825264,-0.202754498,-13.53517342,596.5499323,4,5990,-0.652206316,-0.050688624,-3.383793354
0.188837471,-1.133212924,-13.75245476,596.6499323,4,5991,0.047209368,-0.283303231,-3.438113689
-0.190125046,-0.306912184,-12.09938526,596.7499323,4,5992,-0.047531261,-0.076728046,-3.024846315
-0.110570488,1.911154985,-10.26865196,596.8499323,4,5993,-0.027642622,0.477788746,-2.567162991
-0.396547852,-1.116469622,-14.22307873,596.9499323,4,5994,-0.099136963,-0.279117405,-3.555769682
1.414553108,0.004643466,-12.48603153,597.0499323,4,5995,0.353638277,0.001160867,-3.121507883
-0.291153488,1.451858997,-11.05959702,597.1499323,4,5996,-0.072788372,0.362964749,-2.764899254
0.867332878,-0.176027745,-0.727396369,597.2499323,4,5997,0.21683322,-0.044006936,-0.181849092
2.565841141,0.500202835,0.29777953,597.3499323,4,5998,0.641460285,0.125050709,0.074444883
-0.622656403,0.693681538,-1.24104321,597.4499323,4,5999,-0.155664101,0.173420385,-0.310260803
-0.034995613,0.157668278,-0.721887827,597.5499323,4,6000,-0.008748903,0.039417069,-0.180471957
0.437374535,-0.820905626,0.03214927,597.6499323,-1,6001,0.109343634,-0.205226406,0.008037318
-0.811455307,-1.218956709,0.436259925,597.7499323,-1,6002,-0.202863827,-0.304739177,0.109064981
1.128782692,0.363375783,-1.515796423,597.8499323,-1,6003,0.282195673,0.090843946,-0.378949106
0.027857246,0.551551402,0.088930912,597.9499323,-1,6004,0.006964312,0.13788785,0.022232728
-1.283378181,-0.560188949,-0.722335994,598.0499323,-1,6005,-0.320844545,-0.140047237,-0.180583999
-2.453621445,-0.417894721,-1.071098804,598.1499323,-1,6006,-0.613405361,-0.10447368,-0.267774701
1.685718956,1.12016964,1.276182532,598.2499323,-1,6007,0.421429739,0.28004241,0.319045633
-1.290545998,0.87184155,-0.71005702,598.3499323,-1,6008,-0.322636499,0.217960387,-0.177514255
0.792441788,2.48416853,1.25663662,598.4499323,-1,6009,0.198110447,0.621042132,0.314159155
-0.353526649,0.538782954,1.868929863,598.5499323,-1,6010,-0.088381662,0.134695739,0.467232466
-0.652209816,-0.127924398,2.110479593,598.6499324,-1,6011,-0.163052454,-0.031981099,0.527619898
-1.119077263,-0.035782587,0.297599882,598.7499324,-1,6012,-0.279769316,-0.008945647,0.07439997
-0.05709034,-0.442457795,1.2430439,598.8499324,-1,6013,-0.014272585,-0.110614449,0.310760975
-1.571375427,0.548110485,-1.252622128,598.9499324,-1,6014,-0.392843857,0.137027621,-0.313155532
1.493972244,-1.529616356,-0.458655506,599.0499324,-1,6015,0.373493061,-0.382404089,-0.114663877
0.369587364,0.445759803,-1.393977761,599.1499324,-1,6016,0.092396841,0.111439951,-0.34849444
-0.236354408,-1.5295223,1.403592587,599.2499324,-1,6017,-0.059088602,-0.382380575,0.350898147
0.671750488,0.800767183,1.526658058,599.3499324,-1,6018,0.167937622,0.200191796,0.381664515
-1.011076508,-0.11496792,-3.275105238,599.4499324,-1,6019,-0.252769127,-0.02874198,-0.818776309
2.278019371,-1.986620188,-1.590325594,599.5499324,-1,6020,0.569504843,-0.496655047,-0.397581398
-0.494251785,-1.900951743,-0.210920632,599.6499324,-1,6021,-0.123562946,-0.475237936,-0.052730158
-1.277409134,-0.512401402,-0.967084169,599.7499324,-1,6022,-0.319352283,-0.12810035,-0.241771042
0.44758934,2.160427332,-0.719744384,599.8499324,-1,6023,0.111897335,0.540106833,-0.179936096
-2.589519081,1.591374874,-2.442573071,599.9499324,-1,6024,-0.64737977,0.397843719,-0.610643268
0.310644569,-0.920897305,0.484358519,600.0499324,-1,6025,0.077661142,-0.230224326,0.12108963
0.914750519,-0.731441855,1.280082583,600.1499324,-1,6026,0.22868763,-0.182860464,0.320020646
0.870860519,1.141358376,3.721681833,600.2499324,-1,6027,0.21771513,0.285339594,0.930420458
-2.443750439,0.06368193,2.312621117,600.3499324,-1,6028,-0.61093761,0.015920483,0.578155279
-1.983513412,2.545010567,2.856753588,600.4499324,-1,6029,-0.495878353,0.636252642,0.714188397
0.223778191,2.057884216,-0.100976415,600.5499324,-1,6030,0.055944548,0.514471054,-0.025244104
0.531440201,0.494466007,2.589240074,600.6499324,-1,6031,0.13286005,0.123616502,0.647310019
1.598138275,-0.365605086,-1.565525174,600.7499324,-1,6032,0.399534569,-0.091401272,-0.391381294
-0.766171989,-1.82478714,-0.931963682,600.8499324,-1,6033,-0.191542997,-0.456196785,-0.232990921
2.572964134,1.051528811,1.117735624,600.9499324,-1,6034,0.643241034,0.262882203,0.279433906
-3.447042999,-0.435937613,-2.452082634,601.0499324,-1,6035,-0.86176075,-0.108984403,-0.613020658
-0.306846199,-1.107680082,0.707214594,601.1499324,-1,6036,-0.07671155,-0.276920021,0.176803648
-1.088796196,1.33948338,0.4793531,601.2499324,-1,6037,-0.272199049,0.334870845,0.119838275
-0.883191643,0.303130001,-1.301785111,601.3499324,-1,6038,-0.220797911,0.0757825,-0.325446278
0.756781998,1.10716176,-1.338193893,601.4499324,-1,6039,0.189195499,0.27679044,-0.334548473
-0.17348629,-0.42452547,-2.761137009,601.5499324,-1,6040,-0.043371572,-0.106131367,-0.690284252
2.022291603,-0.099747531,-1.033918142,601.6499324,-1,6041,0.505572901,-0.024936883,-0.258479536
-0.559142647,-0.214765325,-0.355494946,601.7499324,-1,6042,-0.139785662,-0.053691331,-0.088873737
0.072326126,2.059356689,-0.70919317,601.8499324,-1,6043,0.018081532,0.514839172,-0.177298293
1.488506737,0.059816405,-0.368128181,601.9499324,-1,6044,0.372126684,0.014954101,-0.092032045
0.732791367,-1.258499384,-0.093300477,602.0499324,-1,6045,0.183197842,-0.314624846,-0.023325119
-2.662261543,-0.618941605,-0.617390275,602.1499324,-1,6046,-0.665565386,-0.154735401,-0.154347569
-0.328670082,0.724865317,-0.778334618,602.2499324,-1,6047,-0.082167521,0.181216329,-0.194583654
1.12064785,-0.137367472,0.526449144,602.3499324,-1,6048,0.280161963,-0.034341868,0.131612286
1.764088097,-0.172197476,-0.828134835,602.4499324,-1,6049,0.441022024,-0.043049369,-0.207033709
-0.281162796,-0.833494663,1.275174141,602.5499324,-1,6050,-0.070290699,-0.208373666,0.318793535
-1.663960037,-0.647168398,-1.01837635,602.6499324,-1,6051,-0.415990009,-0.161792099,-0.254594088
-1.940620003,-2.718760729,3.894530296,602.7499324,-1,6052,-0.485155001,-0.679690182,0.973632574
0.583389702,-0.250127971,0.431127161,602.8499324,-1,6053,0.145847425,-0.062531993,0.10778179
0.32819313,1.237970114,2.544810057,602.9499324,-1,6054,0.082048283,0.309492528,0.636202514
0.916224899,1.338411212,0.953731894,603.0499324,-1,6055,0.229056225,0.334602803,0.238432974
1.745011749,-1.928412914,0.155347228,603.1499324,-1,6056,0.436252937,-0.482103229,0.038836807
0.996650162,0.536779821,0.077486098,603.2499324,-1,6057,0.24916254,0.134194955,0.019371524
0.593626442,-2.561539412,2.119431019,603.3499324,-1,6058,0.14840661,-0.640384853,0.529857755
0.591784897,0.482398719,0.059222877,603.4499324,-1,6059,0.147946224,0.12059968,0.014805719
-2.748817024,0.865585685,0.01724422,603.5499324,-1,6060,-0.687204256,0.216396421,0.004311055
-0.318943558,-1.151511788,-0.567044795,603.6499324,-1,6061,-0.079735889,-0.287877947,-0.141761199
-1.436937866,-2.35202527,0.979125738,603.7499324,-1,6062,-0.359234467,-0.588006318,0.244781435
-0.381632385,1.286676407,-0.203659162,603.8499324,-1,6063,-0.095408096,0.321669102,-0.05091479
2.428232613,-0.133588269,0.797755182,603.9499324,-1,6064,0.607058153,-0.033397067,0.199438795
-1.496917305,0.644277394,0.43837744,604.0499324,-1,6065,-0.374229326,0.161069348,0.10959436
-0.709887085,3.108366251,2.434634686,604.1499324,-1,6066,-0.177471771,0.777091563,0.608658671
-0.060227928,-0.039871253,1.70173347,604.2499324,-1,6067,-0.015056982,-0.009967813,0.425433367
1.220786514,0.313185185,4.078208447,604.3499324,-1,6068,0.305196629,0.078296296,1.019552112
-0.921603737,1.069902897,1.200212717,604.4499324,-1,6069,-0.230400934,0.267475724,0.300053179
0.722109261,-0.680981159,3.082402706,604.5499324,-1,6070,0.180527315,-0.17024529,0.770600677
0.742152634,-1.195057154,0.707175612,604.6499324,-1,6071,0.185538158,-0.298764288,0.176793903
0.255376282,-2.675330639,2.216403961,604.7499324,-1,6072,0.06384407,-0.66883266,0.55410099
2.875826302,2.368516207,2.246965647,604.8499324,-1,6073,0.718956575,0.592129052,0.561741412
-0.070224342,0.992806077,4.789085388,604.9499324,-1,6074,-0.017556086,0.248201519,1.197271347
1.305014076,1.071423054,1.461702704,605.0499324,-1,6075,0.326253519,0.267855763,0.365425676
0.6318993,0.716136873,3.231822252,605.1499324,-1,6076,0.157974825,0.179034218,0.807955563
0.302940788,0.554502904,3.534702778,605.2499324,-1,6077,0.075735197,0.138625726,0.883675694
1.040503922,-0.990182996,1.545302272,605.3499325,-1,6078,0.26012598,-0.247545749,0.386325568
0.140951576,0.596658885,0.774941444,605.4499325,-1,6079,0.035237894,0.149164721,0.193735361
-0.749523697,1.31570518,2.785762072,605.5499325,-1,6080,-0.187380924,0.328926295,0.696440518
-1.494878349,1.466115236,1.02510345,605.6499325,-1,6081,-0.373719587,0.366528809,0.256275862
0.184731903,-2.563224077,-1.561339021,605.7499325,-1,6082,0.046182976,-0.640806019,-0.390334755
-1.876653252,1.927741647,-0.042723648,605.8499325,-1,6083,-0.469163313,0.481935412,-0.010680912
-0.013370094,1.388045073,3.549174786,605.9499325,-1,6084,-0.003342524,0.347011268,0.887293696
1.279538574,0.895245671,-0.884614587,606.0499325,-1,6085,0.319884644,0.223811418,-0.221153647
-2.964230118,1.489615202,-2.300788879,606.1499325,-1,6086,-0.741057529,0.3724038,-0.57519722
-1.371659813,0.56946665,2.903968096,606.2499325,-1,6087,-0.342914953,0.142366663,0.725992024
0.878818932,-1.027723789,2.990719318,606.3499325,-1,6088,0.219704733,-0.256930947,0.74767983
-0.355490265,1.394693255,4.525461197,606.4499325,-1,6089,-0.088872566,0.348673314,1.131365299
1.47556633,-0.559316337,6.413160324,606.5499325,-1,6090,0.368891582,-0.139829084,1.603290081
-0.582434235,0.343876809,4.509131432,606.6499325,-1,6091,-0.145608559,0.085969202,1.127282858
0.380991402,1.737117052,4.514689922,606.7499325,-1,6092,0.09524785,0.434279263,1.128672481
1.916360321,2.384603739,6.42510128,606.8499325,-1,6093,0.47909008,0.596150935,1.60627532
1.352493706,1.290223241,4.628072739,606.9499325,-1,6094,0.338123426,0.32255581,1.157018185
0.395717087,-0.460083365,5.22222662,607.0499325,-1,6095,0.098929272,-0.115020841,1.305556655
-0.913409767,-2.293992519,4.576393127,607.1499325,-1,6096,-0.228352442,-0.57349813,1.144098282
-0.643623886,0.120466135,4.573124409,607.2499325,-1,6097,-0.160905972,0.030116534,1.143281102
0.19992775,-1.995061755,4.131932259,607.3499325,-1,6098,0.049981937,-0.498765439,1.032983065
-2.392962036,0.3580589,6.132769108,607.4499325,-1,6099,-0.598240509,0.089514725,1.533192277
0.374457779,-2.026154041,3.684238434,607.5499325,-1,6100,0.093614445,-0.50653851,0.921059608
2.437052193,-0.306780219,-0.734483242,607.6499325,-1,6101,0.609263048,-0.076695055,-0.183620811
0.039869728,0.066188104,-1.378014445,607.7499325,-1,6102,0.009967432,0.016547026,-0.344503611
-0.126103935,0.29919681,0.907380104,607.8499325,-1,6103,-0.031525984,0.074799202,0.226845026
-0.556407509,1.720994115,-0.66955018,607.9499325,-1,6104,-0.139101877,0.430248529,-0.167387545
0.527623596,1.788244128,2.013638258,608.0499325,-1,6105,0.131905899,0.447061032,0.503409564
0.747467461,-0.053092591,1.569031,608.1499325,-1,6106,0.186866865,-0.013273148,0.39225775
1.803321304,-0.9865188,5.034448147,608.2499325,-1,6107,0.450830326,-0.2466297,1.258612037
0.716349068,-0.175475806,4.443230629,608.3499325,-1,6108,0.179087267,-0.043868951,1.110807657
-0.198913155,0.674602687,4.791913986,608.4499325,-1,6109,-0.049728289,0.168650672,1.197978497
-1.773700294,0.472019553,3.31957531,608.5499325,-1,6110,-0.443425074,0.118004888,0.829893827
-0.092326698,0.561591923,2.890258789,608.6499325,-1,6111,-0.023081675,0.140397981,0.722564697
-0.528453407,1.09018755,4.50279665,608.7499325,-1,6112,-0.132113352,0.272546887,1.125699162
0.657439651,-0.833207965,1.582070112,608.8499325,-1,6113,0.164359913,-0.208301991,0.395517528
0.262901726,-0.776678503,2.570401669,608.9499325,-1,6114,0.065725431,-0.194169626,0.642600417
1.224450531,-3.059532166,3.671121836,609.0499325,-1,6115,0.306112633,-0.764883041,0.917780459
-0.635901031,1.509821653,3.197505951,609.1499325,-1,6116,-0.158975258,0.377455413,0.799376488
1.400981369,-1.277771473,1.260256529,609.2499325,-1,6117,0.350245342,-0.319442868,0.315064132
0.783862534,1.155737877,5.735693932,609.3499325,-1,6118,0.195965633,0.288934469,1.433923483
1.713789406,0.319539458,2.979052305,609.4499325,-1,6119,0.428447351,0.079884864,0.744763076
-0.280204353,0.184783816,3.796200275,609.5499325,-1,6120,-0.070051088,0.046195954,0.949050069
0.876555862,-0.506531239,2.599591494,609.6499325,-1,6121,0.219138966,-0.12663281,0.649897873
-1.806249199,-0.1314248,0.585251212,609.7499325,-1,6122,-0.4515623,-0.0328562,0.146312803
1.48769516,0.228178546,-0.628484845,609.8499325,-1,6123,0.37192379,0.057044636,-0.157121211
-0.20632225,1.105649471,1.198349357,609.9499325,-1,6124,-0.051580563,0.276412368,0.299587339
0.876536789,-0.671245158,-0.889810085,610.0499325,-1,6125,0.219134197,-0.167811289,-0.222452521
-1.202032623,0.888990998,1.689484954,610.1499325,-1,6126,-0.300508156,0.22224775,0.422371238
1.052823486,-1.626092315,2.418836594,610.2499325,-1,6127,0.263205872,-0.406523079,0.604709148
1.234336319,-1.162875533,3.659404516,610.3499325,-1,6128,0.30858408,-0.290718883,0.914851129
-0.669303474,1.908003449,3.46351409,610.4499325,-1,6129,-0.167325869,0.477000862,0.865878522
1.178611221,-0.813006938,5.021988392,610.5499325,-1,6130,0.294652805,-0.203251734,1.255497098
-0.783711014,1.283227801,4.835741997,610.6499325,-1,6131,-0.195927753,0.32080695,1.208935499
0.146268311,1.964469671,1.250661969,610.7499325,-1,6132,0.036567078,0.491117418,0.312665492
0.807664337,0.177359208,2.402953863,610.8499325,-1,6133,0.201916084,0.044339802,0.600738466
2.501384201,-1.252712369,4.070663452,610.9499325,-1,6134,0.62534605,-0.313178092,1.017665863
-1.01157814,0.473353267,3.183710814,611.0499325,-1,6135,-0.252894535,0.118338317,0.795927703
1.639895859,1.327716827,3.158443928,611.1499325,-1,6136,0.409973965,0.331929207,0.789610982
-1.157471237,-0.93525064,2.490097761,611.2499325,-1,6137,-0.289367809,-0.23381266,0.62252444
0.741646233,1.136573434,0.653755903,611.3499325,-1,6138,0.185411558,0.284143358,0.163438976
-0.948119698,3.30298543,2.272600651,611.4499325,-1,6139,-0.237029924,0.825746357,0.568150163
-3.273047981,0.314086288,5.978001595,611.5499325,-1,6140,-0.818261995,0.078521572,1.494500399
-1.904202995,1.789097071,3.277951002,611.6499325,-1,6141,-0.476050749,0.447274268,0.819487751
0.080990257,0.715579212,-1.646288037,611.7499325,-1,6142,0.020247564,0.178894803,-0.411572009
-1.911103783,0.228456378,-1.260730624,611.8499325,-1,6143,-0.477775946,0.057114094,-0.315182656
1.604876938,0.583092988,-1.293739915,611.9499325,-1,6144,0.401219234,0.145773247,-0.323434979
-3.196478424,-0.747093737,1.715526104,612.0499326,-1,6145,-0.799119606,-0.186773434,0.428881526
-1.115318832,2.932984352,0.909646034,612.1499326,-1,6146,-0.278829708,0.733246088,0.227411509
-2.76207119,1.787321448,0.744217634,612.2499326,-1,6147,-0.690517797,0.446830362,0.186054409
-2.588050423,-1.234360337,1.360423565,612.3499326,-1,6148,-0.647012606,-0.308590084,0.340105891
0.308638992,-0.078104772,1.714545131,612.4499326,-1,6149,0.077159748,-0.019526193,0.428636283
1.078023376,-1.062905312,2.086283207,612.5499326,-1,6150,0.269505844,-0.265726328,0.521570802
-0.549979744,-0.551940441,3.049680471,612.6499326,-1,6151,-0.137494936,-0.13798511,0.762420118
-0.303302345,1.349556327,5.014605522,612.7499326,-1,6152,-0.075825586,0.337389082,1.253651381
4.405769768,0.237364843,3.669764996,612.8499326,-1,6153,1.101442442,0.059341211,0.917441249
3.423910561,0.68256551,-0.794344008,612.9499326,-1,6154,0.85597764,0.170641378,-0.198586002
-2.368855534,-0.152848944,0.012668371,613.0499326,-1,6155,-0.592213883,-0.038212236,0.003167093
-2.101183472,2.676670074,2.568184137,613.1499326,-1,6156,-0.525295868,0.669167519,0.642046034
-3.3030439,-6.96265316,-99.9,613.2499326,-1,6157,-0.825760975,-1.74066329,-24.975
-9.718747792,-3.037959099,-26.58446503,613.3499326,-1,6158,-2.429686948,-0.759489775,-6.646116257
