x,y,z,Event Time,Event Type,Frame,x_modified,y_modified,z_modified
-0.280516205,-0.833407223,1.158760548,431.0350883,-1,4422,-0.070129051,-0.208351806,0.289690137
-1.662935791,-0.646121681,-1.248808622,431.1350883,-1,4423,-0.415733948,-0.16153042,-0.312202156
-1.939776955,-2.718439817,3.439894438,431.2350883,-1,4424,-0.484944239,-0.679609954,0.859973609
0.58337635,-0.240780607,-0.091246724,431.3350883,-1,4425,0.145844088,-0.060195152,-0.022811681
0.327274742,1.23174262,2.027060747,431.4350883,-1,4426,0.081818686,0.307935655,0.506765187
0.916787567,1.328282595,0.341926336,431.5350883,-1,4427,0.229196892,0.332070649,0.085481584
1.751410904,-1.931552529,-0.518453717,431.6350883,-1,4428,0.437852726,-0.482888132,-0.129613429
1.009658279,0.509668648,-0.678981483,431.7350883,-1,4429,0.25241457,0.127417162,-0.169745371
0.362700882,-2.331040382,1.236593127,431.8350883,-1,4430,0.09067522,-0.582760096,0.309148282
0.794146004,0.333532065,-0.830067873,431.9350883,-1,4431,0.198536501,0.083383016,-0.207516968
-0.23467308,-1.138495088,99.9,432.1350883,-1,4433,-0.05866827,-0.284623772,24.975
-1.514785347,-2.346572399,4.93678093,432.2350883,-1,4434,-0.378696337,-0.5866431,1.234195232
-0.379046974,1.289480925,-0.082496107,432.3350883,-1,4435,-0.094761744,0.322370231,-0.020624027
2.465884628,-0.145782083,0.815829873,432.4350883,-1,4436,0.616471157,-0.036445521,0.203957468
-1.544703064,0.657687664,0.343221933,432.5350883,-1,4437,-0.386175766,0.164421916,0.085805483
-0.687746582,3.101366282,1.571247339,432.6350883,-1,4438,-0.171936646,0.77534157,0.392811835
-0.052804527,-0.038344137,0.065253422,432.7350883,-1,4439,-0.013201132,-0.009586034,0.016313355
1.220623436,0.313326567,2.234475136,432.8350883,-1,4440,0.305155859,0.078331642,0.558618784
-0.922409592,1.070147872,-0.810560882,432.9350883,-1,4441,-0.230602398,0.267536968,-0.202640221
0.720931473,-0.68092972,1.005482793,433.0350883,-1,4442,0.180232868,-0.17023243,0.251370698
0.741789284,-1.195147991,-1.408231974,433.1350883,-1,4443,0.185447321,-0.298786998,-0.352057993
0.255717697,-2.675166845,0.022589879,433.2350883,-1,4444,0.063929424,-0.668791711,0.00564747
2.876635971,2.368446589,-0.028690284,433.3350883,-1,4445,0.719158993,0.592111647,-0.007172571
-0.069131432,0.992922425,2.435356379,433.4350883,-1,4446,-0.017282858,0.248230606,0.608839095
1.306413116,1.071312785,-0.979800165,433.5350883,-1,4447,0.326603279,0.267828196,-0.244950041
0.631146851,0.716701448,0.680787504,433.6350883,-1,4448,0.157786713,0.179175362,0.170196876
1.296945992,-0.561251938,1.307055831,433.7350883,-1,4449,0.324236498,-0.140312985,0.326763958
0.061517181,-0.146949947,-1.418387413,433.8350883,-1,4450,0.015379295,-0.036737487,-0.354596853
0.515052261,0.48913908,-2.188373804,433.9350883,-1,4451,0.128763065,0.12228477,-0.547093451
-1.097395477,1.159890056,0.061158996,434.0350883,-1,4452,-0.274348869,0.289972514,0.015289749
-1.682578621,1.37414217,0.408827484,434.1350883,-1,4453,-0.420644655,0.343535542,0.102206871
0.124069633,-2.616357327,-1.460716605,434.2350883,-1,4454,0.031017408,-0.654089332,-0.365179151
-1.876794395,1.897836566,0.038054094,434.3350883,-1,4455,-0.469198599,0.474459141,0.009513523
0.009922447,1.3707726,3.62616086,434.4350883,-1,4456,0.002480612,0.34269315,0.906540215
1.3097052,0.885901332,-0.793278575,434.5350883,-1,4457,0.3274263,0.221475333,-0.198319644
-2.931147156,1.483700037,-2.545637369,434.6350883,-1,4458,-0.732786789,0.370925009,-0.636409342
-1.334752617,0.566085637,0.455689877,434.7350883,-1,4459,-0.333688154,0.141521409,0.113922469
0.905096474,-1.029414058,-0.814326048,434.8350883,-1,4460,0.226274118,-0.257353514,-0.203581512
-0.363935051,1.393392444,0.081059903,434.9350883,-1,4461,-0.090983763,0.348348111,0.020264976
1.517417374,-0.559728205,1.645545721,435.0350883,-1,4462,0.379354343,-0.139932051,0.41138643
-0.5597015,0.343657911,-0.426686764,435.1350883,-1,4463,-0.139925375,0.085914478,-0.106671691
0.393396797,1.73687613,-0.483825415,435.2350883,5,4464,0.098349199,0.434219033,-0.120956354
1.928420486,-0.217433214,1.213604093,435.3350883,5,4465,0.482105122,-0.054358304,0.303401023
1.350759926,-2.011397123,-0.327456146,435.4350883,5,4466,0.337689981,-0.502849281,-0.081864037
0.369164886,-7.237027645,0.671184123,435.5350883,5,4467,0.092291222,-1.809256911,0.167796031
-0.961535034,-10.74620056,0.256809741,435.6350883,5,4468,-0.240383759,-2.68655014,0.064202435
-0.65941864,-6.092884064,0.427865922,435.7350883,5,4469,-0.16485466,-1.523221016,0.106966481
0.185455742,-8.215126038,-0.408142239,435.8350883,5,4470,0.046363935,-2.053781509,-0.10203556
-2.387500343,-2.069342613,1.460171342,435.9350883,5,4471,-0.596875086,-0.517335653,0.365042835
0.382973137,-2.901327848,-0.9598037,436.0350883,5,4472,0.095743284,-0.725331962,-0.239950925
2.423447075,-0.620009959,-2.880057812,436.1350884,5,4473,0.605861769,-0.15500249,-0.720014453
0.040143433,-0.046096727,-1.180984974,436.2350884,5,4474,0.010035858,-0.011524182,-0.295246243
-0.117938576,0.258110046,1.101421595,436.3350884,5,4475,-0.029484644,0.064527512,0.275355399
-0.551131783,1.70535624,-0.47040084,436.4350884,5,4476,-0.137782946,0.42633906,-0.11760021
0.530723991,1.782336593,2.211185217,436.5350884,5,4477,0.132680998,0.445584148,0.552796304
0.767982903,-0.056031972,-0.659296751,436.6350884,5,4478,0.191995726,-0.014007993,-0.164824188
1.810627403,-0.987328231,0.031822491,436.7350884,5,4479,0.452656851,-0.246832058,0.007955623
0.713776054,2.429346085,-0.369836569,436.8350884,5,4480,0.178444014,0.607336521,-0.092459142
-0.21076828,3.979415655,0.443591058,436.9350884,5,4481,-0.05269207,0.994853914,0.110897765
-1.807896194,7.251944065,-0.503824174,437.0350884,5,4482,-0.451974049,1.812986016,-0.125956044
-0.139100609,9.018163681,-0.646261573,437.1350884,5,4483,-0.034775152,2.25454092,-0.161565393
-0.560021935,7.296989441,1.177956104,437.2350884,5,4484,-0.140005484,1.82424736,0.294489026
0.643157425,5.379655838,-2.146518946,437.3350884,5,4485,0.160789356,1.34491396,-0.536629736
0.298561516,1.629412532,-1.294734836,437.4350884,5,4486,0.074640379,0.407353133,-0.323683709
1.170046272,-2.163708687,-0.150886148,437.5350884,5,4487,0.292511568,-0.540927172,-0.037721537
-0.605115471,1.825968146,-0.623105288,437.6350884,5,4488,-0.151278868,0.456492037,-0.155776322
1.409940186,-1.15692544,-2.513044357,437.7350884,-1,4489,0.352485046,-0.28923136,-0.628261089
0.788909378,1.200632691,2.007649899,437.8350884,-1,4490,0.197227345,0.300158173,0.501912475
1.718195381,0.336778253,-0.726800382,437.9350884,-1,4491,0.429548845,0.084194563,-0.181700096
-0.276014862,0.191931263,0.125299186,438.0350884,-1,4492,-0.069003716,0.047982816,0.031324796
0.869176331,-0.503842294,0.099790551,438.1350884,-1,4493,0.217294083,-0.125960574,0.024947638
-1.813540993,-0.130231202,0.780871391,438.2350884,-1,4494,-0.453385248,-0.0325578,0.195217848
1.493595543,0.229052484,-0.286580682,438.3350884,-1,4495,0.373398886,0.057263121,-0.07164517
-0.19961792,1.102102041,1.548075557,438.4350884,-1,4496,-0.04990448,0.27552551,0.387018889
0.875079575,-0.66607964,-0.541908741,438.5350884,-1,4497,0.218769894,-0.16651991,-0.135477185
-1.19025856,0.885531783,1.068136454,438.6350884,-1,4498,-0.29756464,0.221382946,0.267034113
1.063029709,-1.626199126,-0.832381845,438.7350884,-1,4499,0.265757427,-0.406549782,-0.208095461
1.231455269,-1.163291216,0.348523378,438.8350884,-1,4500,0.307863817,-0.290822804,0.087130845
-0.670705376,1.90843904,0.21650742,438.9350884,-1,4501,-0.167676344,0.47710976,0.054126855
1.179238739,-0.813472807,1.833151102,439.0350884,-1,4502,0.294809685,-0.203368202,0.458287776
-0.781852303,1.283248901,1.680387974,439.1350884,-1,4503,-0.195463076,0.320812225,0.420096993
0.148699226,1.964558959,-1.874804378,439.2350884,-1,4504,0.037174807,0.49113974,-0.468701094
0.81747097,0.170445487,-0.690656364,439.3350884,-1,4505,0.204367743,0.042611372,-0.172664091
2.490928116,-1.244258165,1.002767205,439.4350884,-1,4506,0.622732029,-0.311064541,0.250691801
-1.0029245,0.482086748,0.133399069,439.5350884,-1,4507,-0.250731125,0.120521687,0.033349767
1.720620575,1.251515269,0.17432034,439.6350884,-1,4508,0.430155144,0.312878817,0.043580085
-1.267507133,-0.814033151,-0.550833106,439.7350884,-1,4509,-0.316876783,-0.203508288,-0.137708277
0.734146538,1.048060656,-2.320386887,439.8350884,-1,4510,0.183536634,0.262015164,-0.580096722
-0.908147392,3.274761915,-0.675793886,439.9350884,-1,4511,-0.227036848,0.818690479,-0.168948472
-3.262344894,0.305293173,3.039963961,440.0350884,-1,4512,-0.815586224,0.076323293,0.75999099
-1.906161842,1.781410575,0.831155181,440.1350884,-1,4513,-0.476540461,0.445352644,0.207788795
0.070444527,0.710145533,-1.631847978,440.2350884,-1,4514,0.017611132,0.177536383,-0.407961994
-1.907317696,0.22454831,-0.791272938,440.3350884,-1,4515,-0.476829424,0.056137078,-0.197818235
1.608953896,0.581214547,-0.817858994,440.4350884,-1,4516,0.402238474,0.145303637,-0.204464749
-3.193965492,-0.748024642,2.190937757,440.5350884,-1,4517,-0.798491373,-0.187006161,0.547734439
-1.113097725,2.932195187,1.30401814,440.6350884,-1,4518,-0.278274431,0.733048797,0.326004535
-2.755871353,1.787327409,0.186050862,440.7350884,-1,4519,-0.688967838,0.446831852,0.046512716
-2.584819374,-1.234923601,-0.174681604,440.8350884,-1,4520,-0.646204844,-0.3087309,-0.043670401
0.309149208,-0.077865504,-0.383579999,440.9350884,-1,4521,0.077287302,-0.019466376,-0.095895
1.078128281,-1.062839627,-0.320734262,441.0350884,-1,4522,0.26953207,-0.265709907,-0.080183566
-0.549535332,-0.552561224,0.466641635,441.1350884,-1,4523,-0.137383833,-0.138140306,0.116660409
-0.302411613,1.349716902,2.319626093,441.2350884,-1,4524,-0.075602903,0.337429225,0.579906523
-0.214813766,0.279900998,-0.570317388,441.3350884,-1,4525,-0.053703442,0.069975249,-0.142579347
0.64068264,0.512782216,0.814620376,441.4350884,-1,4526,0.16017066,0.128195554,0.203655094
1.91959137,-0.243484363,-1.262351632,441.5350884,-1,4527,0.479897842,-0.060871091,-0.315587908
0.905783119,2.277496815,0.866532087,441.6350884,-1,4528,0.22644578,0.569374204,0.216633022
-0.992282448,1.513517261,-0.1347754,441.7350884,-1,4529,-0.248070612,0.378379315,-0.03369385
-1.436309395,-0.13232781,-2.639158964,441.8350884,-1,4530,-0.359077349,-0.033081952,-0.659789741
-1.582819519,-2.19031167,1.794960499,441.9350884,-1,4531,-0.39570488,-0.547577918,0.448740125
-0.393592415,2.446569443,-0.242901176,442.0350884,-1,4532,-0.098398104,0.611642361,-0.060725294
-0.614608345,1.003273368,1.066112757,442.1350884,-1,4533,-0.153652086,0.250818342,0.266528189
1.302650871,-0.856425285,-0.800888598,442.2350884,-1,4534,0.325662718,-0.214106321,-0.200222149
-0.389424858,-0.331379801,-0.999920249,442.3350884,-1,4535,-0.097356215,-0.08284495,-0.249980062
-0.66604763,-0.334195346,-2.210430861,442.4350884,-1,4536,-0.166511908,-0.083548836,-0.552607715
-0.024481354,0.23418723,1.293516874,442.5350884,-1,4537,-0.006120338,0.058546808,0.323379219
0.500466766,0.361031473,-0.144721597,442.6350884,-1,4538,0.125116692,0.090257868,-0.036180399
0.340102615,-1.582122564,-0.646236658,442.7350884,-1,4539,0.085025654,-0.395530641,-0.161559165
-0.348930893,0.080521442,0.065272838,442.8350885,-1,4540,-0.087232723,0.02013036,0.016318209
0.371290627,-1.068533897,0.643147886,442.9350885,-1,4541,0.092822657,-0.267133474,0.160786971
-2.138538895,-1.527534008,-1.162397027,443.0350885,-1,4542,-0.534634724,-0.381883502,-0.290599257
-2.083135185,-0.808915794,1.212391734,443.1350885,-1,4543,-0.520783796,-0.202228948,0.303097934
-1.798399506,-0.911117136,-1.432486892,443.2350885,-1,4544,-0.449599876,-0.227779284,-0.358121723
0.329989853,0.15935269,-0.776785374,443.3350885,-1,4545,0.082497463,0.039838172,-0.194196343
-1.056484756,-2.144101381,-0.099965811,443.4350885,-1,4546,-0.264121189,-0.536025345,-0.024991453
-1.954465923,-0.041799176,0.46587503,443.5350885,-1,4547,-0.488616481,-0.010449794,0.116468757
0.896055641,1.118288994,-0.361785084,443.6350885,-1,4548,0.22401391,0.279572248,-0.090446271
0.289095345,-1.182424307,-2.646816969,443.7350885,-1,4549,0.072273836,-0.295606077,-0.661704242
0.960171165,-1.828241944,0.384288967,443.8350885,-1,4550,0.240042791,-0.457060486,0.096072242
0.728684845,-1.914031029,1.483692527,443.9350885,-1,4551,0.182171211,-0.478507757,0.370923132
1.314649048,0.764961779,1.681720734,444.0350885,-1,4552,0.328662262,0.191240445,0.420430183
-0.148619232,-1.151402354,0.395939261,444.1350885,-1,4553,-0.037154808,-0.287850589,0.098984815
-1.254308281,-1.42187202,-0.031492107,444.2350885,-1,4554,-0.31357707,-0.355468005,-0.007873027
-0.332488594,-1.385559559,0.051814746,444.3350885,-1,4555,-0.083122149,-0.34638989,0.012953687
0.319030228,-0.838086188,1.00680685,444.4350885,-1,4556,0.079757557,-0.209521547,0.251701713
-0.335495529,1.108810663,3.333180428,444.5350885,-1,4557,-0.083873882,0.277202666,0.833295107
0.205039444,-1.398224831,-2.222310543,444.6350885,-1,4558,0.051259861,-0.349556208,-0.555577636
1.090621414,-0.56428647,-0.973280668,444.7350885,-1,4559,0.272655354,-0.141071618,-0.243320167
-0.399273453,-1.575080991,0.504468083,444.8350885,-1,4560,-0.099818363,-0.393770248,0.126117021
0.05634922,0.260139823,0.047588527,444.9350885,-1,4561,0.014087305,0.065034956,0.011897132
0.33581871,1.749527097,-0.016382715,445.0350885,-1,4562,0.083954678,0.437381774,-0.004095679
-0.092718658,1.259350419,1.556518674,445.1350885,-1,4563,-0.023179665,0.314837605,0.389129668
-1.243579445,-1.581656694,-0.03108025,445.2350885,-1,4564,-0.310894861,-0.395414174,-0.007770062
-0.69483429,-1.012893558,-1.097463965,445.3350885,-1,4565,-0.173708572,-0.253223389,-0.274365991
0.663706245,-0.125613645,-1.637475848,445.4350885,-1,4566,0.165926561,-0.031403411,-0.409368962
6.409169617,-1.661318541,-0.803795159,445.5350885,-1,4567,1.602292404,-0.415329635,-0.20094879
-0.872998772,-0.092606038,0.22815913,445.6350885,-1,4568,-0.218249693,-0.023151509,0.057039782
-0.850971756,1.275909185,-1.388178945,445.7350885,-1,4569,-0.212742939,0.318977296,-0.347044736
-6.622577724,-0.778626204,1.056241035,445.8350885,-1,4570,-1.655644431,-0.194656551,0.264060259
1.22891468,0.271405071,0.357052326,445.9350885,-1,4571,0.30722867,0.067851268,0.089263082
-0.785284576,-5.866483212,-99.9,446.0350885,-1,4572,-0.196321144,-1.466620803,-24.975
