x,y,z,Event Time,Event Type,Frame,x_modified,y_modified,z_modified
2.057073059,-0.061152697,-0.770323634,8.202074751,-1,108,0.514268265,-0.015288174,-0.192580909
-0.364281235,1.083485603,-1.951087713,8.302074753,-1,109,-0.091070309,0.270871401,-0.487771928
-2.113911686,-0.476411253,2.00423789,8.402074754,-1,110,-0.528477921,-0.119102813,0.501059473
0.30785984,1.540897965,-1.057836771,8.502074756,-1,111,0.07696496,0.385224491,-0.264459193
0.246798935,-1.340974331,-2.399614096,8.602074757,-1,112,0.061699734,-0.335243583,-0.599903524
-0.033468781,-0.899330318,1.441111445,8.702074759,-1,113,-0.008367195,-0.224832579,0.360277861
0.075663033,-0.956068456,0.321823448,8.80207476,-1,114,0.018915758,-0.239017114,0.080455862
0.575818481,-1.712922812,-0.046428833,8.902074762,-1,115,0.14395462,-0.428230703,-0.011607208
-0.160527763,0.720881581,1.295740128,9.002074763,-1,116,-0.040131941,0.180220395,0.323935032
-1.817668495,3.831435919,-0.569180489,9.102074765,-1,117,-0.454417124,0.95785898,-0.142295122
0.929526749,1.380328894,99.9,9.302074768,-1,119,0.232381687,0.345082223,24.975
1.378868523,0.091283843,3.991208792,9.402074769,-1,120,0.344717131,0.022820961,0.997802198
0.392183723,0.9191311,-0.158211097,9.502074771,-1,121,0.098045931,0.229782775,-0.039552774
0.479788246,1.912304521,1.132324219,9.602074772,-1,122,0.119947062,0.47807613,0.283081055
1.252448502,-0.506908536,1.625025511,9.702074774,-1,123,0.313112125,-0.126727134,0.406256378
-0.996829567,-1.20933187,0.970116794,9.802074775,-1,124,-0.249207392,-0.302332968,0.242529199
-1.802664337,0.009901903,-0.808973014,9.902074777,-1,125,-0.450666084,0.002475476,-0.202243254
1.122406425,0.537859678,-1.323858023,10.00207478,-1,126,0.280601606,0.13446492,-0.330964506
2.291705551,0.663179994,-2.990561485,10.10207478,-1,127,0.572926388,0.165794998,-0.747640371
2.887348595,-1.042498589,-0.782946885,10.20207478,-1,128,0.721837149,-0.260624647,-0.195736721
0.269731941,1.072532415,0.900848448,10.30207478,-1,129,0.067432985,0.268133104,0.225212112
2.068041267,0.410623401,-0.649240792,10.40207478,-1,130,0.517010317,0.10265585,-0.162310198
2.007831993,0.554669023,0.507426262,10.50207479,-1,131,0.501957998,0.138667256,0.126856565
-0.24983078,-0.46115613,-1.532310486,10.60207479,-1,132,-0.062457695,-0.115289032,-0.383077621
0.202386322,-0.430889904,1.308446646,10.70207479,-1,133,0.050596581,-0.107722476,0.327111661
0.586261215,0.38305667,-0.411854655,10.80207479,-1,134,0.146565304,0.095764168,-0.102963664
0.457077446,0.347908467,0.240285844,10.90207479,-1,135,0.114269361,0.086977117,0.060071461
0.206871452,0.7562114,-0.861457407,11.00207479,-1,136,0.051717863,0.18905285,-0.215364352
0.404355469,-0.782596767,-1.514998674,11.10207479,-1,137,0.101088867,-0.195649192,-0.378749669
-0.834260521,0.770305276,-1.716676593,11.2020748,-1,138,-0.20856513,0.192576319,-0.429169148
0.58354229,-1.015203118,0.052319139,11.3020748,-1,139,0.145885572,-0.25380078,0.013079785
0.029681625,-1.786155939,0.011811526,11.4020748,-1,140,0.007420406,-0.446538985,0.002952882
-0.384849129,-1.408859253,0.987152934,11.5020748,-1,141,-0.096212282,-0.352214813,0.246788234
0.105298462,0.744234383,1.030123115,11.6020748,-1,142,0.026324615,0.186058596,0.257530779
0.019657555,0.266054094,-0.680152774,11.7020748,-1,143,0.004914389,0.066513523,-0.170038193
-2.293859062,0.422540635,-0.689968169,11.8020748,0,144,-0.573464766,0.105635159,-0.172492042
-0.227175293,-1.40979898,-1.327255487,11.90207481,0,145,-0.056793823,-0.352449745,-0.331813872
-0.931163368,1.376595616,0.751101792,12.00207481,0,146,-0.232790842,0.344148904,0.187775448
0.81847805,0.730769455,-2.355184793,12.10207481,0,147,0.204619513,0.182692364,-0.588796198
1.280994835,-2.547846317,-0.130625203,12.20207481,0,148,0.320248709,-0.636961579,-0.032656301
0.362809601,2.706617355,-0.811372399,12.30207481,0,149,0.0907024,0.676654339,-0.2028431
-3.951503811,1.585898995,-2.513420105,12.40207481,0,150,-0.987875953,0.396474749,-0.628355026
-0.357024727,-1.288241982,0.360085458,12.50207482,0,151,-0.089256182,-0.322060496,0.090021364
1.390529099,-1.592054129,-2.509295464,12.60207482,0,152,0.347632275,-0.398013532,-0.627323866
-0.589668808,0.205758423,-0.852169275,12.70207482,0,153,-0.147417202,0.051439606,-0.213042319
-0.541306076,2.501703262,-2.75479269,12.80207482,0,154,-0.135326519,0.625425816,-0.688698173
1.02549118,-2.102308989,-0.466105342,12.90207482,0,155,0.256372795,-0.525577247,-0.116526335
-0.65709549,0.977833211,-2.211822033,13.00207482,0,156,-0.164273872,0.244458303,-0.552955508
-0.312448082,-0.675047815,-1.033037305,13.10207482,0,157,-0.07811202,-0.168761954,-0.258259326
-1.283970413,0.600550056,-0.012766013,13.20207483,0,158,-0.320992603,0.150137514,-0.003191503
-0.395241318,0.736766756,-0.764361262,13.30207483,0,159,-0.098810329,0.184191689,-0.191090316
1.756485405,-0.740165234,2.691848516,13.40207483,0,160,0.439121351,-0.185041308,0.672962129
-1.314932404,-0.535200536,-0.210750476,13.50207483,0,161,-0.328733101,-0.133800134,-0.052687619
0.181518021,0.249158666,-1.934569836,13.60207483,0,162,0.045379505,0.062289666,-0.483642459
-0.481322823,-0.575548112,-0.168033928,13.70207483,0,163,-0.120330706,-0.143887028,-0.042008482
0.254603806,-2.205356121,0.044839028,13.80207483,0,164,0.063650951,-0.55133903,0.011209757
1.639776649,-0.656414688,1.04966855,13.90207484,0,165,0.409944162,-0.164103672,0.262417138
2.153923454,0.463842779,1.133252382,14.00207484,0,166,0.538480864,0.115960695,0.283313096
0.506454887,-0.739427388,1.341617227,14.10207484,0,167,0.126613722,-0.184856847,0.335404307
-0.589026031,1.57012558,-0.747332036,14.20207484,0,168,-0.147256508,0.392531395,-0.186833009
-1.137278137,-0.639475465,-0.217619151,14.30207484,0,169,-0.284319534,-0.159868866,-0.054404788
-0.239704666,0.445119083,-0.454718202,14.40207484,0,170,-0.059926167,0.111279771,-0.113679551
-1.38759285,0.624460697,-1.135914445,14.50207485,0,171,-0.346898212,0.156115174,-0.283978611
-1.234581528,-2.221790791,-0.164872393,14.60207485,0,172,-0.308645382,-0.555447698,-0.041218098
-0.638914642,-1.606751204,0.365745276,14.70207485,0,173,-0.159728661,-0.401687801,0.091436319
-0.15572506,1.48299098,0.209281534,14.80207485,-1,174,-0.038931265,0.370747745,0.052320383
0.454176369,1.024858236,1.410048008,14.90207485,-1,175,0.113544092,0.256214559,0.352512002
0.67859787,-0.043195166,-0.3920196,15.00207485,-1,176,0.169649467,-0.010798791,-0.0980049
0.224309387,1.50839448,-0.067056455,15.10207485,-1,177,0.056077347,0.37709862,-0.016764114
-1.985311089,0.476417392,-0.193100214,15.20207486,-1,178,-0.496327772,0.119104348,-0.048275054
0.670056763,0.47920239,0.59838295,15.30207486,-1,179,0.167514191,0.119800597,0.149595737
1.353601875,1.371074438,-0.807929456,15.40207486,-1,180,0.338400469,0.34276861,-0.201982364
1.81650013,-0.433825552,-0.344691068,15.50207486,-1,181,0.454125032,-0.108456388,-0.086172767
0.153831902,1.785892367,0.910820663,15.60207486,-1,182,0.038457975,0.446473092,0.227705166
-2.459809837,1.335033774,1.936111808,15.70207486,-1,183,-0.614952459,0.333758444,0.484027952
2.604853096,-2.063565493,3.053016663,15.80207486,-1,184,0.651213274,-0.515891373,0.763254166
0.06097168,-0.598215938,1.188649654,15.90207487,-1,185,0.01524292,-0.149553984,0.297162414
0.615826073,-1.457690001,-2.479585171,16.00207487,-1,186,0.153956518,-0.3644225,-0.619896293
-1.781866608,1.025315523,-0.70765686,16.10207487,-1,187,-0.445466652,0.256328881,-0.176914215
0.133213463,0.608219802,-0.753521204,16.20207487,-1,188,0.033303366,0.152054951,-0.188380301
-2.561808167,-0.200232372,-0.670338929,16.30207487,-1,189,-0.640452042,-0.050058093,-0.167584732
0.235144081,-1.132079244,-0.97511977,16.40207487,-1,190,0.05878602,-0.283019811,-0.243779942
-0.128881989,-0.306489587,0.555262148,16.50207487,-1,191,-0.032220497,-0.076622397,0.138815537
-0.065955696,1.911399245,2.238330364,16.60207488,-1,192,-0.016488924,0.477849811,0.559582591
-0.37207943,-1.116259456,-1.847553849,16.70207488,-1,193,-0.093019857,-0.279064864,-0.461888462
1.455234947,0.004966019,-0.262128323,16.80207488,-1,194,0.363808737,0.001241505,-0.065532081
-0.245513496,1.454248905,0.57386899,16.90207488,-1,195,-0.061378374,0.363562226,0.143467247
0.916542473,-0.178888202,1.629570127,17.00207488,-1,196,0.229135618,-0.04472205,0.407392532
2.556498947,0.500487387,0.315462857,17.10207488,-1,197,0.639124737,0.125121847,0.078865714
-0.638436852,0.693643808,-1.217517495,17.20207489,-1,198,-0.159609213,0.173410952,-0.304379374
-0.057670174,0.157826319,-0.695854425,17.30207489,-1,199,-0.014417543,0.03945658,-0.173963606
0.437372627,-0.820617259,0.039417963,17.40207489,-1,200,0.109343157,-0.205154315,0.009854491
-0.811441956,-1.218883872,0.442275226,17.50207489,-1,201,-0.202860489,-0.304720968,0.110568807
1.128853264,0.363467574,-1.511030912,17.60207489,-1,202,0.282213316,0.090866894,-0.377757728
0.027737083,0.551761627,0.096198432,17.70207489,-1,203,0.006934271,0.137940407,0.024049608
-1.283338127,-0.560116053,-0.716320693,17.80207489,-1,204,-0.320834532,-0.140029013,-0.179080173
-2.453573761,-0.417568594,-1.066329837,17.9020749,-1,205,-0.61339344,-0.104392149,-0.266582459
1.685717049,1.120228887,1.283447742,18.0020749,-1,206,0.421429262,0.280057222,0.320861936
-1.290582237,0.872172892,-0.705287993,18.1020749,-1,207,-0.322645559,0.218043223,-0.176321998
0.792550507,2.484221935,1.26390183,18.2020749,-1,208,0.198137627,0.621055484,0.315975457
-0.35361248,0.538855195,1.874945164,18.3020749,-1,209,-0.08840312,0.134713799,0.468736291
-0.652246056,-0.127442047,2.115251064,18.4020749,-1,210,-0.163061514,-0.031860512,0.528812766
-1.119006691,-0.03588482,0.304862678,18.5020749,-1,211,-0.279751673,-0.008971205,0.07621567
-0.057160912,-0.442048311,1.247814059,18.60207491,-1,212,-0.014290228,-0.110512078,0.311953515
-1.571343002,0.547935367,-1.245360494,18.70207491,-1,213,-0.392835751,0.136983842,-0.311340123
1.52481884,-1.576438189,-0.421173692,18.80207491,-1,214,0.38120471,-0.394109547,-0.105293423
0.107444229,0.52681905,-1.439380646,18.90207491,-1,215,0.026861057,0.131704763,-0.359845161
0.056667747,-1.511978745,1.430566907,19.00207491,-1,216,0.014166937,-0.377994686,0.357641727
0.639666023,0.812830806,1.535019755,19.10207491,-1,217,0.159916506,0.203207701,0.383754939
-1.016655502,-0.110939413,-3.267944098,19.20207492,-1,218,-0.254163876,-0.027734853,-0.816986024
2.273374977,-1.98510921,-1.584359646,19.30207492,-1,219,0.568343744,-0.496277303,-0.396089911
-0.498282013,-1.90038383,-0.204925194,19.40207492,-1,220,-0.124570503,-0.475095958,-0.051231299
-1.280844269,-0.511974275,-0.961074293,19.50207492,-1,221,-0.320211067,-0.127993569,-0.240268573
0.444776001,2.160496235,-0.7124843,19.60207492,-1,222,0.111194,0.540124059,-0.178121075
-2.591714439,1.591795444,-2.437807798,19.70207492,-1,223,-0.64792861,0.397948861,-0.60945195
0.308952751,-0.920824409,0.490373909,19.80207492,-1,224,0.077238188,-0.230206102,0.122593477
0.913527908,-0.731134653,1.286101699,19.90207493,-1,225,0.228381977,-0.182783663,0.321525425
0.869828644,1.141274929,3.72769475,20.00207493,-1,226,0.217457161,0.285318732,0.931923687
-2.444473324,0.063989043,2.318640232,20.10207493,-1,227,-0.611118331,0.015997261,0.579660058
-1.984060822,2.544985771,2.864017487,20.20207493,-1,228,-0.496015205,0.636246443,0.716004372
0.22331852,2.058367252,-0.096204795,20.30207493,-1,229,0.05582963,0.514591813,-0.024051199
0.531136932,0.494304568,2.595251799,20.40207493,-1,230,0.132784233,0.123576142,0.64881295
1.597922745,-0.365063488,-1.559502482,20.50207493,-1,231,0.399480686,-0.091265872,-0.389875621
-0.766414223,-1.824950695,-0.925951958,20.60207494,-1,232,-0.191603556,-0.456237674,-0.231487989
2.57285923,1.051814437,1.12500453,20.70207494,-1,233,0.643214808,0.262953609,0.281251132
-3.447144089,-0.435845137,-2.447317123,20.80207494,-1,234,-0.861786022,-0.108961284,-0.611829281
-0.306939659,-1.107450962,0.713232398,20.90207494,-1,235,-0.076734915,-0.276862741,0.1783081
-1.088748512,1.33948338,0.485367209,21.00207494,-1,236,-0.272187128,0.334870845,0.121341802
-0.883273659,0.303442478,-1.295766115,21.10207494,-1,237,-0.220818415,0.07586062,-0.323941529
0.756688538,1.107239842,-1.332178473,21.20207494,-1,238,0.189172134,0.276809961,-0.333044618
-0.173511086,-0.424076349,-2.753865719,21.30207495,-1,239,-0.043377771,-0.106019087,-0.68846643
2.022304955,-0.099884167,-1.029156327,21.40207495,-1,240,0.505576239,-0.024971042,-0.257289082
-0.559182701,-0.214374751,-0.349474698,21.50207495,-1,241,-0.139795675,-0.053593688,-0.087368675
0.072381439,2.05919528,-0.703181505,21.60207495,-1,242,0.01809536,0.51479882,-0.175795376
1.528245392,0.060392544,-0.377816647,21.70207495,-1,243,0.382061348,0.015098136,-0.094454162
0.692400398,-1.258785248,-0.016647676,21.80207495,-1,244,0.1731001,-0.314696312,-0.004161919
-2.666290817,-0.618339479,-0.66663903,21.90207496,-1,245,-0.666572704,-0.15458487,-0.166659757
-0.327673492,0.724844575,-0.833116651,22.00207496,-1,246,-0.081918373,0.181211144,-0.208279163
1.122203293,-0.137041569,0.453872651,22.10207496,-1,247,0.280550823,-0.034260392,0.113468163
1.765335503,-0.17200847,-0.917151868,22.20207496,-1,248,0.441333876,-0.043002117,-0.229287967
-0.280592499,-0.833512008,1.158516288,22.30207496,-1,249,-0.070148125,-0.208378002,0.289629072
-1.662916718,-0.646173179,-1.2478019,22.40207496,-1,250,-0.415729179,-0.161543295,-0.311950475
-1.941150246,-2.719593287,3.437245369,22.50207496,-1,251,-0.485287561,-0.679898322,0.859311342
0.586027565,-0.238522649,-0.08894296,22.60207497,-1,252,0.146506891,-0.059630662,-0.02223574
0.326111259,1.232502341,2.026824713,22.70207497,-1,253,0.081527815,0.308125585,0.506706178
0.916608276,1.328534722,0.339181989,22.80207497,-1,254,0.229152069,0.332133681,0.084795497
1.751380386,-1.931696534,-0.516203642,22.90207497,-1,255,0.437845097,-0.482924134,-0.12905091
1.009768906,0.509759367,-0.681728303,23.00207497,-1,256,0.252442226,0.127439842,-0.170432076
0.362651291,-2.331033468,1.238850951,23.10207497,-1,257,0.090662823,-0.582758367,0.309712738
0.794168892,0.333422065,-0.830312252,23.20207497,-1,258,0.198542223,0.083355516,-0.207578063
-2.665417252,0.903569996,-0.876204014,23.30207498,-1,259,-0.666354313,0.225892499,-0.219051003
-0.334125099,-1.138094068,-0.709080875,23.40207498,-1,260,-0.083531275,-0.284523517,-0.177270219
-1.460122643,-2.34668088,0.977108538,23.50207498,-1,261,-0.365030661,-0.58667022,0.244277135
-0.397521553,1.289472222,-0.19425869,23.60207498,-1,262,-0.099380388,0.322368056,-0.048564672
2.448390427,-0.145651057,0.814129174,23.70207498,-1,263,0.612097607,-0.036412764,0.203532293
-1.552652893,0.6579445,0.347905993,23.80207498,-1,264,-0.388163223,0.164486125,0.086976498
-0.690962372,3.101356745,1.572540402,23.90207499,-1,265,-0.172740593,0.775339186,0.393135101
-0.053666649,-0.037995897,0.063280217,24.00207499,-1,266,-0.013416662,-0.009498974,0.015820054
1.220982018,0.313282609,2.237417698,24.10207499,-1,267,0.305245504,0.078320652,0.559354424
-0.921856461,1.070651174,-0.812651932,24.20207499,-1,268,-0.230464115,0.267662793,-0.203162983
0.72172493,-0.680880606,1.007739067,24.30207499,-1,269,0.180431232,-0.170220152,0.251934767
0.74253315,-1.19483459,-1.407846689,24.40207499,-1,270,0.185633287,-0.298708647,-0.351961672
0.25637001,-2.675117493,0.01982473,24.50207499,-1,271,0.064092503,-0.668779373,0.004956183
2.877078476,2.36864686,-0.026139895,24.602075,-1,272,0.719269619,0.592161715,-0.006534974
-0.068692741,0.992957115,2.433216333,24.702075,-1,273,-0.017173185,0.248239279,0.608304083
1.306733551,1.071678042,-0.97818476,24.802075,-1,274,0.326683388,0.267919511,-0.24454619
0.633893433,0.715996325,0.682880878,24.902075,-1,275,0.158473358,0.178999081,0.17072022
0.305035057,0.555443823,0.88297075,25.002075,-1,276,0.076258764,0.138860956,0.220742688
1.042646828,-0.990931034,-1.196758747,25.102075,-1,277,0.260661707,-0.247732759,-0.299189687
0.143305244,0.597540736,-2.069905043,25.202075,-1,278,0.035826311,0.149385184,-0.517476261
2.911948624,1.386176229,0.353112042,25.30207501,-1,279,0.727987156,0.346544057,0.08827801
-2.681052742,1.375717998,1.372158527,25.40207501,-1,280,-0.670263186,0.343929499,0.343039632
4.872454109,-2.471412659,-3.421563625,25.50207501,-1,281,1.218113527,-0.617853165,-0.855390906
-6.275398312,1.854718089,0.826471329,25.60207501,-1,282,-1.568849578,0.463679522,0.206617832
-2.93462616,1.431913853,4.507257938,25.70207501,-1,283,-0.73365654,0.357978463,1.126814485
1.02654213,0.900027335,-0.664560914,25.80207501,-1,284,0.256635532,0.225006834,-0.166140229
