x,y,z,Event Time,Event Type,Frame,x_modified,y_modified,z_modified
0.670384827,1.698814988,-0.848732769,220.7491225,-1,2321,0.167596207,0.424703747,-0.212183192
-1.70793396,0.462956637,0.067130871,220.8491225,-1,2322,-0.42698349,0.115739159,0.016782718
-0.499656258,-0.917091072,-1.540485978,220.9491225,-1,2323,-0.124914064,-0.229272768,-0.385121495
0.809602203,0.512328327,0.523293793,221.0491225,-1,2324,0.202400551,0.128082082,0.130823448
0.740084114,1.570631385,2.69147563,221.1491225,-1,2325,0.185021029,0.392657846,0.672868907
0.806872787,0.17706719,-0.052899599,221.2491225,-1,2326,0.201718197,0.044266798,-0.0132249
-1.074579773,-0.793571115,1.238737106,221.3491225,-1,2327,-0.268644943,-0.198392779,0.309684277
0.107963982,1.287600636,1.606546998,221.4491225,-1,2328,0.026990995,0.321900159,0.40163675
2.12096447,-1.272046566,-2.383914948,221.5491225,-1,2329,0.530241117,-0.318011642,-0.595978737
-0.26208168,0.671748817,1.773913741,221.6491225,-1,2330,-0.06552042,0.167937204,0.443478435
-0.440410194,1.073479414,99.9,221.8491225,-1,2332,-0.110102549,0.268369853,0
0.876478615,0.567062914,2.109227657,221.9491225,-1,2333,0.219119654,0.141765729,0.527306914
-0.362978516,-1.295294404,-0.879944026,222.0491225,-1,2334,-0.090744629,-0.323823601,-0.219986007
-3.151132641,-1.363423705,-1.04054451,222.1491225,-1,2335,-0.78778316,-0.340855926,-0.260136127
0.164315643,-0.722913861,-1.542550445,222.2491225,-1,2336,0.041078911,-0.180728465,-0.385637611
2.01695961,0.913427889,1.022601128,222.3491225,-1,2337,0.504239902,0.228356972,0.255650282
1.146012726,0.741304636,-1.584169865,222.4491225,-1,2338,0.286503181,0.185326159,-0.396042466
-1.040681419,-1.805023551,-0.624002457,222.5491225,-1,2339,-0.260170355,-0.451255888,-0.156000614
-1.875976143,-1.684904218,-1.729177713,222.6491225,-1,2340,-0.468994036,-0.421226054,-0.432294428
2.273625793,-0.312682956,-1.979641914,222.7491225,-1,2341,0.568406448,-0.078170739,-0.494910479
-1.979333935,0.061062645,-0.158887535,222.8491225,-1,2342,-0.494833484,0.015265661,-0.039721884
1.298320236,-1.855999827,0.974946916,222.9491225,-1,2343,0.324580059,-0.463999957,0.243736729
-3.628091393,1.196966171,-0.707587302,223.0491225,-1,2344,-0.907022848,0.299241543,-0.176896825
-1.245482025,1.715394497,-1.926276326,223.1491226,-1,2345,-0.311370506,0.428848624,-0.481569082
1.057578506,-0.148425266,0.105054267,223.2491226,-1,2346,0.264394627,-0.037106317,0.026263567
-0.979442177,-0.353823304,-1.191881299,223.3491226,-1,2347,-0.244860544,-0.088455826,-0.297970325
0.65681881,0.25437358,1.801960349,223.4491226,-1,2348,0.164204702,0.063593395,0.450490087
1.652097168,0.536458254,0.519348681,223.5491226,-1,2349,0.413024292,0.134114563,0.12983717
-1.217008171,-1.446442604,-0.485723257,223.6491226,-1,2350,-0.304252043,-0.361610651,-0.121430814
0.275105896,0.171414256,-1.36614573,223.7491226,-1,2351,0.068776474,0.042853564,-0.341536433
0.712469521,-0.715770602,2.097726107,223.8491226,-1,2352,0.17811738,-0.178942651,0.524431527
-2.591692505,-1.013741851,-1.684556127,223.9491226,-1,2353,-0.647923126,-0.253435463,-0.421139032
-0.662392197,0.1097892,-1.083409071,224.0491226,-1,2354,-0.165598049,0.0274473,-0.270852268
0.813271942,3.404788256,-0.829285622,224.1491226,-1,2355,0.203317986,0.851197064,-0.207321405
-0.364615974,-0.404718459,-0.986525714,224.2491226,-1,2356,-0.091153994,-0.101179615,-0.246631429
-1.102622566,-0.161837831,2.394502163,224.3491226,-1,2357,-0.275655642,-0.040459458,0.598625541
-0.283736763,0.502031505,0.938549399,224.4491226,-1,2358,-0.070934191,0.125507876,0.23463735
2.057073059,-0.061252493,-0.770629585,224.5491226,-1,2359,0.514268265,-0.015313123,-0.192657396
-0.364231644,1.08370769,-1.95201385,224.6491226,-1,2360,-0.091057911,0.270926923,-0.488003463
-2.113991795,-0.476598591,2.004555702,224.7491226,-1,2361,-0.528497949,-0.119149648,0.501138926
0.307863655,1.541198134,-1.058761716,224.8491226,-1,2362,0.076965914,0.385299534,-0.264690429
0.246787491,-1.34123981,-2.399297476,224.9491226,-1,2363,0.061696873,-0.335309952,-0.599824369
-0.033453522,-0.899108231,1.440185308,225.0491226,-1,2364,-0.00836338,-0.224777058,0.360046327
0.075697365,-0.95609957,0.322143644,225.1491226,-1,2365,0.018924341,-0.239024892,0.080535911
0.575765076,-1.712778926,-0.047356144,225.2491226,5,2366,0.143941269,-0.428194731,-0.011839036
-0.160535393,0.720781803,1.295434237,225.3491226,5,2367,-0.040133848,0.180195451,0.323858559
-1.81766468,3.831579924,-0.570107818,225.4491226,5,2368,-0.45441617,0.957894981,-0.142526954
-1.073661385,-2.756227732,-1.244578958,225.5491226,5,2369,-0.268415346,-0.689056933,-0.311144739
0.847185555,1.387398601,-1.795315146,225.6491226,5,2370,0.211796389,0.34684965,-0.448828787
1.436921539,-2.46652627,0.274676263,225.7491226,5,2371,0.359230385,-0.616631567,0.068669066
0.362995567,-2.551903725,-0.23385483,225.8491226,5,2372,0.090748892,-0.637975931,-0.058463708
0.420900764,-2.277177334,1.653970718,225.9491226,5,2373,0.105225191,-0.569294333,0.41349268
1.217334213,-5.66099453,1.77384901,226.0491226,5,2374,0.304333553,-1.415248632,0.443462253
-1.003793297,-2.958776474,0.987275243,226.1491226,5,2375,-0.250948324,-0.739694118,0.246818811
-1.802198944,-0.536069214,-0.806273758,226.2491226,5,2376,-0.450549736,-0.134017304,-0.20156844
1.124548378,0.367834091,-1.323527694,226.3491226,5,2377,0.281137094,0.091958523,-0.330881923
2.293565216,0.60988766,-2.990315676,226.4491226,5,2378,0.573391304,0.152471915,-0.747578919
2.888797226,-1.059322357,-0.782798111,226.5491226,5,2379,0.722199306,-0.264830589,-0.195699528
0.270700874,1.067231774,0.901234388,226.6491226,5,2380,0.067675219,0.266807944,0.225308597
2.068674507,0.409407705,-0.647613525,226.7491226,5,2381,0.517168627,0.102351926,-0.161903381
2.008297386,0.553876936,0.504580379,226.8491226,5,2382,0.502074347,0.138469234,0.126145095
-0.249357758,-0.460859418,-1.529576182,226.9491226,5,2383,-0.062339439,-0.115214854,-0.382394046
0.204341354,2.119867086,1.086682677,227.0491226,5,2384,0.051085339,0.529966772,0.271670669
0.579944077,0.956612706,-0.167942494,227.1491226,5,2385,0.144986019,0.239153177,-0.041985624
0.441717567,3.939449787,0.322522581,227.2491226,5,2386,0.110429392,0.984862447,0.080630645
0.205707016,1.973350286,-0.855674386,227.3491226,5,2387,0.051426754,0.493337572,-0.213918597
0.405155602,-0.405607194,-1.511930346,227.4491226,5,2388,0.1012889,-0.101401798,-0.377982587
-0.833132324,0.887660027,-1.717065334,227.5491226,5,2389,-0.208283081,0.221915007,-0.429266334
0.584212723,-0.978444397,0.053288762,227.6491226,5,2390,0.146053181,-0.244611099,0.01332219
0.03001255,-1.774430633,0.010664834,227.7491226,5,2391,0.007503138,-0.443607658,0.002666208
-0.384597359,-1.404856801,0.986935139,227.8491226,5,2392,-0.09614934,-0.3512142,0.246733785
0.105298462,0.745375216,1.030646563,227.9491226,-1,2393,0.026324615,0.186343804,0.257661641
0.019779625,0.266547292,-0.680866659,228.0491226,-1,2394,0.004944906,0.066636823,-0.170216665
-2.293862877,0.422843426,-0.689412653,228.1491226,-1,2395,-0.573465719,0.105710857,-0.172353163
-0.227152405,-1.409660578,-1.326699972,228.2491226,-1,2396,-0.056788101,-0.352415144,-0.331674993
-0.931159554,1.376747489,0.751659334,228.3491226,-1,2397,-0.232789888,0.344186872,0.187914833
0.818447533,0.730862021,-2.355873823,228.4491226,-1,2398,0.204611883,0.182715505,-0.588968456
1.280975761,-2.547841311,-0.130681828,228.5491226,-1,2399,0.32024394,-0.636960328,-0.032670457
0.362927856,2.706874132,-0.812074602,228.6491226,-1,2400,0.090731964,0.676718533,-0.20301865
-3.951553402,1.585887074,-2.512853861,228.7491226,-1,2401,-0.98788835,0.396471769,-0.628213465
-0.356944618,-1.287909985,0.360647053,228.8491226,-1,2402,-0.089236155,-0.321977496,0.090161763
1.390532913,-1.592425942,-2.509982824,228.9491226,-1,2403,0.347633228,-0.398106486,-0.627495706
-0.589806137,0.206548616,-0.852236032,229.0491226,-1,2404,-0.147451534,0.051637154,-0.213059008
-0.541393814,2.501335382,-2.755482435,229.1491226,-1,2405,-0.135348454,0.625333846,-0.688870609
1.025624695,-2.10169673,-0.465551585,229.2491226,-1,2406,0.256406174,-0.525424182,-0.116387896
-0.657076416,0.977745593,-2.211254835,229.3491226,-1,2407,-0.164269104,0.244436398,-0.552813709
-0.310677109,1.876317501,-1.252731562,229.4491226,-1,2408,-0.077669277,0.469079375,-0.31318289
-1.300273476,4.069946766,0.013674174,229.5491226,-1,2409,-0.325068369,1.017486691,0.003418543
-0.431715546,4.926263809,-0.242665768,229.6491226,-1,2410,-0.107928886,1.231565952,-0.060666442
1.730944099,4.414676189,2.83904767,229.7491226,-1,2411,0.432736025,1.103669047,0.709761918
-1.318392334,1.214272738,-0.192279339,229.8491227,-1,2412,-0.329598083,0.303568184,-0.048069835
0.182618561,0.795696616,-1.935982823,229.9491227,-1,2413,0.04565464,0.198924154,-0.483995706
-0.479528008,-0.405199409,-0.164133489,230.0491227,-1,2414,-0.119882002,-0.101299852,-0.041033372
0.255662384,-2.152124882,0.046291385,230.1491227,-1,2415,0.063915596,-0.53803122,0.011572846
1.64035553,-0.639191628,1.046947479,230.2491227,-1,2416,0.410088882,-0.159797907,0.26173687
2.15429348,0.469317734,1.134803295,230.3491227,-1,2417,0.53857337,0.117329434,0.283700824
0.506557884,-0.737463951,1.340443254,230.4491227,-1,2418,0.126639471,-0.184365988,0.335110813
-0.589026031,1.570706725,-0.747969449,230.5491227,-1,2419,-0.147256508,0.392676681,-0.186992362
-1.137220917,-0.639323354,-0.215760171,230.6491227,-1,2420,-0.284305229,-0.159830838,-0.053940043
-0.239693222,0.445669174,-0.455998898,230.7491227,-1,2421,-0.059923306,0.111417294,-0.113999724
-1.387619553,0.624303639,-1.135949254,230.8491227,-1,2422,-0.346904888,0.15607591,-0.283987314
-1.234455643,-2.221622944,-0.164294779,230.9491227,-1,2423,-0.308613911,-0.555405736,-0.041073695
-0.639013824,-1.60675168,0.365093112,231.0491227,-1,2424,-0.159753456,-0.40168792,0.091273278
-0.155683098,1.483152151,0.209239513,231.1491227,-1,2425,-0.038920774,0.370788038,0.052309878
0.454153481,1.025093079,1.411271453,231.2491227,-1,2426,0.11353837,0.25627327,0.352817863
0.67865509,-0.043186322,-0.393316388,231.3491227,-1,2427,0.169663773,-0.01079658,-0.098329097
0.224236908,1.508648157,-0.067082889,231.4491227,-1,2428,0.056059227,0.377162039,-0.016770722
-1.985223351,0.476660579,-0.194393486,231.5491227,-1,2429,-0.496305838,0.119165145,-0.048598371
0.669934692,0.479187965,0.599600255,231.6491227,-1,2430,0.167483673,0.119796991,0.149900064
1.353651466,1.371328592,-0.807967722,231.7491227,-1,2431,0.338412867,0.342832148,-0.201991931
1.816618385,-0.434148312,-0.344734848,231.8491227,-1,2432,0.454154596,-0.108537078,-0.086183712
0.153706017,1.786301374,0.909536302,231.9491227,-1,2433,0.038426504,0.446575344,0.227384076
-2.459851799,1.334950805,1.937330484,232.0491227,-1,2434,-0.61496295,0.333737701,0.484332621
2.604963722,-2.063414812,3.05297327,232.1491227,-1,2435,0.651240931,-0.515853703,0.763243318
0.060960236,-0.598032355,1.187382817,232.2491227,-1,2436,0.015240059,-0.149508089,0.296845704
0.58458847,-1.500185847,-2.49001646,232.3491227,-1,2437,0.146147118,-0.375046462,-0.622504115
-1.548618851,1.094429135,-0.692264974,232.4491227,-1,2438,-0.387154713,0.273607284,-0.173066244
-0.126601753,0.571542203,-0.75966084,232.5491227,-1,2439,-0.031650438,0.142885551,-0.18991521
-2.530596313,-0.201982081,-0.67167151,232.6491227,-1,2440,-0.632649078,-0.05049552,-0.167917877
0.241590919,-1.132183313,-0.976375878,232.7491227,-1,2441,0.06039773,-0.283045828,-0.244093969
-0.131826935,-0.303035885,0.557185411,232.8491227,-1,2442,-0.032956734,-0.075758971,0.139296353
-0.061790047,1.904880404,2.239009619,232.9491227,-1,2443,-0.015447512,0.476220101,0.559752405
-0.362084923,-1.122042894,-1.846534848,233.0491227,-1,2444,-0.090521231,-0.280510724,-0.461633712
1.462311211,0.008163936,-0.265676081,233.1491227,-1,2445,0.365577803,0.002040984,-0.06641902
-0.246665535,1.455443978,0.57517463,233.2491227,-1,2446,-0.061666384,0.363860995,0.143793657
0.916904869,-0.178378001,1.629561543,233.3491227,-1,2447,0.229226217,-0.0445945,0.407390386
2.546827736,0.490513116,0.319341123,233.4491227,-1,2448,0.636706934,0.122628279,0.079835281
-0.616827545,0.72256583,-1.227049232,233.5491227,-1,2449,-0.154206886,0.180641457,-0.306762308
-0.06887394,0.163939908,-0.68941468,233.6491227,-1,2450,-0.017218485,0.040984977,-0.17235367
0.437052193,-0.818651497,0.035650752,233.7491227,-1,2451,0.109263048,-0.204662874,0.008912688
-0.810400543,-1.217953324,0.442236274,233.8491227,-1,2452,-0.202600136,-0.304488331,0.110559069
1.129440727,0.363869667,-1.509819388,233.9491227,-1,2453,0.282360182,0.090967417,-0.377454847
0.028412285,0.551951587,0.094913192,234.0491227,-1,2454,0.007103071,0.137987897,0.023728298
-1.283376274,-0.559949875,-0.716358721,234.1491227,-1,2455,-0.320844069,-0.139987469,-0.17908968
-2.453627167,-0.417109936,-1.065085649,234.2491227,-1,2456,-0.613406792,-0.104277484,-0.266271412
1.685728493,1.120091677,1.282139301,234.3491227,-1,2457,0.421432123,0.280022919,0.320534825
-1.290559349,0.871997416,-0.704084873,234.4491227,-1,2458,-0.322639837,0.217999354,-0.176021218
0.792451324,2.484160185,1.26510334,234.5491227,-1,2459,0.198112831,0.621040046,0.316275835
-0.353578148,0.539726734,1.872448444,234.6491227,-1,2460,-0.088394537,0.134931684,0.468112111
-0.65219265,-0.127768487,2.11645174,234.7491227,-1,2461,-0.163048162,-0.031942122,0.529112935
-1.119071541,-0.035860546,0.303556621,234.8491227,-1,2462,-0.279767885,-0.008965136,0.075889155
-0.057019768,-0.441990048,1.249036551,234.9491227,-1,2463,-0.014254942,-0.110497512,0.312259138
-1.571453629,0.548422277,-1.246639729,235.0491227,-1,2464,-0.392863407,0.137105569,-0.311659932
1.493951263,-1.529616356,-0.452693641,235.1491227,-1,2465,0.373487816,-0.382404089,-0.11317341
7.130231323,0.015763193,-1.727400184,235.2491227,-1,2466,1.782557831,0.003940798,-0.431850046
0.058556976,-0.775019169,1.197638512,235.3491227,-1,2467,0.014639244,-0.193754792,0.299409628
-3.001317558,0.795251429,2.150905609,235.4491227,-1,2468,-0.75032939,0.198812857,0.537726402
-4.453911839,-0.231210917,-2.334626913,235.5491227,-1,2469,-1.11347796,-0.057802729,-0.583656728
2.599358025,-0.432979345,-23.2700634,235.6491227,-1,2470,0.649839506,-0.108244836,-5.81751585
