"CSVFiles/KFoldStratified10LAGUAHData05.21.2021, 00.29.17/Run_1"
Accuracy,0.8730314960629921
Weighted Precision Score,0.8729558062951378
Weighted Recall Score,0.8730314960629921
Weighted F1 Score,0.8711185216374976
-------------------------------
Distribution of Train Events
Non Aggressive Event,Aggressive Right Turn,Aggressive Left Turn,Aggressive Acceleration,Aggressive Braking,Aggressive Left Lane Change,Aggressive Right Lane Change
443,114,282,1433,1134,273,385
Distribution of Test Events
Non Aggressive Event,Aggressive Right Turn,Aggressive Left Turn,Aggressive Acceleration,Aggressive Braking,Aggressive Left Lane Change,Aggressive Right Lane Change
111,29,70,358,283,69,96
Confusion Matrix
,,,,Predicated Class
,,Non Aggressive Event,Aggressive Right Turn,Aggressive Left Turn,Aggressive Acceleration,Aggressive Braking,Aggressive Left Lane Change,Aggressive Right Lane Change
,Non Aggressive Event,86,0,2,7,9,1,6
,Aggressive Right Turn,0,23,0,1,1,0,4
,Aggressive Left Turn,0,0,67,2,0,1,0
,Aggressive Acceleration,5,0,1,336,7,3,6
Actual Class,Aggressive Braking,2,1,3,4,259,3,11
,Aggressive Left Lane Change,3,0,6,8,8,42,2
,Aggressive Right Lane Change,6,2,0,9,5,0,74

----------------------------
Multi Label Confusion Matrix
Non Aggressive Event
,Predicated Class
889,16
25,86
Actual Class

Aggressive Right Turn
,Predicated Class
984,3
6,23
Actual Class

Aggressive Left Turn
,Predicated Class
934,12
3,67
Actual Class

Aggressive Acceleration
,Predicated Class
627,31
22,336
Actual Class

Aggressive Braking
,Predicated Class
703,30
24,259
Actual Class

Aggressive Left Lane Change
,Predicated Class
939,8
27,42
Actual Class

Aggressive Right Lane Change
,Predicated Class
891,29
22,74
Actual Class


----------------------------
