1.3060122
-0.67920923
0.3456037
1.6104269
-1.6451998
1.293997
-0.712883
-1.9385661
2.5092602
-0.03708279
-1.1009597
1.5577098
-1.1550436
0.67036295
0.33389276
-0.5957643
2.2501025
0.5435722
-1.0189425
1.5543855
0.6750358
-0.42610037
0.9167729
0.4254992
1.323288
1.9508544
2.018241
0.7674548
2.302708
1.0040233
2.0642672
3.1452193
1.392911
2.3814178
2.6246123
1.9234238
3.295814
3.1796927
2.8725708
3.1530125
1.8556502
3.024329
3.2344742
2.1675267
2.588162
2.5086036
0.6139241
2.8088777
1.4924632
1.225661
1.1256341
0.2890392
-0.22966516
0.4966116
-1.0330124
-0.3846743
-0.25554383
-2.4843009
-1.2279801
-1.7866919
-3.851832
-1.6644835
-3.1354022
-5.15383
-3.197093
-4.911988
-5.4212856
-4.3607407
-5.475559
-4.675316
-4.317686
-5.293339
-4.833191
-3.8502316
-3.4913013
-3.787785
-4.5067186
-2.984608
-3.612412
-3.7444878
-0.8993871
-2.7274382
-3.1536996
-0.9043778
-2.7819226
-1.8236172
0.27657044
-4.2464247
-0.8289864
-1.683034
-2.0896919
-1.0450656
-2.078477
-1.4872754
-2.3174658
-3.1676762
0.5628054
-1.0259697
-3.382259
-0.9498675
-1.4352512
-2.5264652
-0.8943347
-0.4453734
-1.9262758
