-0.337817386
0.543369858
0.609791948
0.421218881
-0.42807722
-0.613113404
-1.132360185
-0.008692743
0.809671398
0.48446599
-0.3530922
-0.513359169
-0.62236967
-0.503254134
-0.330527316
-0.672545336
-0.32703314
-0.630579755
-0.308237346
0.004348372
-0.441461186
