x,y,z,Event Time,Event Type,Frame,x_modified,y_modified,z_modified
-0.499656258,-0.917049289,-1.540429831,600.9676069,-1,8278,-0.124914064,-0.229262322,-0.385107458
0.809602203,0.51237011,0.523349941,601.0676069,-1,8279,0.202400551,0.128092527,0.130837485
0.740084114,1.570673108,2.691531658,601.1676069,-1,8280,0.185021029,0.392668277,0.672882915
0.806872787,0.177108988,-0.052843466,601.2676069,-1,8281,0.201718197,0.044277247,-0.013210867
-1.074579773,-0.793529332,1.238793254,601.3676069,-1,8282,-0.268644943,-0.198382333,0.309698313
0.107963982,1.28764236,1.606603146,601.4676069,-1,8283,0.026990995,0.32191059,0.401650786
2.12096447,-1.272004843,-2.383858919,601.5676069,-1,8284,0.530241117,-0.318001211,-0.59596473
-0.26208168,0.6717906,1.773969889,601.6676069,-1,8285,-0.06552042,0.16794765,0.443492472
-0.049263535,-1.395914912,-1.116167188,601.7676069,-1,8286,-0.012315884,-0.348978728,-0.279041797
-0.589335022,1.083557844,2.799017668,601.8676069,-1,8287,-0.147333755,0.270889461,0.699754417
-0.381407318,-1.299365997,-1.001641273,602.0676069,-1,8289,-0.09535183,-0.324841499,-0.250410318
-3.14553648,-1.363687515,-1.041112423,602.1676069,-1,8290,-0.78638412,-0.340921879,-0.260278106
0.152669373,-0.725023091,-1.538662553,602.2676069,-1,8291,0.038167343,-0.181255773,-0.384665638
2.004409256,0.913465202,1.023909092,602.3676069,-1,8292,0.501102314,0.2283663,0.255977273
1.131558838,0.741502583,-1.583277583,602.4676069,-1,8293,0.282889709,0.185375646,-0.395819396
-1.03790432,-1.804743648,-0.623296976,602.5676069,-1,8294,-0.25947608,-0.451185912,-0.155824244
-1.874339638,-1.685010552,-1.728773713,602.6676069,-1,8295,-0.468584909,-0.421252638,-0.432193428
2.272588196,-0.310774326,-1.981309891,602.7676069,-1,8296,0.568147049,-0.077693582,-0.495327473
-1.97989851,0.062214009,-0.159425333,602.8676069,-1,8297,-0.494974627,0.015553502,-0.039856333
1.301150742,-1.856265068,0.975790083,602.9676069,-1,8298,0.325287685,-0.464066267,0.243947521
-3.626313744,1.196532249,-0.707305253,603.0676069,-1,8299,-0.906578436,0.299133062,-0.176826313
-1.246439514,1.717777491,-1.9262501,603.1676069,-1,8300,-0.311609879,0.429444373,-0.481562525
1.058494034,-0.148756042,0.104754403,603.2676069,-1,8301,0.264623508,-0.037189011,0.026188601
-0.979438362,-0.352679819,-1.19184649,603.3676069,-1,8302,-0.244859591,-0.088169955,-0.297961622
0.657555046,0.254181355,1.802174449,603.4676069,-1,8303,0.164388762,0.063545339,0.450543612
1.651723328,0.537847519,0.518648803,603.5676069,-1,8304,0.412930832,0.13446188,0.129662201
-1.2160812,-1.446753383,-0.484535128,603.6676069,-1,8305,-0.3040203,-0.361688346,-0.121133782
0.274545135,0.172471702,-1.367281199,603.7676069,-1,8306,0.068636284,0.043117926,-0.3418203
0.189441147,-0.716507673,11.05396175,603.8676069,-1,8307,0.047360287,-0.179126918,2.763490438
-3.267126617,-1.013513088,14.07461739,603.9676069,-1,8308,-0.816781654,-0.253378272,3.518654346
-0.799512444,0.114440337,9.947288513,604.0676069,-1,8309,-0.199878111,0.028610084,2.486822128
0.810990753,3.412837267,7.613936901,604.1676069,-1,8310,0.202747688,0.853209317,1.903484225
-0.377318916,-0.396589428,6.037490845,604.2676069,-1,8311,-0.094329729,-0.099147357,1.509372711
-1.193955956,-0.153295174,8.589109421,604.3676069,-1,8312,-0.298488989,-0.038323794,2.147277355
-0.435297546,0.510516107,6.517687798,604.4676069,-1,8313,-0.108824387,0.127629027,1.629421949
1.945929947,-0.053814054,3.779082298,604.5676069,-1,8314,0.486482487,-0.013453513,0.944770575
-0.430664597,1.090638757,1.45031786,604.6676069,-1,8315,-0.107666149,0.272659689,0.362579465
-2.166284618,-0.471173316,4.542584419,604.7676069,-1,8316,-0.541571155,-0.117793329,1.135646105
0.261519852,1.544955254,0.829311609,604.8676069,-1,8317,0.065379963,0.386238813,0.207327902
0.206260147,-1.337946534,-1.006102443,604.9676069,-1,8318,0.051565037,-0.334486634,-0.251525611
-0.066814003,-0.896965325,2.462828636,605.0676069,-1,8319,-0.016703501,-0.224241331,0.615707159
0.049697342,-0.954582989,1.06736064,605.1676069,-1,8320,0.012424335,-0.238645747,0.26684016
0.55665535,-1.711729527,0.494150013,605.2676069,-1,8321,0.139163837,-0.427932382,0.123537503
-0.163853226,0.721612036,1.501408458,605.3676069,-1,8322,-0.040963306,0.180403009,0.375352114
-1.817475853,3.831743956,-0.701583803,605.467607,-1,8323,-0.454368963,0.957935989,-0.175395951
-1.08560997,-2.756307364,-1.368902326,605.567607,-1,8324,-0.271402493,-0.689076841,-0.342225581
0.834726753,1.387230515,-1.921520829,605.667607,-1,8325,0.208681688,0.346807629,-0.480380207
1.426247063,0.084503397,0.363860965,605.767607,3,8326,0.356561766,0.021125849,0.090965241
0.262244644,0.91620326,1.568102241,605.867607,3,8327,0.065561161,0.229050815,0.39202556
0.227423134,1.913760304,7.214508533,605.967607,3,8328,0.056855783,0.478440076,1.803627133
1.200955811,-0.500931382,7.161471367,606.067607,3,8329,0.300238953,-0.125232846,1.790367842
-0.992208061,-1.200920582,6.120616436,606.167607,3,8330,-0.248052015,-0.300230145,1.530154109
-1.809351501,0.020602457,4.130151749,606.267607,3,8331,-0.452337875,0.005150614,1.032537937
1.088197174,0.550042093,3.47127533,606.367607,3,8332,0.272049294,0.137510523,0.867818832
2.234372559,0.675892353,1.679332018,606.467607,3,8333,0.55859314,0.168973088,0.419833004
2.8191008,-1.029287815,3.738935709,606.567607,3,8334,0.7047752,-0.257321954,0.934733927
0.216929855,1.085937142,4.992513657,606.667607,3,8335,0.054232464,0.271484286,1.248128414
2.030057373,0.424174309,2.906244755,606.767607,3,8336,0.507514343,0.106043577,0.726561189
1.974420967,0.567246199,3.605489492,606.867607,3,8337,0.493605242,0.14181155,0.901372373
-0.281188545,-0.448935032,1.164001107,606.967607,3,8338,-0.070297136,-0.112233758,0.291000277
0.173426094,-0.420108348,3.654545069,607.067607,3,8339,0.043356524,-0.105027087,0.913636267
0.560502472,0.393415213,1.627087116,607.167607,3,8340,0.140125618,0.098353803,0.406771779
0.435501518,0.35660255,2.010180235,607.267607,3,8341,0.10887538,0.089150637,0.502545059
0.210899773,0.764859736,0.341883659,607.367607,3,8342,0.052724943,0.191214934,0.085470915
0.448284569,-0.776403248,-1.680994749,607.467607,-1,8343,0.112071142,-0.194100812,-0.420248687
-0.846644936,0.776031554,-1.954933882,607.567607,-1,8344,-0.211661234,0.194007888,-0.48873347
0.549525681,-1.010057211,-0.172344014,607.667607,-1,8345,0.13738142,-0.252514303,-0.043086004
0.003782692,-1.786598921,-0.221699938,607.767607,-1,8346,0.000945673,-0.44664973,-0.055424985
-0.448930321,-1.405992985,1.486343384,607.867607,-1,8347,-0.11223258,-0.351498246,0.371585846
-0.088432846,0.745829999,5.242683411,607.967607,-1,8348,-0.022108212,0.1864575,1.310670853
-0.022086678,0.272186518,3.512176514,608.067607,-1,8349,-0.005521669,0.068046629,0.878044128
-2.273158607,0.433345467,3.176086664,608.167607,-1,8350,-0.568289652,0.108336367,0.794021666
-0.210256157,-1.39545989,2.394472361,608.267607,-1,8351,-0.052564039,-0.348864973,0.59861809
-0.936966476,1.393187642,4.404794693,608.367607,-1,8352,-0.234241619,0.348296911,1.101198673
0.791185799,0.748948753,1.247379303,608.467607,-1,8353,0.19779645,0.187237188,0.311844826
1.240038338,-2.528916121,3.426462412,608.567607,-1,8354,0.310009584,-0.63222903,0.856615603
0.315331879,2.725852251,2.697809219,608.667607,-1,8355,0.07883297,0.681463063,0.674452305
-4.000315723,1.605353832,0.944263697,608.767607,-1,8356,-1.000078931,0.401338458,0.236065924
-0.404763756,-1.26832819,3.769615412,608.867607,-1,8357,-0.101190939,-0.317082047,0.942403853
1.344729843,-1.572377682,0.850798845,608.967607,-1,8358,0.336182461,-0.39309442,0.212699711
-0.633382378,0.227166042,2.460799694,609.067607,-1,8359,-0.158345594,0.05679151,0.615199924
-0.58391243,2.523649216,0.512420893,609.167607,-1,8360,-0.145978107,0.630912304,0.128105223
0.98656601,-2.081561327,2.758653164,609.267607,-1,8361,0.246641502,-0.520390332,0.689663291
-0.677461205,1.00158,0.724709749,609.367607,-1,8362,-0.169365301,0.250395,0.181177437
-0.194143829,-0.65306145,-0.743752599,609.467607,-1,8363,-0.048535957,-0.163265362,-0.18593815
-1.252925453,0.617571294,-0.41568312,609.567607,-1,8364,-0.313231363,0.154392824,-0.10392078
-0.435412941,0.748173118,-1.098635912,609.667607,-1,8365,-0.108853235,0.187043279,-0.274658978
1.70320076,-0.733047187,2.354857922,609.767607,-1,8366,0.42580019,-0.183261797,0.58871448
-1.369553146,-0.531682491,-0.364375323,609.867607,-1,8367,-0.342388287,-0.132920623,-0.091093831
0.014558258,0.250786901,0.811751842,609.967607,-1,8368,0.003639565,0.062696725,0.202937961
-0.534955559,-0.569349527,3.064057112,610.067607,-1,8369,-0.13373889,-0.142337382,0.766014278
0.279874268,-2.194572449,2.879973173,610.167607,-1,8370,0.069968567,-0.548643112,0.719993293
1.67048687,-0.640980721,3.72441721,610.267607,-1,8371,0.417621717,-0.16024518,0.931104302
2.16637558,0.482634991,3.754104137,610.367607,-1,8372,0.541593895,0.120658748,0.938526034
0.499689522,-0.718672097,3.931120396,610.467607,-1,8373,0.12492238,-0.179668024,0.982780099
-0.608772812,1.592109561,1.822315931,610.567607,-1,8374,-0.152193203,0.39802739,0.455578983
-1.163682518,-0.617628813,2.331608772,610.667607,-1,8375,-0.29092063,-0.154407203,0.582902193
-0.268127022,0.468544453,2.074195385,610.767607,-1,8376,-0.067031755,0.117136113,0.518548846
-1.415782509,0.647195041,1.366496086,610.867607,-1,8377,-0.353945627,0.16179876,0.341624022
-1.261392174,-2.198478699,2.314714909,610.967607,-1,8378,-0.315348043,-0.549619675,0.578678727
-0.664592323,-1.583326101,2.823451757,611.067607,-1,8379,-0.166148081,-0.395831525,0.705862939
-0.180340347,1.506900907,2.645882368,611.167607,-1,8380,-0.045085087,0.376725227,0.661470592
0.430440369,1.049096465,3.826226711,611.267607,-1,8381,0.107610092,0.262274116,0.956556678
0.655273857,-0.018728647,2.004985571,611.367607,-1,8382,0.163818464,-0.004682162,0.501246393
0.201386871,1.533234715,2.307016611,611.467607,-1,8383,0.050346718,0.383308679,0.576754153
-2.007845459,0.502023816,2.15928483,611.567607,-1,8384,-0.501961365,0.125505954,0.539821208
0.647609177,0.50468719,2.941558838,611.667607,-1,8385,0.161902294,0.126171798,0.735389709
1.331543388,1.396836519,1.509783745,611.767607,-1,8386,0.332885847,0.34920913,0.377445936
1.794736328,-0.407987416,1.955065131,611.867607,-1,8387,0.448684082,-0.101996854,0.488766283
0.132335129,1.812817693,3.187636375,611.967607,-1,8388,0.033083782,0.453204423,0.796909094
-2.48110157,1.361800075,4.198722363,612.067607,-1,8389,-0.620275393,0.340450019,1.049680591
2.583986702,-2.036293745,5.296439171,612.1676071,-1,8390,0.645996675,-0.509073436,1.324109793
0.040271225,-0.570836782,3.411630392,612.2676071,-1,8391,0.010067806,-0.142709196,0.852907598
0.595475616,-1.429680109,-0.274539471,612.3676071,-1,8392,0.148868904,-0.357420027,-0.068634868
-1.802098808,1.053574085,1.478210449,612.4676071,-1,8393,-0.450524702,0.263393521,0.369552612
