0.429961339
0.181047636
0.133009341
0.411710172
-0.121839518
-0.011585502
-0.346254729
-0.100120348
-0.553781118
-0.430105314
0.146691134
-0.046131606
-0.807630164
-0.414243796
-0.744452668
-0.102292346
0.220235234
-0.481070248
-0.910502712
-1.11943446
