0.011909246
-1.1167779
0.47291404
-0.21927738
0.4602257
-1.1743749
-1.4900379
0.20617339
2.3130512
1.5516489
-1.3879237
-3.797492
-1.747278
1.7480547
3.1881967
-0.7700529
-2.048809
-0.7258892
0.6347712
-0.46507266
-0.8356788
-0.4423644
2.0225966
-1.2048478
-1.6494827
0.4477915
0.9411463
0.29520172
-1.9569771
-0.78219366
-0.89913046
1.5381619
1.4551151
-1.046319
-1.9439082
0.72062933
1.9784266
-0.46172047
0.69615597
0.1299684
-1.855799
-1.1461568
0.7399674
1.0472343
0.011059672
-1.5342667
-1.1401483
-0.8986543
0.49292088
1.972423
-0.77971905
-1.9707813
-1.5647715
0.6097393
1.4459951
-0.33337784
-0.13424331
-1.4764619
-1.2097367
0.23382598
0.4719267
-0.6658362
0.677493
0.5116961
-1.4580152
-1.8203886
1.3780596
2.1580155
0.11705679
-1.2732387
-0.64473176
0.13540632
1.1237146
0.16417578
-0.117598034
-0.33754858
-0.83266735
0.31444016
-0.5918772
-0.87103695
0.27106693
0.0064753294
-1.1312348
-1.3011485
0.7386176
1.3015519
0.11343085
-1.1676056
-1.7285739
-0.093613654
1.1333576
0.39980257
-2.7774692
-0.696941
1.4712781
-0.82002985
-1.1013298
0.6922616
0.58759546
0.34316868
-1.6473508
-0.040087402
0.07358509
1.4171021
-0.2112804
-1.6794456
-0.9394462
0.8294226
1.2526747
-0.47129944
-1.0927558
-0.3473346
0.39206374
0.57104814
0.92890906
0.6692188
-0.3871385
-0.9265373
-2.3581817
0.63871014
0.76453465
0.49434307
-1.3861129
-1.4413536
0.77802134
-0.12405053
-0.37861112
-0.26244327
1.0720785
0.12837523
-1.2180042
-1.0086744
-1.167664
0.83129203
1.1546037
-0.87715
-1.3651385
1.1666957
0.7664172
0.18011853
-0.6717052
-1.0253687
-0.07296252
0.38084942
1.2509544
-0.38630754
-0.34070584
0.044635057
0.27191907
0.9929281
-1.3908944
-0.69562155
1.0803468
0.63752115
0.29223996
-1.5179229
-1.2575037
0.24031636
0.9726798
-0.395971
-0.553211
-0.16978028
0.8200257
-1.4318348
-1.91132
-0.3419646
1.5902486
0.565395
-0.61663705
-2.0176573
-1.5131457
1.3313178
0.2776475
-0.6854369
-0.63760173
1.2076907
0.59667236
-1.4348521
-0.5529049
0.36768085
1.3061163
0.3332574
-1.2337394
0.23065287
1.0893396
-1.4778205
-0.39663768
1.5446479
1.0673872
-0.29348204
-0.5800742
-0.274162
-1.7633975
-0.98580873
1.5818738
1.5389564
0.4984598
-1.9925606
-1.2214584
1.011471
1.227424
0.8771725
-0.25082856
-1.6994653
-0.3668973
-1.6731771
