0.21019918
2.1191366
-0.06050992
-2.0619822
-1.9323918
0.49540612
3.3087134
0.9894031
-2.221644
-2.9540322
-0.19339144
1.5637844
0.31961352
0.411398
0.21761745
-1.2933055
-0.7760321
-0.23789902
0.49824598
0.71756154
0.94480985
-1.2572664
-1.1599107
0.13929284
0.36726937
-0.07015061
0.6817674
-0.8024568
0.25558543
0.5035259
-1.5569234
-0.2989137
1.1405089
0.38082743
-0.26265645
-1.1205665
-0.61615425
1.3158568
0.1677289
-0.4193433
-0.54866624
0.8568182
0.4371947
-1.638504
-0.8922746
0.82586336
0.94210994
0.29480523
-0.83972263
-1.720618
1.142004
1.0328608
0.36621815
-1.3363491
-1.7386204
0.005921304
1.9932275
-0.8743663
-1.297565
-0.5864226
1.7323472
1.666269
-2.5628092
-1.6892638
1.7329066
2.197594
-1.0056973
-1.7925003
0.028210282
1.5490979
-0.38319904
-0.67129743
-0.62617373
0.42177778
2.0967884
-0.3001595
-2.8276849
-0.91368884
1.9618685
-0.15713787
-1.1640042
-1.6409175
0.5419527
2.2693732
0.056911707
-3.9642057
-1.5654219
3.010598
2.3912609
-1.6282454
-2.850779
-0.39566004
1.163233
1.65717
-0.8970251
-0.38772565
0.5961418
-0.22148705
-2.369827
-0.74027395
1.1355922
2.5389483
-1.6566
-3.8697352
-0.41760916
2.2907584
2.9585536
0.32400763
-3.4212656
-0.77333736
1.8874519
1.3058013
-0.99183285
-0.77229273
0.97334695
-0.7792525
-1.6029497
-0.45865703
0.83199126
1.9415486
-0.48527145
-2.9829473
-0.43097633
1.1961151
1.3804454
-0.3627025
-2.1660786
-1.9932668
1.5576866
2.2951822
-0.9885437
-2.6109574
-0.40679115
1.147691
0.5500219
-0.023839086
-0.41361308
-1.004239
-0.10909915
0.20915419
0.15786451
0.26864812
0.6225308
-0.11894035
-2.1503162
-0.15370184
2.8756773
2.219821
-1.2915347
-3.421433
-1.8022563
2.0717006
2.3576624
-0.6596414
-2.8798325
-0.64925385
0.79946935
-0.054641217
-1.3153019
0.6983794
1.1322985
-0.38803577
-1.7695727
-1.0381926
1.6112117
1.9364865
-0.5025543
-2.7153862
0.05092756
1.9998434
0.56933105
-1.434086
-1.198291
0.76768273
0.39259553
0.081593856
-0.6104075
-0.0072182417
-0.7023009
-0.06514543
0.17381462
0.9787473
0.43888035
-1.8363506
-0.020164073
1.2051703
0.48919952
-1.365557
-1.292075
0.5248436
0.25376785
-0.32982725
-0.17727055
0.052523255
-0.08711547
-1.4807532
-0.52363724
1.6553141
1.1500709
-0.20878708
-3.034867
-0.7443964
2.135077
1.7681395
-0.797292
-1.243748
-0.1406806
0.53816307
1.1291906
-0.6491122
-1.6668983
0.7900131
0.013158381
-0.11667363
-0.35233384
-0.57206744
1.5987952
-1.1475564
-0.83295876
0.5454502
1.0394243
0.2035948
-1.1834649
-1.5177052
0.5669882
0.43285322
0.262535
-0.2828394
-1.9307381
-0.6477595
1.290745
-0.13420391
-0.40369204
0.12115806
-0.2587953
-0.60157216
0.7704617
0.840106
-0.42348078
-0.7274868
-0.20473272
-0.136893
0.8019804
0.22026017
-1.355822
-0.39930248
1.237566
0.19949703
-0.83224475
-0.04853785
0.090844035
0.23818597
0.061884865
1.5495392
-1.7109464
-0.73906875
0.46354866
0.032221228
0.81374764
0.74227476
-0.55243707
-2.3776386
-0.8464463
2.1688309
1.690478
-0.7584323
-2.0489404
-0.88977736
0.6563747
0.5960122
0.59303045
-0.7931603
-1.189317
-1.2202904
-0.46425438
0.65947455
1.0491271
-1.2088975
-1.7194738
-0.25269577
1.3851098
0.41439128
-0.6524933
-1.1099998
0.008085966
0.10617179
-1.2676127
-2.1525428
-0.112252116
0.6685295
-0.62321275
-1.6537846
-1.2066815
1.739766
-0.39222372
-1.115416
0.58070016
0.8217026
-1.0741078
-1.3509743
0.41437572
1.9685429
-0.77681684
-2.7973328
-0.45933867
0.93632877
2.1192982
-1.7976806
-1.4587073
-0.7915598
1.5009476
0.808616
0.7860792
-2.1532784
-1.7677132
0.29700887
-0.26319605
0.771037
0.32954735
0.57210326
-1.2617017
-2.6334412
1.0276232
2.3584661
1.8291512
-1.2811649
-4.1537085
-1.4445002
1.9842125
1.8036416
-1.0223455
-2.5831287
-1.9261978
-0.5338287
-0.13197964
0.6819044
0.40465528
-0.6748694
-2.4207468
-0.6540071
-0.8915758
1.3735567
0.90843135
-0.9352218
-3.008901
-0.63962245
0.4887858
0.513531
-2.038347
0.3282804
0.32439896
-0.5349736
0.23150781
-0.48611528
-0.21830958
-1.5214411
-0.630573
-0.44012326
0.7118013
0.38155562
-1.7738398
-2.8401911
-0.6026356
2.9757636
1.3199456
-2.7032228
-1.3028061
-0.36115265
1.5341128
0.70622486
-1.5950056
-1.0262976
-1.0488186
0.92793864
0.7255617
0.035182536
-0.79490006
-0.940047
0.8292741
-0.058624446
0.03486246
-0.5838865
0.17733979
0.5971397
-1.2246403
-0.46310097
-0.6031871
-0.4991726
0.15462929
-0.17443186
-0.27426893
-0.74171907
0.1606797
1.4430113
0.6444314
-3.3452783
-1.075875
1.9702682
1.2474847
-0.94187814
-1.6631079
-1.2183694
0.96688795
1.0642748
0.49316728
0.24686714
-0.006918192
-2.1124768
-0.76750034
1.5400338
-0.093981564
-0.81225085
-1.4934685
-1.3642993
