-1.8187762
-0.69519746
2.4935522
1.735066
-2.4417043
1.3224757
7.4021807
-0.9660378
-5.5349016
5.1187716
5.6939197
-3.9621782
-0.08233416
8.172116
2.2942936
-3.0090744
2.9356086
5.016427
-2.6733158
-1.9131198
7.0291753
4.937804
-4.5093865
2.7765365
8.763981
-0.37704307
-2.4088678
3.9402483
3.7828305
-1.2712877
0.52617234
4.4059772
3.1524353
0.043735906
1.0982947
2.484809
0.86601615
0.69387674
2.2139232
2.2901669
2.2292733
2.885556
1.7504452
1.4282937
2.3500872
2.311174
0.9902672
1.8067868
3.0191505
2.7913756
1.1340044
1.6614311
3.174724
2.1780562
0.9308983
3.5806937
3.7715478
0.9251739
1.7144845
4.0604644
1.6104923
-0.568961
2.1086206
3.229766
1.5731037
2.7963562
4.087828
2.4764447
1.7653189
2.4200623
1.7265341
1.0846355
1.7095816
2.1086063
3.1036587
3.6304383
2.0414538
1.7626909
3.0783238
2.9960065
1.5193796
3.2488363
5.0184135
2.8108654
1.61046
4.0102987
2.6212664
-1.2396762
0.06283682
3.881295
1.9387286
0.63381296
3.8903022
5.3106513
2.6319146
0.80073494
1.4537768
1.5207899
1.0570111
2.4897842
4.591208
4.0734415
2.7053928
2.984066
2.4329872
0.7622678
0.42259473
1.782193
3.0914683
4.6586075
4.247184
3.401182
3.2627928
3.273769
1.7388315
0.29827252
0.6377229
2.736133
3.8371513
3.6951857
2.9655519
2.1359959
1.056703
0.9535463
1.1456149
0.8390399
1.192854
2.6033928
2.8075278
1.5077014
1.698059
1.6484991
0.33871153
1.0100019
2.241057
1.72437
0.1154173
-0.531911
0.4560027
0.8465909
-0.7091432
-0.9725095
1.3146361
2.370857
-0.6358451
-1.4060652
1.2784266
-0.42634457
-1.984645
3.7043827
1.7079998
0.8883927
0.6268356
1.8506169
-0.30421877
-2.282822
-0.8449453
0.38736582
0.14364994
0.98683214
2.3522296
1.1141901
-0.036409974
-0.6035547
-2.6147923
-4.609308
-1.7671536
1.8513622
2.1365273
2.2814858
3.1780422
1.1765482
-1.7438776
-1.76864
-1.6042726
-2.5769048
-1.0784202
1.4420092
1.0449218
-0.39909086
-0.11160922
-0.96599996
-3.7109885
-3.9442897
-2.513918
