3.0557854
0.39899993
-1.6005343
-2.1556
1.3573204
2.554626
0.49771154
-0.05543679
-0.76278967
1.1086388
1.5472407
3.0431714
1.2601492
-0.106975675
0.37996948
1.5382823
1.7315052
0.873945
0.14989042
3.6334891
3.3819876
0.020590603
0.010423183
2.3285573
5.2685003
3.0934904
0.40300858
2.2449207
2.8404875
5.1869884
3.0465696
1.0551898
3.2088578
3.3659654
4.916909
4.256732
2.2937388
0.63037586
4.7156115
5.324716
3.0379183
4.6281004
4.8103213
3.076974
1.5556611
1.7244648
3.8269825
6.0777383
5.124884
3.6923192
2.036212
2.4514763
5.3766923
5.375561
3.8537905
2.9994588
3.3573987
4.7971797
3.719711
4.6484394
5.68713
4.0197725
3.6189444
2.471455
2.8083758
3.663336
3.6271544
3.0005884
1.420868
2.2679074
3.234766
3.3350163
2.4731245
2.2078907
1.2533888
2.631415
2.8718371
3.0453653
1.5992438
0.8139168
0.5616561
1.7694438
3.53936
2.9915
1.1660845
0.17526804
1.0749086
1.9464557
1.4622368
0.7843046
0.7112559
0.9796196
0.95034903
0.51990294
0.46727943
0.7199476
0.75970554
0.83021533
0.38191116
0.7481734
-0.8468893
-1.2533805
0.017227344
0.55248296
1.5527384
0.98646426
0.31999072
-0.48652458
0.30948523
1.6137381
2.4701593
3.992029
0.9754532
-0.20682344
1.6162548
2.1985528
4.1127276
4.03379
2.7348356
1.7925576
1.6899638
1.7794502
1.9632305
3.183425
3.8577876
0.73862755
-1.3376936
-0.94329774
0.88622063
1.8211447
-0.41399312
-3.0835996
-2.7829282
-1.7260343
-2.1685956
-2.4105945
-2.0537472
-1.2362429
-3.1387959
-4.058191
-2.3914328
-3.6985736
-1.7466016
-2.4616818
-3.1576447
-1.7248768
-1.0109222
-0.63305664
-3.911236
-4.3452053
-0.71266496
0.7260076
1.4599518
-3.5862799
-4.622405
-2.277899
-0.9497375
-1.1065277
-2.434712
-2.086858
-2.9561884
-3.249395
-2.6587853
-3.8245158
-1.6506374
-2.6182768
-3.1479402
-3.8453236
-2.718656
-1.3022273
-2.9654567
-4.9143195
-5.1303124
-2.3845975
-0.13834691
-1.2972056
-2.1535835
-2.9527705
-3.9814048
-1.0719283
-1.2071974
-1.8821014
-2.4698558
-3.0495942
-2.6717849
-1.8103364
-2.624507
-2.9205294
-3.4987864
-2.3542576
-3.2957654
-2.4455142
-2.5327137
-1.7902075
