1.1842782
1.3112085
-0.31637886
2.0490074
0.9566699
-0.10591388
0.78023434
2.4242663
2.571577
0.24962682
-0.6518669
-0.024697304
2.9545307
1.6040058
1.2528448
-0.39170837
0.3419093
2.4311998
1.4509896
2.40692
-0.63296115
2.0156384
0.8735542
-0.2552783
1.677274
2.067195
1.5665201
1.3200089
-2.00279
1.0164669
3.101853
2.1115584
-0.32348973
-1.543177
1.919167
2.5131254
-1.064282
1.7115113
1.0110297
0.062330008
0.9233665
-0.056827053
2.8034601
1.3527495
2.2374892
-2.6022975
-1.1639786
3.5159295
1.905326
-0.2039359
0.56568277
-0.4927019
0.92246366
1.3276815
1.9436901
1.9063278
0.07130194
-0.64111376
1.6073226
2.5637193
0.79218864
1.1710289
-0.70261204
-0.42458653
2.7384644
-1.3506801
1.1401486
3.172644
-1.8186231
-0.19344898
0.9989996
1.0098286
1.7991465
-1.0610698
-0.4087798
2.0060914
3.485141
0.19104692
0.35643202
0.777127
1.0444794
1.6384934
-0.7237872
3.301952
0.52673984
-1.1758754
-2.528453
-1.979174
1.6732292
0.84351146
-1.285163
-4.4203672
-2.0429597
0.6586908
1.240926
-1.5957842
-2.477995
-1.8123395
-0.23029494
0.21931568
-1.7818516
-2.8742065
1.7677655
1.2886589
-2.0709662
-1.6687307
-0.030334055
1.1808431
-1.4386457
-1.4280457
-1.3582724
2.015904
-1.4523771
-1.8024907
0.26325905
-0.025160313
-1.981374
-1.4031843
0.495407
-0.92457294
-2.1867104
-1.4897872
0.26560223
1.0393555
-0.91055727
-4.2282033
0.4853331
4.03258
2.0639791
-1.5104463
-0.42250323
-0.0028386116
2.5355897
1.3729368
-0.84510666
0.19674563
0.64293814
1.6354718
-1.0912758
-0.08680615
1.9492167
2.1994143
0.9256216
-3.0700092
-0.07838893
2.1401033
1.1122739
0.94349504
-2.1193714
0.13154852
2.369215
0.6922833
-0.11888516
1.1513047
0.15344286
-1.595062
0.9646079
0.8538113
1.358192
-0.7668134
0.06033528
-0.13924855
0.3735972
2.419003
0.21618387
-1.3499582
-0.28919017
-0.21548605
1.6621742
0.19502366
1.4875183
0.26672637
-0.22536111
-0.90665793
-0.78100574
1.8400557
5.1502485
0.8483325
-2.1115456
-0.7452547
1.6736927
4.2424
1.8577498
-0.8660937
0.63710594
-0.2343731
-0.086794734
1.4537796
3.3855329
-0.30786225
-2.9762673
0.5702882
0.7877536
1.0552925
2.0290034
0.09010887
-0.84251094
-3.174738
0.04145488
2.5953069
2.0513408
-0.8163813
-4.121278
-0.8861126
1.4853716
1.2776165
1.4730601
-0.49203885
-0.87915444
-3.1372392
0.7303279
0.48183143
-0.286512
-1.3268887
-1.9846501
0.99862736
-3.601313
0.7838734
2.3015227
-2.916296
-3.4712744
-0.37708268
3.881559
-2.3936758
-2.8920891
-3.7372017
0.6538328
3.5690596
-2.6793048
-1.2271597
-2.8345199
-2.0797844
1.9091644
-1.1791523
-3.0829885
-1.6294985
1.9384625
0.1667558
-5.0376368
-1.4634008
0.38314843
0.27643514
-2.3669052
-6.33316
2.2057476
3.32582
-3.3112278
-6.8350163
-2.867074
3.9850564
1.9829006
-5.047207
-5.916396
-1.019182
1.0960441
-0.2279315
-1.4790626
1.3815643
-0.5428302
-7.83403
-4.8232174
2.09095
3.194909
0.64309406
-6.6669188
-5.542249
-1.7881348
2.55999
0.17093992
-4.263826
-3.8627763
-2.239303
-0.009814978
-0.71873975
-1.1573865
-0.35195813
-2.5263202
-4.275717
-3.6469064
1.2431953
3.7387683
-1.2151664
-7.3459463
-4.6040463
-0.7218423
3.2252705
1.0670464
-5.3387403
-6.08181
-3.5131006
0.92165565
1.2114954
0.6266118
-3.496425
-6.944704
-3.3275142
-0.80028117
1.7006873
-0.56897676
-5.8733816
-3.806186
-2.3606734
2.2924256
-2.0821595
-3.1044617
-2.1429365
-3.040129
-2.1345897
-1.0515684
-0.510522
1.3572643
-5.397615
-5.626774
-0.8754108
0.40734014
-0.5507101
-4.703315
-2.0749707
-0.8766124
-1.114026
-2.6195254
-3.078396
-1.8764136
-1.0711758
-0.11471534
-2.4761066
-2.278573
-1.3875384
-1.5059328
-1.0215385
-4.629218
-3.4772031
-0.7460318
-0.684463
-2.0769997
-3.5212216
-3.0995686
0.18241812
0.582878
-3.2344851
-2.248047
-2.31771
-0.78572446
-1.31388
-0.94546425
0.60544884
-3.111752
-6.0655203
-2.0872664
3.801134
1.3874382
-5.3017683
-2.9747243
-2.1676676
1.6978332
0.0640707
-1.4971104
-2.8062792
-5.442431
-0.33810055
1.9611495
-0.6816484
-1.7054007
-5.0442095
-1.323155
-0.51064366
-0.32890153
0.046957076
-3.4872022
-2.1426742
-1.5171298
0.71566635
0.19450414
-1.3379996
-1.7676127
-2.2093856
0.047366917
0.12776423
-0.43601185
-2.0627725
-2.797777
-1.8918042
-0.49930954
0.69556874
-0.1091432
-2.8960776
-1.3473814
-1.01113
0.062324822
-0.44646022
-1.8083057
-1.4699906
-0.97705877
0.69647783
-1.1191527
-1.6274755
-0.65448284
-0.36309367
-0.2618897
-2.8917408
-2.832281
-0.6950021
0.73148894
0.106595695
-2.7449498
-1.4778931
-0.1774262
0.14358109
-0.45275468
-1.6336436
-0.23362309
0.70352983
-2.253221
-3.607756
-0.6074283
2.2485063
1.0597336
-4.351311
-4.4144263
-0.09443102
