1.0450956
0.13371241
-1.1783397
-0.85952085
-0.108358234
-0.09335095
0.83142155
1.5023938
-0.18055522
-1.2258554
-0.92039335
-1.0045084
-1.3250443
0.04684637
1.3052398
1.0992677
0.9189793
1.0596161
0.24823731
-1.1029854
-1.3143915
-1.5066168
-1.2371546
0.0231736
1.4177449
1.6500112
1.9854833
1.6378903
0.15664446
-1.3118553
-1.8523419
-1.3140843
-0.47781056
0.89762336
2.2208164
2.3677993
1.5423602
0.73921233
-0.659065
-1.7589533
-1.0029974
-0.12983161
0.42068195
1.187267
2.1937442
1.4284748
0.37705982
-0.23384249
-1.1922848
-1.6128607
-0.7353063
0.09592933
1.1936777
2.4130394
2.1266959
0.898878
-0.13144994
-1.8148023
-2.9258866
-1.9051783
0.11781716
1.3084075
2.258216
3.0106273
1.9075167
-0.06145799
-1.1356876
-1.5581446
-1.9188688
-1.5288512
-0.002267331
1.3969773
1.8829381
2.2057688
1.979465
0.4238204
-1.262461
-1.5929246
-2.0004168
-1.6110766
0.65198433
2.2303994
2.5409803
3.0707688
2.7471988
-0.4145822
-2.3474407
-2.1025808
-1.5568011
-1.0034292
0.7703115
2.7524521
2.0442808
1.8524377
1.0989108
-0.97743154
-2.0790186
-1.2970748
-0.8652794
-0.19726063
1.12576
2.246861
1.4723077
0.32399893
-0.4613031
-0.90805995
-1.1924857
-0.28428325
0.8871265
1.1729736
0.6442655
0.53704953
-0.021621391
-0.9257416
-0.50104135
0.3734703
-0.621109
-0.7538743
0.933745
1.1234813
-0.00941661
0.63733196
1.4320147
0.026075184
-0.80186355
-0.21014196
-0.48396906
-0.18189813
0.8197055
1.2567884
1.2829148
1.4087623
0.08978972
-1.4670933
-1.1392589
0.29008028
0.5876201
0.14182788
0.40075624
1.1122665
0.49295008
-1.7753237
-2.7273803
-1.5628558
0.8060168
0.19341081
-1.1589248
-0.08462874
0.692977
-1.0254192
-1.5972824
-0.43384796
0.29821151
-0.051159263
0.45646477
0.86529684
0.06259996
-1.3506058
-1.1123555
-0.582173
-0.9246781
-0.6338278
0.18092245
0.04468885
0.13206398
-0.08297387
-0.80888456
-1.1032822
-0.477682
-0.7548722
-0.98283285
-0.7030428
-0.4302474
-0.53900236
-0.06355724
0.23571008
0.26458386
0.2764906
-0.6308608
-0.75629866
-0.41068706
-0.60382044
-0.57110834
0.75229514
1.9358742
1.6466432
0.37784302
0.35860762
0.3334601
-1.4918798
-1.7842185
0.2932607
1.4130629
1.398182
2.091699
1.9289299
0.15148588
-2.1929743
-2.4554367
-1.1692922
-1.7679963
-0.13250276
1.6585121
2.4979272
1.1847013
-0.16243927
-1.2743936
-3.2574208
-3.6017137
-1.3221176
1.0971656
1.6564264
2.4187808
2.750785
0.5993956
-2.0144043
-2.5585914
-2.093958
-1.3861121
1.3541901
3.160701
3.0711086
2.2068791
1.154789
-0.9596793
-2.4729729
-1.9883034
-0.6251525
0.6450168
2.2351122
2.5027504
1.5451524
0.27058938
-1.605021
-2.9506967
-2.5203595
-1.0745398
0.49181324
1.7970219
2.377313
0.97289425
-0.8477957
-1.6810966
-2.5036182
-2.2403574
-0.28937048
2.018459
2.3874657
0.9030694
-0.45341524
-1.4416641
-2.8602371
-2.507846
-0.24279448
1.0627899
1.497035
2.0939353
2.0079973
-0.04900291
-2.1229396
-2.0977604
-1.361134
-1.2908993
-0.16888893
1.9587232
2.4449987
0.84392524
0.08109498
-0.17920291
-1.9242572
-2.1394272
