9.804905
9.000699
8.684806
8.913827
9.243969
9.44551
9.532663
9.096261
8.606044
8.554077
8.813717
8.891444
8.936142
9.282362
9.732446
9.659893
9.363886
9.290657
9.193351
9.01284
9.076122
9.306003
9.490338
9.589806
9.237544
8.618424
8.366356
8.759089
9.368192
9.669991
9.910835
9.949766
9.542203
9.0119705
8.917734
8.926419
8.98123
9.351274
9.565154
9.61625
9.616358
9.248881
8.651878
8.829142
9.475699
10.0461855
10.220028
10.119628
9.615435
9.082991
8.7405405
8.553474
8.932278
9.718771
10.328034
10.703356
10.561766
9.692464
8.964535
9.121174
9.180729
8.910798
9.216236
9.84211
10.097468
10.042239
10.000685
9.721688
9.142692
8.8030405
9.089894
9.5186405
9.809265
10.007762
9.862663
9.256376
8.831592
8.777253
8.826813
9.306834
9.794001
9.508284
8.812743
8.687222
8.461772
7.9480534
8.332178
9.682432
10.368231
9.956845
9.81325
9.365016
8.3611
7.9309115
8.003304
8.228222
9.400542
10.976278
11.429081
10.726682
10.145586
9.297417
8.218582
8.295479
9.378535
10.274017
10.821748
11.131661
10.833005
9.733634
8.62564
8.031682
8.108793
9.192888
10.747182
11.112978
9.781127
8.678573
8.525042
8.09392
7.882029
8.700585
9.675377
10.077746
9.962881
9.328174
8.361027
7.574512
7.4003544
8.225566
10.068433
11.000294
10.579246
9.957173
8.998626
8.372727
7.9444156
7.8398786
8.746068
10.671351
11.583176
10.151847
9.088881
9.115278
8.6758
7.727004
8.22289
9.777775
10.830679
10.82497
10.274368
9.667429
8.840448
7.5698338
7.3837824
8.593054
9.536926
9.718974
10.007463
9.507493
8.042107
7.275892
7.2644176
7.5717516
8.418679
9.348034
9.726371
10.12051
10.053962
8.97931
7.7792673
7.398559
7.6364026
8.531982
9.90207
10.851222
10.674592
9.424107
8.068581
7.477114
7.769436
8.524147
9.539705
10.616762
11.11341
10.059951
8.391585
8.017253
8.241545
8.3192005
9.110707
10.851056
11.487055
10.441403
9.717284
8.964023
7.5019116
7.2768087
8.776273
10.636149
10.325896
10.640171
10.155106
8.480404
7.237969
7.3325424
7.701359
8.492808
10.041227
11.083999
10.379695
8.851317
7.989336
7.6160116
7.7156687
8.734288
10.086351
10.796397
10.892823
10.193586
8.694714
7.662517
7.867995
8.834112
10.129151
11.141648
11.400886
10.64298
9.296377
8.006237
7.4050474
8.048818
9.546345
10.821926
11.629408
11.544059
9.852702
7.6139383
6.338678
6.346263
7.635742
9.900461
11.492745
11.173291
9.651589
8.165904
6.727574
5.9689336
6.8357244
8.873019
10.882924
11.979888
11.645339
9.693752
6.8730397
5.0297737
5.1810126
7.0342216
9.78975
11.905468
12.798113
11.441158
8.259297
5.8156066
4.9034376
5.712362
8.061787
11.035484
13.203326
13.279435
11.426213
