8.4718
7.5525317
8.874653
10.84308
10.055189
8.122795
7.3513737
9.76634
10.919792
9.773752
8.204261
8.733078
10.025738
9.895621
8.59354
8.700611
10.088391
9.541823
8.71066
8.1588
9.384177
11.030926
9.508294
8.444975
8.075479
9.425015
10.396392
9.331185
8.49123
8.130533
9.198584
9.639225
8.326875
7.9525123
8.799485
9.5843525
9.666297
8.209712
8.6854515
9.740176
10.044729
8.934513
8.08676
9.326142
10.504793
9.432469
8.495895
8.862933
10.357414
10.709068
8.258918
7.9952226
9.050766
9.56059
10.054103
8.60621
7.6157675
8.29343
9.195131
9.199128
8.931071
8.349922
9.071031
8.928041
8.9168625
8.885464
9.085398
9.499088
8.856867
8.375965
8.6723385
9.772708
9.981204
8.532168
7.3499136
9.298535
11.290409
10.24968
7.678936
7.7331448
10.635428
11.03495
9.039714
8.7723055
8.552121
9.095956
8.246149
9.677435
9.879201
8.5596895
7.188612
8.576449
11.223629
10.786452
8.846716
7.796339
9.5496235
10.908502
9.4418335
8.853236
8.727077
10.033788
10.086269
8.873268
8.740875
9.393393
9.909831
9.555934
9.483404
9.904063
9.682026
9.972884
9.188621
10.411316
9.657965
10.095827
9.745761
9.125846
9.3890505
10.1917305
9.671452
9.424523
9.379145
10.054407
9.336124
9.686684
10.07941
10.297208
9.335352
9.720419
9.808969
10.519604
9.595012
9.504655
9.734181
10.067949
9.285066
9.995368
10.738297
9.158171
9.214727
11.613438
7.4566827
12.057158
9.745393
10.675912
9.391783
7.321047
12.698263
10.87955
8.66872
6.7730145
9.432881
11.142668
8.857524
9.009371
7.5670605
9.275281
9.72005
9.182394
8.484843
8.010448
7.878682
8.6805315
8.372932
9.609654
8.87974
8.802215
8.5625515
7.9803314
8.780463
9.663296
10.01738
8.669554
7.676205
8.60255
10.162519
10.043104
8.35293
7.933838
8.847098
10.181645
9.792626
8.021225
7.747068
9.00289
10.444936
9.815622
8.064131
8.015097
9.04333
9.934684
9.440266
8.61578
8.687076
8.991442
9.070204
8.8078785
9.020292
9.328163
9.144344
8.658513
8.516622
9.166577
9.596067
9.273024
8.676345
8.574048
9.173964
9.457476
9.150891
8.737397
8.774915
9.14021
9.192117
8.997812
8.877801
9.018853
9.135373
