-1.3750914
-1.2058206
-2.0802388
-0.37747216
0.45640445
-3.3694146
-4.726181
-2.451477
-4.0422964
-5.8253717
-3.1353312
-0.8756647
-2.4481018
-2.1409945
0.12591064
-0.42492032
-3.7903779
-3.8644223
-2.0767555
-2.9612532
-4.025239
-1.8079739
-0.5338422
-1.4890671
-2.5529966
-2.4522934
-3.4835367
-4.054503
-2.4347646
-2.202274
-3.1864295
-1.5752168
-1.3993099
-3.313657
-3.4828136
-2.1089334
-3.0385501
-4.005678
-1.9619442
-1.1600704
-1.8722417
-1.9399943
-1.7796717
-3.1188307
-3.9014707
-4.0848207
-3.9018912
-3.37842
-1.9907229
-1.2888609
-1.3529137
-1.3295939
-2.003393
-3.7905288
-4.420451
-4.0225015
-3.2551105
-2.1506948
-0.77326286
-0.024175644
-0.6106
-1.6732084
-2.8726566
-3.7380395
-4.17889
-3.2930393
-2.0490909
-1.0749662
-0.4015156
-0.55217254
-1.8231696
-3.0463717
-3.7640257
-4.221952
-3.6463656
-2.267627
-1.3300848
-0.7487712
-0.5566268
-1.295349
-2.3498926
-2.8717086
-3.0554645
-2.6902974
-1.6126235
-0.52330124
0.07837808
0.18365169
-0.27092516
-1.2034156
-1.9362063
-2.1904182
-2.1346192
-0.60134935
0.8682978
1.0335659
1.3345817
1.5455521
0.71381843
-0.3245701
-0.24827853
0.14472273
0.4292972
1.0443592
2.1264596
1.9423796
1.1016955
1.1155615
0.89960396
-0.34764758
-0.25083533
1.0746882
1.1704384
0.95293415
1.6134909
1.6300565
0.46504068
0.04100114
0.33028978
-0.055576667
-0.27699393
0.5660504
1.0335919
0.7616474
0.99771315
0.9735808
0.25291184
-0.11435941
0.08913255
0.07502808
0.2618682
0.8703707
1.0435903
0.94193375
0.8392856
0.5877811
0.10842122
-0.128407
0.004919544
0.13921851
0.4777308
0.8830368
1.1118467
0.91729605
0.6285077
0.27979404
-0.1272809
-0.21117191
-0.0064023733
0.40345505
0.74629164
0.9968622
1.0318809
0.68076587
0.22877279
-0.07917088
-0.22569813
-0.19823219
0.30026847
0.86182916
1.0494139
1.0929271
0.89288145
0.33450934
-0.2839629
-0.35739267
-0.18420625
0.1047889
0.72193587
1.1714346
1.1306448
0.75351167
0.3747986
-0.12934989
-0.48622593
-0.24233001
0.25213134
0.7382009
1.0884323
1.2278985
0.86800015
0.21425629
-0.23600163
-0.43500984
-0.33134726
0.13176948
0.76663876
1.0758786
1.0134064
0.81386906
0.27528447
-0.217026
-0.43428624
-0.23256809
0.2402555
0.69215024
1.0998404
1.089241
0.7889842
0.23506752
-0.26044953
-0.3437267
-0.22904116
0.19825616
0.7377183
1.0425738
0.9122418
0.568429
0.24052343
-0.23509967
-0.40900886
-0.10016292
0.2952924
0.6900809
0.9149834
0.9370923
0.6040241
0.15540719
-0.10947025
-0.23962444
-0.10652618
0.1917381
0.60633314
0.8476436
0.69842565
0.5023631
0.21202272
-0.08434138
-0.22685944
-0.052518517
0.32420468
0.51736015
0.7202464
0.7462146
0.5456035
0.20421141
-0.045628756
-0.03610468
-0.021849662
0.20001599
0.5057907
0.6319639
0.56209743
0.38993365
0.2694759
-0.034130514
-0.14249444
