-2.023913
0.8029647
0.79768795
-0.31076086
-1.4311495
-0.2153846
-1.4602276
-1.6332457
0.12641591
-0.68881345
-1.02548
-0.82335675
-2.3931174
-1.7788837
0.9112302
-0.5756715
-2.5449393
-2.948416
-1.2693304
0.32933992
-0.35698384
-2.6611965
-2.1471071
-2.4848871
-1.5850043
0.6159897
-0.82870656
-1.6802715
-5.070028
-2.7524126
-0.64389277
1.0575411
-2.7616436
-4.471723
-4.376389
-1.7092676
0.03149432
-1.767278
-3.2332258
-7.0407143
-4.8464518
2.3143501
-1.6260874
-2.2933054
-4.767168
-4.687641
-1.1851857
-2.4753428
-1.9457117
-1.8689971
-4.1063895
-5.3871503
-3.5582786
-0.057620287
-0.016181707
-5.013524
-5.8245997
-2.8084903
-2.4977107
-0.9427875
-2.177237
-2.93516
-2.4381733
-4.52973
-5.348291
-3.2138617
0.25067982
0.73048663
-4.1405654
-5.8393054
-4.0472302
-0.8912015
0.47738805
-1.6426654
-4.2339096
-4.017419
-3.0902998
0.09469432
0.9182339
-0.5682047
-2.04596
-5.113956
-1.7928311
1.1477937
2.6722825
1.0019652
-4.0661755
-3.4657433
0.82181096
3.9501686
2.2221146
-1.5729934
-2.1750271
-1.2326912
2.4283412
4.1305084
1.9916469
1.107316
-0.6716504
-0.12557323
2.452541
2.55367
2.172949
0.56493914
-0.3274576
-0.21858454
1.6264092
3.4623418
2.3000302
0.21286914
0.035512567
1.3982885
1.9626284
3.463088
1.220927
-0.06437892
0.97275937
2.2066016
3.1831994
2.038999
2.335324
1.4280465
1.671898
3.8156655
3.044805
4.8548074
0.9987681
4.244911
2.8935843
3.3859572
2.484651
4.846385
4.158455
4.806988
5.1138177
3.295965
3.2371414
3.1312323
4.0706596
5.089853
4.5079513
4.576621
2.9474075
2.212747
2.6487553
2.7916064
6.1552973
5.955075
1.256009
1.6493886
4.70551
5.2626686
6.1244936
2.9123282
2.2486486
5.291326
2.8275955
2.9254632
2.0883138
3.6160352
5.042928
2.813525
2.8161488
1.3916571
2.2150488
3.5647871
2.8591177
1.7132716
1.0994537
2.9601388
2.7882671
1.0016272
0.87860644
1.6240175
2.692597
2.413401
0.5456419
0.36202157
1.6094208
1.5421921
-0.1128099
1.8110534
3.5470374
2.0866413
-0.18006104
-0.69784755
2.6341891
5.589784
4.0424237
1.2303681
-0.9997156
1.6233054
4.159876
1.3170476
-0.98390496
0.71259314
3.073979
2.3294473
-0.93657696
0.24356127
1.5059526
0.64199865
1.0194368
0.43628532
-1.0090656
-0.3921184
0.20351386
-1.245757
-1.6841183
2.0544887
1.6399541
-1.4900101
-2.9474163
-0.9643418
1.2747346
1.6776124
-0.017856866
-2.9780097
-1.6933329
0.52279794
2.0371313
0.69258356
-1.5393387
-2.263751
-0.8838467
0.6697245
-0.22734427
-0.8980428
-1.0767735
0.3560369
-1.4351218
-2.3157997
-1.7336366
0.6706659
1.1856396
-2.2416863
-4.2182903
-0.36102962
1.1942374
-1.3506627
-1.449813
-4.218155
0.8563516
0.7225892
-0.5585197
-2.230711
-4.566746
0.13288969
1.0993233
-0.17927617
-1.990668
-1.8845689
-0.606787
-2.045625
-0.9198161
-0.38674438
-0.41708648
-1.184511
-2.206771
-2.3700507
-1.4219902
0.22989574
-0.7278068
-0.12902302
-1.5161574
-3.2295327
-1.1209252
-0.21985793
-2.0377917
-2.5754285
0.6931567
0.16019034
-3.358504
-3.0583467
-0.73406196
0.05345095
-0.1121541
-2.6634307
-2.1332736
-2.150328
