1.321387
1.075342
-0.5646461
-0.31260476
0.75073266
-1.7345004
-2.9758725
-1.1610613
-0.4398182
-0.33639103
0.98274887
0.23174775
-2.046346
0.13913035
-0.29650867
-2.889872
-2.148362
-0.039935946
-1.8133731
-2.118267
0.051326513
-0.28107715
-2.7832499
-2.6143672
-2.3126981
-2.9434597
-2.6014547
-1.5021125
-1.0530305
-1.5524688
-1.4217278
-1.4048977
-2.0289438
-2.4352899
-2.0344691
-1.8281752
-1.8004401
-1.0861927
-0.47468996
-1.3887076
-1.8687413
-0.76363343
-1.4686143
-1.9713801
-1.5813566
-1.0945609
-1.8645333
-1.2793846
-0.25066566
-2.0984943
-3.2504556
-0.86579335
-1.0566925
-2.8467352
-1.4566648
0.2520926
-1.3526647
-1.6988268
0.3189274
-0.0035104752
-1.9020442
-0.9186263
0.2267788
-0.91909194
-1.1926359
-0.0066109896
-0.2399798
-0.65511495
0.13924167
-0.7781677
-0.7164242
1.6325362
0.55349207
-1.4471599
0.8783631
1.9657164
-0.5840861
-0.97246593
2.351446
0.5023128
0.7109014
-0.109910846
1.9866346
1.5063543
0.37513226
1.1233013
1.8424726
-0.059668683
0.22160625
2.7633934
1.2113782
-0.47744995
2.1661575
2.3373184
-0.81210303
0.079977065
3.0313258
1.7942886
0.39070475
0.6151522
2.8082013
2.0607932
-0.2111685
0.9362456
2.8557408
0.67337394
1.501579
3.7563236
1.5769978
0.47303915
1.7801954
1.1070015
2.0647678
3.5896287
1.741054
1.5976355
3.7908883
2.8010256
1.9938613
3.1112952
0.9208093
1.3470348
3.359439
1.9821243
0.8738396
3.3710258
3.8790681
1.0153768
-0.032849282
2.7144878
1.6415904
0.8274219
2.881719
3.4983296
1.3227744
0.65195686
2.1519818
1.9447286
-1.4347866
-1.1774566
2.350609
1.0837498
0.5445499
3.1268613
2.4391901
-1.1037066
-0.26224285
2.0031576
0.23747766
0.58571506
2.8620067
2.8372908
1.315197
1.7988118
0.4111023
-2.272285
0.058949947
2.6943219
-0.09426475
-0.4583952
3.6165972
2.5525079
-1.374367
-0.7904736
2.001587
-0.2870564
-0.9312909
2.5202458
2.1638932
0.9184672
2.32387
0.45076966
-2.30721
-0.10117984
2.4741623
-1.3764398
0.1374113
4.654917
1.5148944
-1.4245397
1.6778674
0.7375555
-1.7751759
-0.098920226
1.939657
1.0737011
1.6452138
1.3001444
1.553011
0.8177961
-1.2176139
-0.6860437
1.157922
0.3696592
0.26942158
2.323727
2.4468908
1.1182196
0.8874488
-0.41386336
-0.65946186
2.299677
0.7698952
-1.7222917
1.2799776
3.430796
0.10617411
-0.77476823
0.9307909
1.1053773
-0.06286013
-0.65948397
0.887871
4.4783473
2.2212355
-1.1201702
0.6920502
2.5165837
-1.265433
-1.2630987
1.7424452
1.2995913
0.96931136
2.36553
0.39384902
-1.0451363
1.0729123
-1.1514454
-1.6788304
1.1314654
0.9569003
0.7170707
2.4765933
0.8934319
-1.899761
-0.06798732
1.4578848
-0.5689266
0.7655139
3.1833239
1.4330213
-0.05840051
0.8090546
0.591529
-1.1470841
-0.5497185
0.43116844
0.38318026
0.9944281
1.2952516
-0.3445005
-0.51435095
0.7512336
-1.5600185
-2.482033
0.4466498
0.24658406
-1.3161058
1.262569
1.4964077
-1.8200566
-0.20639968
