-1.2970183
-0.6516988
0.1903249
-0.7107403
-2.7179818
-2.0533974
-1.5212247
-2.450172
-2.0178244
-1.1880805
-1.5682828
-0.9967618
0.069478035
-1.9831316
-2.1480398
-0.90602255
-1.8240063
-2.995653
-1.1977848
-0.58284926
-1.7348528
-1.4976901
-0.78235453
-2.0303464
-2.8051956
-2.645585
-2.5667486
-2.3199751
-1.8302327
-1.2304108
-1.334714
-1.8042685
-2.0889094
-2.17415
-2.4950924
-2.5652292
-2.1932187
-2.1572695
-2.1853423
-1.4779997
-1.2842948
-2.4435368
-2.6886132
-2.8153028
-3.3314672
-3.476454
-2.7379887
-2.9335556
-3.5176055
-2.699453
-2.5560145
-3.8777728
-3.2864537
-2.0624228
-2.6248322
-2.7981653
-1.5346223
-1.4401001
-2.218414
-1.7069122
-0.8829454
-1.3332765
-1.4531113
-1.1326839
-1.3380156
-1.3888352
-0.74262863
-0.369467
-0.065772325
0.8342875
0.7809787
-0.10928643
0.5002469
1.080536
0.28252974
0.57260936
1.9444537
2.323059
1.8599868
2.4277291
1.5720346
1.5184461
0.9975255
1.008061
1.5636812
1.7944003
1.6831665
2.2760859
2.31431
1.34321
1.565006
2.1647363
1.6282426
1.752346
2.9664054
2.894856
2.027449
2.2574148
2.4947586
2.2203863
1.5576254
2.0666456
2.9715533
2.828371
2.4963708
3.4237618
2.8453069
1.5699346
1.763136
1.6734492
1.6533928
2.9216948
3.2157865
3.0002174
4.049108
3.83778
2.697154
3.1700883
3.0709229
2.0162168
2.9648795
3.052798
2.2166042
2.8915143
3.1501095
1.8443669
1.7937741
2.78999
2.7356422
1.6719029
2.4326036
2.4442022
1.4160972
1.3472351
1.7110469
1.0538986
-0.36558068
-1.109616
-0.060627893
-0.014310867
-1.1623038
0.00891912
0.767926
-0.71083367
-1.3358753
-0.4666742
-1.2350295
-2.2401927
-0.53073955
0.51147807
0.235412
0.41488707
0.4382866
-0.98590314
-1.1686064
-0.27378055
-1.38498
-1.5281256
1.0998309
1.3107374
-0.9429141
-0.50084966
0.5782088
-0.5890518
-1.8718772
-0.16851611
0.6124685
-0.49411643
-0.030603051
-0.22939554
-1.8386447
-1.2698424
-0.50595224
-1.8990889
-2.1159546
0.7565861
-0.025180817
-1.5549979
0.53745925
0.9218049
-1.4732926
-1.1182063
-0.36432025
-1.0265261
-0.88753
0.008271217
-0.1717645
0.5020201
-0.30175638
-1.2629714
-0.6055615
-1.287221
-2.5983634
-1.3078308
-0.027611792
-0.68127835
-0.49882114
0.29431343
-0.3632936
-0.4519388
-0.54207754
-2.4483032
-1.6086049
0.34917927
-0.63501674
-1.4074781
0.5442528
0.51075506
-1.2305355
-1.6660085
-1.0710373
-0.57845473
-0.5253273
-1.3856311
-0.010559201
1.1524901
-0.34734672
-1.9733217
-0.6804372
-0.9342375
-2.0463476
-0.8438997
0.118917644
-0.16658425
0.7647556
0.6577786
-1.5771521
-1.0545791
-0.9399712
-1.8637997
-0.67569864
0.07542449
-0.6529439
-0.06755793
0.55056584
-1.2978873
-2.2104068
-0.859393
-1.0718226
-1.3182436
0.23302788
0.6858866
-0.26266566
-0.7946019
-0.9660206
-1.7633376
-1.7473207
-0.9964687
-0.51587313
0.18187743
1.256496
0.8287337
-0.68918335
-0.45253217
-0.72259474
-2.2687752
-1.2574096
0.41634402
-0.29166037
0.03318447
1.3463652
-0.3688915
