1.1025698
-0.53997654
-0.25127894
-0.95763093
0.32201856
1.5517957
-1.1638219
-0.84176713
-0.60306066
0.8027372
0.39500636
-1.5158784
-1.5979407
-0.46842116
1.6892829
-2.7854614
-3.093601
0.80817705
0.62672967
-0.27695268
-3.4679704
-2.1109893
0.5298225
0.64946276
-1.6413394
-2.9875174
-0.4732542
-0.21518469
-0.15534332
-1.8250661
-2.651373
0.20598817
-0.33749747
-2.388067
-2.4604893
0.22985515
2.1561117
-1.4623184
-2.7731397
-2.0544455
0.067121714
1.2426125
-1.9635462
-4.1966095
0.40523636
-0.13166088
0.40849805
-2.6143332
-3.1103096
0.5243464
0.3750139
-3.4795723
-0.7058911
-1.3345393
1.2479622
0.56679696
-3.3919642
-0.4811883
1.7925689
-0.8556652
-0.79999065
1.6263175
-1.6447954
-0.9225787
1.6808966
0.967471
-0.3803913
-2.302385
1.3022022
3.898411
-0.5114287
-2.6398594
1.7952421
3.3434367
1.4031501
-2.041864
0.36860546
1.6071643
1.1483761
1.1703987
-2.7686253
-0.48697674
4.634245
-0.5648689
-2.8596826
-0.6744621
2.6511245
1.9051163
-1.1901281
-2.219981
0.087275684
3.435994
0.33108371
-2.178814
-2.2591982
3.1047053
0.33183235
-0.62269896
-2.6158166
1.2608674
-0.7792475
1.3330514
-0.1745556
-4.453622
0.91386324
2.1866727
-0.094424665
-2.723703
0.35887092
0.8451638
2.5629392
-1.8851198
-1.1636468
1.8556085
0.6471952
0.78126746
-1.0161215
-0.39193636
1.2590976
1.2238674
-1.8399335
-1.3062532
1.9825929
1.2763722
-0.65527785
-1.0389004
1.7814922
1.9066107
-0.86722696
0.10437834
0.2715515
2.3067338
2.1182966
-1.1780597
0.5562359
2.3684494
2.94036
0.4755131
-1.6882534
1.1155736
6.409229
-0.2849126
-1.7529373
3.093285
2.9651923
0.91133696
-1.2683492
2.6643047
3.2966714
1.4844062
-0.5064981
2.6121707
1.7662275
2.6333668
2.4034314
2.3990223
1.83028
3.423262
2.484263
2.6163905
4.3812795
2.6526093
2.0402637
-0.09804678
2.4088397
3.9049406
2.02109
2.5852337
2.5881321
1.2412229
2.3483129
2.0925703
3.3394923
2.5308459
1.5965436
2.0307813
0.14958537
2.7296116
2.9350398
1.8788267
1.7519857
0.7076382
1.1591052
1.3860401
2.4058123
2.800111
1.2140044
-1.2995154
-0.10646492
0.07133627
2.7246373
1.199179
-1.7508341
-3.1105134
-0.055002436
2.7924001
-0.22046012
-1.0126219
-2.0060005
0.062322736
0.418529
-1.8684249
-0.073202536
0.67319614
-0.6491368
-1.1518353
-0.80636567
2.3391278
0.50028205
-2.4373693
-1.0404214
-0.20791093
2.9707766
-0.20392555
-1.0848805
1.1120622
0.07854214
0.44463032
-1.032704
1.778657
0.7778119
-1.3045515
-1.0155506
-0.8332699
1.1327556
1.3389559
0.3413772
-2.0838666
-1.8952904
0.3841812
1.8870234
0.50865257
-1.2937242
-3.5256977
-0.68487805
1.0535481
1.0113769
1.0031596
-1.0544248
-1.43467
-1.1037571
-0.0040356517
0.8784408
0.96049106
-1.2919025
-2.8925064
-1.5375639
0.18210356
3.0111928
-0.07072222
-2.8191886
-0.7530849
-0.11307073
1.0513661
-0.37366202
-1.4025216
0.2769497
-0.7212986
-1.1458765
0.3095462
0.8027243
0.49801898
-1.9537793
-1.9715676
0.33844832
1.7042806
-0.5633121
-2.6154573
-1.8289787
1.0228953
0.47379714
0.0038570762
-0.3902915
-0.4319731
-0.28775477
-0.84911275
-0.2799899
1.3344759
1.2095281
-0.48902544
-1.6352384
-0.92947316
3.5463657
