-1.3703837
-2.9569035
-4.1635246
-3.7342188
-2.3661447
-1.1201347
0.08753359
0.9359172
0.28075784
-1.4227333
-2.4248374
-3.047741
-3.5880654
-2.9366093
-1.4984752
-0.8822068
-0.5422836
-0.18822923
-1.2683532
-2.8954594
-3.4070945
-3.5612173
-3.6281738
-2.4967625
-1.1486611
-0.9580824
-1.2772045
-1.4007126
-1.9803706
-2.9754522
-3.1020253
-2.588133
-2.391414
-1.6669401
-0.49766764
-0.41486803
-0.39364606
0.02162887
-0.1432453
-0.41369826
0.11073301
0.51417696
0.67101336
1.2402272
1.6346714
1.1082317
0.79230034
0.59678113
0.24817672
0.67540187
1.756936
2.5772483
3.0504494
3.0386207
2.4549901
1.5842062
1.0209641
1.2185543
2.2696052
3.622317
4.714331
5.43703
5.3219748
4.0701966
2.765267
1.6182249
1.0883362
1.9613374
3.9323523
5.7278895
6.535322
6.133811
4.516785
2.5016937
1.1749449
0.59799755
0.6095369
2.1524663
4.397903
5.6019773
5.5316095
4.7851295
3.3256733
1.7944944
1.4957498
1.3732729
2.0592856
3.5915322
4.443364
3.9474564
3.5803993
3.2619786
2.5758467
1.6498325
0.9284539
1.8807298
3.0425248
1.8000474
2.1168256
4.3766193
3.1134887
0.12615645
0.543026
1.2383183
1.5773225
0.56559515
1.2614572
2.9035025
2.34759
-0.2367245
-1.6335003
-0.64888304
-1.816328
-1.9422247
0.14465374
2.2106743
2.4380324
0.037771106
-0.66329044
-0.91881603
-2.786255
-4.5704474
-2.2807007
0.47027242
1.4153588
1.9247817
2.4664872
0.69554496
-2.4504786
-3.0900137
-2.345876
-2.2601523
-1.1362143
1.2231306
2.8271081
2.5063844
1.1059014
-0.7679794
-2.8198688
-4.3884864
-3.3558986
-1.8223681
-1.5451617
0.48357993
2.8606842
1.9536542
-0.7424127
-1.0330653
-2.6397703
-4.379283
-3.1767898
-1.2734077
-0.19335628
1.9506545
2.3855178
0.16047585
-0.391438
-1.3883078
-4.3031187
-4.045044
-0.5389458
0.17109483
0.40187657
2.9202
1.7699468
-2.2626514
-2.7365658
-2.8086283
-4.8199167
-2.4312148
1.8225831
1.0659606
-0.2365098
0.8407756
-0.9921582
-3.6949854
-3.4240928
-2.5920813
-1.7188392
0.46550304
1.7522948
1.2490993
0.7741845
-0.4574242
-2.973199
-3.5896242
-2.9063694
-1.9669118
-0.22168297
1.3035494
1.7264531
1.4839213
0.10180557
-1.2750545
-2.675857
-2.754491
-2.1508603
-1.2247345
-0.06953031
1.5760018
2.0124104
1.0003017
-1.0991671
-2.0547752
-2.741379
-3.539382
-2.2345626
0.3976913
2.0776231
2.4205148
2.0051672
0.80497533
-1.4788861
-3.267006
-3.270712
-2.645238
-0.5173778
1.7920413
2.7918153
2.282833
1.0051835
-0.6128435
-2.5464935
-3.462418
-1.9503354
-0.19225442
0.84260136
1.8405719
1.9398928
0.22729313
-1.9113066
-2.1308112
-2.2595973
-1.6396849
0.4648352
1.4198985
1.0390397
0.8479594
-0.3333922
-2.3944736
-3.1692743
-1.8501861
-0.5702357
0.73969704
2.2739983
2.297697
0.6277205
-0.55439687
-2.4566672
-1.6284003
-2.269426
-0.8408704
0.5033183
0.7043114
0.93882644
1.4700279
-0.040889084
-1.8588438
-1.8262781
-1.1716586
-1.5060642
-0.2683193
