-0.5788078
0.5314004
2.2498944
-0.1456703
-0.633041
1.3091593
0.26934332
-1.601196
0.5192573
2.188566
-0.34038296
0.17944443
2.4537985
-0.4481216
-1.8015335
1.9253281
0.6245744
-2.4073744
2.206283
2.8410964
-2.05823
0.2891943
3.3778212
-0.0032896698
-2.1007843
1.4586382
2.6292758
-0.18267743
1.2901013
0.53573495
-0.67861336
2.3316178
1.2966883
-1.946813
0.24607939
2.5488377
0.6067418
-0.56585896
0.9392411
0.32953098
-0.011553317
0.10082631
0.11507324
0.16614345
0.7038496
0.32221055
1.0650836
-0.4312833
-0.046570778
1.9171704
0.12465604
-1.6655583
1.4173527
2.4247837
-1.5448328
-0.9100713
3.7510297
0.036552787
-1.5834906
3.3186405
1.7490135
-1.852602
1.266998
3.8386676
-0.63462734
-1.7114929
3.482621
2.3978906
-1.6932158
0.26663804
2.1888247
-0.502941
-0.79809475
1.9036716
0.24585795
-2.0613189
2.308716
3.219443
-0.9606843
0.8646006
3.1415868
0.6112499
0.5122529
2.0978873
0.12579614
1.5803126
2.7874694
0.1448195
-0.18886006
3.1706014
1.7618666
-0.6991324
0.22263187
1.8223977
2.6212208
0.6147885
-0.84311914
3.6309614
2.3587816
-3.0002928
0.23364413
4.431065
1.1299099
0.2243521
0.22113767
3.1937566
2.3402653
-1.0225575
-0.8241458
2.5714812
2.76123
-1.3684872
1.0281438
3.7798042
1.7023758
-0.82924485
-0.38045102
3.2878737
1.5004213
-1.4396476
0.19321907
3.6877222
0.62836933
-1.2509265
0.9955429
1.7399377
-0.68532723
-0.38358843
2.1752667
0.80629504
-1.4183606
0.19059348
1.2882028
0.14771567
0.1019128
0.9987569
0.63308275
0.6148013
1.3638772
1.6291875
-0.72454965
-0.62419575
2.242569
0.6328657
-1.0144384
1.6534688
3.264438
-0.20781612
0.14330935
1.2779982
-0.5183506
-0.33312857
1.0880202
-0.6143395
0.989298
3.6996305
-0.7388838
-1.8768966
2.2571063
0.42707777
-3.8224387
1.0454878
3.7445827
-1.6114836
-0.25740832
3.9599376
-0.907897
-3.2053714
2.6024687
0.99563575
-4.1461005
1.9599478
4.5891557
-1.4114459
-0.29394335
2.3241892
-0.95294535
-1.0290829
1.2180743
-0.16546082
0.7393825
3.0453882
0.37470186
-1.2046437
1.045552
-0.560416
-1.2068694
0.8549763
0.4535823
0.51275873
1.8912718
0.41926658
0.10323244
0.07255626
0.16570485
-1.1748946
0.00013518333
2.0486197
1.9706643
0.5082064
0.5488709
0.21129864
1.1846347
-0.5302377
-1.7018826
1.4116058
2.2479417
-0.68935484
0.05592899
2.2345037
0.414077
-1.7621524
0.03377664
1.092638
-0.31591487
1.8049202
1.2053308
-0.9042684
0.23860088
1.0891548
-0.448164
-0.51130986
1.8531168
2.0272121
-0.8196173
-0.056530595
1.4396893
-0.22935504
-1.2665671
0.15400976
2.156251
-0.18142807
0.6397028
2.353322
-0.8881295
-0.5538886
1.6275
-0.83360916
-0.74825346
1.864244
1.8340214
-0.23851132
0.9920475
0.99619555
-0.42987987
0.38769758
1.8184322
0.51127267
1.4612854
1.009582
1.5305536
0.79125524
-0.58395684
0.9536636
2.5893342
-0.14098844
0.7367381
3.34198
1.2454764
-1.5284992
1.9367172
1.2709969
