8.619184
8.101231
8.2543955
8.823936
9.350871
9.937703
10.318942
9.983767
9.277658
8.905855
8.7212305
8.806581
9.399035
9.985976
9.947207
9.726454
9.429947
8.651926
8.4068985
9.026964
9.415123
9.818188
10.390244
10.463183
9.865391
9.119962
8.513093
8.200424
8.79756
9.711103
10.108592
10.384478
10.584506
10.026994
8.87677
8.174047
7.9991155
8.157572
8.977776
9.759704
10.006733
9.787342
9.319699
8.509435
8.009635
8.141546
8.605089
8.918372
9.161121
9.205407
8.871191
8.325059
7.952735
8.105694
8.638573
9.043989
9.450985
9.678409
9.245243
8.731356
8.622844
8.709775
8.945689
9.686481
10.564422
10.750882
10.192579
9.5121355
8.772779
8.012882
7.7739496
8.166659
8.968759
9.586648
9.946197
9.6777315
8.70627
7.9449434
7.6904097
7.869173
8.324711
8.933888
9.432268
9.733579
9.450205
9.054603
8.7879305
8.893904
9.025123
9.279656
9.748755
10.087278
9.551428
8.693707
8.262449
8.1473465
8.0757265
8.844917
10.04307
10.277456
9.394218
8.5442095
7.8279567
7.6029844
7.6407824
8.497443
9.631473
10.321455
10.264444
9.568132
8.769772
7.7633696
7.492326
8.105421
9.361982
10.472258
10.857701
10.73089
9.866871
8.667169
7.6188245
7.7053375
8.404847
9.651231
10.848409
11.221854
10.440882
8.892158
7.457186
6.718065
6.70278
7.429406
8.570316
9.7687235
10.277665
9.996645
8.991363
7.5222197
6.5709567
7.0030384
8.007076
9.0704565
10.266178
10.832382
10.345436
9.487628
9.016285
8.410199
8.557997
9.503618
10.288755
10.803106
11.148623
10.528113
9.293257
8.819263
8.63387
8.419416
9.055066
9.981413
9.875209
9.561571
9.332401
8.321229
7.558324
7.840369
8.13595
8.604866
9.788179
10.353493
9.604771
8.85789
8.331784
7.64552
8.037233
9.211037
9.952827
10.359842
10.257384
9.371484
8.374108
8.175331
8.572221
9.131925
10.019297
10.289185
9.786014
8.988757
8.17572
7.603348
7.715559
8.335275
9.322491
9.972408
10.329549
9.946319
8.84985
7.7900863
7.6151133
7.983851
9.089905
10.077819
10.691812
10.391528
9.466767
8.549871
8.040405
8.174285
8.840093
9.572941
10.240663
10.387986
9.646428
8.661915
7.7578955
7.849021
8.374658
9.212974
9.967037
10.160919
9.688423
8.539834
7.7420197
7.818715
8.065807
8.797961
9.749061
10.23578
10.0589485
9.41763
8.802515
7.917094
7.8806105
8.475418
8.887086
9.720893
10.581498
10.322533
9.603537
8.961229
8.483493
8.103802
8.657012
9.485503
9.900082
9.925819
9.744374
9.040394
8.367443
8.449555
8.815938
9.434174
9.859414
10.108534
9.835661
8.933552
8.40892
8.394313
8.63641
9.047296
10.020399
10.137647
