"CSVFiles/KFoldStratified10LAGDriverBehaviour05.21.2021, 00.29.35/Run_4"
Accuracy,0.9870550161812298
Weighted Precision Score,0.9874685364976628
Weighted Recall Score,0.9870550161812298
Weighted F1 Score,0.9870872384545328
-------------------------------
Distribution of Train Events
Non Aggressive Event,Aggressive Right Turn,Aggressive Left Turn,Aggressive Acceleration,Aggressive Braking,Aggressive Left Lane Change,Aggressive Right Lane Change
296,227,225,258,143,39,52
Distribution of Test Events
Non Aggressive Event,Aggressive Right Turn,Aggressive Left Turn,Aggressive Acceleration,Aggressive Braking,Aggressive Left Lane Change,Aggressive Right Lane Change
74,56,57,65,35,9,13
Confusion Matrix
,,,,Predicated Class
,,Non Aggressive Event,Aggressive Right Turn,Aggressive Left Turn,Aggressive Acceleration,Aggressive Braking,Aggressive Left Lane Change,Aggressive Right Lane Change
,Non Aggressive Event,73,0,0,1,0,0,0
,Aggressive Right Turn,0,55,0,0,1,0,0
,Aggressive Left Turn,0,0,57,0,0,0,0
,Aggressive Acceleration,0,1,0,64,0,0,0
Actual Class,Aggressive Braking,0,0,0,0,35,0,0
,Aggressive Left Lane Change,0,0,0,0,0,9,0
,Aggressive Right Lane Change,0,0,0,0,0,1,12

----------------------------
Multi Label Confusion Matrix
Non Aggressive Event
,Predicated Class
235,0
1,73
Actual Class

Aggressive Right Turn
,Predicated Class
252,1
1,55
Actual Class

Aggressive Left Turn
,Predicated Class
252,0
0,57
Actual Class

Aggressive Acceleration
,Predicated Class
243,1
1,64
Actual Class

Aggressive Braking
,Predicated Class
273,1
0,35
Actual Class

Aggressive Left Lane Change
,Predicated Class
299,1
0,9
Actual Class

Aggressive Right Lane Change
,Predicated Class
296,0
1,12
Actual Class


----------------------------
