"CSVFiles/KFoldStratified10LAGCarlaData05.29.2021, 12.12.41/Run_3"
Accuracy,0.9816666666666667
Weighted Precision Score,0.982168498168498
Weighted Recall Score,0.9816666666666667
Weighted F1 Score,0.9817587202587202
-------------------------------
Distribution of Train Events
Non Aggressive Event,Aggressive Right Turn,Aggressive Left Turn,Aggressive Acceleration,Aggressive Braking,Aggressive Left Lane Change,Aggressive Right Lane Change
455,331,316,229,315,379,376
Distribution of Test Events
Non Aggressive Event,Aggressive Right Turn,Aggressive Left Turn,Aggressive Acceleration,Aggressive Braking,Aggressive Left Lane Change,Aggressive Right Lane Change
113,83,79,58,78,95,94
Confusion Matrix
,,,,Predicated Class
,,Non Aggressive Event,Aggressive Right Turn,Aggressive Left Turn,Aggressive Acceleration,Aggressive Braking,Aggressive Left Lane Change,Aggressive Right Lane Change
,Non Aggressive Event,113,0,0,0,0,0,0
,Aggressive Right Turn,0,83,0,0,0,0,0
,Aggressive Left Turn,0,0,77,0,0,2,0
,Aggressive Acceleration,0,0,0,58,0,0,0
Actual Class,Aggressive Braking,0,0,0,0,78,0,0
,Aggressive Left Lane Change,0,0,0,0,0,92,3
,Aggressive Right Lane Change,0,0,0,0,0,6,88

----------------------------
Multi Label Confusion Matrix
Non Aggressive Event
,Predicated Class
487,0
0,113
Actual Class

Aggressive Right Turn
,Predicated Class
517,0
0,83
Actual Class

Aggressive Left Turn
,Predicated Class
521,0
2,77
Actual Class

Aggressive Acceleration
,Predicated Class
542,0
0,58
Actual Class

Aggressive Braking
,Predicated Class
522,0
0,78
Actual Class

Aggressive Left Lane Change
,Predicated Class
497,8
3,92
Actual Class

Aggressive Right Lane Change
,Predicated Class
503,3
6,88
Actual Class


----------------------------
