9.468108
8.514536
9.017877
9.525068
8.701741
9.536261
8.473504
7.2032313
10.486968
9.41281
7.3972983
10.229511
10.008898
8.093329
9.0511
9.962231
9.268419
8.668837
9.322806
8.899038
10.042389
9.801834
7.753876
9.509784
10.225632
8.470988
9.257616
9.214882
8.554358
8.424174
9.458528
8.853392
9.092648
9.223748
9.014943
8.756158
9.124033
9.720588
8.691562
8.5294895
9.830369
8.592292
8.96475
9.12164
9.376431
8.909171
9.3019085
8.697665
9.562419
8.928157
8.840785
8.9958105
9.626762
9.064967
9.059619
9.439875
9.473003
8.869872
9.110764
8.747225
8.540344
9.31487
8.447961
8.716948
8.8689165
8.599864
8.739148
9.692821
8.980833
9.230932
9.28205
9.188998
8.9205265
9.467268
9.149307
8.79444
8.493833
9.423786
8.861691
8.279891
9.324726
9.5243435
8.459181
9.252991
9.337537
7.886989
9.211934
9.570681
8.476255
7.5909796
9.237281
8.383965
7.927432
9.1126
9.382367
10.479969
8.302638
7.6568837
11.047677
9.648434
7.9948587
10.77793
9.640698
7.2326975
9.972526
9.175576
8.1469345
8.641971
8.9407215
10.830458
8.848289
9.105988
9.70223
9.04809
9.104504
9.470977
8.82525
9.567384
8.980846
8.834648
9.948611
8.83766
8.509521
9.840317
8.779622
8.536711
9.069071
8.192462
7.726291
9.153579
9.065961
8.20896
8.792233
8.705747
8.364305
8.14348
8.714211
8.620317
8.826106
9.211685
8.321382
8.268411
9.431004
8.798618
8.952273
8.868867
8.95249
9.744691
8.4470625
9.020327
9.58417
8.610648
8.499522
9.685099
8.520295
8.121101
10.280622
9.661217
8.200791
10.154036
9.972347
8.260506
10.75632
9.293897
7.3727503
10.138599
10.665436
8.161623
8.744571
10.119342
8.661876
9.148903
9.705201
8.598165
8.988441
9.426922
8.37994
10.179102
8.953724
7.713574
9.001455
9.478495
7.458864
8.566813
9.747333
8.057551
8.581227
9.527837
8.4029
9.633069
9.329882
7.7896223
9.358482
9.281211
8.371573
8.947034
9.90459
8.682075
9.188439
9.520135
8.7295065
9.405141
9.9445715
8.716768
9.502951
9.626181
8.570336
8.43007
9.158143
8.245823
9.833483
9.324846
7.444519
8.607437
9.6935835
7.759536
9.283947
8.911269
8.37039
9.077769
9.006259
7.0837603
10.590652
9.664385
8.232812
8.071131
9.906915
9.298496
9.131758
8.563968
8.859076
9.404651
9.764274
8.108469
9.677033
9.844243
8.676647
8.045923
9.082079
9.478359
9.137237
8.245284
9.35384
9.2736635
9.710057
8.193344
7.95699
10.961334
10.97191
6.3602676
8.361708
11.89397
8.343117
7.4029074
10.549413
9.436818
7.3983226
9.859571
9.235454
7.810345
9.766123
9.115918
6.7454143
10.934247
8.869832
7.3930354
10.361299
8.552213
7.694846
9.913205
9.618924
8.465906
10.103888
9.252527
8.2507925
10.251244
9.787755
8.055767
9.607673
8.940564
7.786323
8.60226
8.975281
9.931644
9.00517
7.88337
9.106148
9.169469
8.964602
9.910793
7.669216
8.494684
9.553738
8.715708
7.8099265
10.552805
9.404389
8.344231
9.686822
8.758286
8.689626
9.750105
8.620103
8.434636
9.603286
8.487144
7.9872823
9.896595
10.137485
8.655698
9.9336195
9.163766
9.790899
10.137045
8.8034935
8.277173
10.675123
9.145765
7.9321375
9.619821
9.161659
8.974643
9.580466
7.914238
9.315177
9.276924
7.781405
8.040365
9.095585
8.67518
7.838023
8.941893
9.371722
9.05957
8.175718
9.476543
9.172201
8.453596
9.769123
9.120752
7.7817993
10.296956
8.919697
8.476704
10.249359
9.420257
7.5365663
9.485869
9.633909
10.091301
9.327951
7.8482633
9.590974
11.359806
8.458182
7.729387
10.508257
10.794588
8.094219
8.765213
10.411019
9.148615
8.940865
9.609386
7.848505
8.916346
9.874197
7.6330934
8.359948
10.231998
8.881108
7.5091753
8.566081
9.284396
9.767923
8.11433
7.8131385
9.09626
9.565038
8.324676
9.402963
8.161121
8.411113
10.231689
8.007407
7.954323
9.381628
8.619341
8.746591
9.313429
8.311264
8.763393
8.516808
8.948164
7.923155
8.714009
9.515904
9.020905
8.876691
9.231753
9.486165
9.499246
9.198004
9.180532
9.519877
8.39283
8.221133
9.568378
9.98385
8.79934
9.596452
9.895161
8.681166
8.744506
10.486038
10.025148
8.470689
9.081879
8.319057
9.211365
9.333724
8.281975
9.341443
9.838636
8.576323
9.377223
8.654521
7.7496486
9.64368
9.749545
8.083576
7.1524534
9.736704
10.153272
7.6260953
9.310242
9.657643
9.706057
9.339139
7.9509015
9.748001
9.70727
8.1161375
8.973681
10.424139
8.819464
8.744927
8.923712
8.409298
8.7651615
9.3532915
7.6633873
8.174982
9.810553
9.377554
7.9606433
9.0877
10.088613
8.612784
8.175876
9.384014
8.702944
8.940015
9.413456
8.309563
8.878566
9.904766
9.435402
9.447325
8.363121
10.073947
9.117462
7.819923
10.567412
9.638732
6.652246
9.782793
11.264501
6.584924
8.11026
10.655269
10.273361
7.9776998
8.318149
9.0000925
9.364215
9.590089
8.093655
8.892862
10.539278
9.492417
6.7110744
9.527165
9.460376
