"CSVFiles/KFoldStratified13LAGCarlaData05.29.2021, 12.15.01/Run_3"
Accuracy,0.9463570856685348
Weighted Precision Score,0.9466570348075554
Weighted Recall Score,0.9463570856685348
Weighted F1 Score,0.9462099028248474
-------------------------------
Distribution of Train Events
Non Aggressive Event,Aggressive Right Turn,Aggressive Left Turn,Aggressive Acceleration,Aggressive Braking,Aggressive Left Lane Change,Aggressive Right Lane Change
720,491,327,1376,1132,449,501
Distribution of Test Events
Non Aggressive Event,Aggressive Right Turn,Aggressive Left Turn,Aggressive Acceleration,Aggressive Braking,Aggressive Left Lane Change,Aggressive Right Lane Change
180,123,81,344,283,112,126
Confusion Matrix
,,,,Predicated Class
,,Non Aggressive Event,Aggressive Right Turn,Aggressive Left Turn,Aggressive Acceleration,Aggressive Braking,Aggressive Left Lane Change,Aggressive Right Lane Change
,Non Aggressive Event,169,0,0,2,6,2,1
,Aggressive Right Turn,0,113,0,4,0,6,0
,Aggressive Left Turn,0,0,78,1,0,0,2
,Aggressive Acceleration,1,0,3,336,3,0,1
Actual Class,Aggressive Braking,0,0,0,4,274,0,5
,Aggressive Left Lane Change,0,4,1,3,1,96,7
,Aggressive Right Lane Change,5,0,2,1,2,0,116

----------------------------
Multi Label Confusion Matrix
Non Aggressive Event
,Predicated Class
1063,6
11,169
Actual Class

Aggressive Right Turn
,Predicated Class
1122,4
10,113
Actual Class

Aggressive Left Turn
,Predicated Class
1162,6
3,78
Actual Class

Aggressive Acceleration
,Predicated Class
890,15
8,336
Actual Class

Aggressive Braking
,Predicated Class
954,12
9,274
Actual Class

Aggressive Left Lane Change
,Predicated Class
1129,8
16,96
Actual Class

Aggressive Right Lane Change
,Predicated Class
1107,16
10,116
Actual Class


----------------------------
