x,y,z,Event Time,Event Type,Frame,x_modified,y_modified,z_modified
-0.589087067,1.569785237,-0.745618701,821.2808152,-1,9208,-0.147271767,0.392446309,-0.186404675
-1.137262878,-0.639765978,-0.219676331,821.3808152,-1,9209,-0.28431572,-0.159941494,-0.054919083
-0.239899216,0.445185959,-0.454894662,821.4808153,-1,9210,-0.059974804,0.11129649,-0.113723665
-1.387653885,0.623980761,-1.1360991,821.5808153,-1,9211,-0.346913471,0.15599519,-0.284024775
-1.234512863,-2.221745729,-0.163174063,821.6808153,-1,9212,-0.308628216,-0.555436432,-0.040793516
-0.638968048,-1.607275128,0.363684595,821.7808153,-1,9213,-0.159742012,-0.401818782,0.090921149
-0.155755577,1.482906818,0.20910272,821.8808153,-1,9214,-0.038938894,0.370726705,0.05227568
0.454264107,1.024774075,1.409869194,821.9808153,-1,9215,0.113566027,0.256193519,0.352467299
0.67859787,-0.043357402,-0.392199606,822.0808153,-1,9216,0.169649467,-0.010839351,-0.098049901
0.224263611,1.508213639,-0.065986596,822.1808153,1,9217,0.056065903,0.37705341,-0.016496649
0.66690773,4.601254463,0.016098619,822.3808153,1,9219,0.166726933,1.150313616,0.004024655
1.34388298,6.627360344,-3.360701323,822.4808153,1,9220,0.335970745,1.656840086,-0.840175331
1.55596489,4.629622459,-3.230615616,822.5808153,1,9221,0.388991222,1.157405615,-0.807653904
-0.616970596,8.703285217,-1.405165672,822.6808153,1,9222,-0.154242649,2.175821304,-0.351291418
-3.612833557,9.442006111,0.832362294,822.7808153,1,9223,-0.903208389,2.360501528,0.208090574
1.327136459,3.328361511,2.802250147,822.8808153,1,9224,0.331784115,0.832090378,0.700562537
-1.160078583,9.333470345,1.824401855,822.9808153,1,9225,-0.290019646,2.333367586,0.456100464
-0.063365517,10.23839378,-0.854066133,823.0808153,1,9226,-0.015841379,2.559598446,-0.213516533
-2.671070633,13.10882568,1.877155781,823.1808153,1,9227,-0.667767658,3.277206421,0.469288945
-0.607271729,14.14544964,2.987228394,823.2808153,1,9228,-0.151817932,3.53636241,0.746807098
-3.14870697,14.84440422,3.890431881,823.3808153,1,9229,-0.787176743,3.711101055,0.97260797
-0.278607903,15.03552818,3.928945065,823.4808153,1,9230,-0.069651976,3.758882046,0.982236266
-0.668390808,16.28761292,5.309642792,823.5808153,1,9231,-0.167097702,4.071903229,1.327410698
-0.870088158,18.57232857,8.667383194,823.6808153,1,9232,-0.217522039,4.643082142,2.166845798
-1.667521057,9.937430382,7.749543667,823.7808153,1,9233,-0.416880264,2.484357595,1.937385917
0.900843086,11.45000458,4.494033813,823.8808153,1,9234,0.225210772,2.862501144,1.123508453
0.10902256,14.7608881,2.240265131,823.9808153,1,9235,0.02725564,3.690222025,0.560066283
1.186534348,6.85544157,2.040426254,824.0808153,1,9236,0.296633587,1.713860393,0.510106564
2.561712685,3.592857599,0.389403671,824.1808153,1,9237,0.640428171,0.8982144,0.097350918
-0.387709198,2.08183217,-1.272773385,824.2808153,1,9238,-0.096927299,0.520458043,-0.318193346
-0.301330147,0.912849128,-0.642698586,824.3808153,1,9239,-0.075332537,0.228212282,-0.160674646
0.427084389,-0.59318018,0.014444046,824.4808153,1,9240,0.106771097,-0.148295045,0.003611011
-0.919191895,-1.177374125,0.408880979,824.5808153,-1,9241,-0.229797974,-0.294343531,0.102220245
0.809885445,0.473968744,-1.468299627,824.6808153,-1,9242,0.202471361,0.118492186,-0.367074907
-0.160816727,0.554117024,0.096646532,824.7808153,-1,9243,-0.040204182,0.138529256,0.024161633
-1.426869926,-0.551810205,-0.703254819,824.8808153,-1,9244,-0.356717482,-0.137952551,-0.175813705
-2.373676834,-0.130925983,-1.076749921,824.9808153,-1,9245,-0.593419209,-0.032731496,-0.26918748
1.211159172,0.882774353,1.362786889,825.0808153,-1,9246,0.302789793,0.220693588,0.340696722
-0.912146149,0.999183536,-0.750266671,825.1808153,-1,9247,-0.228036537,0.249795884,-0.187566668
0.927820625,2.443737745,1.23310256,825.2808153,-1,9248,0.231955156,0.610934436,0.30827564
-0.691514549,0.823442996,1.948919535,825.3808153,-1,9249,-0.172878637,0.205860749,0.487229884
