0.17907351
-0.5028527
-1.1929383
-0.8166835
0.43643042
-0.9718504
-0.4503303
-0.042179823
-2.152623
-1.1867831
1.0570383
-2.4940693
-0.22222126
-0.15125084
-1.8685468
0.43323803
-0.9953961
-1.2931695
0.37885642
-1.1991104
-0.23439756
0.1613009
-2.2125564
0.5051112
-0.28842026
-2.599423
1.99593
-1.6432967
-2.2556427
1.3164263
-1.323915
-1.3208317
0.6488301
-2.5778952
-0.12551188
-0.9413137
-2.0544274
0.92661977
-1.743443
-1.5016992
0.82167196
-2.1332064
-0.075987816
0.08000499
-1.7120647
0.54443085
-1.2467577
-1.4117122
0.5877385
-2.452644
-0.5920062
0.5317581
-1.8851873
0.5543541
-0.47686094
-1.1264184
0.5201223
-0.570973
-1.1949441
0.09961969
-0.9866859
-0.053556412
-0.50547236
-0.316548
0.40998954
-2.3154817
-0.49528635
0.14049037
-1.2007378
-0.55218124
-1.4560436
-0.15248519
-0.1921643
-2.0635884
0.08386904
-0.3627965
-1.7937492
-0.007871687
0.08036747
-1.5679725
0.09834385
-1.9781144
-0.7916422
0.19244814
-1.5121033
-0.65877104
-0.020658255
-1.4540915
0.96051663
-1.2900066
-1.4063327
0.7753024
-1.6063998
-0.13797268
0.0785166
-2.405526
1.0650579
-0.7825911
-2.4723036
0.99711347
-2.1030598
-0.19370228
0.30373353
-2.181619
0.13901049
0.34245425
-1.5523475
0.93680906
-1.2055234
-0.977111
1.4146292
-0.4210085
-1.748846
1.1521246
-1.0147079
-1.5123632
0.061522603
-1.1070256
-0.5331309
0.0883823
-0.56826955
-0.47922054
0.032571375
-1.2525349
-0.5282167
0.011067888
-0.69141
-0.39161307
-0.92435217
0.5589068
-0.8251338
0.02783975
-0.37791708
-0.8417944
0.36352205
0.1274271
-0.3583024
-0.150119
-0.70311135
-0.11778706
0.71058697
-1.1581339
0.81346864
0.012790889
-1.5814422
-0.34303385
0.31324854
-0.45742726
0.35686302
-1.1469581
-0.9025007
-0.27620983
-0.049696025
-0.023247212
-0.55083156
-0.8165195
0.10941786
-0.09517872
-0.27255708
-0.75477284
-0.22784325
-0.20113885
-0.17769504
0.17506266
-0.5456687
0.30381286
0.25227463
-1.4227833
0.9567569
0.38356993
-0.5623032
1.4124129
-0.4789456
0.15190315
1.1011093
-0.10543504
-0.05536973
0.69987553
-1.1853521
0.004510669
0.9334322
-1.1392567
0.33188063
0.07884586
-0.8621783
0.11774975
-0.98586094
-1.3384205
0.32117146
-0.704091
-0.75214314
0.4441329
-0.19332242
-1.6935991
-0.6984391
0.7810229
-0.6024204
-1.2886069
0.5682539
-1.5873582
0.8864654
0.5291542
-1.8024915
0.538632
0.92503214
-3.0822282
0.10593456
1.1771127
-2.739988
0.6736627
0.28780752
-1.9981706
0.77647054
-0.6979496
-1.7583704
1.3250147
-0.17811775
-0.6990247
-0.4370784
-0.2159499
-1.1192575
0.39990455
0.08843917
-1.3554126
0.4551744
0.44987947
-2.220581
1.7190214
-0.33250016
-2.3020155
0.485371
0.18540354
-1.6488664
0.68862605
-0.12749
-1.3111014
0.005540192
-0.8428227
-1.2366602
0.7932979
-1.5062202
-0.9181937
-0.44666034
-0.831975
0.7420699
-0.32950705
-1.4187349
