0.237781284
0.59734758
0.180814001
0.388283874
0.213798612
1.0893205
0.307361294
-1.58894904
-1.63487624
-2.456979968
-2.73845668
-2.63827872
-2.40913658
-2.29635998
-1.344520798
-0.924960866
0.020997642
0.980280052
1.188947988
1.380284068
1.523042328
0.955773432
