-0.09836974
0.073024812
-0.107697519
-0.334226694
0.421946644
-0.321660905
-0.734603439
-2.079286272
-2.98657636
-4.24489744
-5.42203364
-6.15653618
-5.62170044
-6.65296916
-6.3273388
-6.6963939
-6.79108502
-5.75201208
-6.23619926
-5.86167826
-4.00921104
-1.333658562
