"CSVFiles/KFoldStratified13LAGCarlaData05.29.2021, 12.15.01/Run_2"
Accuracy,0.9535628502802241
Weighted Precision Score,0.9536586855633211
Weighted Recall Score,0.9535628502802241
Weighted F1 Score,0.953435137894674
-------------------------------
Distribution of Train Events
Non Aggressive Event,Aggressive Right Turn,Aggressive Left Turn,Aggressive Acceleration,Aggressive Braking,Aggressive Left Lane Change,Aggressive Right Lane Change
720,491,327,1376,1132,448,502
Distribution of Test Events
Non Aggressive Event,Aggressive Right Turn,Aggressive Left Turn,Aggressive Acceleration,Aggressive Braking,Aggressive Left Lane Change,Aggressive Right Lane Change
180,123,81,344,283,113,125
Confusion Matrix
,,,,Predicated Class
,,Non Aggressive Event,Aggressive Right Turn,Aggressive Left Turn,Aggressive Acceleration,Aggressive Braking,Aggressive Left Lane Change,Aggressive Right Lane Change
,Non Aggressive Event,179,0,0,0,0,1,0
,Aggressive Right Turn,0,119,0,1,1,2,0
,Aggressive Left Turn,0,0,76,0,0,2,3
,Aggressive Acceleration,5,2,1,330,3,2,1
Actual Class,Aggressive Braking,3,0,0,4,272,0,4
,Aggressive Left Lane Change,1,4,0,1,2,103,2
,Aggressive Right Lane Change,2,0,1,3,7,0,112

----------------------------
Multi Label Confusion Matrix
Non Aggressive Event
,Predicated Class
1058,11
1,179
Actual Class

Aggressive Right Turn
,Predicated Class
1120,6
4,119
Actual Class

Aggressive Left Turn
,Predicated Class
1166,2
5,76
Actual Class

Aggressive Acceleration
,Predicated Class
896,9
14,330
Actual Class

Aggressive Braking
,Predicated Class
953,13
11,272
Actual Class

Aggressive Left Lane Change
,Predicated Class
1129,7
10,103
Actual Class

Aggressive Right Lane Change
,Predicated Class
1114,10
13,112
Actual Class


----------------------------
