x,y,z,Event Time,Event Type,Frame,x_modified,y_modified,z_modified
-2.113911686,-0.476588905,2.004159451,29.38080345,-1,1289,-0.528477921,-0.119147226,0.501039863
0.30785984,1.540720224,-1.057915092,29.48080345,-1,1290,0.07696496,0.385180056,-0.264478773
0.246798935,-1.341152072,-2.399692535,29.58080345,-1,1291,0.061699734,-0.335288018,-0.599923134
-0.033468781,-0.89950794,1.441033125,29.68080345,-1,1292,-0.008367195,-0.224876985,0.360258281
0.075663033,-0.956246078,0.321745068,29.78080345,-1,1293,0.018915758,-0.23906152,0.080436267
0.575818481,-1.713100553,-0.04650721,29.88080345,-1,1294,0.14395462,-0.428275138,-0.011626802
-0.160527763,0.720703959,1.295661807,29.98080346,-1,1295,-0.040131941,0.18017599,0.323915452
-1.817668495,3.831258297,-0.569258869,30.08080346,-1,1296,-0.454417124,0.957814574,-0.142314717
-1.073783455,-2.756452322,-1.244978666,30.18080346,-1,1297,-0.268445864,-0.689113081,-0.311244667
0.84724659,1.387242556,-1.795088768,30.28080346,-1,1298,0.211811647,0.346810639,-0.448772192
0.456985893,0.910177946,99.9,30.48080346,-1,1300,0.114246473,0.227544487,24.975
0.405614319,1.917800426,4.628150463,30.58080347,-1,1301,0.10140358,0.479450107,1.157037616
1.257147255,-0.504831851,1.731738448,30.68080347,-1,1302,0.314286814,-0.126207963,0.432934612
-0.979392586,-1.208707571,0.970116913,30.78080347,-1,1303,-0.244848146,-0.302176893,0.242529228
-1.793470917,0.009923728,-0.810468972,30.88080347,-1,1304,-0.448367729,0.002480932,-0.202617243
1.126068535,0.538023233,-1.324569464,30.98080347,-1,1305,0.281517134,0.134505808,-0.331142366
2.292834702,0.663106084,-2.990901232,31.08080347,-1,1306,0.573208675,0.165776521,-0.747725308
2.887421074,-1.042415857,-0.783268631,31.18080347,-1,1307,0.721855268,-0.260603964,-0.195817158
0.269422951,1.072454333,0.900836825,31.28080348,-1,1308,0.067355738,0.268113583,0.225209206
2.067659798,0.410618722,-0.648928344,31.38080348,-1,1309,0.516914949,0.102654681,-0.162232086
2.007576408,0.554669023,0.507426262,31.48080348,-1,1310,0.501894102,0.138667256,0.126856565
-0.250048218,-0.461141527,-1.532935381,31.58080348,-1,1311,-0.062512054,-0.115285382,-0.383233845
0.202248993,-0.430889368,1.308759093,31.68080348,-1,1312,0.050562248,-0.107722342,0.327189773
0.586024704,0.383047283,-0.41122973,31.78080348,-1,1313,0.146506176,0.095761821,-0.102807432
0.457127037,0.347917825,0.239660919,31.88080348,-1,1314,0.114281759,0.086979456,0.05991523
0.206768456,0.7562114,-0.861457407,31.98080349,-1,1315,0.051692114,0.18905285,-0.215364352
0.404260101,-0.782592118,-1.515311122,32.08080349,-1,1316,0.101065025,-0.195648029,-0.37882778
-0.834611473,0.771335542,-1.716368556,32.18080349,-1,1317,-0.208652868,0.192833886,-0.429092139
0.583645287,-1.015524387,0.053251833,32.28080349,-1,1318,0.145911322,-0.253881097,0.013312958
0.029910507,-1.785897613,0.010565182,32.38080349,-1,1319,0.007477627,-0.446474403,0.002641296
-0.384845314,-1.409088373,0.987149417,32.48080349,0,1320,-0.096211329,-0.352272093,0.246787354
0.105271759,0.744606197,1.031378865,32.58080349,0,1321,0.02631794,0.186151549,0.257844716
0.019623222,0.265745789,-0.680782378,32.6808035,0,1322,0.004905806,0.066436447,-0.170195594
-2.293912468,0.422691643,-0.689965844,32.7808035,0,1323,-0.573478117,0.105672911,-0.172491461
-0.227125702,-1.409877062,-1.32725668,32.8808035,0,1324,-0.056781425,-0.352469265,-0.33181417
-0.931235847,1.376678944,0.751102984,32.9808035,0,1325,-0.232808962,0.344169736,0.187775746
0.818527641,0.730696559,-2.355185986,33.0808035,0,1326,0.20463191,0.18267414,-0.588796496
1.280922356,-2.547597408,-0.131246611,33.1808035,0,1327,0.320230589,-0.636899352,-0.032811653
0.362771454,2.706442356,-0.810124874,33.28080351,0,1328,0.090692863,0.676610589,-0.202531219
-3.951362667,1.58590889,-2.514045,33.38080351,0,1329,-0.987840667,0.396477222,-0.62851125
-0.357097206,-1.288212776,0.360095918,33.48080351,0,1330,-0.089274302,-0.322053194,0.09002398
1.390586319,-1.592279077,-2.50929904,33.58080351,0,1331,0.34764658,-0.398069769,-0.62732476
-0.589729843,0.206162542,-0.852788329,33.68080351,0,1332,-0.147432461,0.051540636,-0.213197082
-0.541431961,2.5014503,-2.753546476,33.78080351,0,1333,-0.13535799,0.625362575,-0.688386619
1.025529327,-2.102065325,-0.46672675,33.88080351,0,1334,0.256382332,-0.525516331,-0.116681688
-0.657045898,0.977906048,-2.211820841,33.98080352,0,1335,-0.164261475,0.244476512,-0.55295521
-0.312501488,-0.675209284,-1.033039689,34.08080352,0,1336,-0.078125372,-0.168802321,-0.258259922
-1.283913193,0.600628138,-0.012764839,34.18080352,0,1337,-0.320978298,0.150157034,-0.00319121
-0.39515358,0.736513615,-0.763114929,34.28080352,0,1338,-0.098788395,0.184128404,-0.190778732
1.75635952,-0.74000901,2.691850901,34.38080352,0,1339,0.43908988,-0.185002252,0.672962725
-1.314875183,-0.535425484,-0.211378932,34.48080352,0,1340,-0.328718796,-0.133856371,-0.052844733
0.181479874,0.24924618,-1.935193539,34.58080352,0,1341,0.045369968,0.062311545,-0.483798385
-0.481303749,-0.575304389,-0.168655321,34.68080353,0,1342,-0.120325937,-0.143826097,-0.04216383
0.254592361,-2.205527067,0.045461603,34.78080353,0,1343,0.06364809,-0.551381767,0.011365401
1.639860573,-0.656429291,1.050293446,34.88080353,0,1344,0.409965143,-0.164107323,0.262573361
2.15384716,0.463930309,1.132628679,34.98080353,0,1345,0.53846179,0.115982577,0.28315717
0.506477776,-0.73950547,1.341616035,35.08080353,0,1346,0.126619444,-0.184876367,0.335404009
-0.589060364,1.570369363,-0.747953475,35.18080353,0,1347,-0.147265091,0.392592341,-0.186988369
-1.13730484,-0.63995409,-0.217001289,35.28080354,0,1348,-0.28432621,-0.159988523,-0.054250322
-0.239655075,0.445650727,-0.454085052,35.38080354,0,1349,-0.059913769,0.111412682,-0.113521263
-1.387619553,0.623918056,-1.136547565,35.48080354,-1,1350,-0.346904888,0.155979514,-0.284136891
-1.234543381,-2.221233606,-0.165489078,35.58080354,-1,1351,-0.308635845,-0.555308402,-0.041372269
-0.639296112,-1.607347965,0.36638692,35.68080354,-1,1352,-0.159824028,-0.401836991,0.09159673
-0.155076561,1.483533621,0.209914684,35.78080354,-1,1353,-0.03876914,0.370883405,0.052478671
0.453890266,1.025263429,1.409428954,35.88080354,-1,1354,0.113472567,0.256315857,0.352357239
0.67865509,-0.043351397,-0.392021954,35.98080355,-1,1355,0.169663773,-0.010837849,-0.098005489
0.224221649,1.508647561,-0.06830278,36.08080355,-1,1356,0.056055412,0.37716189,-0.017075695
-1.985253868,0.476573616,-0.19309786,36.18080355,-1,1357,-0.496313467,0.119143404,-0.048274465
0.669988098,0.479008466,0.600880325,36.28080355,-1,1358,0.167497025,0.119752117,0.150220081
1.353636208,1.371410966,-0.809174597,36.38080355,-1,1359,0.338409052,0.342852741,-0.202293649
1.816530647,-0.43436712,-0.344699323,36.48080355,-1,1360,0.454132662,-0.10859178,-0.086174831
0.153774681,1.786204815,0.910825372,36.58080355,-1,1361,0.03844367,0.446551204,0.227706343
-2.459813652,1.334740162,1.93485713,36.68080356,-1,1362,-0.614953413,0.33368504,0.483714283
2.604933205,-2.063281059,3.055526257,36.78080356,-1,1363,0.651233301,-0.515820265,0.763881564
0.061017456,-0.598421812,1.187401533,36.88080356,-1,1364,0.015254364,-0.149605453,0.296850383
0.615753593,-1.457533836,-2.479582787,36.98080356,-1,1365,0.153938398,-0.364383459,-0.619895697
-1.781824646,1.025315523,-0.70765686,37.08080356,-1,1366,-0.445456161,0.256328881,-0.176914215
0.133144798,0.608004272,-0.75477463,37.18080356,-1,1367,0.0332862,0.152001068,-0.188693658
-2.561804352,-0.200035736,-0.667835653,37.28080356,-1,1368,-0.640451088,-0.050008934,-0.166958913
0.235201302,-1.132059574,-0.976369619,37.38080357,-1,1369,0.058800325,-0.283014894,-0.244092405
-0.128935394,-0.306626081,0.554009914,37.48080357,-1,1370,-0.032233849,-0.07665652,0.138502479
-0.065959511,1.911674023,2.240834713,37.58080357,-1,1371,-0.016489878,0.477918506,0.560208678
-0.372075615,-1.116318703,-1.848804832,37.68080357,-1,1372,-0.093018904,-0.279079676,-0.462201208
1.455238762,0.004809791,-0.262130678,37.78080357,-1,1373,0.36380969,0.001202448,-0.065532669
-0.245547829,1.454248905,0.57386899,37.88080357,-1,1374,-0.061386957,0.363562226,0.143467247
0.916664543,-0.178947449,1.628319144,37.98080358,-1,1375,0.229166136,-0.044736862,0.407079786
2.556304398,0.50052774,0.317963749,38.08080358,-1,1376,0.639076099,0.125131935,0.079490937
-0.63833004,0.693667889,-1.218767405,38.18080358,-1,1377,-0.15958251,0.173416972,-0.304691851
-0.05759388,0.157909662,-0.695853233,38.28080358,-1,1378,-0.01439847,0.039477415,-0.173963308
0.437284889,-0.820846379,0.039414428,38.38080358,-1,1379,0.109321222,-0.205211595,0.009853607
-0.81144577,-1.218625426,0.441028893,38.48080358,-1,1380,-0.202861443,-0.304656357,0.110257223
1.128792229,0.363429815,-1.508531213,38.58080358,-1,1381,0.282198057,0.090857454,-0.377132803
0.027866783,0.551780522,0.094948567,38.68080359,-1,1382,0.006966696,0.13794513,0.023737142
-1.283204613,-0.560091972,-0.717570543,38.78080359,-1,1383,-0.320801153,-0.140022993,-0.179392636
-2.453810272,-0.417601138,-1.063830137,38.88080359,-1,1384,-0.613452568,-0.104400285,-0.265957534
1.685739937,1.120163918,1.282196641,38.98080359,-1,1385,0.421434984,0.280040979,0.32054916
-1.290513573,0.87216717,-0.705287993,39.08080359,-1,1386,-0.322628393,0.218041793,-0.176321998
0.792401733,2.48422122,1.26390183,39.18080359,-1,1387,0.198100433,0.621055305,0.315975457
-0.353532372,0.539029777,1.873697639,39.28080359,-1,1388,-0.088383093,0.134757444,0.46842441
-0.652154503,-0.127870411,2.117744684,39.3808036,-1,1389,-0.163038626,-0.031967603,0.529436171
-1.119147835,-0.035475351,0.303618729,39.4808036,-1,1390,-0.279786959,-0.008868838,0.075904682
-0.0570541,-0.442366004,1.24780941,39.5808036,-1,1391,-0.014263525,-0.110591501,0.311952353
-1.571346817,0.548242569,-1.245355725,39.6808036,-1,1392,-0.392836704,0.137060642,-0.311338931
1.493924561,-1.529446483,-0.453888893,39.7808036,-1,1393,0.37348114,-0.382361621,-0.113472223
0.369615974,0.445970029,-1.386710167,39.8808036,-1,1394,0.092403994,0.111492507,-0.346677542
-0.205477295,-1.576574802,1.441068292,39.98080361,-1,1395,-0.051369324,-0.394143701,0.360267073
0.409660759,0.88188535,1.482506633,40.08080361,-1,1396,0.10241519,0.220471337,0.370626658
-0.718176422,-0.097385444,-3.250630617,40.18080361,-1,1397,-0.179544106,-0.024346361,-0.812657654
2.245984497,-1.974654198,-1.580715299,40.28080361,-1,1398,0.561496124,-0.493663549,-0.395178825
-0.499842224,-1.89699614,-0.203760609,40.38080361,-1,1399,-0.124960556,-0.474249035,-0.050940152
-1.282061157,-0.5107342,-0.961115777,40.48080361,-1,1400,-0.320515289,-0.12768355,-0.240278944
0.443536224,2.160995245,-0.713748932,40.58080361,-1,1401,0.110884056,0.540248811,-0.178437233
-2.592931328,1.591802001,-2.436558008,40.68080362,-1,1402,-0.648232832,0.3979505,-0.609139502
0.307880821,-0.920750201,0.491619766,40.78080362,-1,1403,0.076970205,-0.23018755,0.122904941
0.912490311,-0.731099367,1.284846663,40.88080362,-1,1404,0.228122578,-0.182774842,0.321211666
0.869176331,1.14135313,3.727695942,40.98080362,-1,1405,0.217294083,0.285338283,0.931923985
-2.444927273,0.063911051,2.31863904,41.08080362,-1,1406,-0.611231818,0.015977763,0.57965976
-1.984594879,2.545083523,2.862768888,41.18080362,-1,1407,-0.49614872,0.636270881,0.715692222
0.223051491,2.058191538,-0.094957381,41.28080362,-1,1408,0.055762873,0.514547884,-0.023739345
0.530950012,0.494524539,2.596505404,41.38080363,-1,1409,0.132737503,0.123631135,0.649126351
1.597640457,-0.36535114,-1.56075716,41.48080363,-1,1410,0.399410114,-0.091337785,-0.39018929
-0.766471443,-1.824714303,-0.925948322,41.58080363,-1,1411,-0.191617861,-0.456178576,-0.23148708
2.57272953,1.051757932,1.123753428,41.68080363,-1,1412,0.643182383,0.262939483,0.280938357
-3.447254715,-0.43578136,-2.446066141,41.78080363,-1,1413,-0.861813679,-0.10894534,-0.611516535
-0.3069244,-1.107465386,0.714482248,41.88080363,-1,1414,-0.0767311,-0.276866347,0.178620562
-1.088927803,1.339575887,0.484118581,41.98080363,-1,1415,-0.272231951,0.334893972,0.121029645
-0.893677292,0.298719585,-1.291182518,42.08080364,-1,1416,-0.223419323,0.074679896,-0.32279563
0.777814331,1.113281965,-1.339472532,42.18080364,-1,1417,0.194453583,0.278320491,-0.334868133
-0.183246193,-0.423454195,-2.751392365,42.28080364,-1,1418,-0.045811548,-0.105863549,-0.687848091
2.020771446,-0.099309936,-1.027934432,42.38080364,-1,1419,0.505192862,-0.024827484,-0.256983608
-0.559060631,-0.214446381,-0.348246992,42.48080364,-1,1420,-0.139765158,-0.053611595,-0.087061748
0.07249588,2.05955863,-0.704447329,42.58080364,-1,1421,0.01812397,0.514889657,-0.176111832
1.528317871,0.059934299,-0.377824008,42.68080365,-1,1422,0.382079468,0.014983575,-0.094456002
0.692610207,-1.258364558,-0.017891394,42.78080365,-1,1423,0.173152552,-0.31459114,-0.004472848
-2.66632515,-0.618749619,-0.665395319,42.88080365,-1,1424,-0.666581287,-0.154687405,-0.16634883
-0.327665863,0.725060105,-0.831863105,42.98080365,-1,1425,-0.081916466,0.181265026,-0.207965776
1.122359695,-0.137250274,0.452619106,43.08080365,-1,1426,0.280589924,-0.034312569,0.113154776
1.764923515,-0.172227144,-0.917145073,43.18080365,-1,1427,0.441230879,-0.043056786,-0.229286268
-0.280291138,-0.832820535,1.1585325,43.28080365,-1,1428,-0.070072784,-0.208205134,0.289633125
-1.662825165,-0.645684898,-1.249044299,43.38080366,-1,1429,-0.415706291,-0.161421224,-0.312261075
-1.945194778,-2.725092649,3.437834978,43.48080366,-1,1430,-0.486298695,-0.681273162,0.859458745
0.584425392,-0.236120403,-0.087724596,43.58080366,-1,1431,0.146106348,-0.059030101,-0.021931149
0.275102081,1.140001893,1.997726202,43.68080366,-1,1432,0.06877552,0.285000473,0.499431551
1.392835083,1.469567299,0.378899217,43.78080366,-1,1433,0.348208771,0.367391825,0.094724804
1.1705336,-2.107688665,-0.511332214,43.88080366,-1,1434,0.2926334,-0.526922166,-0.127833053
1.17380661,0.549753904,-0.713342309,43.98080366,-1,1435,0.293451653,0.137438476,-0.178335577
0.315671387,-2.285080671,1.246598125,44.08080367,-1,1436,0.078917847,-0.571270168,0.311649531
0.79779953,0.345631808,-0.825473726,44.18080367,-1,1437,0.199449883,0.086407952,-0.206368431
-2.655247269,0.90724045,-0.873825669,44.28080367,-1,1438,-0.663811817,0.226810113,-0.218456417
-0.325553474,-1.137051344,-0.714141428,44.38080367,-1,1439,-0.081388369,-0.284262836,-0.178535357
-1.454007683,-2.346066475,0.982086241,44.48080367,-1,1440,-0.363501921,-0.586516619,0.24552156
-0.393504677,1.289571643,-0.199268639,44.58080367,-1,1441,-0.098376169,0.322392911,-0.04981716
2.451323929,-0.145630598,0.819119215,44.68080368,-1,1442,0.612830982,-0.03640765,0.204779804
-1.550528107,0.657827616,0.34540379,44.78080368,-1,1443,-0.387632027,0.164456904,0.086350948
-0.689489899,3.101635456,1.570044279,44.88080368,-1,1444,-0.172372475,0.775408864,0.39251107
-0.052415428,-0.03823071,0.068277106,44.98080368,-1,1445,-0.013103857,-0.009557677,0.017069276
1.221916618,0.313673645,2.232423306,45.08080368,-1,1446,0.305479155,0.078418411,0.558105826
-0.921288071,1.070102334,-0.807659924,45.18080368,-1,1447,-0.230322018,0.267525584,-0.201914981
0.722270432,-0.680613816,1.005243063,45.28080368,-1,1448,0.180567608,-0.170153454,0.251310766
0.742876472,-1.195191145,-1.410352468,45.38080369,-1,1449,0.185719118,-0.298797786,-0.352588117
0.256583633,-2.674654484,0.024832699,45.48080369,-1,1450,0.064145908,-0.668663621,0.006208175
2.87156147,2.369383335,-0.039121702,45.58080369,-1,1451,0.717890368,0.592345834,-0.009780426
-0.066922722,0.989514351,2.448114634,45.68080369,-1,1452,-0.01673068,0.247378588,0.612028658
1.313020172,1.070697665,-0.985673785,45.78080369,-1,1453,0.328255043,0.267674416,-0.246418446
0.634152832,0.715869308,0.685406685,45.88080369,-1,1454,0.158538208,0.178967327,0.171351671
0.304550591,0.555005014,0.882975042,45.98080369,-1,1455,0.076137648,0.138751253,0.22074376
1.042231026,-0.990562737,-1.196747422,46.0808037,-1,1456,0.260557756,-0.247640684,-0.299186856
0.142992439,0.597088397,-2.067406416,46.1808037,-1,1457,0.03574811,0.149272099,-0.516851604
-0.74893528,1.315636039,-0.017781612,46.2808037,-1,1458,-0.18723382,0.32890901,-0.004445403
-1.506087837,1.466546416,0.351983041,46.3808037,-1,1459,-0.376521959,0.366636604,0.08799576
3.590846481,-2.574314356,-1.047140956,46.4808037,-1,1460,0.89771162,-0.643578589,-0.261785239
-2.6902948,1.944924712,1.085276365,46.5808037,-1,1461,-0.6725737,0.486231178,0.271319091
4.791878166,1.512413144,1.649816275,46.68080371,-1,1462,1.197969542,0.378103286,0.412454069
-3.474316654,0.85507226,-0.080815792,46.78080371,-1,1463,-0.868579164,0.213768065,-0.020203948
-5.696457443,1.193021536,-1.653108597,46.88080371,-1,1464,-1.424114361,0.298255384,-0.413277149
-1.643659172,0.50598526,0.588721812,46.98080371,-1,1465,-0.410914793,0.126496315,0.147180453
