"CSVFiles/KFoldStratified13LAGDriverBehaviour05.23.2021, 22.15.17/Run_1"
Accuracy,0.9925650557620818
Weighted Precision Score,0.9927837305926088
Weighted Recall Score,0.9925650557620818
Weighted F1 Score,0.9925679701077804
-------------------------------
Distribution of Train Events
Non Aggressive Event,Aggressive Right Turn,Aggressive Left Turn,Aggressive Acceleration,Aggressive Braking,Aggressive Left Lane Change,Aggressive Right Lane Change
262,200,199,230,114,28,40
Distribution of Test Events
Non Aggressive Event,Aggressive Right Turn,Aggressive Left Turn,Aggressive Acceleration,Aggressive Braking,Aggressive Left Lane Change,Aggressive Right Lane Change
66,50,50,57,28,8,10
Confusion Matrix
,,,,Predicated Class
,,Non Aggressive Event,Aggressive Right Turn,Aggressive Left Turn,Aggressive Acceleration,Aggressive Braking,Aggressive Left Lane Change,Aggressive Right Lane Change
,Non Aggressive Event,66,0,0,0,0,0,0
,Aggressive Right Turn,0,50,0,0,0,0,0
,Aggressive Left Turn,1,0,49,0,0,0,0
,Aggressive Acceleration,0,0,0,57,0,0,0
Actual Class,Aggressive Braking,1,0,0,0,27,0,0
,Aggressive Left Lane Change,0,0,0,0,0,8,0
,Aggressive Right Lane Change,0,0,0,0,0,0,10

----------------------------
Multi Label Confusion Matrix
Non Aggressive Event
,Predicated Class
201,2
0,66
Actual Class

Aggressive Right Turn
,Predicated Class
219,0
0,50
Actual Class

Aggressive Left Turn
,Predicated Class
219,0
1,49
Actual Class

Aggressive Acceleration
,Predicated Class
212,0
0,57
Actual Class

Aggressive Braking
,Predicated Class
241,0
1,27
Actual Class

Aggressive Left Lane Change
,Predicated Class
261,0
0,8
Actual Class

Aggressive Right Lane Change
,Predicated Class
259,0
0,10
Actual Class


----------------------------
