-1.163719719
-1.163071282
-1.331436486
-1.257126552
-1.008820226
-1.023811894
-1.18663486
-0.68100812
-1.41045417
-0.62774704
-1.4170229
-0.861972004
-0.396675603
-1.245837854
-0.704648816
-0.368412032
-0.88500754
