x,y,z,Event Time,Event Type,Frame,x_modified,y_modified,z_modified
0.661422195,2.075371504,-0.664935172,560.8672079,-1,6494,0.165355549,0.518842876,-0.166233793
-1.716896591,0.839513302,0.250928491,560.9672079,-1,6495,-0.429224148,0.209878325,0.062732123
-0.508618889,-0.540534377,-1.35668838,561.0672079,-1,6496,-0.127154722,-0.135133594,-0.339172095
0.800639572,0.888885021,0.707091391,561.1672079,-1,6497,0.200159893,0.222221255,0.176772848
0.731121483,1.94718802,2.875273228,561.2672079,-1,6498,0.182780371,0.486797005,0.718818307
0.797910156,0.553623855,0.130898014,561.3672079,-1,6499,0.199477539,0.138405964,0.032724503
-1.083542404,-0.41701445,1.422534704,561.4672079,-1,6500,-0.270885601,-0.104253612,0.355633676
0.09900135,1.664157271,1.790344596,561.5672079,-1,6501,0.024750338,0.416039318,0.447586149
2.112001839,-0.895489931,-2.20011735,561.6672079,-1,6502,0.52800046,-0.223872483,-0.550029337
-0.271044312,1.048305511,1.957711339,561.7672079,-1,6503,-0.067761078,0.262076378,0.489427835
-0.598297653,1.460072756,2.982759237,561.9672079,-1,6505,-0.149574413,0.365018189,0.745689809
0.959809723,0.934637308,-1.742372632,562.0672079,-1,6506,0.239952431,0.233659327,-0.435593158
-0.389576492,-0.922955036,-0.817538261,562.1672079,-1,6507,-0.097394123,-0.230738759,-0.204384565
-3.184494076,-0.987357378,-0.856550097,562.2672079,-1,6508,-0.796123519,-0.246839345,-0.214137524
0.14271492,-0.349020988,-1.355324984,562.3672079,-1,6509,0.03567873,-0.087255247,-0.338831246
2.00652832,1.288976669,1.207756281,562.4672079,-1,6510,0.50163208,0.322244167,0.30193907
1.13824028,1.117551208,-1.399087787,562.5672079,-1,6511,0.28456007,0.279387802,-0.349771947
-1.047439156,-1.428455114,-0.439572036,562.6672079,-1,6512,-0.261859789,-0.357113779,-0.109893009
-1.965357361,-1.314556837,-1.545970798,562.7672079,-1,6513,-0.49133934,-0.328639209,-0.386492699
2.30222744,0.065980583,-1.79633832,562.8672079,-1,6514,0.57555686,0.016495146,-0.44908458
-1.97476202,0.438116461,0.025392279,562.9672079,-1,6515,-0.493690505,0.109529115,0.00634807
1.307814064,-1.479028583,1.159638762,563.0672079,-1,6516,0.326953516,-0.369757146,0.289909691
-3.617741165,1.573654413,-0.52303803,563.1672079,-1,6517,-0.904435291,0.393413603,-0.130759507
-1.249476013,2.092102289,-1.741991639,563.2672079,-1,6518,-0.312369003,0.523025572,-0.43549791
1.049090805,0.227233976,0.289239824,563.3672079,-1,6519,0.262272701,0.056808494,0.072309956
-0.989866791,0.022173434,-1.007725477,563.4672079,-1,6520,-0.247466698,0.005543359,-0.251931369
0.645050468,0.630089045,1.986088753,563.5672079,-1,6521,0.161262617,0.157522261,0.496522188
1.642413559,0.912814736,0.702899218,563.6672079,-1,6522,0.41060339,0.228203684,0.175724804
-1.225840149,-1.07055831,-0.300912529,563.7672079,-1,6523,-0.306460037,-0.267639577,-0.075228132
0.266376915,0.547797203,-1.182574987,563.8672079,-1,6524,0.066594229,0.136949301,-0.295643747
0.703772011,-0.339705199,2.281918764,563.9672079,-1,6525,0.175943003,-0.0849263,0.570479691
-2.600433884,-0.637466848,-1.499736667,564.0672079,-1,6526,-0.650108471,-0.159366712,-0.374934167
-0.671268997,0.485761702,-0.899847686,564.1672079,-1,6527,-0.167817249,0.121440426,-0.224961922
0.804347458,3.78105998,-0.644468784,564.2672079,-1,6528,0.201086864,0.945264995,-0.161117196
-0.373633919,-0.028663486,-0.802963614,564.3672079,-1,6529,-0.09340848,-0.007165872,-0.200740904
-1.111390648,0.214511186,2.579319715,564.4672079,-1,6530,-0.277847662,0.053627796,0.644829929
-0.292705116,0.878087044,1.122110605,564.5672079,-1,6531,-0.073176279,0.219521761,0.280527651
1.964903297,0.294829607,1.822299123,564.6672079,-1,6532,0.491225824,0.073707402,0.455574781
-0.499464569,1.459988475,3.187610865,564.7672079,-1,6533,-0.124866142,0.364997119,0.796902716
-2.165967999,-0.099217206,5.692043304,564.8672079,-1,6534,-0.541492,-0.024804302,1.423010826
0.260286751,1.916932702,2.165588856,564.9672079,-1,6535,0.065071688,0.479233176,0.541397214
0.192224922,-0.96855545,0.42189765,565.0672079,-1,6536,0.048056231,-0.242138863,0.105474412
-0.101191101,-0.529449165,4.187569618,565.1672079,-1,6537,-0.025297775,-0.132362291,1.046892405
-0.002344666,-0.589576483,3.137418985,565.2672079,-1,6538,-0.000586166,-0.147394121,0.784354746
0.495768967,-1.349725366,2.873923779,565.3672079,-1,6539,0.123942242,-0.337431341,0.718480945
-0.241497574,1.080954194,4.321727276,565.4672079,-1,6540,-0.060374393,0.270238549,1.080431819
-1.888455925,4.189842701,2.582291603,565.5672079,-1,6541,-0.472113981,1.047460675,0.645572901
-1.140742836,-2.404546738,2.032740593,565.6672079,-1,6542,-0.285185709,-0.601136684,0.508185148
0.536626282,1.388866067,1.484121919,565.7672079,-1,6543,0.13415657,0.347216517,0.37103048
-0.027394829,0.482679099,2.493929386,565.8672079,-1,6544,-0.006848707,0.120669775,0.623482347
2.961612167,1.607010365,1.989493728,565.9672079,-1,6545,0.740403042,0.401752591,0.497373432
0.754670563,1.494880319,5.501013756,566.0672079,-1,6546,0.188667641,0.37372008,1.375253439
1.050261917,-0.172414213,5.903183937,566.1672079,-1,6547,0.262565479,-0.043103553,1.475795984
-1.304476318,-0.844349504,3.053203583,566.267208,-1,6548,-0.32611908,-0.211087376,0.763300896
-2.128628788,0.34657225,-1.046661496,566.367208,-1,6549,-0.532157197,0.086643063,-0.261665374
0.908284607,0.842711985,-1.569680691,566.467208,-1,6550,0.227071152,0.210677996,-0.392420173
2.218348923,0.954044104,-3.246468544,566.567208,-1,6551,0.554587231,0.238511026,-0.811617136
1.250837746,-1.602736354,-0.398555368,566.667208,-1,6552,0.312709436,-0.400684088,-0.099638842
0.494271698,2.218826532,2.717971563,566.767208,-1,6553,0.123567924,0.554706633,0.679492891
2.543411674,0.150496006,4.342002392,566.867208,-1,6554,0.635852919,0.037624002,1.085500598
2.625012817,0.517415285,4.761136532,566.967208,-1,6555,0.656253204,0.129353821,1.190284133
0.208500328,-0.497760355,2.426460743,567.067208,-1,6556,0.052125082,-0.124440089,0.606615186
0.413475456,-0.453332454,5.161287785,567.167208,-1,6557,0.103368864,-0.113333113,1.290321946
0.603890839,0.373514265,3.395910263,567.267208,-1,6558,0.15097271,0.093378566,0.848977566
0.37580246,0.345026165,4.022162914,567.367208,-1,6559,0.093950615,0.086256541,1.005540729
0.104106369,0.75660181,2.904362679,567.467208,-1,6560,0.026026592,0.189150453,0.72609067
0.323777618,-0.782172799,2.244258404,567.567208,-1,6561,0.080944405,-0.1955432,0.561064601
-0.88020092,0.771068513,2.045488358,567.667208,-1,6562,-0.22005023,0.192767128,0.511372089
0.566254082,-1.015185595,3.816628695,567.767208,-1,6563,0.14156352,-0.253796399,0.954157174
0.02859539,-1.785902023,3.767041445,567.867208,-1,6564,0.007148848,-0.446475506,0.941760361
-0.381208954,-1.408774614,4.726474285,567.967208,-1,6565,-0.095302238,-0.352193654,1.181618571
0.1064505,0.743780553,4.751194477,568.067208,-1,6566,0.026612625,0.185945138,1.187798619
0.015821877,0.266070396,3.016373158,568.167208,-1,6567,0.003955469,0.066517599,0.754093289
-2.282803116,0.422619432,1.986578703,568.267208,-1,6568,-0.570700779,0.105654858,0.496644676
-0.200200615,-1.409855366,-1.372697711,568.367208,-1,6569,-0.050050154,-0.352463841,-0.343174428
-0.941393433,1.376408935,0.598017037,568.467208,-1,6570,-0.235348358,0.344102234,0.149504259
0.798415604,0.730685234,-2.498527288,568.567208,-1,6571,0.199603901,0.182671309,-0.624631822
1.266083183,-2.547892809,-0.278948754,568.667208,-1,6572,0.316520796,-0.636973202,-0.069737189
0.344773712,2.706185579,-0.265939295,568.767208,-1,6573,0.086193428,0.676546395,-0.066484824
-3.982279835,1.5857265,0.503226995,568.867208,-1,6574,-0.995569959,0.396431625,0.125806749
-0.354855118,-1.288142443,3.438157558,568.967208,-1,6575,-0.088713779,-0.322035611,0.85953939
1.401364746,-1.592476964,0.489526749,569.067208,-1,6576,0.350341187,-0.398119241,0.122381687
-0.583853302,0.206289709,2.121055603,569.167208,-1,6577,-0.145963326,0.051572427,0.530263901
-0.54257637,2.501378298,0.208255768,569.267208,-1,6578,-0.135644093,0.625344574,0.052063942
1.019719543,-2.10197401,2.484728575,569.367208,-1,6579,0.254929886,-0.525493503,0.621182144
-0.664839325,0.977728665,0.725854397,569.467208,-1,6580,-0.166209831,0.244432166,0.181463599
-0.32028347,-0.675061941,1.887469172,569.567208,-1,6581,-0.080070868,-0.168765485,0.471867293
-1.291123924,0.600431621,2.893913507,569.667208,-1,6582,-0.322780981,0.150107905,0.723478377
-0.401816902,0.736736357,2.125443459,569.767208,-1,6583,-0.100454226,0.184184089,0.531360865
1.750253143,-0.740140438,5.567280769,569.867208,-1,6584,0.437563286,-0.18503511,1.391820192
-1.320959625,-0.535179079,2.649026871,569.967208,-1,6585,-0.330239906,-0.13379477,0.662256718
0.175460281,0.249161258,0.910782099,570.067208,-1,6586,0.04386507,0.062290315,0.227695525
-0.487324295,-0.575170577,2.662881613,570.167208,-1,6587,-0.121831074,-0.143792644,0.665720403
0.255832138,-2.205717325,2.503543854,570.267208,-1,6588,0.063958035,-0.551429331,0.625885963
1.66607708,-0.656028092,1.204550147,570.367208,-1,6589,0.41651927,-0.164007023,0.301137537
2.152846756,0.463710666,0.881536961,570.467208,-1,6590,0.538211689,0.115927666,0.22038424
0.492355766,-0.739539742,1.106843233,570.567208,-1,6591,0.123088942,-0.184884936,0.276710808
-0.60139328,1.570046663,-0.986498713,570.667208,-1,6592,-0.15034832,0.392511666,-0.246624678
-1.147777138,-0.639818192,-0.231100053,570.767208,-1,6593,-0.286944284,-0.159954548,-0.057775013
-0.266194878,0.445263863,1.511253357,570.867208,-1,6594,-0.066548719,0.111315966,0.377813339
-1.389286575,0.62369895,1.157140017,570.967208,-1,6595,-0.347321644,0.155924737,0.289285004
-1.224598465,-2.221296787,2.022494555,571.067208,-1,6596,-0.306149616,-0.555324197,0.505623639
-0.6314674,-1.607451797,2.516410112,571.167208,-1,6597,-0.15786685,-0.401862949,0.629102528
-0.154142914,1.483187437,2.348151207,571.267208,-1,6598,-0.038535728,0.370796859,0.587037802
0.451642456,1.024723053,3.541863918,571.367208,-1,6599,0.112910614,0.256180763,0.88546598
0.674010696,-0.043020532,1.739254355,571.467208,-1,6600,0.168502674,-0.010755133,0.434813589
0.219464722,1.50850904,2.05461812,571.567208,-1,6601,0.05486618,0.37712726,0.51365453
-1.989542542,0.476625443,1.926054716,571.667208,-1,6602,-0.497385635,0.119156361,0.481513679
0.666182938,0.479156464,2.71070385,571.767208,-1,6603,0.166545734,0.119789116,0.677675962
1.350142899,1.371384025,1.293188572,571.867208,-1,6604,0.337535725,0.342846006,0.323297143
1.813147964,-0.434345096,1.75203979,571.967208,-1,6605,0.453286991,-0.108586274,0.438009948
0.150448265,1.78627944,2.995058298,572.067208,-1,6606,0.037612066,0.44656986,0.748764575
-2.463232574,1.334769964,4.014062405,572.167208,-1,6607,-0.615808144,0.333692491,1.003515601
2.603380623,-2.06326437,5.03429985,572.267208,-1,6608,0.650845156,-0.515816092,1.258574963
0.081098022,-0.598286867,1.54061842,572.367208,4,6609,0.020274506,-0.149571717,0.385154605
0.619991722,-1.457155943,-2.806631804,572.467208,4,6610,0.154997931,-0.364288986,-0.701657951
-1.791847763,1.024800658,-1.018719673,572.567208,4,6611,-0.447961941,0.256200165,-0.254679918
0.122783127,0.608220577,-1.063513756,572.667208,4,6612,0.030695782,0.152055144,-0.265878439
-2.559961853,-0.200335711,-1.518569469,572.767208,4,6613,-0.639990463,-0.050083928,-0.379642367
0.245354118,-1.132226944,-3.097098589,572.867208,4,6614,0.06133853,-0.283056736,-0.774274647
-0.109574852,-0.306952149,-4.192730427,572.9672081,4,6615,-0.027393713,-0.076738037,-1.048182607
-0.077315865,1.911174059,-4.849141121,573.0672081,4,6616,-0.019328966,0.477793515,-1.21228528
-0.42502552,-1.116826415,-9.571779251,573.1672081,4,6617,-0.10625638,-0.279206604,-2.392944813
1.387851181,0.003757892,-8.209867477,573.2672081,4,6618,0.346962795,0.000939473,-2.052466869
-0.309022484,1.453574896,-7.448044777,573.3672081,4,6619,-0.077255621,0.363393724,-1.862011194
0.862373772,-0.17984201,-6.39936161,573.4672081,4,6620,0.215593443,-0.044960503,-1.599840403
2.510055008,0.49972561,-7.696161747,573.5672081,4,6621,0.627513752,0.124931403,-1.924040437
-0.680664597,0.692835093,-9.193279266,573.6672081,4,6622,-0.170166149,0.173208773,-2.298319817
-0.098709641,0.157250419,-8.627349854,573.7672081,4,6623,-0.02467741,0.039312605,-2.156837463
0.396390381,-0.821333706,-7.846822262,573.8672081,4,6624,0.099097595,-0.205333427,-1.961705565
-0.852662621,-1.219639301,-7.395052433,573.9672081,4,6625,-0.213165655,-0.304909825,-1.848763108
1.087539139,0.363180667,-9.303209305,574.0672081,4,6626,0.271884785,0.090795167,-2.325802326
-0.013166962,0.551207364,-7.653304577,574.1672081,4,6627,-0.00329174,0.137801841,-1.913326144
-1.324060974,-0.560523629,-8.419361115,574.2672081,4,6628,-0.331015244,-0.140130907,-2.104840279
-2.49430233,-0.417997003,-8.617552757,574.3672081,4,6629,-0.623575583,-0.104499251,-2.154388189
1.647141876,1.119709015,-6.194696903,574.4672081,4,6630,0.411785469,0.279927254,-1.548674226
-1.327725945,0.871464491,-8.174351692,574.5672081,4,6631,-0.331931486,0.217866123,-2.043587923
0.736784401,2.484806299,-6.192442894,574.6672081,4,6632,0.1841961,0.621201575,-1.548110723
-0.380459366,0.538113892,-5.566558838,574.7672081,4,6633,-0.095114841,0.134528473,-1.391639709
-0.682927666,-0.127683058,-5.148249149,574.8672081,4,6634,-0.170731916,-0.031920765,-1.287062287
-1.151073036,-0.036114577,-6.974555016,574.9672081,4,6635,-0.287768259,-0.009028644,-1.743638754
-0.091879425,-0.442372799,-6.071595192,575.0672081,4,6636,-0.022969856,-0.1105932,-1.517898798
-1.608980713,0.549726248,-8.537227631,575.1672081,4,6637,-0.402245178,0.137431562,-2.134306908
1.457995834,-1.536268353,-8.739433289,575.2672081,4,6638,0.364498959,-0.384067088,-2.184858322
0.28194088,0.451456577,-2.591230392,575.3672081,4,6639,0.07048522,0.112864144,-0.647807598
-0.246623573,-1.529477239,1.407553077,575.4672081,4,6640,-0.061655893,-0.38236931,0.351888269
0.701908531,0.800532043,1.492174506,575.5672081,4,6641,0.175477133,0.200133011,0.373043627
-0.978693542,-0.115165994,-3.308419228,575.6672081,4,6642,-0.244673386,-0.028791498,-0.827104807
2.29792923,-1.98658812,-1.607340217,575.7672081,4,6643,0.574482307,-0.49664703,-0.401835054
-0.493716774,-1.900956988,-0.200442612,575.8672081,-1,6644,-0.123429193,-0.475239247,-0.050110653
-1.27740818,-0.512406647,-0.956606328,575.9672081,-1,6645,-0.319352045,-0.128101662,-0.239151582
0.447590294,2.160422087,-0.709266543,576.0672081,-1,6646,0.111897573,0.540105522,-0.177316636
-2.589518127,1.591369629,-2.432095289,576.1672081,-1,6647,-0.647379532,0.397842407,-0.608023822
0.310645523,-0.92090255,0.49483633,576.2672081,-1,6648,0.077661381,-0.230225638,0.123709083
0.914751472,-0.731447101,1.290560365,576.3672081,-1,6649,0.228687868,-0.182861775,0.322640091
0.870861473,1.14135313,3.732159615,576.4672081,-1,6650,0.217715368,0.285338283,0.933039904
-2.443749485,0.063676707,2.323098898,576.5672081,-1,6651,-0.610937371,0.015919177,0.580774724
-1.983512459,2.545005322,2.867231369,576.6672081,-1,6652,-0.495878115,0.63625133,0.716807842
0.223779144,2.057878971,-0.090498611,576.7672081,-1,6653,0.055944786,0.514469743,-0.022624653
0.531442108,0.494460791,2.599717855,576.8672081,-1,6654,0.132860527,0.123615198,0.649929464
1.598139229,-0.365610301,-1.555047393,576.9672081,-1,6655,0.399534807,-0.091402575,-0.388761848
-0.766171036,-1.824792385,-0.921485841,577.0672081,-1,6656,-0.191542759,-0.456198096,-0.23037146
2.572965088,1.051523566,1.128213406,577.1672081,-1,6657,0.643241272,0.262880892,0.282053351
-3.447042046,-0.435942829,-2.441604853,577.2672081,-1,6658,-0.861760511,-0.108985707,-0.610401213
-0.306845245,-1.107685328,0.717692435,577.3672081,-1,6659,-0.076711311,-0.276921332,0.179423109
-1.088795242,1.339478135,0.489830911,577.4672081,-1,6660,-0.272198811,0.334869534,0.122457728
-0.883190689,0.303124785,-1.29130733,577.5672081,-1,6661,-0.220797672,0.075781196,-0.322826833
0.756782951,1.107156515,-1.327716112,577.6672081,-1,6662,0.189195738,0.276789129,-0.331929028
-0.173485336,-0.424530685,-2.750659227,577.7672081,-1,6663,-0.043371334,-0.106132671,-0.687664807
2.022292557,-0.099752754,-1.023440361,577.8672081,-1,6664,0.505573139,-0.024938188,-0.25586009
-0.559141693,-0.214770555,-0.345017135,577.9672081,-1,6665,-0.139785423,-0.053692639,-0.086254284
0.07232708,2.059351444,-0.698715329,578.0672081,-1,6666,0.01808177,0.514837861,-0.174678832
1.528290215,0.059845734,-0.373361528,578.1672081,-1,6667,0.382072554,0.014961434,-0.093340382
0.692414703,-1.258609414,-0.013431385,578.2672081,-1,6668,0.173103676,-0.314652354,-0.003357846
-2.666329918,-0.61882776,-0.660932839,578.3672081,-1,6669,-0.666582479,-0.15470694,-0.16523321
-0.32762104,0.724767268,-0.82865417,578.4672081,-1,6670,-0.08190526,0.181191817,-0.207163543
1.122244301,-0.137353256,0.458331436,578.5672081,-1,6671,0.280561075,-0.034338314,0.114582859
1.765231552,-0.172091812,-0.912689388,578.6672081,-1,6672,0.441307888,-0.043022953,-0.228172347
-0.280517159,-0.833595335,1.162978649,578.7672081,-1,6673,-0.07012929,-0.208398834,0.290744662
-1.662936745,-0.646309793,-1.244590521,578.8672081,-1,6674,-0.415734186,-0.161577448,-0.31114763
-1.939777908,-2.71862793,3.444112539,578.9672081,-1,6675,-0.484944477,-0.679656982,0.861028135
0.583375397,-0.240968704,-0.087028615,579.0672081,-1,6676,0.145843849,-0.060242176,-0.021757154
0.327273788,1.231554508,2.031278849,579.1672081,-1,6677,0.081818447,0.307888627,0.507819712
0.916786613,1.328094482,0.346144468,579.2672081,-1,6678,0.229196653,0.332023621,0.086536117
1.751408997,-1.931740642,-0.514235616,579.3672081,-1,6679,0.437852249,-0.48293516,-0.128558904
1.009656372,0.509480536,-0.674763381,579.4672081,-1,6680,0.252414093,0.127370134,-0.168690845
0.362699928,-2.331228495,1.240811229,579.5672081,-1,6681,0.090674982,-0.582807124,0.310202807
0.79414505,0.333343953,-0.825849771,579.6672082,-1,6682,0.198536263,0.083335988,-0.206462443
-2.665429649,0.903296351,-0.869244277,579.7672082,-1,6683,-0.666357412,0.225824088,-0.217311069
-0.334110794,-1.138211012,-0.707119346,579.8672082,-1,6684,-0.083527699,-0.284552753,-0.176779836
-1.460123596,-2.346803427,0.984070718,579.9672082,-1,6685,-0.365030899,-0.586700857,0.24601768
-0.397556839,1.289271951,-0.192298383,580.0672082,-1,6686,-0.09938921,0.322317988,-0.048074596
2.448419991,-0.145851821,0.821090102,580.1672082,-1,6687,0.612104998,-0.036462955,0.205272526
-1.552646217,0.657822371,0.349867553,580.2672082,-1,6688,-0.388161554,0.164455593,0.087466888
-0.691039619,3.101278543,1.577002764,580.3672082,-1,6689,-0.172759905,0.775319636,0.394250691
-0.053572235,-0.038425781,0.07023745,580.4672082,-1,6690,-0.013393059,-0.009606445,0.017559363
1.220908585,0.313478142,2.239384174,580.5672082,-1,6691,0.305227146,0.078369536,0.559846044
-0.921784935,1.070143223,-0.805695891,580.6672082,-1,6692,-0.230446234,0.267535806,-0.201423973
0.721723976,-0.680924654,1.009701848,580.7672082,-1,6693,0.180430994,-0.170231164,0.252425462
0.742455902,-1.195152283,-1.403387904,580.8672082,-1,6694,0.185613976,-0.298788071,-0.350846976
0.256403389,-2.675162077,0.026788106,580.9672082,-1,6695,0.064100847,-0.668790519,0.006697027
2.87710041,2.368446589,-0.024179585,581.0672082,-1,6696,0.719275103,0.592111647,-0.006044896
-0.068728027,0.992917776,2.440179586,581.1672082,-1,6697,-0.017182007,0.248229444,0.610044897
1.306774559,1.071326852,-0.976226866,581.2672082,-1,6698,0.32669364,0.267831713,-0.244056717
0.633892479,0.716069221,0.687345803,581.3672082,-1,6699,0.15847312,0.179017305,0.171836451
0.304980698,0.555008709,0.889927983,581.4672082,-1,6700,0.076245174,0.138752177,0.222481996
1.042687836,-0.990813553,-1.194793582,581.5672082,-1,6701,0.260671959,-0.247703388,-0.298698395
0.143273773,0.596954584,-2.062950373,581.6672082,-1,6702,0.035818443,0.149238646,-0.515737593
-0.748776016,1.315520048,-0.010819461,581.7672082,-1,6703,-0.187194004,0.328880012,-0.002704865
-1.50591713,1.466430783,0.3539446,581.8672082,-1,6704,-0.376479282,0.366607696,0.08848615
0.186388435,-2.563390017,-1.490090132,581.9672082,-1,6705,0.046597109,-0.640847504,-0.372522533
-1.872651634,1.9277215,0.02492444,582.0672082,-1,6706,-0.468162909,0.481930375,0.00623111
-0.010695038,1.387914658,3.620087147,582.1672082,-1,6707,-0.002673759,0.346978664,0.905021787
1.280847015,0.89562422,-0.793231726,582.2672082,-1,6708,0.320211754,0.223906055,-0.198307931
-2.959921417,1.489448309,-2.544979334,582.3672082,-1,6709,-0.739980354,0.372362077,-0.636244833
-1.360540924,0.569190502,0.45917514,582.4672082,-1,6710,-0.340135231,0.142297626,0.114793785
0.883408966,-1.027339339,-0.811282694,582.5672082,-1,6711,0.220852242,-0.256834835,-0.202820674
-0.391137657,1.39467454,0.140215188,582.6672082,-1,6712,-0.097784414,0.348668635,0.035053797
1.516300621,-0.55926913,1.614605069,582.7672082,-1,6713,0.379075155,-0.139817283,0.403651267
-0.565313873,0.343763649,-0.39541024,582.8672082,-1,6714,-0.141328468,0.085940912,-0.09885256
0.384375038,1.73686552,-0.433486581,582.9672082,-1,6715,0.09609376,0.43421638,-0.108371645
1.917031708,2.384766817,1.54418838,583.0672082,-1,6716,0.479257927,0.596191704,0.386047095
1.355921211,1.290023685,-0.296761483,583.1672082,-1,6717,0.338980303,0.322505921,-0.074190371
0.40064949,-0.46038723,0.298483938,583.2672082,-1,6718,0.100162373,-0.115096807,0.074620984
-0.908910332,-2.294570923,-0.296223938,583.3672082,-1,6719,-0.227227583,-0.573642731,-0.074055985
-0.637177048,0.120922916,-0.248225167,583.4672082,-1,6720,-0.159294262,0.030230729,-0.062056292
0.207285347,-1.995180011,-0.654471517,583.5672082,-1,6721,0.051821337,-0.498795003,-0.163617879
-2.387026367,0.358248085,1.47664988,583.6672082,-1,6722,-0.596756592,0.089562021,0.36916247
0.37850708,-2.026388645,-0.687089622,583.7672082,-1,6723,0.09462677,-0.506597161,-0.171772406
2.417311134,-0.30419898,-2.193101883,583.8672082,-1,6724,0.604327784,-0.076049745,-0.548275471
0.041186752,0.067654058,-0.543123543,583.9672082,-1,6725,0.010296688,0.016913515,-0.135780886
-0.115932999,0.306379467,1.786878109,584.0672082,-1,6726,-0.02898325,0.076594867,0.446719527
-0.552547989,1.70902288,0.403269053,584.1672082,-1,6727,-0.138136997,0.42725572,0.100817263
0.531620445,1.782294035,3.058935881,584.2672082,-1,6728,0.132905111,0.445573509,0.76473397
0.768647614,-0.046233177,0.180535555,584.3672082,-1,6729,0.192161903,-0.011558294,0.045133889
1.809135857,-0.989164114,0.996469796,584.4672082,-1,6730,0.452283964,-0.247291028,0.249117449
0.711187782,-0.172959998,0.879708767,584.5672082,-1,6731,0.177796946,-0.04324,0.219927192
-0.200059471,0.674557447,1.510375857,584.6672082,-1,6732,-0.050014868,0.168639362,0.377593964
-1.77201992,0.472090155,0.266941667,584.7672082,-1,6733,-0.44300498,0.118022539,0.066735417
-0.08931118,0.561463118,0.008055091,584.8672082,-1,6734,-0.022327795,0.140365779,0.002013773
-0.524918137,1.090718746,1.756121397,584.9672082,-1,6735,-0.131229534,0.272679687,0.439030349
0.663416328,-0.833090425,-1.170852661,585.0672082,-1,6736,0.165854082,-0.208272606,-0.292713165
0.312231483,-0.794123292,-1.147052526,585.1672082,-1,6737,0.078057871,-0.198530823,-0.286763132
1.169907036,-3.037728786,-0.167926073,585.2672082,-1,6738,0.292476759,-0.759432197,-0.041981518
-0.61147934,1.513982773,-0.629643798,585.3672082,-1,6739,-0.152869835,0.378495693,-0.157410949
1.40411705,-1.268862367,-2.523765802,585.4672082,-1,6740,0.351029263,-0.317215592,-0.630941451
0.784778061,1.15961647,2.046922207,585.5672082,-1,6741,0.196194515,0.289904118,0.511730552
1.704658928,0.321306825,0.288839757,585.6672082,-1,6742,0.426164732,0.080326706,0.072209939
-0.285117683,0.185780019,1.962691784,585.7672082,-1,6743,-0.071279421,0.046445005,0.490672946
0.86916584,-0.506159365,2.245686293,585.8672082,-1,6744,0.21729146,-0.126539841,0.561421573
-1.810290871,-0.13148734,3.089781523,585.9672082,-1,6745,-0.452572718,-0.032871835,0.772445381
1.49526638,0.229100347,2.1526227,586.0672082,-1,6746,0.373816595,0.057275087,0.538155675
-0.200633583,1.101867437,4.089190483,586.1672082,-1,6747,-0.050158396,0.275466859,1.022297621
0.871324959,-0.666622221,2.092045307,586.2672082,-1,6748,0.21783124,-0.166655555,0.523011327
-1.195382652,0.885389626,3.788688183,586.3672082,-1,6749,-0.298845663,0.221347407,0.947172046
1.056995811,-1.626283526,1.9798944,586.4672083,-1,6750,0.264248953,-0.406570882,0.4949736
1.225116196,-1.163113713,3.253901482,586.5672083,-1,6751,0.306279049,-0.290778428,0.81347537
-0.677453575,1.908433437,3.2225945,586.6672083,-1,6752,-0.169363394,0.477108359,0.805648625
1.171840134,-0.813532948,4.971337795,586.7672083,-1,6753,0.292960033,-0.203383237,1.242834449
-0.789776382,1.283256888,4.958292961,586.8672083,-1,6754,-0.197444096,0.320814222,1.23957324
0.142829361,1.964550734,1.535364747,586.9672083,-1,6755,0.03570734,0.491137683,0.383841187
0.824612083,0.170444906,2.833016396,587.0672083,-1,6756,0.206153021,0.042611226,0.708254099
2.471585693,-1.244030833,4.588334084,587.1672083,-1,6757,0.617896423,-0.311007708,1.147083521
-1.019068298,0.481889039,3.755656719,587.2672083,-1,6758,-0.254767075,0.12047226,0.93891418
1.708381119,1.251486063,3.823082685,587.3672083,-1,6759,0.42709528,0.312871516,0.955770671
-1.276870308,-0.813748181,3.114331484,587.4672083,-1,6760,-0.319217577,-0.203437045,0.778582871
0.725966873,1.048027039,1.364886999,587.5672083,-1,6761,0.181491718,0.26200676,0.34122175
-0.916178284,3.274823666,3.019594193,587.6672083,-1,6762,-0.229044571,0.818705916,0.754898548
-3.271078644,0.305260628,6.752971649,587.7672083,-1,6763,-0.817769661,0.076315157,1.688242912
-1.915513573,1.78137064,4.556792736,587.8672083,-1,6764,-0.478878393,0.44534266,1.139198184
0.060361328,0.710560083,2.107676029,587.9672083,-1,6765,0.015090332,0.177640021,0.526919007
-1.917737541,0.224195123,2.954631805,588.0672083,-1,6766,-0.479434385,0.056048781,0.738657951
1.598527374,0.581608236,2.946923733,588.1672083,-1,6767,0.399631844,0.145402059,0.736730933
-3.188302574,-0.747665763,5.15512085,588.2672083,-1,6768,-0.797075644,-0.186916441,1.288780212
-1.08197361,2.931990385,1.386003256,588.3672083,-1,6769,-0.270493402,0.732997596,0.346500814
-2.761965332,1.787365317,0.05868417,588.4672083,-1,6770,-0.690491333,0.446841329,0.014671043
-2.603131828,-1.234939575,-0.291807652,588.5672083,-1,6771,-0.650782957,-0.308734894,-0.072951913
0.294568481,-0.077966012,-0.501870394,588.6672083,-1,6772,0.07364212,-0.019491503,-0.125467598
1.062670174,-1.062767982,0.056151032,588.7672083,-1,6773,0.265667543,-0.265691996,0.014037758
-0.581979332,-0.552579641,3.353492737,588.8672083,-1,6774,-0.145494833,-0.13814491,0.838373184
-0.302366791,1.349932075,5.37998724,588.9672083,-1,6775,-0.075591698,0.337483019,1.34499681
-0.204294739,0.279799223,2.406732082,589.0672083,-1,6776,-0.051073685,0.069949806,0.601683021
0.646940651,0.512806654,3.766259193,589.1672083,-1,6777,0.161735163,0.128201663,0.941564798
1.918830338,-0.243202433,1.682360172,589.2672083,-1,6778,0.479707584,-0.060800608,0.420590043
0.900124016,2.277597904,3.816584587,589.3672083,-1,6779,0.225031004,0.569399476,0.954146147
-1.00000721,1.513815999,2.820948124,589.4672083,-1,6780,-0.250001802,0.378454,0.705237031
-1.444224892,-0.132659435,0.313853502,589.5672083,-1,6781,-0.361056223,-0.033164859,0.078463376
-1.590132294,-2.190062523,4.748012543,589.6672083,-1,6782,-0.397533073,-0.547515631,1.187003136
-0.400405464,2.446760893,2.707761288,589.7672083,-1,6783,-0.100101366,0.611690223,0.676940322
-0.620934067,1.003499985,4.016853809,589.8672083,-1,6784,-0.155233517,0.250874996,1.004213452
1.296499672,-0.856456578,2.127349615,589.9672083,-1,6785,0.324124918,-0.214114144,0.531837404
-0.395598946,-0.331074983,1.918299794,590.0672083,-1,6786,-0.098899736,-0.082768746,0.479574949
-0.672298965,-0.333936602,0.695224762,590.1672083,-1,6787,-0.168074741,-0.08348415,0.17380619
-0.025699196,0.234262124,3.941784859,590.2672083,-1,6788,-0.006424799,0.058565531,0.985446215
0.527732315,0.361125112,0.189275414,590.3672083,-1,6789,0.131933079,0.090281278,0.047318853
0.341088715,-1.581767797,-0.874177396,590.4672083,-1,6790,0.085272179,-0.395441949,-0.218544349
-0.362893639,0.080352858,-0.136102423,590.5672083,-1,6791,-0.09072341,0.020088214,-0.034025606
0.358318748,-1.068595409,0.436536193,590.6672083,-1,6792,0.089579687,-0.267148852,0.109134048
-2.148191032,-1.527433515,-1.23940134,590.7672083,-1,6793,-0.537047758,-0.381858379,-0.309850335
-2.109330711,-0.809048176,3.04005003,590.8672083,-1,6794,-0.527332678,-0.202262044,0.760012507
-1.799079475,-0.913018167,0.872146964,590.9672083,-1,6795,-0.449769869,-0.228254542,0.218036741
0.33289093,0.162647203,1.420888901,591.0672083,-1,6796,0.083222733,0.040661801,0.355222225
-1.045449791,-2.142538309,2.053704023,591.1672083,-1,6797,-0.261362448,-0.535634577,0.513426006
-1.952131329,-0.041013338,2.610300064,591.2672083,-1,6798,-0.488032832,-0.010253334,0.652575016
0.893682899,1.118725419,1.770590663,591.3672083,-1,6799,0.223420725,0.279681355,0.442647666
0.284726562,-1.182255507,-0.507513285,591.4672083,-1,6800,0.071181641,-0.295563877,-0.126878321
0.955233994,-1.827845335,2.510855198,591.5672083,-1,6801,0.238808498,-0.456961334,0.627713799
0.724379959,-1.913855553,3.613984108,591.6672083,-1,6802,0.18109499,-0.478463888,0.903496027
1.31078476,0.76492548,3.81083107,591.7672083,-1,6803,0.32769619,0.19123137,0.952707767
-0.15218502,-1.150880218,2.516386509,591.8672083,-1,6804,-0.038046255,-0.287720054,0.629096627
-1.25776535,-1.421734095,2.094011068,591.9672083,-1,6805,-0.314441338,-0.355433524,0.523502767
-0.335989532,-1.38533783,2.171103477,592.0672083,-1,6806,-0.083997383,-0.346334457,0.542775869
0.315631332,-0.838019669,3.131117344,592.1672083,-1,6807,0.078907833,-0.209504917,0.782779336
-0.339015541,1.10917294,5.452494144,592.2672083,-1,6808,-0.084753885,0.277293235,1.363123536
0.201551857,-1.39804101,-0.107977629,592.3672083,-1,6809,0.050387964,-0.349510252,-0.026994407
1.087161484,-0.564026296,1.138552189,592.4672083,-1,6810,0.271790371,-0.141006574,0.284638047
-0.402832565,-1.574830532,2.603777647,592.5672083,-1,6811,-0.100708141,-0.393707633,0.650944412
0.053010406,0.260404766,2.141874313,592.6672083,-1,6812,0.013252602,0.065101191,0.535468578
0.332352104,1.749718547,2.070374489,592.7672083,-1,6813,0.083088026,0.437429637,0.517593622
-0.081211624,1.259684205,2.747497559,592.8672083,-1,6814,-0.020302906,0.314921051,0.68687439
-1.229179916,-1.581565142,-0.324452758,592.9672083,-1,6815,-0.307294979,-0.395391285,-0.081113189
-0.701278267,-1.012523055,-1.40597856,593.0672083,-1,6816,-0.175319567,-0.253130764,-0.35149464
0.652416649,-0.125683516,-1.938351154,593.1672084,-1,6817,0.163104162,-0.031420879,-0.484587789
0.042711678,-1.651295543,-0.33829993,593.2672084,-1,6818,0.010677919,-0.412823886,-0.084574983
1.265284004,-0.324851304,-0.792209208,593.3672084,-1,6819,0.316321001,-0.081212826,-0.198052302
-3.062554893,1.651727557,1.372797251,593.4672084,-1,6820,-0.765638723,0.412931889,0.343199313
-0.023085175,-0.965696394,0.755328834,593.5672084,-1,6821,-0.005771294,-0.241424099,0.188832209
1.385238113,0.276144862,1.965037584,593.6672084,-1,6822,0.346309528,0.069036216,0.491259396
-1.139799652,-2.756085157,1.065898657,593.7672084,-1,6823,-0.284949913,-0.689021289,0.266474664
-0.185286102,-1.410182714,3.066343307,593.8672084,-1,6824,-0.046321526,-0.352545679,0.766585827
0.904924812,-1.227550983,1.264831066,593.9672084,-1,6825,0.226231203,-0.306887746,0.316207767
-0.625576553,-1.238990068,-0.219226122,594.0672084,-1,6826,-0.156394138,-0.309747517,-0.05480653
-2.037042198,-0.16942893,2.518200397,594.1672084,-1,6827,-0.50926055,-0.042357232,0.629550099
-0.492173729,-0.913102448,1.172704697,594.2672084,-1,6828,-0.123043432,-0.228275612,0.293176174
1.283662262,0.612967849,1.117078304,594.3672084,-1,6829,0.320915565,0.153241962,0.279269576
1.559165421,0.062034763,0.92314297,594.4672084,-1,6830,0.389791355,0.015508691,0.230785742
-1.060641823,-0.37866807,1.591405869,594.5672084,-1,6831,-0.265160456,-0.094667017,0.397851467
5.149430695,1.779686809,1.536548734,594.6672084,-1,6832,1.287357674,0.444921702,0.384137183
1.822051468,-1.130252957,1.539431334,594.7672084,-1,6833,0.455512867,-0.282563239,0.384857833
0.634015503,2.369273186,-2.235837936,594.8672084,-1,6834,0.158503876,0.592318296,-0.558959484
-14.63819748,0.062432706,-99.9,594.9672084,-1,6835,-3.65954937,0.015608177,0
5.619782867,1.086360097,-99.9,595.0672084,-1,6836,1.404945717,0.271590024,0
