x,y,z,Event Time,Event Type,Frame,x_modified,y_modified,z_modified
-0.364757118,-0.405114174,-0.986615181,201.5907171,-1,6464,-0.09118928,-0.101278543,-0.246653795
-1.102469978,-0.16182448,2.393168688,201.6907171,-1,6465,-0.275617495,-0.04045612,0.598292172
-0.283816872,0.501479566,0.938457549,201.7907171,-1,6466,-0.070954218,0.125369892,0.234614387
2.057092133,-0.061335836,-0.770714343,201.8907171,-1,6467,0.514273033,-0.015333959,-0.192678586
-0.364254532,1.083233595,-1.952104568,201.9907171,-1,6468,-0.091063633,0.270808399,-0.488026142
-2.113968906,-0.476681828,2.004470825,202.0907171,-1,6469,-0.528492227,-0.119170457,0.501117706
0.307840767,1.540558577,-1.058229804,202.1907171,-1,6470,0.076960192,0.385139644,-0.264557451
0.246760788,-1.341157556,-2.400004864,202.2907171,-1,6471,0.061690197,-0.335289389,-0.600001216
-0.033430634,-0.899582207,1.44009459,202.3907171,-1,6472,-0.008357658,-0.224895552,0.360023648
0.075682106,-0.956417143,0.32205534,202.4907171,-1,6473,0.018920527,-0.239104286,0.080513835
-0.147656975,0.72064358,-0.094127417,202.6907171,4,6475,-0.036914244,0.180160895,-0.023531854
-1.798750458,3.831050396,-7.297884941,202.7907171,4,6476,-0.449687614,0.957762599,-1.824471235
-1.092443047,-2.756574392,-13.03159809,202.8907171,4,6477,-0.273110762,-0.689143598,-3.257899523
0.79648632,1.387270808,-14.56078434,202.9907171,4,6478,0.19912158,0.346817702,-3.640196085
1.382228317,0.084593974,-12.31072998,203.0907171,4,6479,0.345557079,0.021148494,-3.077682495
0.329442444,0.916803241,-13.05255032,203.1907171,4,6480,0.082360611,0.22920081,-3.263137579
0.409137192,1.911558032,-11.63402748,203.2907171,4,6481,0.102284298,0.477889508,-2.90850687
1.196165504,-0.50717783,-11.11166286,203.3907171,4,6482,0.299041376,-0.126794457,-2.777915716
-1.045439301,-1.209455371,-11.74045086,203.4907171,4,6483,-0.261359825,-0.302363843,-2.935112715
-1.847958622,0.00953144,-13.49286652,203.5907171,4,6484,-0.461989655,0.00238286,-3.373216629
1.078278008,0.537596524,-13.98408699,203.6907171,4,6485,0.269569502,0.134399131,-3.496021748
2.248099747,0.662974358,-15.62863159,203.7907171,4,6486,0.562024937,0.165743589,-3.907157898
2.843766632,-1.042530775,-13.39602184,203.8907171,4,6487,0.710941658,-0.260632694,-3.349005461
0.226066055,1.072145581,-11.68848038,203.9907171,4,6488,0.056516514,0.268036395,-2.922120094
2.004801216,0.410755128,-13.21567822,204.0907171,4,6489,0.501200304,0.102688782,-3.303919554
1.971291008,0.554261863,-12.03348541,204.1907171,4,6490,0.492822752,0.138565466,-3.008371353
-0.277490196,-0.461312771,-14.06387424,204.2907171,4,6491,-0.069372549,-0.115328193,-3.515968561
0.159837189,-0.431187779,-11.20837688,204.3907171,4,6492,0.039959297,-0.107796945,-2.802094221
0.536164703,0.382574081,-11.56677818,204.4907171,4,6493,0.134041176,0.09564352,-2.891694546
0.414880219,0.348365128,-1.240486503,204.5907171,4,6494,0.103720055,0.087091282,-0.310121626
0.219241562,0.756174386,-0.88466388,204.6907171,4,6495,0.05481039,0.189043596,-0.22116597
0.419711533,-0.78295207,-1.533438921,204.7907171,4,6496,0.104927883,-0.195738018,-0.38335973
-0.812817154,0.770379186,-1.742927313,204.8907171,-1,6497,-0.203204288,0.192594796,-0.435731828
0.583555641,-1.015515566,0.046702661,204.9907172,-1,6498,0.14588891,-0.253878891,0.011675665
0.029672089,-1.786302805,0.005572469,205.0907172,-1,6499,0.007418022,-0.446575701,0.001393117
-0.384778557,-1.409015536,0.981538773,205.1907172,-1,6500,-0.096194639,-0.352253884,0.245384693
0.105296555,0.744141638,1.02513504,205.2907172,-1,6501,0.026324139,0.18603541,0.25628376
0.019709053,0.265745789,-0.686394215,205.3907172,-1,6502,0.004927263,0.066436447,-0.171598554
