x,y,z,Event Time,Event Type,Frame,x_modified,y_modified,z_modified
0.818397942,0.730512798,-2.353282213,105.1907157,-1,5500,0.204599485,0.182628199,-0.588320553
1.269638481,-2.548620462,-0.127180308,105.2907157,-1,5501,0.31740962,-0.637155116,-0.031795077
0.382939758,2.706578255,-0.818191946,105.3907157,-1,5502,0.09573494,0.676644564,-0.204547986
-3.959716854,1.58496058,-2.511564255,105.4907157,-1,5503,-0.989929214,0.396240145,-0.627891064
-0.357600746,-1.288394451,0.363213003,105.5907157,-1,5504,-0.089400187,-0.322098613,0.090803251
1.39044899,-1.592540026,-2.512407541,105.6907157,-1,5505,0.347612247,-0.398135006,-0.628101885
-0.589687881,0.206048563,-0.849643946,105.7907157,-1,5506,-0.14742197,0.051512141,-0.212410986
-0.541393814,2.501350641,-2.756652594,105.8907157,-1,5507,-0.135348454,0.62533766,-0.689163148
1.025422516,-2.1022892,-0.466709346,105.9907157,1,5508,0.256355629,-0.5255723,-0.116677336
-0.657042084,0.97763586,-2.208678961,106.0907157,1,5509,-0.164260521,0.244408965,-0.55216974
-1.282471237,4.027526855,-0.527902842,106.2907157,1,5511,-0.320617809,1.006881714,-0.13197571
-0.425936279,7.486576557,-2.785837889,106.3907157,1,5512,-0.10648407,1.871644139,-0.696459472
1.62923378,9.430668831,1.270908952,106.4907157,1,5513,0.407308445,2.357667208,0.317727238
-1.532101212,13.11341,-0.167180032,106.5907157,1,5514,-0.383025303,3.278352499,-0.041795008
-0.085214195,15.94435978,-0.397723436,106.6907157,1,5515,-0.021303549,3.986089945,-0.099430859
-0.763415871,15.80237007,2.443894863,106.7907157,1,5516,-0.190853968,3.950592518,0.610973716
-0.009874878,14.05385017,2.673690319,106.8907157,1,5517,-0.002468719,3.513462543,0.66842258
1.386074486,15.56461525,3.680865765,106.9907157,1,5518,0.346518621,3.891153812,0.920216441
1.904324951,16.69639778,3.778317213,107.0907157,1,5519,0.476081238,4.174099445,0.944579303
0.256918373,15.51906013,4.00858593,107.1907157,1,5520,0.064229593,3.879765034,1.002146482
-0.840164719,17.86551285,1.940186024,107.2907157,1,5521,-0.21004118,4.466378212,0.485046506
-1.391136703,15.69161034,2.491166115,107.3907157,1,5522,-0.347784176,3.922902584,0.622791529
-0.519360123,17.50621605,3.882674694,107.4907157,1,5523,-0.129840031,4.376554012,0.970668674
-1.604896126,14.67168522,6.732996941,107.5907157,1,5524,-0.401224031,3.667921305,1.683249235
-1.297261772,9.895050049,3.281177044,107.6907157,1,5525,-0.324315443,2.473762512,0.820294261
-0.611556587,6.199682236,0.76511085,107.7907157,1,5526,-0.152889147,1.549920559,0.191277713
-0.130041656,3.675971746,0.225306094,107.8907157,1,5527,-0.032510414,0.918992937,0.056326523
0.459976616,1.595360279,1.400166392,107.9907157,1,5528,0.114994154,0.39884007,0.350041598
0.671554031,0.112194538,-0.398651123,108.0907157,1,5529,0.167888508,0.028048635,-0.099662781
0.21197361,1.555297732,-0.070490472,108.1907157,1,5530,0.052993402,0.388824433,-0.017622618
-1.998472748,0.4897089,-0.197070926,108.2907157,-1,5531,-0.499618187,0.122427225,-0.049267732
0.657721939,0.486520648,0.599347413,108.3907157,-1,5532,0.164430485,0.121630162,0.149836853
1.343176308,1.375363708,-0.809763253,108.4907157,-1,5533,0.335794077,0.343840927,-0.202440813
1.807936134,-0.431157798,-0.343066633,108.5907157,-1,5534,0.451984034,-0.107789449,-0.085766658
0.146831932,1.78423965,0.90852952,108.6907157,-1,5535,0.036707983,0.446059912,0.22713238
-2.465207634,1.334744692,1.936414003,108.7907157,-1,5536,-0.616301908,0.333686173,0.484103501
2.600676003,-2.060766697,3.0544312,108.8907157,-1,5537,0.650169001,-0.515191674,0.7636078
0.057683411,-0.600970685,1.186989427,108.9907157,-1,5538,0.014420853,-0.150242671,0.296747357
0.613418999,-1.455097079,-2.477866888,109.0907157,-1,5539,0.15335475,-0.36377427,-0.619466722
-1.783865509,1.022668839,-0.709614754,109.1907157,-1,5540,-0.445966377,0.25566721,-0.177403688
