x,y,z,Event Time,Event Type,Frame,x_modified,y_modified,z_modified
-0.499656258,-0.917279184,-1.540543437,166.9907166,-1,6118,-0.124914064,-0.229319796,-0.385135859
0.809602203,0.512140214,0.523236334,167.0907166,-1,6119,0.202400551,0.128035054,0.130809084
0.740084114,1.570443273,2.691418171,167.1907166,-1,6120,0.185021029,0.392610818,0.672854543
0.806872787,0.176879078,-0.052957077,167.2907166,-1,6121,0.201718197,0.04421977,-0.013239269
-1.074579773,-0.793759227,1.238679647,167.3907166,-1,6122,-0.268644943,-0.198439807,0.309669912
0.107963982,1.287412524,1.606489539,167.4907166,-1,6123,0.026990995,0.321853131,0.401622385
2.12096447,-1.272234678,-2.383972406,167.5907166,-1,6124,0.530241117,-0.31805867,-0.595993102
-0.26208168,0.671560705,1.773856282,167.6907166,-1,6125,-0.06552042,0.167890176,0.443464071
-0.049263535,-1.396144748,-1.116280794,167.7907166,-1,6126,-0.012315884,-0.349036187,-0.279070199
-0.589335022,1.083328009,2.798904181,167.8907166,-1,6127,-0.147333755,0.270832002,0.699726045
-0.447439728,-1.299700379,-1.001392961,168.0907166,-1,6129,-0.111859932,-0.324925095,-0.25034824
-3.11245924,-1.364101648,-1.040405512,168.1907166,-1,6130,-0.77811481,-0.341025412,-0.260101378
0.157754364,-0.725765705,-1.53918004,168.2907166,-1,6131,0.039438591,-0.181441426,-0.38479501
2.015582504,0.912231863,1.023901224,168.3907166,-1,6132,0.503895626,0.228057966,0.255975306
1.145635071,0.740806401,-1.582942843,168.4907166,-1,6133,0.286408768,0.1852016,-0.395735711
-1.038362083,-1.805199862,-0.623427093,168.5907166,-1,6134,-0.259590521,-0.451299965,-0.155856773
-1.874183235,-1.685226798,-1.728927612,168.6907166,-1,6135,-0.468545809,-0.4213067,-0.432231903
2.275136414,-0.312918633,-1.980333209,168.7907166,-1,6136,0.568784103,-0.078229658,-0.495083302
-1.978273449,0.060817588,-0.158953935,168.8907166,-1,6137,-0.494568362,0.015204397,-0.039738484
1.299376907,-1.856014729,0.975508988,168.9907166,-1,6138,0.324844227,-0.464003682,0.243877247
-3.627133904,1.19656539,-0.707343578,169.0907166,-1,6139,-0.906783476,0.299141347,-0.176835895
-1.245028076,1.715384364,-1.926026702,169.1907166,-1,6140,-0.311257019,0.428846091,-0.481506675
1.058078232,-0.14890416,0.10529682,169.2907166,-1,6141,0.264519558,-0.03722604,0.026324205
-0.979091225,-0.353838712,-1.191631675,169.3907166,-1,6142,-0.244772806,-0.088459678,-0.297907919
0.657055321,0.253889471,1.80220294,169.4907166,-1,6143,0.16426383,0.063472368,0.450550735
1.652345123,0.536535561,0.518974543,169.5907166,-1,6144,0.413086281,0.13413389,0.129743636
-1.216851768,-1.446930885,-0.484855771,169.6907166,-1,6145,-0.304212942,-0.361732721,-0.121213943
0.231174889,0.17159076,3.695979118,169.7907166,-1,6146,0.057793722,0.04289769,0.92399478
0.648446503,-0.716406286,17.8965416,169.8907166,-1,6147,0.162111626,-0.179101571,4.474135399
-2.599039612,-1.013834476,11.62635326,169.9907166,-1,6148,-0.649759903,-0.253458619,2.906588316
-0.670841751,0.109357171,9.714579582,170.0907166,-1,6149,-0.167710438,0.027339293,2.428644896
0.831042709,3.404796362,8.147955894,170.1907166,-1,6150,0.207760677,0.85119909,2.036988974
-0.415003357,-0.40519765,6.712121487,170.2907166,-1,6151,-0.103750839,-0.101299413,1.678030372
-1.124810753,-0.161863759,9.144378662,170.3907166,-1,6152,-0.281202688,-0.04046594,2.286094666
-0.296937523,0.501583099,7.001550198,170.4907166,-1,6153,-0.074234381,0.125395775,1.750387549
2.046985092,-0.061313357,4.803397179,170.5907166,-1,6154,0.511746273,-0.015328339,1.200849295
-0.374308167,1.083229542,3.266592741,170.6907166,-1,6155,-0.093577042,0.270807385,0.816648185
-2.123248158,-0.476776987,6.955956459,170.7907166,-1,6156,-0.530812039,-0.119194247,1.738989115
0.299332085,1.540684104,3.689157248,170.8907166,-1,6157,0.074833021,0.385171026,0.922289312
0.239133301,-1.341064095,2.18131423,170.9907166,-1,6158,0.059783325,-0.335266024,0.545328557
-0.040532646,-0.899714708,5.884248734,171.0907166,-1,6159,-0.010133162,-0.224928677,1.471062183
0.069211426,-0.956323802,4.64604187,171.1907166,-1,6160,0.017302856,-0.239080951,1.161510468
0.57928318,-1.713211536,3.357036829,171.2907166,-1,6161,0.144820795,-0.428302884,0.839259207
-0.149849472,0.720744789,1.419744492,171.3907166,-1,6162,-0.037462368,0.180186197,0.354936123
-1.824475822,3.831023693,-0.775213599,171.4907167,-1,6163,-0.456118956,0.957755923,-0.1938034
-1.079552231,-2.756522417,-1.453307629,171.5907167,-1,6164,-0.269888058,-0.689130604,-0.363326907
0.843834343,1.387184262,-2.005003214,171.6907167,3,6165,0.210958586,0.346796066,-0.501250803
1.42210907,0.084754765,1.379890084,171.7907167,3,6166,0.355527267,0.021188691,0.344972521
0.353020134,0.916799009,5.91076088,171.8907167,3,6167,0.088255033,0.229199752,1.47769022
0.460421028,1.911457777,7.335477829,171.9907167,3,6168,0.115105257,0.477864444,1.833869457
1.243788185,-0.507117867,7.252962589,172.0907167,3,6169,0.310947046,-0.126779467,1.813240647
-1.002813873,-1.209435701,6.161877155,172.1907167,3,6170,-0.250703468,-0.302358925,1.540469289
-1.808090744,0.009631304,4.053675175,172.2907167,3,6171,-0.452022686,0.002407826,1.013418794
1.11702198,0.537867188,3.289210796,172.3907167,3,6172,0.279255495,0.134466797,0.822302699
2.286313477,0.662859201,1.429478407,172.4907167,3,6173,0.571578369,0.1657148,0.357369602
2.882033768,-1.042718649,3.488475084,172.5907167,3,6174,0.720508442,-0.260679662,0.872118771
0.264368477,1.072346807,5.049350739,172.6907167,3,6175,0.066092119,0.268086702,1.262337685
2.062850418,0.410731792,3.40109396,172.7907167,3,6176,0.515712605,0.102682948,0.85027349
2.002846184,0.554268658,4.471200466,172.8907167,3,6177,0.500711546,0.138567165,1.117800117
-0.254641113,-0.461213797,2.355584621,172.9907167,3,6178,-0.063660278,-0.115303449,0.588896155
0.197661819,-0.431135505,5.130175591,173.0907167,3,6179,0.049415455,-0.107783876,1.282543898
0.581572952,0.382907808,3.350929737,173.1907167,3,6180,0.145393238,0.095726952,0.837732434
0.456161919,0.347936332,3.692200184,173.2907167,3,6181,0.11404048,0.086984083,0.923050046
0.220943871,0.755850136,-0.301569104,173.3907167,3,6182,0.055235968,0.188962534,-0.075392276
0.400381508,-0.782702029,-1.896263242,173.4907167,3,6183,0.100095377,-0.195675507,-0.47406581
-0.839901505,0.770163894,-2.096998453,173.5907167,-1,6184,-0.209975376,0.192540973,-0.524249613
0.580008926,-1.015321612,-0.330905795,173.6907167,-1,6185,0.145002232,-0.253830403,-0.082726449
0.024261894,-1.786560059,-0.090538263,173.7907167,-1,6186,0.006065474,-0.446640015,-0.022634566
-0.407449303,-1.408821464,4.689579487,173.8907167,-1,6187,-0.101862326,-0.352205366,1.172394872
0.10746521,0.744014382,5.56359005,173.9907167,-1,6188,0.026866302,0.186003596,1.390897512
0.022961082,0.265955806,3.475474358,174.0907167,-1,6189,0.005740271,0.066488951,0.868868589
-2.294100342,0.422265261,3.195537806,174.1907167,-1,6190,-0.573525085,0.105566315,0.798884451
-0.229487,-1.409965158,2.362658501,174.2907167,-1,6191,-0.05737175,-0.352491289,0.590664625
-0.934428749,1.376388073,4.302724838,174.3907167,-1,6192,-0.233607187,0.344097018,1.07568121
0.814742508,0.730779767,1.087467194,174.4907167,-1,6193,0.203685627,0.182694942,0.271866798
1.277154388,-2.548066378,3.233049393,174.5907167,-1,6194,0.319288597,-0.637016594,0.808262348
0.359053078,2.706368923,2.485851288,174.6907167,-1,6195,0.089763269,0.676592231,0.621462822
-3.955145893,1.585908294,0.72988534,174.7907167,-1,6196,-0.988786473,0.396477073,0.182471335
-0.360537109,-1.288414598,3.559501171,174.8907167,-1,6197,-0.090134277,-0.322103649,0.889875293
1.387065353,-1.592586875,0.649976015,174.9907167,-1,6198,0.346766338,-0.398146719,0.162494004
-0.593220291,0.206020012,2.269509792,175.0907167,-1,6199,-0.148305073,0.051505003,0.567377448
-0.544635353,2.501360178,0.333652735,175.1907167,-1,6200,-0.136158838,0.625340044,0.083413184
1.022921982,-2.102164984,2.547751904,175.2907167,-1,6201,0.255730495,-0.525541246,0.636937976
-0.644988594,0.97767818,-1.21637547,175.3907167,-1,6202,-0.161247149,0.244419545,-0.304093868
-0.312487183,-0.675239086,-1.539655924,175.4907167,-1,6203,-0.078121796,-0.168809772,-0.384913981
-1.289171753,0.600250483,-0.545022905,175.5907167,-1,6204,-0.322292938,0.150062621,-0.136255726
-0.398820457,0.736581206,-1.300159216,175.6907167,-1,6205,-0.099705114,0.184145302,-0.325039804
1.75413269,-0.740410268,2.180558205,175.7907167,-1,6206,0.438533173,-0.185102567,0.545139551
-1.330095825,-0.535440862,1.372986197,175.8907167,-1,6207,-0.332523956,-0.133860216,0.343246549
0.180082741,0.249041438,1.05089426,175.9907167,-1,6208,0.045020685,0.06226036,0.262723565
