0.067561291
0.4479468
0.067575502
-0.013753933
0.458258841
0.486668446
-0.324243206
-2.575386088
-3.34499468
-4.86389182
-6.00605832
-6.587199
-6.0417881
-6.90677962
-6.31054228
-6.61919728
-6.60288048
-5.7399642
-6.31256852
-6.0051893
-4.1139702
-1.44432672
