0.39372968
0.880858104
0.032406339
0.2798454
0.350466697
-0.345114388
-0.747884783
-1.165239308
-1.6817877
-2.073703552
-1.990494266
-2.60624154
-2.4802527
-2.12807284
-1.47556124
-0.791550966
-0.517109946
0.620539458
0.956960818
1.61069258
1.655999306
2.55524848
2.57553646
2.01086016
2.5728024
1.303076678
