-0.408625054
-0.064671396
-0.65877304
-0.55560314
-0.824131045
-0.890688767
-1.58190614
-2.56491222
-3.61891058
-4.16038488
-4.06217594
-4.96277288
-5.36428046
-6.21286654
-6.85123234
-6.744818
-7.50399892
-6.30840294
-7.17132884
-6.24250934
-5.02678872
-5.01960402
-3.51433368
-1.86726952
-1.062754248
0.932472834
