"CSVFiles/KFoldStratified10LAGCarlaData05.29.2021, 12.14.57/Run_4"
Accuracy,0.9127475247524752
Weighted Precision Score,0.9130245364759063
Weighted Recall Score,0.9127475247524752
Weighted F1 Score,0.9126972180177072
-------------------------------
Distribution of Train Events
Non Aggressive Event,Aggressive Right Turn,Aggressive Left Turn,Aggressive Acceleration,Aggressive Braking,Aggressive Left Lane Change,Aggressive Right Lane Change
898,613,430,1663,1448,652,761
Distribution of Test Events
Non Aggressive Event,Aggressive Right Turn,Aggressive Left Turn,Aggressive Acceleration,Aggressive Braking,Aggressive Left Lane Change,Aggressive Right Lane Change
224,153,108,415,362,164,190
Confusion Matrix
,,,,Predicated Class
,,Non Aggressive Event,Aggressive Right Turn,Aggressive Left Turn,Aggressive Acceleration,Aggressive Braking,Aggressive Left Lane Change,Aggressive Right Lane Change
,Non Aggressive Event,200,1,0,6,4,3,10
,Aggressive Right Turn,2,137,0,1,3,7,3
,Aggressive Left Turn,1,0,103,2,1,0,1
,Aggressive Acceleration,5,1,1,393,7,3,5
Actual Class,Aggressive Braking,4,1,0,7,340,2,8
,Aggressive Left Lane Change,3,6,1,9,2,137,6
,Aggressive Right Lane Change,2,1,7,6,3,6,165

----------------------------
Multi Label Confusion Matrix
Non Aggressive Event
,Predicated Class
1375,17
24,200
Actual Class

Aggressive Right Turn
,Predicated Class
1453,10
16,137
Actual Class

Aggressive Left Turn
,Predicated Class
1499,9
5,103
Actual Class

Aggressive Acceleration
,Predicated Class
1170,31
22,393
Actual Class

Aggressive Braking
,Predicated Class
1234,20
22,340
Actual Class

Aggressive Left Lane Change
,Predicated Class
1431,21
27,137
Actual Class

Aggressive Right Lane Change
,Predicated Class
1393,33
25,165
Actual Class


----------------------------
