0.099017304
0.608972532
0.37087181
-0.50209444
-0.762213168
-1.205639368
-0.944852172
-0.642070462
-2.244869468
-0.782166756
-3.13327888
-2.19900976
0.110063734
0.91596504
1.23446778
2.978617746
3.36703998
3.34606054
3.80540416
4.01819772
4.4117005
4.01989686
3.28109392
2.106585914
0.558533096
0.70249971
