0.168243266
0.396669786
0.054563224
-1.33674268
-0.087966888
-0.509357148
-2.13116158
-1.723088608
-4.62340996
-5.78398716
-4.73231104
-4.94454584
-4.08759208
-1.138695404
0.55855072
2.006415326
2.7886567
2.87355917
3.15002546
4.06119002
4.04001792
3.32867008
2.066415192
-0.283668022
-1.325362658
-0.822035424
