-0.3030448
1.4411864
2.5283747
0.2307496
1.9642541
0.9518719
-0.0010108948
2.8374953
0.008731127
-0.20042562
2.7681122
-0.5840943
1.3747535
3.4104338
-0.8009505
0.5065349
2.314385
-1.6719437
2.1142638
0.8637378
-1.0202084
2.1831005
0.9063868
-0.1671753
2.039738
0.037214756
0.06558108
3.151303
-0.861547
2.2864504
1.9695673
-0.36739087
1.9159906
1.399462
-1.1236339
3.5111103
-0.37845743
0.033858895
2.0988154
0.451136
-0.5644939
2.5077198
0.91753936
0.08086009
1.4588274
0.6148467
2.152533
0.03815162
2.4101677
1.0579519
1.1405714
0.76507294
1.8163155
-0.44349146
0.9264091
1.9241962
0.21536124
0.33534265
1.334551
0.1522131
0.30932182
1.5093524
-0.6110047
1.6511115
1.1480026
0.14790428
0.33635283
0.63250804
0.07003713
0.7520957
1.023135
0.366122
0.368097
0.16798782
1.8416576
-0.1433307
0.760637
1.731301
0.5816182
0.44800127
0.40381932
0.31539583
1.2550018
0.7913079
-0.6969553
0.40082023
0.018959165
-0.11520195
-1.2073653
-1.9591191
-0.8713163
-0.6274265
-1.7203417
-2.0974705
-1.1845402
-1.7741818
-2.004775
-2.3636475
0.20184922
-2.104827
-2.107841
-0.37679136
1.0320113
-3.0420403
-0.22314197
0.58899456
-1.698949
-0.908392
-0.5250168
-1.05962
-1.0705531
-0.49620152
-0.2747848
1.544697
-0.61532867
0.2891773
0.8229067
-0.02666545
1.5751379
2.1072254
-0.29753828
2.0964918
1.2877455
0.30405974
1.1060743
0.037421227
0.16584182
2.6293294
-1.343177
0.21354938
1.8283103
-0.3544333
-0.29687238
1.3430074
-0.9871048
-0.31702906
0.18181354
-0.1348213
0.15787362
-0.45241082
0.108661294
0.63994986
0.96967745
-0.3201022
0.25500953
-0.03613782
0.7038342
-0.5191761
0.5583334
1.5907227
0.7150756
-1.0553085
1.5290492
0.9029117
-0.3693635
-0.2060374
1.7018813
0.87752295
-0.39116764
1.4946613
-0.083118916
0.17930686
0.11379415
0.3352158
0.9936143
0.22809017
-0.3164909
-0.40494037
0.9643082
-0.8209449
0.13142622
-0.7250401
2.2357168
-0.12963492
0.19863713
0.7673328
1.3344336
-1.890815
0.40531427
1.6907676
-1.4267156
-0.25849977
-0.23775399
0.56954587
-0.41250515
1.5895286
-0.3150791
0.01388818
0.3695423
-1.2820578
0.2811046
0.4280281
-2.2131495
-1.3261592
-0.92655915
0.104007006
-2.011271
-0.92579436
