x,y,z,Event Time,Event Type,Frame,x_modified,y_modified,z_modified
2.057073059,-0.061246749,-0.770354986,9.308783431,-1,213,0.514268265,-0.015311687,-0.192588747
-0.364281235,1.083391547,-1.951119065,9.408783432,-1,214,-0.091070309,0.270847887,-0.487779766
-2.113911686,-0.476505309,2.004206657,9.508783434,-1,215,-0.528477921,-0.119126327,0.501051664
0.30785984,1.540803909,-1.057868123,9.608783435,-1,216,0.07696496,0.385200977,-0.264467031
0.246798935,-1.341068387,-2.399645329,9.708783437,-1,217,0.061699734,-0.335267097,-0.599911332
-0.033468781,-0.899424374,1.441080093,9.808783438,-1,218,-0.008367195,-0.224856094,0.360270023
0.075663033,-0.956162512,0.321792096,9.90878344,-1,219,0.018915758,-0.239040628,0.080448024
0.575818481,-1.713016868,-0.046460185,10.00878344,-1,220,0.14395462,-0.428254217,-0.011615046
-0.160527763,0.720787525,1.295708776,10.10878344,-1,221,-0.040131941,0.180196881,0.323927194
-1.817668495,3.831341743,-0.569211841,10.20878344,-1,222,-0.454417124,0.957835436,-0.14230296
0.98531765,1.39011848,99.9,10.40878345,-1,224,0.246329412,0.34752962,24.975
1.370149078,0.082051225,4.380447388,10.50878345,-1,225,0.34253727,0.020512806,1.095111847
0.402695122,0.915097058,-0.140638828,10.60878345,-1,226,0.10067378,0.228774264,-0.035159707
0.476740303,1.911688089,1.130199671,10.70878345,-1,227,0.119185076,0.477922022,0.282549918
1.249217453,-0.507133663,1.623487473,10.80878345,-1,228,0.312304363,-0.126783416,0.405871868
-0.997661171,-1.209721923,0.969436765,10.90878345,-1,229,-0.249415293,-0.302430481,0.242359191
-1.802908478,0.009602658,-0.810109437,11.00878346,-1,230,-0.450727119,0.002400664,-0.202527359
1.1221661,0.537707984,-1.324575067,11.10878346,-1,231,0.280541525,0.134426996,-0.331143767
2.291324081,0.662789404,-2.990891218,11.20878346,-1,232,0.57283102,0.165697351,-0.747722805
2.886978569,-1.042728305,-0.783555388,11.30878346,-1,233,0.721744642,-0.260682076,-0.195888847
0.26918644,1.072215319,0.900889754,11.40878346,-1,234,0.06729661,0.26805383,0.225222439
2.06756443,0.41054526,-0.649508417,11.50878346,-1,235,0.516891108,0.102636315,-0.162377104
2.007332268,0.554276228,0.50717485,11.60878346,-1,236,0.501833067,0.138569057,0.126793712
-0.250010071,-0.461549044,-1.532561898,11.70878347,-1,237,-0.062502518,-0.115387261,-0.383140475
0.202058258,-0.431287438,1.308507681,11.80878347,-1,238,0.050514565,-0.107821859,0.32712692
0.585921707,0.38313669,-0.412406296,11.90878347,-1,239,0.146480427,0.095784172,-0.103101574
0.457077446,0.347354233,0.240349784,12.00878347,-1,240,0.114269361,0.086838558,0.060087446
0.2066502,0.756135166,-0.862011433,12.10878347,-1,241,0.05166255,0.189033791,-0.215502858
0.404252472,-0.782910824,-1.515238523,12.20878347,-1,242,0.101063118,-0.195727706,-0.378809631
-0.834283409,0.769981802,-1.716291428,12.30878348,0,243,-0.208570852,0.19249545,-0.429072857
0.583454552,-1.015448332,0.052705411,12.40878348,0,244,0.145863638,-0.253862083,0.013176353
0.029578629,-1.786453843,0.010941572,12.50878348,0,245,0.007394657,-0.446613461,0.002735393
-0.384807167,-1.409157276,0.986282945,12.60878348,0,246,-0.096201792,-0.352289319,0.246570736
0.105206909,0.744059443,1.031130314,12.70878348,0,247,0.026301727,0.186014861,0.257782578
0.01971096,0.265665859,-0.681023955,12.80878348,0,248,0.00492774,0.066416465,-0.170255989
-2.293931541,0.422299176,-0.690212071,12.90878348,0,249,-0.573482885,0.105574794,-0.172553018
-0.227167664,-1.410274625,-1.327502847,13.00878349,0,250,-0.056791916,-0.352568656,-0.331875712
-0.931155739,1.376508117,0.751490414,13.10878349,0,251,-0.232788935,0.344127029,0.187872604
0.818455162,0.730466366,-2.356049538,13.20878349,0,252,0.204613791,0.182616591,-0.589012384
1.280941429,-2.547993422,-0.131487608,13.30878349,0,253,0.320235357,-0.636998355,-0.032871902
0.362908783,2.706284285,-0.810362339,13.40878349,0,254,0.090727196,0.676571071,-0.202590585
-3.951568661,1.585438251,-2.514287233,13.50878349,0,255,-0.987892165,0.396359563,-0.628571808
-0.356956062,-1.28838551,0.360483348,13.60878349,0,256,-0.089239016,-0.322096378,0.090120837
1.390601578,-1.592424154,-2.510786295,13.7087835,0,257,0.347650394,-0.398106039,-0.627696574
-0.589874802,0.205594689,-0.851781785,13.8087835,0,258,-0.1474687,0.051398672,-0.212945446
-0.541370926,2.50130105,-2.754408836,13.9087835,0,259,-0.135342731,0.625325263,-0.688602209
1.025643768,-2.102222681,-0.466964245,14.0087835,0,260,0.256410942,-0.52555567,-0.116741061
-0.657137451,0.977279782,-2.212065458,14.1087835,0,261,-0.164284363,0.244319946,-0.553016365
-0.308878479,-0.667940497,-0.917622983,14.2087835,0,262,-0.07721962,-0.166985124,-0.229405746
-1.285153923,0.635871768,-0.127334565,14.30878351,0,263,-0.321288481,0.158967942,-0.031833641
-0.401826439,0.745045543,-0.764142275,14.40878351,0,264,-0.10045661,0.186261386,-0.191035569
1.758667412,-0.737756968,2.691478729,14.50878351,0,265,0.439666853,-0.184439242,0.672869682
-1.313684998,-0.53443557,-0.212323591,14.60878351,0,266,-0.328421249,-0.133608893,-0.053080898
0.181937637,0.249367669,-1.934862494,14.70878351,0,267,0.045484409,0.062341917,-0.483715624
-0.480994759,-0.575262308,-0.168928206,14.80878351,0,268,-0.12024869,-0.143815577,-0.042232051
0.25480217,-2.205790758,0.046450697,14.90878351,0,269,0.063700542,-0.55144769,0.011612674
1.639723244,-0.6565153,1.048170805,15.00878352,0,270,0.409930811,-0.164128825,0.262042701
2.153984489,0.463707447,1.133004427,15.10878352,0,271,0.538496122,0.115926862,0.283251107
0.506458702,-0.739797056,1.341365695,15.20878352,0,272,0.126614676,-0.184949264,0.335341424
-0.589167175,1.570224524,-0.747576416,15.30878352,-1,273,-0.147291794,0.392556131,-0.186894104
-1.137297211,-0.639938831,-0.21786657,15.40878352,-1,274,-0.284324303,-0.159984708,-0.054466642
-0.239628372,0.444962859,-0.454961002,15.50878352,-1,275,-0.059907093,0.111240715,-0.11374025
-1.387669144,0.623835742,-1.136164188,15.60878352,-1,276,-0.346917286,0.155958936,-0.284041047
-1.234520493,-2.221702814,-0.165736511,15.70878353,-1,277,-0.308630123,-0.555425704,-0.041434128
-0.638983307,-1.607394695,0.366745353,15.80878353,-1,278,-0.159745827,-0.401848674,0.091686338
-0.155808983,1.482843637,0.208413869,15.90878353,-1,279,-0.038952246,0.370710909,0.052103467
0.454321327,1.024780035,1.409811735,16.00878353,-1,280,0.113580332,0.256195009,0.352452934
0.678567352,-0.043663859,-0.392261833,16.10878353,-1,281,0.169641838,-0.010915965,-0.098065458
0.224244537,1.508237958,-0.067293942,16.20878353,-1,282,0.056061134,0.377059489,-0.016823485
-1.985204277,0.476433754,-0.194585219,16.30878353,-1,283,-0.496301069,0.119108438,-0.048646305
0.669881287,0.478458792,0.600636899,16.40878354,-1,284,0.167470322,0.119614698,0.150159225
1.353628578,1.371422052,-0.810659528,16.50878354,-1,285,0.338407145,0.342855513,-0.202664882
1.816519203,-0.434802026,-0.342440665,16.60878354,-1,286,0.454129801,-0.108700506,-0.085610166
0.153797569,1.785748601,0.909333289,16.70878354,-1,287,0.038449392,0.44643715,0.227333322
-2.459809837,1.334655762,1.934620857,16.80878354,-1,288,-0.614952459,0.33366394,0.483655214
2.604990425,-2.063521624,3.0552876,16.90878354,-1,289,0.651247606,-0.515880406,0.7638219
0.0608992,-0.598799288,1.185910583,17.00878355,-1,290,0.0152248,-0.149699822,0.296477646
0.615860405,-1.457650423,-2.477319479,17.10878355,-1,291,0.153965101,-0.364412606,-0.61932987
-1.781870422,1.024727941,-0.710401177,17.20878355,-1,292,-0.445467606,0.256181985,-0.177600294
0.133171501,0.607887745,-0.752511203,17.30878355,-1,293,0.033292875,0.151971936,-0.188127801
-2.561789093,-0.200408012,-0.669326544,17.40878355,-1,294,-0.640447273,-0.050102003,-0.167331636
0.235147896,-1.13219893,-0.977856934,17.50878355,-1,295,0.058786974,-0.283049732,-0.244464234
-0.128870544,-0.306900471,0.556270957,17.60878355,-1,296,-0.032217636,-0.076725118,0.139067739
-0.066020546,1.911319137,2.238094091,17.70878356,-1,297,-0.016505136,0.477829784,0.559523523
-0.371999321,-1.116572976,-1.847793698,17.80878356,-1,298,-0.09299983,-0.279143244,-0.461948425
1.455181541,0.004555771,-0.261119515,17.90878356,-1,299,0.363795385,0.001138943,-0.065279879
-0.245498238,1.454051614,0.571130633,18.00878356,-1,300,-0.061374559,0.363512903,0.142782658
0.916592064,-0.179377839,1.630577683,18.10878356,-1,301,0.229148016,-0.04484446,0.407644421
2.556357803,0.50009501,0.315221816,18.20878356,-1,302,0.639089451,0.125023752,0.078805454
-0.638333855,0.693485498,-1.217755079,18.30878356,-1,303,-0.159583464,0.173371375,-0.30443877
-0.058372078,0.158394426,-0.696045816,18.40878357,-1,304,-0.014593019,0.039598607,-0.174011454
0.438311043,-0.823424339,0.039134827,18.50878357,-1,305,0.109577761,-0.205856085,0.009783707
-0.811602173,-1.219191074,0.442030132,18.60878357,-1,306,-0.202900543,-0.304797769,0.110507533
1.128754082,0.363152802,-1.511276007,18.70878357,-1,307,0.28218852,0.0907882,-0.377819002
0.027813377,0.551368535,0.095952153,18.80878357,-1,308,0.006953344,0.137842134,0.023988038
-1.283338127,-0.560255706,-0.717813253,18.90878357,-1,309,-0.320834532,-0.140063927,-0.179453313
-2.45365387,-0.417841285,-1.06407392,19.00878358,-1,310,-0.613413467,-0.104460321,-0.26601848
1.685709419,1.11985147,1.281951547,19.10878358,-1,311,0.421427355,0.279962867,0.320487887
-1.290540276,0.871932924,-0.705531895,19.20878358,-1,312,-0.322635069,0.217983231,-0.176382974
0.792451324,2.483988047,1.263663054,19.30878358,-1,313,0.198112831,0.620997012,0.315915763
-0.353505669,0.538640499,1.873456597,19.40878358,-1,314,-0.088376417,0.134660125,0.468364149
-0.652150688,-0.128182977,2.117504835,19.50878358,-1,315,-0.163037672,-0.032045744,0.529376209
-1.119098244,-0.035690702,0.302130193,19.60878358,-1,316,-0.279774561,-0.008922676,0.075532548
-0.057164726,-0.442872584,1.250066876,19.70878359,-1,317,-0.014291182,-0.110718146,0.312516719
-1.571312485,0.54810524,-1.2468431,19.80878359,-1,318,-0.392828121,0.13702631,-0.311710775
1.493913116,-1.529603124,-0.454126388,19.90878359,-1,319,0.373478279,-0.382400781,-0.113531597
0.369600716,0.445500761,-1.3869524,20.00878359,-1,320,0.092400179,0.11137519,-0.3467381
-0.236348686,-1.529509068,1.408121705,20.10878359,-1,321,-0.059087172,-0.382377267,0.352030426
0.671740952,0.800742149,1.533686876,20.20878359,-1,322,0.167935238,0.200185537,0.383421719
-1.011086044,-0.115267411,-3.270580769,20.30878359,-1,323,-0.252771511,-0.028816853,-0.817645192
2.278124275,-1.98670435,-1.584547758,20.4087836,-1,324,0.569531069,-0.496676087,-0.39613694
-0.494356689,-1.901016355,-0.206392691,20.5087836,-1,325,-0.123589172,-0.475254089,-0.051598173
-1.277388153,-0.512582064,-0.960057676,20.6087836,-1,326,-0.319347038,-0.128145516,-0.240014419
0.44761795,2.160343885,-0.713966548,20.7087836,-1,327,0.111904488,0.540085971,-0.178491637
-2.589555321,1.591291547,-2.436795235,20.8087836,-1,328,-0.64738883,0.397822887,-0.609198809
0.310627403,-0.921058774,0.490135133,20.9087836,-1,329,0.077656851,-0.230264693,0.122533783
0.914786758,-0.731350005,1.284612894,21.0087836,-1,330,0.22869669,-0.182837501,0.321153224
0.870854797,1.14109695,3.728707075,21.10878361,-1,331,0.217713699,0.285274237,0.932176769
-2.443729458,0.063517578,2.31839776,21.20878361,-1,332,-0.610932364,0.015879394,0.57959944
-1.983439026,2.545080423,2.862533808,21.30878361,-1,333,-0.495859756,0.636270106,0.715633452
0.223665657,2.057566404,-0.09520217,21.40878361,-1,334,0.055916414,0.514391601,-0.023800543
0.531457367,0.49424541,2.593765736,21.50878361,-1,335,0.132864342,0.123561352,0.648441434
1.598269882,-0.365629286,-1.558496356,21.60878361,-1,336,0.399567471,-0.091407321,-0.389624089
-0.766330299,-1.824795008,-0.926184654,21.70878362,-1,337,-0.191582575,-0.456198752,-0.231546164
2.572958412,1.051286697,1.123511076,21.80878362,-1,338,0.643239603,0.262821674,0.280877769
-3.446873245,-0.435945392,-2.446303606,21.90878362,-1,339,-0.861718311,-0.108986348,-0.611575902
-0.306985435,-1.107667208,0.711743772,22.00878362,-1,340,-0.076746359,-0.276916802,0.177935943
-1.088809547,1.339067698,0.486376017,22.10878362,-1,341,-0.272202387,0.334766924,0.121594004
-0.883143959,0.303202063,-1.296004891,22.20878362,-1,342,-0.22078599,0.075800516,-0.324001223
0.756757202,1.107000232,-1.33241725,22.30878362,-1,343,0.189189301,0.276750058,-0.333104312
-0.173472939,-0.424686909,-2.755360365,22.40878363,-1,344,-0.043368235,-0.106171727,-0.688840091
2.022312584,-0.099890016,-1.029391408,22.50878363,-1,345,0.505578146,-0.024972504,-0.257347852
-0.559190331,-0.214715064,-0.348470151,22.60878363,-1,346,-0.139797583,-0.053678766,-0.087117538
0.072343292,2.059035301,-0.703424156,22.70878363,-1,347,0.018085823,0.514758825,-0.175856039
1.528336945,0.059920195,-0.378064394,22.80878363,-1,348,0.382084236,0.014980049,-0.094516098
0.692354622,-1.258765697,-0.018132569,22.90878363,-1,349,0.173088655,-0.314691424,-0.004533142
-2.666241226,-0.619062126,-0.665635228,23.00878363,-1,350,-0.666560307,-0.154765531,-0.166408807
-0.327696381,0.724629998,-0.834605217,23.10878364,-1,351,-0.081924095,0.1811575,-0.208651304
1.122268143,-0.137374535,0.454882473,23.20878364,-1,352,0.280567036,-0.034343634,0.113720618
1.765217247,-0.172172248,-0.917389393,23.30878364,-1,353,0.441304312,-0.043043062,-0.229347348
-0.280466614,-0.833753884,1.158277512,23.40878364,-1,354,-0.070116653,-0.208438471,0.289569378
-1.662977753,-0.64631027,-1.249289274,23.50878364,-1,355,-0.415744438,-0.161577567,-0.312322319
-1.939727364,-2.718862772,3.43941021,23.60878364,-1,356,-0.484931841,-0.679715693,0.859852552
0.58331913,-0.241047293,-0.091728613,23.70878365,-1,357,0.145829782,-0.060261823,-0.022932153
0.327293816,1.231512666,2.024073839,23.80878365,-1,358,0.081823454,0.307878166,0.50601846
0.916806641,1.327820539,0.343936563,23.90878365,-1,359,0.22920166,0.331955135,0.085984141
1.751403275,-1.931664228,-0.518938482,24.00878365,-1,360,0.437850819,-0.482916057,-0.12973462
1.009620132,0.509244263,-0.679465771,24.10878365,-1,361,0.252405033,0.127311066,-0.169866443
0.362746658,-2.331386566,1.236110091,24.20878365,-1,362,0.090686665,-0.582846642,0.309027523
0.794096413,0.333342016,-0.830548584,24.30878365,-1,363,0.198524103,0.083335504,-0.207637146
-2.665405807,0.90321821,-0.873949528,24.40878366,-1,364,-0.666351452,0.225804552,-0.218487382
-0.335723457,-1.140014887,-0.711678624,24.50878366,-1,365,-0.083930864,-0.285003722,-0.177919656
-1.457387505,-2.344095707,0.979413271,24.60878366,-1,366,-0.364346876,-0.586023927,0.244853318
-0.39856678,1.290761352,-0.196979836,24.70878366,-1,367,-0.099641695,0.322690338,-0.049244959
2.448466721,-0.145574301,0.813889861,24.80878366,-1,368,0.61211668,-0.036393575,0.203472465
-1.552717743,0.657789648,0.347663224,24.90878366,-1,369,-0.388179436,0.164447412,0.086915806
-0.691095886,3.101205587,1.572297573,25.00878366,-1,370,-0.172773972,0.775301397,0.393074393
-0.053506432,-0.038503896,0.065537445,25.10878367,-1,371,-0.013376608,-0.009625974,0.016384361
1.220859947,0.313165665,2.234680653,25.20878367,-1,372,0.305214987,0.078291416,0.558670163
-0.934516487,1.081112504,-0.803975999,25.30878367,-1,373,-0.233629122,0.270278126,-0.200994
0.742972794,-0.691996634,0.997358263,25.40878367,-1,374,0.185743198,-0.172999159,0.249339566
0.734926643,-1.191984296,-1.405557632,25.50878367,-1,375,0.183731661,-0.297996074,-0.351389408
0.256041946,-2.67505908,0.022076005,25.60878367,-1,376,0.064010487,-0.66876477,0.005519001
2.877036514,2.368257999,-0.028891221,25.70878367,-1,377,0.719259129,0.5920645,-0.007222805
-0.068933067,0.992650986,2.435466766,25.80878368,-1,378,-0.017233267,0.248162746,0.608866692
1.306794586,1.071316004,-0.980930924,25.90878368,-1,379,0.326698647,0.267829001,-0.245232731
0.63373703,0.716136515,0.682642937,26.00878368,-1,380,0.158434258,0.179034129,0.170660734
0.304920616,0.554685414,0.885219157,26.10878368,-1,381,0.076230154,0.138671353,0.221304789
1.042658272,-0.990815401,-1.199492335,26.20878368,-1,382,0.260664568,-0.24770385,-0.299873084
0.143270912,0.596640289,-2.067653894,26.30878368,-1,383,0.035817728,0.149160072,-0.516913474
3.357325974,1.307376981,1.022781491,26.40878369,-1,384,0.839331493,0.326844245,0.255695373
-3.09349781,1.427992344,0.61327213,26.50878369,-1,385,-0.773374453,0.356998086,0.153318033
4.137698593,-2.509067535,-4.177680969,26.60878369,-1,386,1.034424648,-0.627266884,-1.044420242
-7.292409,1.831005216,1.551603794,26.70878369,-1,387,-1.82310225,0.457751304,0.387900949
-0.91668087,1.379403353,4.674935341,26.80878369,-1,388,-0.229170218,0.344850838,1.168733835
1.28466362,0.89527005,-0.774578452,26.90878369,-1,389,0.321165905,0.223817512,-0.193644613
