x,y,z,Event Time,Event Type,Frame,x_modified,y_modified,z_modified
0.670384827,1.698710442,-0.848758876,113.408785,-1,1254,0.167596207,0.42467761,-0.212189719
-1.70793396,0.46285215,0.067104742,113.508785,-1,1255,-0.42698349,0.115713038,0.016776185
-0.499656258,-0.917195559,-1.540512085,113.608785,-1,1256,-0.124914064,-0.22929889,-0.385128021
0.809602203,0.51222384,0.523267686,113.708785,-1,1257,0.202400551,0.12805596,0.130816922
0.740084114,1.570526838,2.691449404,113.808785,-1,1258,0.185021029,0.39263171,0.672862351
0.806872787,0.176962689,-0.052925725,113.908785,-1,1259,0.201718197,0.044240672,-0.013231431
-1.074579773,-0.793675601,1.238710999,114.008785,-1,1260,-0.268644943,-0.1984189,0.30967775
0.107963982,1.28749609,1.606520891,114.108785,-1,1261,0.026990995,0.321874022,0.401630223
2.12096447,-1.272151113,-2.383941174,114.208785,-1,1262,0.530241117,-0.318037778,-0.595985293
-0.26208168,0.67164433,1.773887634,114.308785,-1,1263,-0.06552042,0.167911083,0.443471909
-0.589335022,1.083411574,2.798935413,114.508785,-1,1265,-0.147333755,0.270852894,0.699733853
0.968772354,0.557976186,-1.926196337,114.608785,-1,1266,0.242193089,0.139494047,-0.481549084
-0.380613861,-1.299616218,-1.001361966,114.708785,-1,1267,-0.095153465,-0.324904054,-0.250340492
-3.175531445,-1.364018559,-1.040373802,114.808785,-1,1268,-0.793882861,-0.34100464,-0.260093451
0.151677551,-0.725682139,-1.539148688,114.908785,-1,1269,0.037919388,-0.181420535,-0.384787172
2.015490952,0.912315488,1.023932576,115.008785,-1,1270,0.503872738,0.228078872,0.255983144
1.147202911,0.740890026,-1.582911491,115.108785,-1,1271,0.286800728,0.185222507,-0.395727873
-1.038476524,-1.805116296,-0.623395741,115.208785,-1,1272,-0.259619131,-0.451279074,-0.155848935
-1.873874245,-1.685143232,-1.72889626,115.308785,-1,1273,-0.468468561,-0.421285808,-0.432224065
2.275422516,-0.312835008,-1.980301857,115.408785,-1,1274,0.568855629,-0.078208752,-0.495075464
-1.978017864,0.060901191,-0.158922583,115.508785,-1,1275,-0.494504466,0.015225298,-0.039730646
1.299487534,-1.855931163,0.97554034,115.608785,-1,1276,0.324871883,-0.463982791,0.243885085
-3.627290306,1.196648955,-0.707312226,115.708785,-1,1277,-0.906822577,0.299162239,-0.176828057
-1.244871674,1.71546793,-1.92599535,115.808785,-1,1278,-0.311217918,0.428866982,-0.481498837
1.058078232,-0.148820549,0.105328165,115.908785,-1,1279,0.264519558,-0.037205137,0.026332041
-0.979091225,-0.353755116,-1.191600323,116.008785,-1,1280,-0.244772806,-0.088438779,-0.297900081
0.657055321,0.253973067,1.802234292,116.108785,-1,1281,0.16426383,0.063493267,0.450558573
1.652345123,0.536619186,0.519005895,116.208785,-1,1282,0.413086281,0.134154797,0.129751474
-1.216851768,-1.44684732,-0.484824419,116.308785,-1,1283,-0.304212942,-0.36171183,-0.121206105
0.275212708,0.171502322,-1.366489649,116.408785,-1,1284,0.068803177,0.04287558,-0.341622412
0.675459328,-0.716083109,2.098001242,116.508785,-1,1285,0.168864832,-0.179020777,0.52450031
-2.558794556,-1.013682604,-1.683650374,116.608785,-1,1286,-0.639698639,-0.253420651,-0.420912594
-0.656082687,0.109398216,-1.083760023,116.708785,-1,1287,-0.164020672,0.027349554,-0.270940006
0.813516083,3.404852152,-0.828379691,116.808785,-1,1288,0.203379021,0.851213038,-0.207094923
-0.366099892,-0.405026227,-0.986875534,116.908785,-1,1289,-0.091524973,-0.101256557,-0.246718884
-1.10231739,-0.161695719,2.395409107,117.008785,-1,1290,-0.275579348,-0.04042393,0.598852277
-0.284053383,0.501723766,0.93819958,117.108785,-1,1291,-0.071013346,0.125430942,0.234549895
2.056802216,-0.061257202,-0.770349741,117.208785,-1,1292,0.514200554,-0.015314301,-0.192587435
-0.364517746,1.083381057,-1.95111382,117.308785,-1,1293,-0.091129436,0.270845264,-0.487778455
-2.114018497,-0.47651574,2.004211664,117.408785,-1,1294,-0.528504624,-0.119128935,0.501052916
0.308012428,1.540793419,-1.057862878,117.508785,-1,1295,0.077003107,0.385198355,-0.264465719
0.246646347,-1.341078877,-2.399640322,117.608785,-1,1296,0.061661587,-0.335269719,-0.59991008
-0.033468781,-0.899434805,1.441085339,117.708785,-1,1297,-0.008367195,-0.224858701,0.360271335
0.075663033,-0.956172943,0.321797311,117.808785,-1,1298,0.018915758,-0.239043236,0.080449328
0.575818481,-1.713027358,-0.046454959,117.908785,-1,1299,0.14395462,-0.42825684,-0.01161374
-0.160527763,0.720777094,1.295714021,118.0087851,-1,1300,-0.040131941,0.180194274,0.323928505
-1.817668495,3.831331253,-0.569206595,118.1087851,-1,1301,-0.454417124,0.957832813,-0.142301649
-1.081427155,-2.754922628,1.566483617,118.2087851,-1,1302,-0.270356789,-0.688730657,0.391620904
0.845329704,1.384492636,2.084744453,118.3087851,-1,1303,0.211332426,0.346123159,0.521186113
1.432817879,0.086709954,3.399670839,118.4087851,-1,1304,0.35820447,0.021677488,0.84991771
0.374098244,0.917232156,2.559864044,118.5087851,-1,1305,0.093524561,0.229308039,0.639966011
0.455395164,1.911594629,3.827741146,118.6087851,-1,1306,0.113848791,0.477898657,0.956935287
1.240164223,-0.507483721,4.041581631,118.7087851,-1,1307,0.310041056,-0.12687093,1.010395408
-1.002942619,-1.209370494,3.402794838,118.8087851,-1,1308,-0.250735655,-0.302342623,0.850698709
-1.806244431,0.009835042,1.719002247,118.9087851,-1,1309,-0.451561108,0.002458761,0.429750562
1.119501534,0.537994802,1.304357171,119.0087851,-1,1310,0.279875383,0.1344987,0.326089293
2.2887854,0.663106143,-0.234104395,119.1087851,-1,1311,0.57219635,0.165776536,-0.058526099
2.883512917,-1.042464375,2.100643635,119.2087851,-1,1312,0.720878229,-0.260616094,0.525160909
0.26537365,1.072618484,3.937651157,119.3087851,-1,1313,0.066343412,0.268154621,0.984412789
2.063984337,0.411225319,2.541755199,119.4087851,-1,1314,0.515996084,0.10280633,0.6354388
2.001837196,0.554143608,3.889678717,119.5087851,-1,1315,0.500459299,0.138535902,0.972419679
-0.256723938,-0.460014164,2.035349846,119.6087851,-1,1316,-0.064180984,-0.115003541,0.508837461
0.204994621,-0.431031644,3.444785833,119.7087851,-1,1317,0.051248655,-0.107757911,0.861196458
0.587884369,0.383159608,-0.47245276,119.8087851,-1,1318,0.146971092,0.095789902,-0.11811319
0.455842438,0.347576916,0.168474674,119.9087851,-1,1319,0.113960609,0.086894229,0.042118669
0.205874863,0.756279349,-0.93612349,120.0087851,-1,1320,0.051468716,0.189069837,-0.234030873
0.403792801,-0.783023953,-1.594185829,120.1087851,-1,1321,0.1009482,-0.195755988,-0.398546457
-0.841646729,0.770407856,0.453237414,120.2087851,-1,1322,-0.210411682,0.192601964,0.113309354
0.601355972,-1.015235662,6.304813385,120.3087851,-1,1323,0.150338993,-0.253808916,1.576203346
-0.014498291,-1.784999609,5.959890366,120.4087851,-1,1324,-0.003624573,-0.446249902,1.489972591
-0.401100693,-1.407822609,6.709593296,120.5087851,-1,1325,-0.100275173,-0.351955652,1.677398324
0.092910233,0.745567441,6.580164433,120.6087851,-1,1326,0.023227558,0.18639186,1.645041108
0.007175865,0.26750195,4.719546318,120.7087851,-1,1327,0.001793966,0.066875488,1.17988658
-2.307027397,0.424324065,4.575865269,120.8087851,-1,1328,-0.576756849,0.106081016,1.143966317
-0.240306435,-1.407865644,3.811381102,120.9087851,-1,1329,-0.060076609,-0.351966411,0.952845275
-0.94412571,1.37854898,5.771181107,121.0087851,-1,1330,-0.236031427,0.344637245,1.442795277
0.805894318,0.73304832,2.546919823,121.1087851,-1,1331,0.201473579,0.18326208,0.636729956
1.268747749,-2.545015335,4.66004324,121.2087851,-1,1332,0.317186937,-0.636253834,1.16501081
0.35122818,2.709266424,3.868784904,121.3087851,-1,1333,0.087807045,0.677316606,0.967196226
-3.962753353,1.588796377,2.059672117,121.4087851,-1,1334,-0.990688338,0.397199094,0.514918029
-0.367674408,-1.285043001,4.829255581,121.5087851,-1,1335,-0.091918602,-0.32126075,1.207313895
1.380343857,-1.58894527,1.843993425,121.6087851,-1,1336,0.345085964,-0.397236317,0.460998356
-0.593289909,0.209731996,2.414832592,121.7087851,-1,1337,-0.148322477,0.052432999,0.603708148
-0.538863716,2.504358292,-2.687575579,121.8087851,-1,1338,-0.134715929,0.626089573,-0.671893895
1.023610535,-2.100977659,-0.708211303,121.9087851,-1,1339,0.255902634,-0.525244415,-0.177052826
-0.658549843,0.978079081,-2.458930969,122.0087851,-1,1340,-0.164637461,0.24451977,-0.614732742
-0.313296852,-0.675092459,-1.284550905,122.1087851,3,1341,-0.078324213,-0.168773115,-0.321137726
-1.28762394,0.600301385,0.609504282,122.2087851,3,1342,-0.321905985,0.150075346,0.152376071
-0.40672451,0.737063408,4.154153347,122.3087851,3,1343,-0.101681128,0.184265852,1.038538337
1.750569763,-0.737005413,7.571335793,122.4087851,3,1344,0.437642441,-0.184251353,1.892833948
-1.322084961,-0.531061649,4.222410202,122.5087851,3,1345,-0.33052124,-0.132765412,1.055602551
0.173569145,0.253750533,2.225960255,122.6087851,3,1346,0.043392286,0.063437633,0.556490064
-0.489343224,-0.570388675,3.818071365,122.7087851,3,1347,-0.122335806,-0.142597169,0.954517841
0.246645393,-2.200684547,3.913797379,122.8087851,3,1348,0.061661348,-0.550171137,0.978449345
1.631967964,-0.651435673,4.825811386,122.9087851,3,1349,0.407991991,-0.162858918,1.206452847
2.146406593,0.469195902,4.837831497,123.0087851,3,1350,0.536601648,0.117298976,1.209457874
0.499098244,-0.734167099,4.984019756,123.1087851,3,1351,0.124774561,-0.183541775,1.246004939
-0.596125183,1.575700641,2.837303162,123.2087851,3,1352,-0.149031296,0.39392516,0.70932579
-1.14416748,-0.634090722,3.316762924,123.3087851,3,1353,-0.28604187,-0.15852268,0.829190731
-0.246462402,0.451412976,3.028816938,123.4087851,3,1354,-0.061615601,0.112853244,0.757204235
-1.39417511,0.63000679,2.298011065,123.5087851,3,1355,-0.348543777,0.157501698,0.574502766
-1.240959702,-2.215378523,3.221978426,123.6087851,3,1356,-0.310239925,-0.553844631,0.805494606
-0.643418846,-1.600934982,3.459824324,123.7087851,3,1357,-0.160854712,-0.400233746,0.864956081
-0.152328072,1.489483356,0.618846655,123.8087851,3,1358,-0.038082018,0.372370839,0.154711664
0.45301384,1.029030442,1.004151702,123.9087851,3,1359,0.11325346,0.257257611,0.251037925
0.677330437,-0.041193854,-0.799410343,124.0087851,-1,1360,0.169332609,-0.010298464,-0.199852586
0.223439636,1.508948922,-0.480391204,124.1087851,-1,1361,0.055859909,0.377237231,-0.120097801
-1.986564217,0.476957083,-0.392352462,124.2087851,-1,1362,-0.496641054,0.119239271,-0.098088115
0.662633362,0.479222924,3.415784359,124.3087851,-1,1363,0.16565834,0.119805731,0.85394609
1.351045074,1.373934031,2.666287422,124.4087851,-1,1364,0.337761269,0.343483508,0.666571856
1.813535156,-0.429484069,2.811367989,124.5087851,-1,1365,0.453383789,-0.107371017,0.702841997
0.149939957,1.792000532,3.890107393,124.6087851,-1,1366,0.037484989,0.448000133,0.972526848
-2.464047012,1.341112494,4.816233635,124.7087852,-1,1367,-0.616011753,0.335278124,1.204058409
2.600636902,-2.056646824,5.866910934,124.8087852,-1,1368,0.650159225,-0.514161706,1.466727734
0.056630554,-0.591543078,3.954339504,124.9087852,-1,1369,0.014157639,-0.14788577,0.988584876
0.61156601,-1.450745821,0.259128332,125.0087852,-1,1370,0.152891502,-0.362686455,0.064782083
-1.786122856,1.032308817,1.99344945,125.1087852,-1,1371,-0.446530714,0.258077204,0.498362362
0.129024925,0.615257263,1.924355507,125.2087852,-1,1372,0.032256231,0.153814316,0.481088877
-2.565892754,-0.193035111,1.983066559,125.3087852,-1,1373,-0.641473188,-0.048258778,0.49576664
0.231142464,-1.124371767,1.650700092,125.4087852,-1,1374,0.057785616,-0.281092942,0.412675023
-0.132863579,-0.299379468,3.159730911,125.5087852,-1,1375,-0.033215895,-0.074844867,0.789932728
-0.069918213,1.919234872,4.821473122,125.6087852,-1,1376,-0.017479553,0.479808718,1.20536828
-0.375590858,-1.108526826,0.665234447,125.7087852,-1,1377,-0.093897715,-0.277131706,0.166308612
1.461727562,0.012944398,-0.564916015,125.8087852,-1,1378,0.36543189,0.0032361,-0.141229004
-0.246751366,1.458670139,-5.73477602,125.9087852,-1,1379,-0.061687841,0.364667535,-1.433694005
0.877720299,-0.182547718,-10.63832188,126.0087852,-1,1380,0.219430075,-0.04563693,-2.659580469
2.47813076,0.485618502,-14.26341915,126.1087852,-1,1381,0.61953269,0.121404625,-3.565854788
-0.730537949,0.668086529,-15.86154079,126.2087852,-1,1382,-0.182634487,0.167021632,-3.965385199
-0.12890583,0.123180941,-11.7793932,126.3087852,-1,1383,-0.032226458,0.030795235,-2.944848299
0.378465118,-0.852459192,-11.03988266,126.4087852,-1,1384,0.09461628,-0.213114798,-2.759970665
-0.888540802,-1.245854974,-12.7023716,126.5087852,-1,1385,-0.222135201,-0.311463743,-3.175592899
1.038007202,0.338184178,-15.58719635,126.6087852,-1,1386,0.259501801,0.084546044,-3.896799088
-0.070810852,0.528200328,-14.38920689,126.7087852,-1,1387,-0.017702713,0.132050082,-3.597301722
-1.386745033,-0.582850397,-15.33868027,126.8087852,-1,1388,-0.346686258,-0.145712599,-3.834670067
-2.556351242,-0.434830427,-15.68595791,126.9087852,-1,1389,-0.639087811,-0.108707607,-3.921489477
1.5809235,1.107145071,-13.2753582,127.0087852,-1,1390,0.395230875,0.276786268,-3.31883955
-1.410506783,0.863279164,-15.15394688,127.1087852,-1,1391,-0.352626696,0.215819791,-3.788486719
0.691067162,2.478208542,-13.06597996,127.2087852,-1,1392,0.17276679,0.619552135,-3.266494989
-0.435823021,0.53605926,-12.34473038,127.3087852,-1,1393,-0.108955755,0.134014815,-3.086182594
-0.750671921,-0.129437521,-12.03296757,127.4087852,-1,1394,-0.18766798,-0.03235938,-3.008241892
-1.18036705,-0.035890017,-8.437664032,127.5087852,-1,1395,-0.295091763,-0.008972504,-2.109416008
-0.063024101,-0.44264105,1.064216495,127.6087852,-1,1396,-0.015756025,-0.110660262,0.266054124
-1.566111145,0.547739446,-1.290249705,127.7087852,-1,1397,-0.391527786,0.136934862,-0.322562426
1.497805061,-1.529391408,-0.487212002,127.8087852,-1,1398,0.374451265,-0.382347852,-0.121803001
0.371944847,0.445545256,-1.399428368,127.9087852,-1,1399,0.092986212,0.111386314,-0.349857092
-0.234739838,-1.529525042,1.396328807,128.0087852,-1,1400,-0.058684959,-0.38238126,0.349082202
0.67214817,0.800900877,1.526995659,128.1087852,-1,1401,0.168037043,0.200225219,0.381748915
-1.010773239,-0.115105614,-3.271325588,128.2087852,-1,1402,-0.25269331,-0.028776404,-0.817831397
2.27821106,-1.986609578,-1.595870852,128.3087852,-1,1403,0.569552765,-0.496652395,-0.398967713
-0.494227943,-1.900792956,-0.078315258,128.4087852,-1,1404,-0.123556986,-0.475198239,-0.019578815
-1.277339516,-0.512528837,-0.751447678,128.5087852,-1,1405,-0.319334879,-0.128132209,-0.187861919
0.447276535,2.161396027,-0.214433789,128.6087852,-1,1406,0.111819134,0.540349007,-0.053608447
-2.589420853,1.587846756,-1.931735277,128.7087852,-1,1407,-0.647355213,0.396961689,-0.482933819
0.310234489,-0.920633078,1.222336292,128.8087852,-1,1408,0.077558622,-0.230158269,0.305584073
0.914996567,-0.72508955,2.00335741,128.9087852,-1,1409,0.228749142,-0.181272388,0.500839353
0.870186272,1.137492657,4.58301878,129.0087852,-1,1410,0.217546568,0.284373164,1.145754695
-2.443305073,0.06284751,2.967459679,129.1087852,-1,1411,-0.610826268,0.015711877,0.74186492
-1.984086571,2.546433449,3.644269228,129.2087852,-1,1412,-0.496021643,0.636608362,0.911067307
0.223136368,2.058228254,0.84823966,129.3087852,-1,1413,0.055784092,0.514557064,0.212059915
0.531041565,0.493754834,3.612617493,129.4087852,-1,1414,0.132760391,0.123438708,0.903154373
1.597646179,-0.366265416,-0.488009453,129.5087852,-1,1415,0.399411545,-0.091566354,-0.122002363
-0.766818581,-1.825650454,0.220936537,129.6087852,-1,1416,-0.191704645,-0.456412613,0.055234134
2.572260323,1.050986409,2.341020823,129.7087852,-1,1417,0.643065081,0.262746602,0.585255206
-3.446140823,-0.43613714,-1.718899965,129.8087852,-1,1418,-0.861535206,-0.109034285,-0.429724991
-0.306453285,-1.107429028,0.693513393,129.9087852,-1,1419,-0.076613321,-0.276857257,0.173378348
-1.089288292,1.339622259,0.472024679,130.0087852,-1,1420,-0.272322073,0.334905565,0.11800617
-0.883519707,0.303561568,-1.313496828,130.1087852,-1,1421,-0.220879927,0.075890392,-0.328374207
0.756586494,1.107404947,-1.347762585,130.2087852,-1,1422,0.189146624,0.276851237,-0.336940646
-0.174627838,-0.424997956,-2.403355598,130.3087852,-1,1423,-0.04365696,-0.106249489,-0.6008389
1.99324173,-0.082657151,0.531104565,130.4087852,-1,1424,0.498310432,-0.020664288,0.132776141
-0.510816154,-0.240041032,1.685287476,130.5087852,-1,1425,-0.127704039,-0.060010258,0.421321869
0.0520224,2.074319124,1.571408033,130.6087852,-1,1426,0.0130056,0.518579781,0.392852008
1.522368851,0.058933746,2.026719093,130.7087852,-1,1427,0.380592213,0.014733437,0.506679773
0.689028206,-1.258991599,2.490207195,130.8087852,-1,1428,0.172257051,-0.3147479,0.622551799
-2.669381676,-0.618872225,1.932253003,130.9087852,-1,1429,-0.667345419,-0.154718056,0.483063251
-0.330835876,0.724810839,1.853934526,131.0087852,-1,1430,-0.082708969,0.18120271,0.463483632
1.118508759,-0.137116671,3.242799044,131.1087852,-1,1431,0.27962719,-0.034279168,0.810699761
1.761147919,-0.171894491,2.019953728,131.2087852,-1,1432,0.44028698,-0.042973623,0.504988432
-0.285057602,-0.833472729,4.220035553,131.3087852,-1,1433,-0.0712644,-0.208368182,1.055008888
-1.66787487,-0.645542383,1.924359798,131.4087853,-1,1434,-0.416968718,-0.161385596,0.48108995
-1.945050774,-2.718508244,6.727421761,131.5087853,-1,1435,-0.486262693,-0.679627061,1.68185544
0.57760376,-0.240872189,3.310642719,131.6087853,-1,1436,0.14440094,-0.060218047,0.82766068
0.33885807,1.232368112,5.550901413,131.7087853,-1,1437,0.084714518,0.308092028,1.387725353
0.907384338,1.328481436,3.990134239,131.8087853,-1,1438,0.226846085,0.332120359,0.99753356
1.735211792,-1.931257367,0.939794242,131.9087853,-1,1439,0.433802948,-0.482814342,0.234948561
1.008452835,0.509880245,-0.764730215,132.0087853,-1,1440,0.252113209,0.127470061,-0.191182554
0.363106194,-2.331192017,1.145354271,132.1087853,-1,1441,0.090776548,-0.582798004,0.286338568
0.794611397,0.333259284,-0.920508623,132.2087853,-1,1442,0.198652849,0.083314821,-0.230127156
-2.665120659,0.903087914,-0.96737361,132.3087853,-1,1443,-0.666280165,0.225771978,-0.241843402
-0.338491974,-1.137736559,0.811904013,132.4087853,-1,1444,-0.084622993,-0.28443414,0.202976003
-1.463393745,-2.346748829,4.242903233,132.5087853,-1,1445,-0.365848436,-0.586687207,1.060725808
-0.400338707,1.290138006,3.049297094,132.6087853,-1,1446,-0.100084677,0.322534502,0.762324274
2.444469872,-0.145097941,4.064266205,132.7087853,-1,1447,0.611117468,-0.036274485,1.016066551
-1.557136116,0.658690751,3.60397172,132.8087853,-1,1448,-0.389284029,0.164672688,0.90099293
-0.696106491,3.102240801,4.832904339,132.9087853,-1,1449,-0.174026623,0.7755602,1.208226085
-0.058820305,-0.037506979,3.331465721,133.0087853,-1,1450,-0.014705076,-0.009376745,0.83286643
1.215560379,0.31469655,5.503324986,133.1087853,-1,1451,0.303890095,0.078674138,1.375831246
-0.927355347,1.07127583,2.465881586,133.2087853,-1,1452,-0.231838837,0.267818958,0.616470397
0.716232719,-0.67947787,4.282636166,133.3087853,-1,1453,0.17905818,-0.169869468,1.070659041
0.736833992,-1.193665981,1.873371482,133.4087853,-1,1454,0.184208498,-0.298416495,0.46834287
0.250786247,-2.673768759,3.311111212,133.5087853,-1,1455,0.062696562,-0.66844219,0.827777803
2.871410789,2.370322704,3.260205507,133.6087853,-1,1456,0.717852697,0.592580676,0.815051377
-0.074348984,0.994538426,5.727117062,133.7087853,-1,1457,-0.018587246,0.248634607,1.431779265
1.300995293,1.073349118,2.315767288,133.8087853,-1,1458,0.325248823,0.26833728,0.578941822
0.634321632,0.718027115,2.763735294,133.9087853,-1,1459,0.158580408,0.179506779,0.690933824
0.306052628,0.556503773,0.721809149,134.0087853,-1,1460,0.076513157,0.139125943,0.180452287
1.041228714,-0.990626037,-1.393739343,134.1087853,-1,1461,0.260307178,-0.247656509,-0.348434836
0.142233315,0.59726572,-2.272531033,134.2087853,-1,1462,0.035558329,0.14931643,-0.568132758
-0.749344406,1.315533996,-0.217725247,134.3087853,-1,1463,-0.187336102,0.328883499,-0.054431312
-1.507937012,1.466504931,0.704918265,134.4087853,-1,1464,-0.376984253,0.366626233,0.176229566
0.182923737,-2.563275576,0.700280905,134.5087853,-1,1465,0.045730934,-0.640818894,0.175070226
-1.875116882,1.929192066,2.825170755,134.6087853,-1,1466,-0.468779221,0.482298017,0.706292689
-0.0140205,1.389639735,6.692922592,134.7087853,-1,1467,-0.003505125,0.347409934,1.673230648
1.276685181,0.897709131,2.416344404,134.8087853,-1,1468,0.319171295,0.224427283,0.604086101
-2.964742241,1.491909146,0.733234406,134.9087853,-1,1469,-0.74118556,0.372977287,0.183308601
-1.365799484,0.571975708,3.768119335,135.0087853,-1,1470,-0.341449871,0.142993927,0.942029834
0.877808037,-1.024571776,2.524377346,135.1087853,-1,1471,0.219452009,-0.256142944,0.631094337
-0.387326775,1.397526026,3.436416864,135.2087853,-1,1472,-0.096831694,0.349381506,0.859104216
1.497652473,-0.555993378,4.997386932,135.3087853,-1,1473,0.374413118,-0.138998345,1.249346733
-0.576519547,0.347229153,2.912134647,135.4087853,-1,1474,-0.144129887,0.086807288,0.728033662
0.379043045,1.740778565,2.828150272,135.5087853,-1,1475,0.094760761,0.435194641,0.707037568
1.914674225,2.388418198,4.718091965,135.6087853,-1,1476,0.478668556,0.597104549,1.179522991
1.351979675,1.294351101,2.918289185,135.7087853,-1,1477,0.337994919,0.323587775,0.729572296
0.39656395,-0.456639171,3.536057949,135.8087853,-1,1478,0.099140987,-0.114159793,0.884014487
-0.90954071,-2.290146589,2.304961205,135.9087853,-1,1479,-0.227385178,-0.572536647,0.576240301
-0.633992729,0.124812171,-0.257136941,136.0087853,-1,1480,-0.158498182,0.031203043,-0.064284235
0.205343666,-1.993182659,-0.945910037,136.1087853,-1,1481,0.051335917,-0.498295665,-0.236477509
-2.387223778,0.358877063,1.106570125,136.2087853,-1,1482,-0.596805944,0.089719266,0.276642531
0.380508842,-2.025970221,-1.286838293,136.3087853,-1,1483,0.095127211,-0.506492555,-0.321709573
2.420098724,-0.30694598,-2.851423264,136.4087853,-1,1484,0.605024681,-0.076736495,-0.712855816
0.034829559,0.066929713,0.944488049,136.5087853,-1,1485,0.00870739,0.016732428,0.236122012
-0.120255051,0.300928533,3.710881233,136.6087853,-1,1486,-0.030063763,0.075232133,0.927720308
-0.553916512,1.723780155,2.22625041,136.7087853,-1,1487,-0.138479128,0.430945039,0.556562603
0.527449074,1.792121172,4.937754631,136.8087853,-1,1488,0.131862268,0.448030293,1.234438658
0.764360847,-0.049333654,2.089920759,136.9087853,-1,1489,0.191090212,-0.012333414,0.52248019
1.806778374,-0.982149601,2.757388115,137.0087853,-1,1490,0.451694593,-0.2455374,0.689347029
0.708698692,-0.171153456,2.562889814,137.1087853,-1,1491,0.177174673,-0.042788364,0.640722454
-0.202971992,0.679306149,3.133225203,137.2087853,-1,1492,-0.050742998,0.169826537,0.783306301
-1.775023041,0.476959884,1.808099866,137.3087853,-1,1493,-0.44375576,0.119239971,0.452024966
-0.092341003,0.566605031,1.469985127,137.4087853,-1,1494,-0.023085251,0.141651258,0.367496282
-0.527840195,1.095393181,3.136317492,137.5087853,-1,1495,-0.131960049,0.273848295,0.784079373
0.658330383,-0.827833176,0.268161535,137.6087853,-1,1496,0.164582596,-0.206958294,0.067040384
0.296398582,-0.788505256,1.280045867,137.7087853,-1,1497,0.074099646,-0.197126314,0.320011467
1.165158691,-3.031941414,2.434949398,137.8087853,-1,1498,0.291289673,-0.757985353,0.60873735
-0.610030708,1.519582391,1.950204968,137.9087853,-1,1499,-0.152507677,0.379895598,0.487551242
1.405612411,-1.263433218,0.034260511,138.0087853,-1,1500,0.351403103,-0.315858305,0.008565128
0.785068932,1.165535688,4.544644356,138.1087853,-1,1501,0.196267233,0.291383922,1.136161089
1.714476051,0.327344626,1.782984495,138.2087854,-1,1502,0.428619013,0.081836157,0.445746124
-0.279589233,0.191870287,2.621393681,138.3087854,-1,1503,-0.069897308,0.047967572,0.65534842
0.865726891,-0.500003397,2.578375816,138.4087854,-1,1504,0.216431723,-0.125000849,0.644593954
-1.816893158,-0.124928482,3.239409685,138.5087854,-1,1505,-0.454223289,-0.03123212,0.809852421
1.49016613,0.234806463,2.160654068,138.6087854,-1,1506,0.372541533,0.058701616,0.540163517
-0.202893791,1.108763099,3.967759609,138.7087854,-1,1507,-0.050723448,0.277190775,0.991939902
0.871630135,-0.659720182,1.865209937,138.8087854,-1,1508,0.217907534,-0.164930046,0.466302484
-1.193508682,0.892471492,3.457700729,138.9087854,-1,1509,-0.298377171,0.223117873,0.864425182
1.059709969,-1.619000196,1.532126188,139.0087854,-1,1510,0.264927492,-0.404750049,0.383031547
1.228266182,-1.15629065,2.700471163,139.1087854,-1,1511,0.307066545,-0.289072663,0.675117791
-0.673978386,1.915613413,2.553399563,139.2087854,-1,1512,-0.168494596,0.478903353,0.638349891
1.176063004,-0.805929065,4.149991989,139.3087854,-1,1513,0.294015751,-0.201482266,1.037497997
-0.78506237,1.290691733,3.979671001,139.4087854,-1,1514,-0.196265593,0.322672933,0.99491775
0.145631256,1.971979856,0.411919236,139.5087854,-1,1515,0.036407814,0.492994964,0.102979809
3.928050461,0.17404893,2.691681385,139.6087854,-1,1516,0.982012615,0.043512233,0.672920346
3.525847855,-1.236448884,-0.080293179,139.7087854,-1,1517,0.881461964,-0.309112221,-0.020073295
2.009598198,0.486651659,-3.799791336,139.8087854,-1,1518,0.502399549,0.121662915,-0.949947834
-4.573816833,1.267685056,4.713479042,139.9087854,-1,1519,-1.143454208,0.316921264,1.178369761
-0.743804512,-2.772783756,-99.9,140.0087854,-1,1520,-0.185951128,-0.693195939,-24.975
-6.084252415,1.539582729,-83.21017456,140.1087854,-1,1521,-1.521063104,0.384895682,-20.80254364
