x,y,z,Event Time,Event Type,Frame,x_modified,y_modified,z_modified
0.670384827,1.698553681,-0.848732769,48.80878402,-1,608,0.167596207,0.42463842,-0.212183192
-1.70793396,0.46269539,0.067130871,48.90878402,-1,609,-0.42698349,0.115673847,0.016782718
-0.499656258,-0.917352319,-1.540485978,49.00878402,-1,610,-0.124914064,-0.22933808,-0.385121495
0.809602203,0.51206708,0.523293793,49.10878402,-1,611,0.202400551,0.12801677,0.130823448
0.740084114,1.570370078,2.69147563,49.20878403,-1,612,0.185021029,0.39259252,0.672868907
0.806872787,0.176805928,-0.052899599,49.30878403,-1,613,0.201718197,0.044201482,-0.0132249
-1.074579773,-0.793832362,1.238737106,49.40878403,-1,614,-0.268644943,-0.19845809,0.309684277
0.107963982,1.28733933,1.606546998,49.50878403,-1,615,0.026990995,0.321834832,0.40163675
2.12096447,-1.272307873,-2.383914948,49.60878403,-1,616,0.530241117,-0.318076968,-0.595978737
-0.26208168,0.67148757,1.773913741,49.70878403,-1,617,-0.06552042,0.167871892,0.443478435
-0.538176117,1.084492326,96.92134094,49.90878404,-1,619,-0.134544029,0.271123081,24.23033524
0.946747246,0.55651778,0.942803741,50.00878404,-1,620,0.236686811,0.139129445,0.235700935
-0.366680679,-1.29989326,-0.917443097,50.10878404,-1,621,-0.09167017,-0.324973315,-0.229360774
-3.167028484,-1.364138007,-1.044337869,50.20878404,-1,622,-0.791757121,-0.341034502,-0.261084467
0.155835571,-0.725898385,-1.541372061,50.30878404,-1,623,0.038958893,-0.181474596,-0.385343015
2.017116013,0.912080586,1.02324152,50.40878404,-1,624,0.504279003,0.228020146,0.25581038
1.147756042,0.740536213,-1.585947752,50.50878404,-1,625,0.286939011,0.185134053,-0.396486938
-1.03859478,-1.805208325,-0.622583628,50.60878405,-1,626,-0.259648695,-0.451302081,-0.155645907
-1.874103127,-1.685378075,-1.729284048,50.70878405,-1,627,-0.468525782,-0.421344519,-0.432321012
2.274926605,-0.312973112,-1.981912255,50.80878405,-1,628,0.568731651,-0.078243278,-0.495478064
-1.978372631,0.060749665,-0.15926221,50.90878405,-1,629,-0.494593158,0.015187416,-0.039815553
1.299113693,-1.85616076,0.975199521,51.00878405,-1,630,0.324778423,-0.46404019,0.24379988
-3.627568779,1.196478724,-0.706402004,51.10878405,-1,631,-0.906892195,0.299119681,-0.176600501
-1.245153961,1.715329766,-1.927569151,51.20878405,-1,632,-0.31128849,0.428832442,-0.481892288
1.057918015,-0.149211705,0.105000719,51.30878406,-1,633,0.264479504,-0.037302926,0.02625018
-0.979232368,-0.353911936,-1.191924334,51.40878406,-1,634,-0.244808092,-0.088477984,-0.297981083
0.656925621,0.253797621,1.803160191,51.50878406,-1,635,0.164231405,0.063449405,0.450790048
1.652291718,0.536559105,0.517433226,51.60878406,-1,636,0.413072929,0.134139776,0.129358307
-1.216912804,-1.44700408,-0.485143125,51.70878406,-1,637,-0.304228201,-0.36175102,-0.121285781
0.275140228,0.171189323,-1.366810679,51.80878406,-1,638,0.068785057,0.042797331,-0.34170267
0.712465706,-0.716101706,2.09893465,51.90878407,-1,639,0.178116426,-0.179025427,0.524733663
-2.591593323,-1.013899326,-1.685220003,52.00878407,-1,640,-0.647898331,-0.253474832,-0.421305001
-0.662396011,0.109007008,-1.084082246,52.10878407,-1,641,-0.165599003,0.027251752,-0.271020561
0.81335968,3.40461731,-0.828699589,52.20878407,-1,642,0.20333992,0.851154327,-0.207174897
-0.364760933,-0.405201584,-0.98594445,52.30878407,-1,643,-0.091190233,-0.101300396,-0.246486112
-1.102458534,-0.161755726,2.393841743,52.40878407,-1,644,-0.275614634,-0.040438931,0.598460436
-0.28377491,0.501488864,0.937879682,52.50878407,-1,645,-0.070943727,0.125372216,0.23446992
2.057153168,-0.061413951,-0.770668507,52.60878408,-1,646,0.514288292,-0.015353488,-0.192667127
-0.364338455,1.083302379,-1.951431394,52.70878408,-1,647,-0.091084614,0.270825595,-0.487857848
-2.113938389,-0.477003604,2.005138159,52.80878408,-1,648,-0.528484597,-0.119250901,0.50128454
0.307863655,1.540577173,-1.059432626,52.90878408,-1,649,0.076965914,0.385144293,-0.264858156
0.246779861,-1.341176152,-2.398707867,53.00878408,-1,650,0.061694965,-0.335294038,-0.599676967
-0.03335434,-0.899800122,1.449514389,53.10878408,-1,651,-0.008338585,-0.22495003,0.362378597
0.075537148,-0.956251681,0.321479768,53.20878408,-1,652,0.018884287,-0.23906292,0.080369942
0.575852814,-1.71326232,-0.046774857,53.30878409,-1,653,0.143963203,-0.42831558,-0.011693714
-0.160539207,0.720698357,1.295396447,53.40878409,-1,654,-0.040134802,0.180174589,0.323849112
-1.817637978,3.831096411,-0.569526494,53.50878409,-1,655,-0.454409494,0.957774103,-0.142381623
-1.073825417,-2.756458044,-1.245244026,53.60878409,-1,656,-0.268456354,-0.689114511,-0.311311007
0.847250404,1.38676846,-1.795361161,53.70878409,-1,657,0.211812601,0.346692115,-0.44884029
1.435238304,0.084784128,0.495822102,53.80878409,-1,658,0.358809576,0.021196032,0.123955525
0.379435959,0.916790128,-0.261583209,53.9087841,-1,659,0.09485899,0.229197532,-0.065395802
0.456728401,1.911469221,1.131701231,54.0087841,-1,660,0.1141821,0.477867305,0.282925308
1.242438736,-0.507087171,1.627086639,54.1087841,-1,661,0.310609684,-0.126771793,0.40677166
-0.999827919,-1.209657073,0.971060097,54.2087841,-1,662,-0.24995698,-0.302414268,0.242765024
-1.803011475,0.009664577,-0.808716297,54.3087841,-1,663,-0.450752869,0.002416144,-0.202179074
1.123066368,0.537540317,-1.323628545,54.4087841,-1,664,0.280766592,0.134385079,-0.330907136
2.292556229,0.663021505,-2.990642309,54.5087841,-1,665,0.573139057,0.165755376,-0.747660577
2.888195457,-1.042657137,-0.78303808,54.60878411,-1,666,0.722048864,-0.260664284,-0.19575952
0.270292702,1.072225213,0.900754929,54.70878411,-1,667,0.067573175,0.268056303,0.225188732
2.068487587,0.410780162,-0.649014831,54.80878411,-1,668,0.517121897,0.10269504,-0.162253708
2.008217278,0.554210246,0.50701797,54.90878411,-1,669,0.502054319,0.138552561,0.126754493
-0.249472198,-0.461155623,-1.532086849,55.00878411,-1,670,-0.06236805,-0.115288906,-0.383021712
0.202542725,-0.431197166,1.308353066,55.10878411,-1,671,0.050635681,-0.107799292,0.327088267
0.586345139,0.382978559,-0.411944658,55.20878411,-1,672,0.146586285,0.09574464,-0.102986164
0.457317772,0.347361654,0.240188837,55.30878412,-1,673,0.114329443,0.086840414,0.060047209
0.206921043,0.7562114,-0.861546278,55.40878412,-1,674,0.051730261,0.18905285,-0.215386569
0.404385986,-0.782982707,-1.515405893,55.50878412,-1,675,0.101096497,-0.195745677,-0.378851473
-0.834165154,0.770374,-1.716139317,55.60878412,-1,676,-0.208541288,0.1925935,-0.429034829
0.583683434,-1.015534163,0.053475473,55.70878412,-1,677,0.145920858,-0.253883541,0.013368868
0.029593887,-1.78636229,0.009844401,55.80878412,-1,678,0.007398472,-0.446590573,0.0024611
-0.384753761,-1.409249902,0.987058282,55.90878413,-1,679,-0.09618844,-0.352312475,0.24676457
0.105248871,0.744297862,1.030660391,56.00878413,-1,680,0.026312218,0.186074466,0.257665098
0.019768181,0.265511453,-0.680874705,56.10878413,-1,681,0.004942045,0.066377863,-0.170218676
-2.293897209,0.422524333,-0.689432085,56.20878413,-1,682,-0.573474302,0.105631083,-0.172358021
-0.227186737,-1.410030842,-1.32797277,56.30878413,-1,683,-0.056796684,-0.35250771,-0.331993192
-0.931125221,1.376350284,0.751634419,56.40878413,-1,684,-0.232781305,0.344087571,0.187908605
0.818447533,0.730777144,-2.355898619,56.50878413,-1,685,0.204611883,0.182694286,-0.588974655
1.280983391,-2.548004389,-0.130716369,56.60878414,-1,686,0.320245848,-0.637001097,-0.032679092
0.362790527,2.706300735,-0.810840964,56.70878414,-1,687,0.090697632,0.676575184,-0.202710241
-3.951469479,1.585523486,-2.514139652,56.80878414,-1,688,-0.98786737,0.396380872,-0.628534913
-0.356963692,-1.288378358,0.360629648,56.90878414,-1,689,-0.089240923,-0.322094589,0.090157412
1.390662613,-1.592504025,-2.510016203,57.00878414,-1,690,0.347665653,-0.398126006,-0.627504051
-0.589928207,0.206080258,-0.852253437,57.10878414,-1,691,-0.147482052,0.051520064,-0.213063359
-0.541180191,2.501224995,-2.754263639,57.20878414,-1,692,-0.135295048,0.625306249,-0.68856591
1.025388184,-2.10229969,-0.466819078,57.30878415,-1,693,0.256347046,-0.525574923,-0.116704769
-0.657019196,0.977584004,-2.211289406,57.40878415,-1,694,-0.164254799,0.244396001,-0.552822351
-0.313928185,-0.676627874,-1.032609701,57.50878415,-1,695,-0.078482046,-0.169156969,-0.258152425
-1.282887039,0.600613952,-0.013478675,57.60878415,-1,696,-0.32072176,0.150153488,-0.003369669
-0.398453293,0.73156482,-0.762190402,57.70878415,-1,697,-0.099613323,0.182891205,-0.1905476
1.740793648,-0.775966346,2.671205521,57.80878415,-1,698,0.435198412,-0.193991587,0.66780138
-1.315046844,-0.515479505,-0.177803785,57.90878415,-1,699,-0.328761711,-0.128869876,-0.044450946
0.213550987,0.235746965,-1.952107668,58.00878416,-1,700,0.053387747,0.058936741,-0.488026917
-0.49789196,-0.721987605,-0.176102221,58.10878416,-1,701,-0.12447299,-0.180496901,-0.044025555
0.252166214,-1.883524656,0.006885894,58.20878416,-1,702,0.063041553,-0.470881164,0.001721473
1.631363335,-0.586079001,1.09425509,58.30878416,1,703,0.407840834,-0.14651975,0.273563772
2.166469994,0.477365047,1.136072278,58.40878416,1,704,0.541617498,0.119341262,0.28401807
0.513280334,-0.733939707,1.332799315,58.50878416,1,705,0.128320084,-0.183484927,0.333199829
-0.586538849,1.572836995,-0.746252477,58.60878417,1,706,-0.146634712,0.393209249,-0.186563119
-1.134918747,1.816383123,-0.383581936,58.70878417,1,707,-0.283729687,0.454095781,-0.095895484
-0.255396423,3.146027327,-0.442175806,58.80878417,1,708,-0.063849106,0.786506832,-0.110543951
-1.428116379,4.025519848,-1.065070033,58.90878417,1,709,-0.357029095,1.006379962,-0.266267508
-1.282276688,1.368888617,-0.098752335,59.00878417,1,710,-0.320569172,0.342222154,-0.024688084
-0.690088806,2.023859024,0.438395232,59.10878417,1,711,-0.172522202,0.505964756,0.109598808
-0.238736687,7.143025398,-0.064209491,59.20878417,1,712,-0.059684172,1.78575635,-0.016052373
0.330443802,6.948802948,1.518302917,59.30878418,1,713,0.08261095,1.737200737,0.379575729
0.517197075,6.659090519,-0.111020446,59.40878418,1,714,0.129299269,1.66477263,-0.027755111
0.049873772,8.465465546,0.227571592,59.50878418,1,715,0.012468443,2.116366386,0.056892898
-2.167215881,7.497086525,0.108140066,59.60878418,1,716,-0.54180397,1.874271631,0.027035017
0.484931412,7.523130894,0.900357366,59.70878418,1,717,0.121232853,1.880782723,0.225089341
1.111895027,10.03080463,-1.025444269,59.80878418,1,718,0.277973757,2.507701159,-0.256361067
1.536224785,8.353173256,0.018445373,59.90878418,1,719,0.384056196,2.088293314,0.004611343
-0.179620323,11.42739391,1.54567337,60.00878419,1,720,-0.044905081,2.856848478,0.386418343
-2.814202843,11.30683517,2.603848934,60.10878419,1,721,-0.703550711,2.826708794,0.650962234
2.239909592,8.002271652,3.737890005,60.20878419,1,722,0.559977398,2.000567913,0.934472501
-0.309471664,9.506857872,1.87391305,60.30878419,1,723,-0.077367916,2.376714468,0.468478262
0.182681503,9.865949631,-2.412537813,60.40878419,1,724,0.045670376,2.466487408,-0.603134453
-2.251369057,12.378232,0.011654794,60.50878419,1,725,-0.562842264,3.094558001,0.002913699
-0.147497711,7.839560509,1.4807868,60.6087842,1,726,-0.036874428,1.959890127,0.3701967
-2.670718727,3.827123642,0.16016674,60.7087842,1,727,-0.667679682,0.95678091,0.040041685
0.251528206,0.198266506,-0.942035437,60.8087842,1,728,0.062882051,0.049566627,-0.235508859
-0.110847054,-0.058868676,0.549175143,60.9087842,1,729,-0.027711763,-0.014717169,0.137293786
-0.056815681,2.004045725,2.234733105,61.0087842,-1,730,-0.01420392,0.501011431,0.558683276
-0.368119774,-1.065253735,-1.851287603,61.1087842,-1,731,-0.092029943,-0.266313434,-0.462821901
1.456183853,0.037478827,-0.26300469,61.2087842,-1,732,0.364045963,0.009369707,-0.065751173
-0.246098099,1.467726469,0.570702732,61.30878421,-1,733,-0.061524525,0.366931617,0.142675683
0.915400925,-0.168888539,1.629325151,61.40878421,-1,734,0.228850231,-0.042222135,0.407331288
2.555184784,0.505820751,0.316690147,61.50878421,-1,735,0.638796196,0.126455188,0.079172537
-0.63946682,0.695266128,-1.218593717,61.60878421,-1,736,-0.159866705,0.173816532,-0.304648429
-0.058623848,0.163727462,-0.695040047,61.70878421,-1,737,-0.014655962,0.040931866,-0.173760012
0.436499062,-0.822835326,0.037906747,61.80878421,-1,738,0.109124765,-0.205708832,0.009476687
-0.812056122,-1.218597174,0.442486644,61.90878421,-1,739,-0.20301403,-0.304649293,0.110621661
1.128235283,0.366064012,-1.510035992,62.00878422,-1,740,0.282058821,0.091516003,-0.377508998
0.027485313,0.549166203,0.095010683,62.10878422,-1,741,0.006871328,0.137291551,0.023752671
-1.283750114,-0.557631373,-0.716575563,62.20878422,-1,742,-0.320937529,-0.139407843,-0.179143891
-2.453783569,-0.420353025,-1.065013766,62.30878422,-1,743,-0.613445892,-0.105088256,-0.266253442
1.685465279,1.122685432,1.281948209,62.40878422,-1,744,0.42136632,0.280671358,0.320487052
-1.290715752,0.86936754,-0.703971982,62.50878422,-1,745,-0.322678938,0.217341885,-0.175992996
0.792352142,2.486684322,1.262402296,62.60878422,-1,746,0.198088036,0.621671081,0.315600574
-0.353627739,0.536288023,1.875014901,62.70878423,-1,747,-0.088406935,0.134072006,0.468753725
-0.65219265,-0.125469431,2.115621567,62.80878423,-1,748,-0.163048162,-0.031367358,0.528905392
