-3.5603552
-0.75091106
-2.1998706
-1.8522213
-0.19954914
-1.6579359
-1.6067376
0.27470088
-2.4505997
-0.66712415
0.12769192
-2.2273934
0.2890135
0.6138841
0.118290305
1.3438771
-1.2906208
-0.23041272
1.4285154
-0.28296328
2.3086658
0.91938084
-0.073051035
2.443252
-0.07319176
1.4651234
5.0898585
-1.4823316
2.4249284
2.6629195
1.3574226
2.2493234
2.451081
1.4484751
3.7915878
1.0853918
3.3060598
3.903368
3.3952577
2.5234818
3.3057208
4.47884
2.0887976
2.9716878
3.360674
5.5630255
1.9699336
3.415648
4.330819
2.0928037
2.1979935
4.7689486
2.020506
4.328754
4.328237
1.160638
3.3086963
2.5110602
1.3603299
2.5023177
2.9958673
1.3552978
2.9597285
2.2623801
1.6538025
2.661572
1.5759583
1.5214612
2.3529792
2.2818809
1.736865
2.6722794
1.8623934
-0.31286
0.34638506
2.3202753
-0.9464619
0.9263709
0.81610227
-0.10807526
1.004382
0.45650446
-0.13167968
0.23731351
0.2829413
-1.6408325
0.051552057
0.9650874
-1.2195696
-1.2819165
-0.23467678
-1.7117139
-2.2414246
-1.5517039
-1.7263188
-1.3105052
-2.1034575
-2.454176
-1.6099893
-1.7782005
-1.9390143
-1.2971348
-3.0047584
-0.859524
