-4.299586
-1.6219852
-1.863452
-2.8568273
-3.6290035
-1.9650207
-3.9268942
-0.95108783
-4.403517
-3.442255
-1.9574571
-3.719058
-3.611568
-3.0760329
-3.996623
-4.5297513
-5.094227
-4.107765
-3.8604565
-7.1006536
-2.0170715
-5.4051824
-4.555563
-2.9384503
-3.4812093
-5.605995
-0.7065704
-4.7964063
-3.6565957
-1.2488678
-5.390775
-2.12647
-3.029986
-3.7909164
-3.1794882
-3.1803555
-4.2242093
-2.1002543
-3.7169583
-2.9601734
-3.1677768
-4.3914237
-2.2460632
-4.3408833
-5.584142
-2.6742072
-3.3380125
-5.183506
-0.66564953
-4.1709824
-5.0773563
-2.090756
-4.5346785
-5.1113796
-1.6386802
-5.423697
-2.6220927
-3.7954924
-5.1156254
-3.2431839
-2.8915505
-3.5659873
-3.3413644
-4.8535566
-2.1268034
-4.2870646
-4.814088
-2.3186953
-4.3793592
-4.938288
-2.4750133
-3.184121
-4.331234
-2.5552344
-3.7137523
-2.8350635
-5.16481
-3.2982318
-2.8329465
-3.1957388
-3.775536
-3.2749524
-2.6808438
-2.627469
-2.857205
-2.8870819
-3.0005856
-2.4731586
-2.5950727
-2.3642595
-4.019664
-2.5280535
-3.1169937
-2.2538257
-2.37735
-2.5909822
-4.081082
-3.3262422
-2.5164857
-2.887129
-3.0274127
-2.474617
-3.5366793
-2.6240423
-2.803289
-3.0807486
-1.8674521
-3.2165523
-2.542922
-2.9622252
-2.3557026
-3.3920364
-1.7489705
-3.072628
-1.2730167
-3.8459525
-2.2197275
-3.128232
-0.9972712
-3.2818794
-0.8745632
-2.9305465
-1.8212149
-2.9184759
-1.269136
-2.750331
-1.7401111
-2.3622103
-1.7923326
-2.4993281
-2.3870442
-2.1810186
-2.4194765
-1.5792872
-2.3118868
-1.718898
-2.2268424
-2.1447146
-2.0182455
-1.801712
-2.0733762
-1.6324861
-1.3395247
-1.4285419
-1.3833987
-1.2035649
-0.80408573
-0.64076996
-1.0311676
0.06103897
-0.8984021
0.0072710514
-0.5967279
0.15115869
-0.43357903
-0.01742065
0.032108665
-0.23157609
0.5876507
0.7009257
0.91839015
0.78084064
0.85227114
1.3105314
0.8718921
1.559948
0.96446866
1.2342027
0.7907416
1.4366242
