"CSVFiles/KFoldStratified13LAGCombinedData05.21.2021, 00.29.24/Run_3"
Accuracy,0.9359223300970874
Weighted Precision Score,0.9358621257280094
Weighted Recall Score,0.9359223300970874
Weighted F1 Score,0.9347720527208576
-------------------------------
Distribution of Train Events
Non Aggressive Event,Aggressive Right Turn,Aggressive Left Turn,Aggressive Acceleration,Aggressive Braking,Aggressive Left Lane Change,Aggressive Right Lane Change
593,275,424,1440,996,164,231
Distribution of Test Events
Non Aggressive Event,Aggressive Right Turn,Aggressive Left Turn,Aggressive Acceleration,Aggressive Braking,Aggressive Left Lane Change,Aggressive Right Lane Change
148,69,106,361,249,40,57
Confusion Matrix
,,,,Predicated Class
,,Non Aggressive Event,Aggressive Right Turn,Aggressive Left Turn,Aggressive Acceleration,Aggressive Braking,Aggressive Left Lane Change,Aggressive Right Lane Change
,Non Aggressive Event,140,1,0,2,3,0,2
,Aggressive Right Turn,0,64,2,0,1,0,2
,Aggressive Left Turn,0,0,104,0,2,0,0
,Aggressive Acceleration,3,1,0,348,5,2,2
Actual Class,Aggressive Braking,2,1,0,5,239,0,2
,Aggressive Left Lane Change,4,0,2,0,5,29,0
,Aggressive Right Lane Change,8,1,0,1,7,0,40

----------------------------
Multi Label Confusion Matrix
Non Aggressive Event
,Predicated Class
865,17
8,140
Actual Class

Aggressive Right Turn
,Predicated Class
957,4
5,64
Actual Class

Aggressive Left Turn
,Predicated Class
920,4
2,104
Actual Class

Aggressive Acceleration
,Predicated Class
661,8
13,348
Actual Class

Aggressive Braking
,Predicated Class
758,23
10,239
Actual Class

Aggressive Left Lane Change
,Predicated Class
988,2
11,29
Actual Class

Aggressive Right Lane Change
,Predicated Class
965,8
17,40
Actual Class


----------------------------
