x,y,z,Event Time,Event Type,Frame,x_modified,y_modified,z_modified
-0.364281235,1.083307862,-1.951176524,345.4701903,-1,35822,-0.091070309,0.270826966,-0.487794131
-2.113911686,-0.476588905,2.00414896,345.5701903,-1,35823,-0.528477921,-0.119147226,0.50103724
0.30785984,1.540720224,-1.057925582,345.6701903,-1,35824,0.07696496,0.385180056,-0.264481395
0.246798935,-1.341152072,-2.399703026,345.7701903,-1,35825,0.061699734,-0.335288018,-0.599925756
-0.033468781,-0.89950794,1.441022635,345.8701903,-1,35826,-0.008367195,-0.224876985,0.360255659
0.075663033,-0.956246078,0.321734607,345.9701903,-1,35827,0.018915758,-0.23906152,0.080433652
0.575818481,-1.713100553,-0.046517659,346.0701903,-1,35828,0.14395462,-0.428275138,-0.011629415
-0.160527763,0.720703959,1.295651317,346.1701903,-1,35829,-0.040131941,0.18017599,0.323912829
-1.817668495,3.831258297,-0.5692693,346.2701903,-1,35830,-0.454417124,0.957814574,-0.142317325
-1.073783455,-2.756452322,-1.244989157,346.3701903,-1,35831,-0.268445864,-0.689113081,-0.311247289
1.60594696,0.087744981,99.9,346.5701903,-1,35833,0.40148674,0.021936245,24.975
0.284899178,0.913695157,3.622549057,346.6701903,-1,35834,0.071224794,0.228423789,0.905637264
0.481322708,1.910446763,1.254223228,346.7701903,-1,35835,0.120330677,0.477611691,0.313555807
1.258853378,-0.507328093,1.62494874,346.8701903,-1,35836,0.314713345,-0.126832023,0.406237185
-0.99351078,-1.209701061,0.96746099,346.9701903,-1,35837,-0.248377695,-0.302425265,0.241865247
-1.801085052,0.009599392,-0.810344756,347.0701903,-1,35838,-0.450271263,0.002399848,-0.202586189
1.122826042,0.537632227,-1.32501936,347.1701903,-1,35839,0.280706511,0.134408057,-0.33125484
2.291511002,0.662798703,-2.991594553,347.2701903,-1,35840,0.57287775,0.165699676,-0.747898638
2.886696281,-1.042654872,-0.783283532,347.3701903,-1,35841,0.72167407,-0.260663718,-0.195820883
0.268999519,1.072068214,0.900236428,347.4701903,-1,35842,0.06724988,0.268017054,0.225059107
2.06724781,0.410535872,-0.648883462,347.5701903,-1,35843,0.516811953,0.102633968,-0.162220865
2.007202568,0.554361224,0.506842673,347.6701903,-1,35844,0.501800642,0.138590306,0.126710668
-0.250441132,-0.461463422,-1.532560706,347.7701903,-1,35845,-0.062610283,-0.115365855,-0.383140177
0.202142181,-0.431279927,1.308507681,347.8701903,-1,35846,0.050535545,-0.107819982,0.32712692
0.585662308,0.383066535,-0.412412673,347.9701903,-1,35847,0.146415577,0.095766634,-0.103103168
0.45690197,0.3475115,0.240352124,348.0701903,0,35848,0.114225492,0.086877875,0.060088031
0.206657829,0.755901873,-0.86201489,348.1701903,0,35849,0.051664457,0.188975468,-0.215503722
0.404126587,-0.782910943,-1.515243769,348.2701903,0,35850,0.101031647,-0.195727736,-0.378810942
-0.834313927,0.770298421,-1.716599226,348.3701903,0,35851,-0.208578482,0.192574605,-0.429149806
0.583397331,-1.015751958,0.052075829,348.4701903,0,35852,0.145849333,-0.253937989,0.013018957
0.029540482,-1.786304832,0.010949126,348.5701903,0,35853,0.00738512,-0.446576208,0.002737281
-0.384753761,-1.409250498,0.986911952,348.6701903,0,35854,-0.09618844,-0.352312624,0.246727988
0.105153503,0.74406296,1.030510545,348.7701903,0,35855,0.026288376,0.18601574,0.257627636
0.016872826,0.265362769,-0.680205584,348.8701903,0,35856,0.004218206,0.066340692,-0.170051396
-2.28972393,0.424126714,-0.691435337,348.9701903,0,35857,-0.572430983,0.106031679,-0.172858834
-0.22834259,-1.40865314,-1.32685864,349.0701903,0,35858,-0.057085648,-0.352163285,-0.33171466
-0.931235847,1.376427889,0.750853896,349.1701903,0,35859,-0.232808962,0.344106972,0.187713474
0.818516197,0.730601847,-2.355432749,349.2701903,0,35860,0.204629049,0.182650462,-0.588858187
1.280800285,-2.548005342,-0.130867884,349.3701903,0,35861,0.320200071,-0.637001336,-0.032716971
0.36282486,2.706214905,-0.810993671,349.4701903,0,35862,0.090706215,0.676553726,-0.202748418
-3.951442776,1.5856812,-2.514913797,349.5701903,0,35863,-0.987860694,0.3964203,-0.628728449
-0.357036171,-1.28847146,0.361107141,349.6701903,0,35864,-0.089259043,-0.322117865,0.090276785
1.390529099,-1.592743993,-2.510166168,349.7701903,0,35865,0.347632275,-0.398185998,-0.627541542
-0.589779434,0.205996528,-0.852400899,349.8701903,0,35866,-0.147444859,0.051499132,-0.213100225
-0.541401443,2.501232386,-2.755034924,349.9701903,0,35867,-0.135350361,0.625308096,-0.688758731
1.025525513,-2.102467299,-0.466342807,350.0701903,0,35868,0.256381378,-0.525616825,-0.116585702
-0.656969604,0.977582157,-2.211435795,350.1701903,0,35869,-0.164242401,0.244395539,-0.552858949
-0.31260067,-0.675357044,-1.033902049,350.2701903,0,35870,-0.078150167,-0.168839261,-0.258475512
-1.280328331,0.607505023,0.102645978,350.3701903,0,35871,-0.320082083,0.151876256,0.025661495
-0.396386681,0.771992862,-0.877680659,350.4701903,0,35872,-0.09909667,0.192998216,-0.219420165
1.749808731,-0.731701612,2.690195084,350.5701903,0,35873,0.437452183,-0.182925403,0.672548771
-1.312708435,-0.532963395,-0.210497722,350.6701903,0,35874,-0.328177109,-0.133240849,-0.052624431
0.182639542,0.250158012,-1.936139345,350.7701903,0,35875,0.045659885,0.062539503,-0.484034836
-0.480746803,-0.575261116,-0.168320164,350.8701903,0,35876,-0.120186701,-0.143815279,-0.042080041
0.254863205,-2.205475569,0.044569038,350.9701903,0,35877,0.063715801,-0.551368892,0.011142259
1.63996357,-0.656517744,1.050040364,351.0701903,-1,35878,0.409990892,-0.164129436,0.262510091
2.153946342,0.463650227,1.133003235,351.1701903,-1,35879,0.538486586,0.115912557,0.283250809
0.506409111,-0.739610374,1.340743184,351.2701903,-1,35880,0.126602278,-0.184902593,0.335185796
-0.588957367,1.570072532,-0.748198509,351.3701903,-1,35881,-0.147239342,0.392518133,-0.187049627
-1.137388763,-0.640172243,-0.217245221,351.4701903,-1,35882,-0.284347191,-0.160043061,-0.054311305
-0.239697037,0.445363879,-0.454955041,351.5701904,-1,35883,-0.059924259,0.11134097,-0.11373876
-1.387646255,0.623908639,-1.136157751,351.6701904,-1,35884,-0.346911564,0.15597716,-0.284039438
-1.23455101,-2.221946239,-0.165109932,351.7701904,-1,35885,-0.308637753,-0.55548656,-0.041277483
-0.638937531,-1.607218862,0.365503103,351.8701904,-1,35886,-0.159734383,-0.401804715,0.091375776
-0.155755577,1.482911706,0.209045216,351.9701904,-1,35887,-0.038938894,0.370727926,0.052261304
0.454134407,1.024388313,1.409805775,352.0701904,-1,35888,0.113533602,0.256097078,0.352451444
0.678700867,-0.043352582,-0.392257094,352.1701904,-1,35889,0.169675217,-0.010838145,-0.098064274
0.224202576,1.50817728,-0.068544984,352.2701904,-1,35890,0.056050644,0.37704432,-0.017136246
-1.985261497,0.476337671,-0.193336546,352.3701904,-1,35891,-0.496315374,0.119084418,-0.048334137
0.66996521,0.478654206,0.598139584,352.4701904,-1,35892,0.167491302,0.119663551,0.149534896
1.353640022,1.371149898,-0.808163404,352.5701904,-1,35893,0.338410006,0.342787474,-0.202040851
1.816542091,-0.434706062,-0.343689352,352.6701904,-1,35894,0.454135523,-0.108676516,-0.085922338
0.153778496,1.786000729,0.908087015,352.7701904,-1,35895,0.038444624,0.446500182,0.227021754
-2.459809837,1.334617734,1.937120557,352.8701904,-1,35896,-0.614952459,0.333654433,0.484280139
2.604898872,-2.063796282,3.052783251,352.9701904,-1,35897,0.651224718,-0.51594907,0.763195813
0.061063232,-0.598681569,1.188412666,353.0701904,-1,35898,0.015265808,-0.149670392,0.297103167
0.615795555,-1.45761168,-2.479824305,353.1701904,-1,35899,0.153948889,-0.36440292,-0.619956076
-1.782019196,1.024768472,-0.707905531,353.2701904,-1,35900,-0.445504799,0.256192118,-0.176976383
0.133324089,0.607907295,-0.753766298,353.3701904,-1,35901,0.033331022,0.151976824,-0.188441575
-2.56188446,-0.200388417,-0.670576394,353.4701904,-1,35902,-0.640471115,-0.050097104,-0.167644098
0.235205116,-1.132391095,-0.975359619,353.5701904,-1,35903,0.058801279,-0.283097774,-0.243839905
-0.128798065,-0.306860238,0.553771257,353.6701904,-1,35904,-0.032199516,-0.07671506,0.138442814
-0.066047249,1.911281943,2.240593672,353.7701904,-1,35905,-0.016511812,0.477820486,0.560148418
-0.372125206,-1.116554499,-1.849043489,353.8701904,-1,35906,-0.093031301,-0.279138625,-0.462260872
1.455276909,0.004730511,-0.26236701,353.9701904,-1,35907,0.363819227,0.001182628,-0.065591753
-0.24552494,1.453856468,0.573627949,354.0701904,-1,35908,-0.061381235,0.363464117,0.143406987
0.916519585,-0.179261401,1.628079176,354.1701904,-1,35909,0.229129896,-0.04481535,0.407019794
2.556479874,0.500213444,0.31772387,354.2701904,-1,35910,0.639119968,0.125053361,0.079430968
-0.638410149,0.69350642,-1.219010115,354.3701904,-1,35911,-0.159602537,0.173376605,-0.304752529
-0.057704506,0.157514021,-0.69609952,354.4701904,-1,35912,-0.014426126,0.039378505,-0.17402488
0.437418404,-0.821008027,0.039171696,354.5701904,-1,35913,0.109354601,-0.205252007,0.009792924
-0.811480103,-1.218943834,0.440789044,354.6701904,-1,35914,-0.202870026,-0.304735959,0.110197261
1.128811302,0.363038123,-1.508772373,354.7701904,-1,35915,0.282202826,0.090759531,-0.377193093
0.027958336,0.551564276,0.093460038,354.8701904,-1,35916,0.006989584,0.137891069,0.02336501
-1.283452568,-0.560213208,-0.715307117,354.9701904,-1,35917,-0.320863142,-0.140053302,-0.178826779
-2.453558502,-0.418212414,-1.065324545,355.0701904,-1,35918,-0.613389626,-0.104553103,-0.266331136
1.685663643,1.120183468,1.280711651,355.1701904,-1,35919,0.421415911,0.280045867,0.320177913
-1.290570793,0.871739149,-0.703029335,355.2701904,-1,35920,-0.322642698,0.217934787,-0.175757334
0.792474213,2.483947992,1.261162162,355.3701904,-1,35921,0.198118553,0.620986998,0.31529054
-0.353520927,0.538680553,1.875957489,355.4701904,-1,35922,-0.088380232,0.134670138,0.468989372
-0.652230797,-0.127932087,2.116253376,355.5701904,-1,35923,-0.163057699,-0.031983022,0.529063344
-1.119094429,-0.036005583,0.302120209,355.6701904,-1,35924,-0.279773607,-0.009001396,0.075530052
-0.057084618,-0.442484498,1.250067592,355.7701904,-1,35925,-0.014271154,-0.110621125,0.312516898
-1.571354446,0.548041523,-1.248094201,355.8701904,-1,35926,-0.392838612,0.137010381,-0.31202355
1.494023743,-1.52987957,-0.451630235,355.9701904,-1,35927,0.373505936,-0.382469893,-0.112907559
0.369558754,0.44569087,-1.389449835,356.0701904,-1,35928,0.092389688,0.111422718,-0.347362459
-0.236379204,-1.529625893,1.410620213,356.1701904,-1,35929,-0.059094801,-0.382406473,0.352655053
0.671870651,0.800604522,1.532434702,356.2701904,-1,35930,0.167967663,0.200151131,0.383108675
-1.011192856,-0.115111507,-3.270578384,356.3701904,-1,35931,-0.252798214,-0.028777877,-0.817644596
2.278028908,-1.98660779,-1.585796475,356.4701904,-1,35932,0.569507227,-0.496651947,-0.396449119
-0.494230804,-1.901133537,-0.203894183,356.5701904,-1,35933,-0.123557701,-0.475283384,-0.050973546
-1.277430115,-0.5124861,-0.961306334,356.6701904,-1,35934,-0.319357529,-0.128121525,-0.240326583
0.447602692,2.160343409,-0.713971794,356.7701904,-1,35935,0.111900673,0.540085852,-0.178492948
-2.589513359,1.591075659,-2.438053846,356.8701904,-1,35936,-0.64737834,0.397768915,-0.609513462
0.310615959,-0.920843959,0.491383314,356.9701904,-1,35937,0.07765399,-0.23021099,0.122845829
0.914775314,-0.731526971,1.285860419,357.0701904,-1,35938,0.228693829,-0.182881743,0.321465105
0.870892944,1.141117096,3.727457285,357.1701904,-1,35939,0.217723236,0.285279274,0.931864321
-2.443748531,0.063596852,2.318398952,357.2701904,-1,35940,-0.610937133,0.015899213,0.579599738
-1.983549652,2.545024395,2.86127758,357.3701904,-1,35941,-0.495887413,0.636256099,0.715319395
0.223772469,2.057469368,-0.093958743,357.4701904,-1,35942,0.055943117,0.514367342,-0.023489686
0.531445923,0.494538903,2.595015049,357.5701904,-1,35943,0.132861481,0.123634726,0.648753762
1.598178329,-0.365770817,-1.559753776,357.6701904,-1,35944,0.399544582,-0.091442704,-0.389938444
-0.766158638,-1.824874759,-0.926191092,357.7701904,-1,35945,-0.19153966,-0.45621869,-0.231547773
2.572935524,1.051363111,1.123507023,357.8701904,-1,35946,0.643233881,0.262840778,0.280876756
-3.447071609,-0.435926437,-2.447558641,357.9701904,-1,35947,-0.861767902,-0.108981609,-0.61188966
-0.306832848,-1.10794127,0.71423465,358.0701904,-1,35948,-0.076708212,-0.276985317,0.178558663
-1.088782845,1.33939743,0.485125661,358.1701904,-1,35949,-0.272195711,0.334849358,0.121281415
-0.883182106,0.303124785,-1.296006083,358.2701905,-1,35950,-0.220795527,0.075781196,-0.324001521
0.756806793,1.107000232,-1.33241725,358.3701905,-1,35951,0.189201698,0.276750058,-0.333104312
-0.173507271,-0.424589783,-2.756608963,358.4701905,-1,35952,-0.043376818,-0.106147446,-0.689152241
2.021801414,-0.099920809,-1.026853919,358.5701905,-1,35953,0.505450354,-0.024980202,-0.25671348
-0.558351097,-0.215397075,-0.349725515,358.6701905,-1,35954,-0.139587774,-0.053849269,-0.087431379
0.072099152,2.05911541,-0.703417718,358.7701905,-1,35955,0.018024788,0.514778852,-0.17585443
1.528237762,0.059608158,-0.378063917,358.8701905,-1,35956,0.382059441,0.014902039,-0.094515979
0.69249958,-1.258671761,-0.019381249,358.9701905,-1,35957,0.173124895,-0.31466794,-0.004845312
-2.666435776,-0.619006217,-0.664384186,359.0701905,-1,35958,-0.666608944,-0.154751554,-0.166096047
-0.327559052,0.72468847,-0.833354175,359.1701905,-1,35959,-0.081889763,0.181172118,-0.208338544
1.122207108,-0.13751018,0.453630239,359.2701905,-1,35960,0.280551777,-0.034377545,0.11340756
1.765160027,-0.172092497,-0.917388201,359.3701905,-1,35961,0.441290007,-0.043023124,-0.22934705
-0.282602844,-0.836392462,1.155525327,359.4701905,-1,35962,-0.070650711,-0.209098116,0.288881332
-1.662199554,-0.644286811,-1.245512962,359.5701905,-1,35963,-0.415549889,-0.161071703,-0.311378241
-1.937449989,-2.720244169,3.438138962,359.6701905,-1,35964,-0.484362497,-0.680061042,0.85953474
0.583113136,-0.241197824,-0.091730975,359.7701905,-1,35965,0.145778284,-0.060299456,-0.022932744
0.327125969,1.231476426,2.026578903,359.8701905,-1,35966,0.081781492,0.307869107,0.506644726
0.916657867,1.327860117,0.341442078,359.9701905,-1,35967,0.229164467,0.331965029,0.08536052
1.749412003,-1.931639433,-0.518782139,360.0701905,-1,35968,0.437353001,-0.482909858,-0.129695535
1.012477341,0.508188009,-0.681982219,360.1701905,-1,35969,0.253119335,0.127047002,-0.170495555
0.361857834,-2.332266331,1.238591552,360.2701905,-1,35970,0.090464458,-0.583066583,0.309647888
0.794100227,0.33296904,-0.830559731,360.3701905,-1,35971,0.198525057,0.08324226,-0.207639933
-2.665566025,0.903312027,-0.873948336,360.4701905,-1,35972,-0.666391506,0.225828007,-0.218487084
-0.334144173,-1.138283849,-0.711824596,360.5701905,-1,35973,-0.083536043,-0.284570962,-0.177956149
-1.460149345,-2.347032547,0.979363084,360.6701905,-1,35974,-0.365037336,-0.586758137,0.244840771
-0.397574959,1.289277196,-0.197002426,360.7701905,-1,35975,-0.09939374,0.322319299,-0.049250606
2.448390427,-0.145930305,0.816384852,360.8701905,-1,35976,0.612097607,-0.036482576,0.204096213
-1.552588043,0.657587647,0.345159948,360.9701905,-1,35977,-0.388147011,0.164396912,0.086289987
-0.691122589,3.101200104,1.572297573,361.0701905,-1,35978,-0.172780647,0.775300026,0.393074393
-0.05358654,-0.038503952,0.065532222,361.1701905,-1,35979,-0.013396635,-0.009625988,0.016383056
1.220890465,0.313437849,2.232179165,361.2701905,-1,35980,0.305222616,0.078359462,0.558044791
-0.921772537,1.069949031,-0.807902575,361.3701905,-1,35981,-0.230443134,0.267487258,-0.201975644
0.721713486,-0.681005299,1.005001903,361.4701905,-1,35982,0.180428371,-0.170251325,0.251250476
0.742609444,-1.195311069,-1.408089042,361.5701905,-1,35983,0.185652361,-0.298827767,-0.35202226
0.25624794,-2.675242662,0.022088114,361.6701905,-1,35984,0.064061985,-0.668810666,0.005522029
2.877097549,2.368368149,-0.028879585,361.7701905,-1,35985,0.719274387,0.592092037,-0.007219896
-0.068685112,0.992604852,2.435476065,361.8701905,-1,35986,-0.017171278,0.248151213,0.608869016
1.306756439,1.071404576,-0.980924487,361.9701905,-1,35987,0.32668911,0.267851144,-0.245231122
0.6338591,0.715990961,0.682645798,362.0701905,-1,35988,0.158464775,0.17899774,0.170661449
0.305054131,0.554696083,0.885224402,362.1701905,-1,35989,0.076263533,0.138674021,0.2213061
1.042643013,-0.990775824,-1.201992035,362.2701905,-1,35990,0.260660753,-0.247693956,-0.300498009
0.143255653,0.596831977,-2.065150499,362.3701905,-1,35991,0.035813913,0.149207994,-0.516287625
-0.748714027,1.315357208,-0.015520648,362.4701905,-1,35992,-0.187178507,0.328839302,-0.003880162
2.060666504,1.519254327,1.108982801,362.5701905,-1,35993,0.515166626,0.379813582,0.2772457
-0.563911018,-2.632769585,-0.734942019,362.6701905,-1,35994,-0.140977755,-0.658192396,-0.183735505
1.595823708,2.03975153,-3.106888056,362.7701905,-1,35995,0.398955927,0.509937882,-0.776722014
-4.976282177,1.281500697,5.41577816,362.8701905,-1,35996,-1.244070544,0.320375174,1.35394454
0.334104004,0.948255241,0.179824889,362.9701905,-1,35997,0.083526001,0.23706381,0.044956222
-3.093541679,1.492404461,-2.493805408,363.0701905,-1,35998,-0.77338542,0.373101115,-0.623451352
