"CSVFiles/KFoldStratified10LAGCarlaData05.31.2021, 11.24.11/Run_2"
Accuracy,0.9548387096774194
Weighted Precision Score,0.9559133080490145
Weighted Recall Score,0.9548387096774194
Weighted F1 Score,0.9550120240137432
-------------------------------
Distribution of Train Events
Non Aggressive Event,Aggressive Right Turn,Aggressive Left Turn,Aggressive Acceleration,Aggressive Braking,Aggressive Left Lane Change,Aggressive Right Lane Change
296,226,226,259,142,38,52
Distribution of Test Events
Non Aggressive Event,Aggressive Right Turn,Aggressive Left Turn,Aggressive Acceleration,Aggressive Braking,Aggressive Left Lane Change,Aggressive Right Lane Change
74,57,56,64,36,10,13
Confusion Matrix
,,,,Predicated Class
,,Non Aggressive Event,Aggressive Right Turn,Aggressive Left Turn,Aggressive Acceleration,Aggressive Braking,Aggressive Left Lane Change,Aggressive Right Lane Change
,Non Aggressive Event,70,1,0,3,0,0,0
,Aggressive Right Turn,0,57,0,0,0,0,0
,Aggressive Left Turn,1,0,54,0,1,0,0
,Aggressive Acceleration,4,0,0,60,0,0,0
Actual Class,Aggressive Braking,2,0,0,0,34,0,0
,Aggressive Left Lane Change,1,0,0,0,0,9,0
,Aggressive Right Lane Change,0,0,1,0,0,0,12

----------------------------
Multi Label Confusion Matrix
Non Aggressive Event
,Predicated Class
228,8
4,70
Actual Class

Aggressive Right Turn
,Predicated Class
252,1
0,57
Actual Class

Aggressive Left Turn
,Predicated Class
253,1
2,54
Actual Class

Aggressive Acceleration
,Predicated Class
243,3
4,60
Actual Class

Aggressive Braking
,Predicated Class
273,1
2,34
Actual Class

Aggressive Left Lane Change
,Predicated Class
300,0
1,9
Actual Class

Aggressive Right Lane Change
,Predicated Class
297,0
1,12
Actual Class


----------------------------
