1.2089885
-0.26119557
0.8422791
0.12928575
0.03549415
0.009952009
0.20249522
1.6061218
0.45731604
0.55782306
-0.67689633
-0.36379415
0.2983675
-1.6083207
-3.1887698
1.1345166
-3.1965425
0.175403
-0.4957523
-0.3885759
-0.29383504
2.587101
-1.8487722
-0.36432123
-0.07288718
-1.0782694
-0.38907993
-0.642228
-2.1303484
-1.0800295
-1.3640997
-3.5942488
-2.4870815
-2.256975
-1.953939
-1.1791337
-0.63981354
-2.5855818
-3.0765836
-2.8529677
-5.8171625
-6.785556
-4.58478
-4.9505105
-8.440963
-6.435918
-3.1234503
-5.969094
-5.8336663
-2.7432926
-5.4928846
-5.4527597
-4.138952
-5.6300716
-2.754097
-6.3295646
-5.417942
-4.591054
-5.974445
-5.116023
-4.1295567
-4.087466
-1.1304697
-3.2496684
-0.79620963
-0.08910179
-2.286405
0.7279078
1.137976
-1.0083275
2.2638683
0.2635178
0.135719
3.3768573
0.28537726
3.0595996
3.3097029
0.00053957105
4.3372264
1.1684308
-0.6114378
5.2941465
3.7549176
-0.19986385
5.5312176
1.7244883
2.9045868
4.407367
1.9061606
2.6929438
3.9524245
3.3176978
3.8809006
4.541744
3.8966417
3.2515957
3.8103623
4.8056064
3.2549248
4.9499807
4.9714875
3.9414322
3.0822644
5.14277
1.86608
3.417091
3.9599886
2.2574208
3.3914022
2.2150693
0.10810506
1.7516733
2.8658261
-0.50793326
0.28041315
0.5680649
-2.175233
0.4163481
-0.8815834
-1.9850471
0.21744311
-1.2319212
-2.7457047
-0.88117963
-0.36794716
-1.906937
0.06887697
-1.0229903
-0.16055912
-0.09333843
