1.601361
-1.0338056
-0.52088714
0.015469924
-1.4776555
1.2598552
-0.46097022
-2.1729782
0.26467425
1.9902742
-0.81815994
0.57686794
0.9119402
-0.08342803
0.11274949
2.0730665
0.11226064
1.0514733
0.5155107
-0.4514536
-0.31222335
0.9001724
-1.4226851
-0.89148635
-0.2750777
-1.4591265
-0.19594021
0.62386674
-2.553385
-1.1261561
0.15212548
-3.0102108
-1.85799
0.5947731
-1.4091564
-1.9455826
0.09883367
0.068026006
-0.52781856
-1.0566751
0.10774678
2.0882628
1.2735018
0.028794765
2.70154
4.7762504
0.38285235
-1.1875433
2.10898
0.528728
-0.16864109
1.6946576
-1.0669351
-1.0889018
2.1417098
-1.4108346
-1.8414114
-0.1419226
-0.55177045
-0.47580826
-0.89403313
-1.9049859
0.76313186
-1.4243956
-2.39333
0.63900423
-0.33913332
-2.6631896
0.48984978
-0.34952876
-1.8814592
-0.6224528
-1.3037248
-1.0704374
0.74785477
-0.4046887
-1.9762301
0.01962635
1.2909013
-1.0472775
-0.9102826
0.15485907
-0.5140331
-0.38262993
1.3027763
-0.806627
-1.1531186
1.0446465
0.07564215
-0.48711753
1.1096784
0.07447904
-0.8872393
0.892551
-0.20441185
-0.9329774
0.47889698
0.52735144
-0.72121984
0.8754308
0.66442096
-0.9873897
-0.8802576
1.6532025
-0.99045444
-0.57984984
0.40966335
-0.4492417
-0.64368355
0.7029314
-0.24746415
-0.34593672
-0.52218187
-0.81522197
0.8500175
1.0853803
-1.7647607
0.5892485
1.0528382
-0.572116
0.20747077
1.2193768
0.20113358
0.33106363
1.0010163
0.008837454
0.5339246
0.43888056
0.52179563
-0.4453512
