"CSVFiles/KFoldStratified10LAGDriverBehaviour05.21.2021, 00.29.35/Run_3"
Accuracy,0.9806451612903225
Weighted Precision Score,0.9812329428080261
Weighted Recall Score,0.9806451612903225
Weighted F1 Score,0.9805689083519936
-------------------------------
Distribution of Train Events
Non Aggressive Event,Aggressive Right Turn,Aggressive Left Turn,Aggressive Acceleration,Aggressive Braking,Aggressive Left Lane Change,Aggressive Right Lane Change
296,227,225,258,143,38,52
Distribution of Test Events
Non Aggressive Event,Aggressive Right Turn,Aggressive Left Turn,Aggressive Acceleration,Aggressive Braking,Aggressive Left Lane Change,Aggressive Right Lane Change
74,56,57,65,35,10,13
Confusion Matrix
,,,,Predicated Class
,,Non Aggressive Event,Aggressive Right Turn,Aggressive Left Turn,Aggressive Acceleration,Aggressive Braking,Aggressive Left Lane Change,Aggressive Right Lane Change
,Non Aggressive Event,73,0,0,1,0,0,0
,Aggressive Right Turn,0,56,0,0,0,0,0
,Aggressive Left Turn,0,2,55,0,0,0,0
,Aggressive Acceleration,0,0,0,65,0,0,0
Actual Class,Aggressive Braking,2,0,0,0,33,0,0
,Aggressive Left Lane Change,0,0,0,0,0,9,1
,Aggressive Right Lane Change,0,0,0,0,0,0,13

----------------------------
Multi Label Confusion Matrix
Non Aggressive Event
,Predicated Class
234,2
1,73
Actual Class

Aggressive Right Turn
,Predicated Class
252,2
0,56
Actual Class

Aggressive Left Turn
,Predicated Class
253,0
2,55
Actual Class

Aggressive Acceleration
,Predicated Class
244,1
0,65
Actual Class

Aggressive Braking
,Predicated Class
275,0
2,33
Actual Class

Aggressive Left Lane Change
,Predicated Class
300,0
1,9
Actual Class

Aggressive Right Lane Change
,Predicated Class
296,1
0,13
Actual Class


----------------------------
