-0.60968566
-0.19460213
-0.86266875
-0.3841219
-0.6469791
-0.87034714
0.58492035
0.3637671
-1.4509453
-0.13030902
1.4779633
-0.92508817
-1.5025824
1.1513209
0.8172188
-0.860915
0.41228476
0.7336513
-0.85108685
-0.1566469
1.1998171
-0.44814
-0.24681228
0.60377055
0.5028653
-0.7114744
-0.19015095
-0.3371311
-0.82278556
0.43173394
0.4856388
-1.0395426
-0.8356279
0.27106708
-0.6008341
-0.5219726
-0.9211398
-0.40256172
-0.4606231
-0.059313215
-0.11606288
0.74160767
0.059793234
-0.07593186
0.13674654
0.72157013
-0.2766208
-0.09962337
0.5070953
0.74528974
0.11615129
0.115449
0.6879347
0.0017859153
0.8028981
0.20957725
-0.32115918
-0.42745888
0.18430594
-0.007032439
-0.33945236
-1.4939672
0.29177555
0.27480665
-1.151568
-1.1057718
0.32963842
-0.73076904
-0.63881844
-0.16435555
0.09770729
0.10019062
-0.18657519
-0.22994491
0.12896587
0.24692842
-0.5823217
0.06596422
-0.16980577
1.1852593
0.33754468
0.23808679
0.22217363
0.66465044
0.8447408
0.85021627
0.23735707
0.0915705
1.2970316
0.6427835
0.7333731
1.2282377
1.0278184
1.3303944
2.7200782
1.1633073
1.192198
2.3907616
1.4829096
-1.1982014
0.976799
1.2157341
-0.6062984
0.49271894
1.1324484
-0.37387526
0.25446033
1.5534654
0.30135852
-0.098631814
0.05322957
-0.8715787
-0.4977155
1.2426612
0.29978275
-1.313136
-0.57424724
-0.41525355
-0.031186476
1.20029
-0.07835217
-0.6599129
0.71295345
1.209477
0.5365175
0.92514265
0.7964742
-0.060596064
-0.13987035
