"CSVFiles/KFoldStratified5LAGAcc10HzDataData05.31.2021, 18.45.07/Run_1"
Accuracy,0.7941952506596306
Weighted Precision Score,0.8133182843157922
Weighted Recall Score,0.7941952506596306
Weighted F1 Score,0.7874245188966804
-------------------------------
Distribution of Train Events
Non Aggressive Event,Aggressive Right Turn,Aggressive Left Turn,Aggressive Acceleration,Aggressive Braking,Aggressive Left Lane Change,Aggressive Right Lane Change
352,270,270,307,190,54,72
Distribution of Test Events
Non Aggressive Event,Aggressive Right Turn,Aggressive Left Turn,Aggressive Acceleration,Aggressive Braking,Aggressive Left Lane Change,Aggressive Right Lane Change
88,68,67,76,48,14,18
Confusion Matrix
,,,,Predicated Class
,,Non Aggressive Event,Aggressive Right Turn,Aggressive Left Turn,Aggressive Acceleration,Aggressive Braking,Aggressive Left Lane Change,Aggressive Right Lane Change
,Non Aggressive Event,47,1,1,38,1,0,0
,Aggressive Right Turn,0,63,3,0,2,0,0
,Aggressive Left Turn,1,3,60,1,1,0,1
,Aggressive Acceleration,5,2,0,69,0,0,0
Actual Class,Aggressive Braking,2,4,0,0,42,0,0
,Aggressive Left Lane Change,0,1,0,1,0,12,0
,Aggressive Right Lane Change,2,3,1,0,1,3,8

----------------------------
Multi Label Confusion Matrix
Non Aggressive Event
,Predicated Class
281,10
41,47
Actual Class

Aggressive Right Turn
,Predicated Class
297,14
5,63
Actual Class

Aggressive Left Turn
,Predicated Class
307,5
7,60
Actual Class

Aggressive Acceleration
,Predicated Class
263,40
7,69
Actual Class

Aggressive Braking
,Predicated Class
326,5
6,42
Actual Class

Aggressive Left Lane Change
,Predicated Class
362,3
2,12
Actual Class

Aggressive Right Lane Change
,Predicated Class
360,1
10,8
Actual Class


----------------------------
