0.635580197
0.6168915
0.535731724
0.55607542
0.83751814
0.403744582
0.672017012
1.036330546
1.22785071
1.23146108
1.116824956
1.03206999
1.042373274
1.359850872
1.67111368
1.553749288
1.57484232
1.87205954
1.723455732
1.68121794
1.011664056
1.30178842
1.496815214
1.226112108
1.8240965
1.561487598
