-0.461481464
0.250883102
0.248312565
0.281364252
0.312481112
-0.18265381
0.206868186
-0.237008284
-0.225752072
-0.138576694
-0.111019894
0.010455324
-0.330258363
0.368462566
-0.271547317
0.154169082
-0.132306092
-0.012795056
-0.14012251
0.345298191
0.31368427
-0.12148248
0.019087032
0.194869994
0.451072518
0.387548828
-0.126861764
-0.157147216
-0.5010086
-0.469259922
-0.232222178
0.156950572
0.246317678
0.525687418
0.201852413
-0.484982674
-0.446904176
-0.285430716
0.284565918
0.249102204
0.292421524
0.180854988
0.056695371
0.14751796
-0.169742855
-0.231237796
-0.572838684
-0.123788266
-0.269867326
0.512280664
