-0.916823
1.6026554
1.0105195
-1.8683857
0.0077442825
-0.062316485
-0.70475197
0.5916824
-0.048416853
-2.108671
-0.51694685
1.5000566
-0.20528279
-1.3425219
0.28044367
1.4133651
-0.71357024
-0.9285686
1.9466301
0.13963264
-1.5542994
-0.05091539
-0.6151654
-0.78598386
1.5232948
-0.7093857
0.047147527
-0.84508646
0.7964291
1.2027988
-0.9982885
-1.6915419
0.3650274
-0.23693903
-0.3590577
-0.34440213
-0.66432524
0.06815588
-0.17511365
-0.44604877
-0.65457535
0.4615805
-0.8791708
0.6922626
1.1919904
-0.028334767
1.110656
-0.026186526
-0.46302778
1.9220757
1.3432724
-1.7344961
-1.22839
0.013623901
0.8723558
1.0582088
-0.46129012
0.20536023
-1.2395808
-0.5570886
-0.68364185
1.7310592
-1.1905422
0.24347354
-0.87613606
0.5485823
2.1691144
0.18063077
-0.4583733
0.1412469
-0.47845605
0.7912388
-0.53535146
1.1134413
1.9976215
-1.1912447
-0.6660466
0.842922
-0.523396
-0.73157966
0.63604665
0.4101716
1.2235292
-0.9454304
0.33730924
2.6306493
0.3649859
-0.12704682
0.911452
1.5478344
-0.013253659
1.21945
-0.30338985
0.9498481
0.7312256
1.3227059
-0.5102143
-1.0926971
1.554021
2.1350563
-0.93538284
-0.94368
1.5646402
0.9760232
-0.9211445
-0.31352532
1.8988519
0.2834558
-1.4152229
1.5747766
2.7226143
0.39272925
0.27384818
1.2964311
2.065336
0.58432347
0.82355577
1.613776
0.476891
0.11683166
1.2091683
1.8038194
-0.2509055
0.61477125
1.5215042
1.5881469
0.4834867
0.8629061
1.8621895
1.1668634
0.4150296
1.1352463
1.4075603
0.03420204
0.77551687
1.5219848
1.1306913
0.4952724
0.72030354
1.4977636
1.1138026
0.38794523
1.0782938
1.1587089
0.44888943
1.3387191
1.4878817
1.0885831
0.9627141
1.3955543
1.0793748
0.8540552
0.5137106
0.8051489
0.9793635
0.3398416
0.74339545
0.5304922
0.7251532
0.4609226
0.73212385
0.17072554
0.54067063
0.22974196
0.12471486
0.10680771
0.07397367
-0.062054116
-0.32544369
0.088514894
-0.5647834
0.07563875
-0.5094967
-0.16471975
-0.595477
-0.3844357
-0.51723075
-0.72968936
-0.5645935
-0.7046175
-0.43255115
-0.92751217
-0.44227087
-0.90239716
-0.70172614
-0.55854654
-0.59646606
