0.728778
-2.1191034
1.2844687
0.15649319
-1.745628
0.41676283
0.21387637
-0.1565501
-0.3994565
0.601069
-0.02989909
-1.1832387
-0.16305786
0.28762358
-1.1772517
-0.1355539
-0.32175034
0.0509675
-0.10271335
1.0242777
0.36934766
-0.94559133
1.7918446
-0.078555584
-1.2969234
0.9022995
-0.89875865
-0.2595436
-0.08800283
-1.2851275
-0.0685848
-0.4001577
-1.8922437
-0.00452137
-1.5689405
-3.2341824
0.48599452
-3.414504
-2.7281103
-1.1158104
-4.4863763
-2.8998864
-1.7415017
-4.9282684
-4.482005
-1.6322088
-5.9616847
-5.2212644
-4.2149143
-7.2228346
-3.9104552
-4.631795
-7.563675
-4.0813227
-5.5608916
-8.111635
-3.8436549
-6.813562
-6.7004237
-3.928034
-6.417233
-5.2578588
-6.204453
-6.5358067
-7.4027147
-6.794647
-5.7872324
-6.339772
-7.0091195
-4.358593
-7.3786387
-6.8669624
-4.798848
-8.418597
-6.0840774
-6.5298376
-8.445373
-6.2842407
-6.426575
-4.820315
-8.204525
-6.4792204
-5.76791
-8.980712
-5.0179896
-5.458092
-9.805734
-3.2019217
-5.647495
-8.395053
-2.982824
-11.449906
-5.670532
-3.1218138
-8.60747
-5.2368875
-4.0149255
-8.356947
-3.3676436
-4.493769
-7.415823
-2.5979183
-4.4831486
-0.98684883
-1.137773
-3.9490416
0.27467972
0.33027917
-2.0149412
1.5237495
0.82438403
0.94703686
