8.562031
5.874862
10.200579
10.530492
6.298968
9.175851
10.820747
8.14795
7.6498456
11.259437
9.360698
7.6275134
10.067235
10.440995
8.315038
9.356974
9.857188
8.268626
8.322457
9.831766
8.694715
7.8923264
10.235378
8.954096
7.104905
9.646764
9.70483
8.161573
9.340242
9.510299
8.299776
10.258704
10.301329
7.8805256
10.111075
10.6934185
8.711048
8.554254
10.2225685
8.902589
8.661098
9.374761
8.084581
9.0044775
9.611082
7.6215014
7.686474
9.497092
9.290123
8.474191
8.888468
8.52942
8.908804
9.854431
9.37167
7.908548
8.782535
9.110764
9.178093
9.085906
8.448761
9.850821
9.639302
8.59636
8.104469
9.424193
9.048304
8.75949
8.828978
9.034643
8.408062
9.3631935
8.38268
7.8112264
9.399373
9.293236
7.9830346
8.804784
9.857715
8.931102
8.424761
10.288166
9.563456
8.760073
9.745005
10.185491
9.831213
9.943598
10.194286
9.673364
10.761409
10.644299
10.3129635
9.178542
10.154682
9.854641
8.667034
9.784659
10.416435
9.778465
9.276471
9.203956
8.680113
8.043726
9.113327
9.115454
6.956781
8.834402
9.836202
8.622084
8.209465
8.808994
