x,y,z,Event Time,Event Type,Frame,x_modified,y_modified,z_modified
0.327274742,1.231737375,2.026919603,495.173809,-1,5671,0.081818686,0.307934344,0.506729901
0.916787567,1.328277349,0.341785282,495.273809,-1,5672,0.229196892,0.332069337,0.08544632
1.751410904,-1.931557775,-0.518594801,495.373809,-1,5673,0.437852726,-0.482889444,-0.1296487
1.009658279,0.509663403,-0.679122567,495.473809,-1,5674,0.25241457,0.127415851,-0.169780642
0.362700882,-2.331045628,1.236452103,495.573809,-1,5675,0.09067522,-0.582761407,0.309113026
0.794146004,0.33352682,-0.830208957,495.673809,-1,5676,0.198536501,0.083381705,-0.207552239
-2.665428696,0.903479218,-0.873603463,495.773809,-1,5677,-0.666357174,0.225869805,-0.218400866
-0.33410984,-1.138028145,-0.711478531,495.873809,-1,5678,-0.08352746,-0.284507036,-0.177869633
-1.460122643,-2.34662056,0.979711533,495.973809,-1,5679,-0.365030661,-0.58665514,0.244927883
-0.397555885,1.289454818,-0.196657568,496.073809,-1,5680,-0.099388971,0.322363704,-0.049164392
-1.113243637,0.649122298,99.9,496.273809,-1,5682,-0.278310909,0.162280574,24.975
-0.970248756,3.109985113,6.327980042,496.373809,-1,5683,-0.242562189,0.777496278,1.58199501
0.011416855,-0.035063148,0.264486402,496.473809,-1,5684,0.002854214,-0.008765787,0.066121601
1.295166435,0.3148067,2.223538399,496.573809,-1,5685,0.323791609,0.078701675,0.5558846
-0.888324318,1.070560336,-0.82231921,496.673809,-1,5686,-0.222081079,0.267640084,-0.205579802
0.73036808,-0.680495918,0.998022079,496.773809,-1,5687,0.18259202,-0.170123979,0.24950552
0.740557137,-1.194687843,-1.411897063,496.873809,-1,5688,0.185139284,-0.298671961,-0.352974266
0.25114769,-2.674956083,0.019671943,496.973809,-1,5689,0.062786922,-0.668739021,0.004917986
2.871493759,2.368873358,-0.029990098,497.073809,-1,5690,0.71787344,0.592218339,-0.007497524
-0.073575554,0.993261814,2.43470645,497.173809,-1,5691,-0.018393888,0.248315454,0.608676612
1.302918854,1.071670413,-0.982007444,497.273809,0,5692,0.325729713,0.267917603,-0.245501861
0.630670013,0.716408551,0.682195306,497.373809,0,5693,0.157667503,0.179102138,0.170548826
0.302807274,0.55542618,0.8847785,497.473809,0,5694,0.075701818,0.138856545,0.221194625
1.040769997,-0.990469515,-1.200256705,497.573809,0,5695,0.260192499,-0.247617379,-0.300064176
0.141901436,0.597298622,-2.068413496,497.673809,0,5696,0.035475359,0.149324656,-0.517103374
-0.749808846,1.315868855,-0.016595177,497.773809,0,5697,-0.187452211,0.328967214,-0.004148794
-1.50668293,1.46669209,0.348792583,497.873809,0,5698,-0.376670732,0.366673023,0.087198146
0.185779037,-2.562894821,-1.49555099,497.973809,0,5699,0.046444759,-0.640723705,-0.373887748
-1.873005447,1.927982211,0.019459927,498.073809,0,5700,-0.468251362,0.481995553,0.004864982
-0.011144218,1.388341069,3.614000082,498.173809,0,5701,-0.002786055,0.347085267,0.903500021
1.280621948,0.895963073,-0.798695087,498.273809,0,5702,0.320155487,0.223990768,-0.199673772
-2.960080681,1.48970902,-2.550443888,498.373809,0,5703,-0.74002017,0.372427255,-0.637610972
-1.360723076,0.569607496,0.45371294,498.473809,0,5704,-0.340180769,0.142401874,0.113428235
0.860460701,-1.088971734,-0.83887279,498.573809,0,5705,0.215115175,-0.272242934,-0.209718198
-0.383065758,1.376989603,0.115063056,498.673809,0,5706,-0.095766439,0.344247401,0.028765764
1.532539787,-0.638982058,1.623633981,498.773809,0,5707,0.383134947,-0.159745514,0.405908495
-0.550653038,0.43545121,-0.431113601,498.873809,0,5708,-0.13766326,0.108862802,-0.1077784
0.361596527,1.753813148,-0.474350631,498.973809,0,5709,0.090399132,0.438453287,-0.118587658
1.919642868,2.38739872,1.429345727,499.073809,0,5710,0.479910717,0.59684968,0.357336432
1.358840408,1.290498376,-0.343435973,499.173809,0,5711,0.339710102,0.322624594,-0.085858993
0.402598801,-0.460310042,0.296354264,499.273809,0,5712,0.1006497,-0.11507751,0.074088566
-0.907727776,-2.294306278,-0.296323031,499.373809,0,5713,-0.226931944,-0.57357657,-0.074080758
-0.636791763,0.121244632,-0.250738442,499.473809,0,5714,-0.159197941,0.030311158,-0.06268461
0.206446114,-1.994871378,-0.629944384,499.573809,0,5715,0.051611528,-0.498717844,-0.157486096
-2.386526642,0.358495355,1.428526402,499.673809,0,5716,-0.59663166,0.089623839,0.3571316
0.380950394,-2.025886536,-0.96673882,499.773809,0,5717,0.095237598,-0.506471634,-0.241684705
2.421458664,-0.306533158,-2.880408049,499.873809,0,5718,0.605364666,-0.076633289,-0.720102012
0.038724365,0.066667989,-1.181809902,499.973809,0,5719,0.009681091,0.016666997,-0.295452476
-0.118688164,0.299597442,1.100600362,500.073809,0,5720,-0.029672041,0.074899361,0.27515009
-0.551553307,1.721117973,-0.471744597,500.173809,0,5721,-0.137888327,0.430279493,-0.117936149
0.530426445,1.788872242,2.209747553,500.273809,-1,5722,0.132606611,0.44721806,0.552436888
0.767872276,-0.05297222,-0.660071731,500.373809,-1,5723,0.191968069,-0.013243055,-0.165017933
1.810448112,-0.986081839,0.030108741,500.473809,-1,5724,0.452612028,-0.24652046,0.007527185
0.712547722,-0.175387427,-0.156482965,500.573809,-1,5725,0.17813693,-0.043846857,-0.039120741
-0.198935089,0.67521137,0.430008799,500.673809,-1,5726,-0.049733772,0.168802842,0.1075022
-1.77128273,0.4723607,-0.878902316,500.773809,-1,5727,-0.442820683,0.118090175,-0.219725579
-0.088268814,0.562034488,-1.194504857,500.8738091,-1,5728,-0.022067204,0.140508622,-0.298626214
-0.523947296,1.090462327,0.494359076,500.9738091,-1,5729,-0.130986824,0.272615582,0.123589769
0.662182274,-0.832692146,-2.363749743,501.0738091,-1,5730,0.165545568,-0.208173037,-0.590937436
0.300320091,-0.793340147,-1.329312325,501.1738091,-1,5731,0.075080023,-0.198335037,-0.332328081
1.168878021,-3.036996365,-0.155600607,501.2738091,-1,5732,0.292219505,-0.759249091,-0.038900152
-0.606234131,1.514109254,-0.624042392,501.3738091,-1,5733,-0.151558533,0.378527313,-0.156010598
1.409436646,-1.268707156,-2.51367116,501.4738091,-1,5734,0.352359161,-0.317176789,-0.62841779
0.788632812,1.15994978,2.006144524,501.5738091,-1,5735,0.197158203,0.289987445,0.501536131
1.718128624,0.321641684,-0.728577316,501.6738091,-1,5736,0.429532156,0.080410421,-0.182144329
-0.275896606,0.186209023,0.126143351,501.7738091,-1,5737,-0.068974152,0.046552256,0.031535838
0.86918396,-0.505893528,0.096933968,501.8738091,-1,5738,0.21729599,-0.126473382,0.024233492
-1.813331184,-0.131060451,0.78240037,501.9738091,-1,5739,-0.453332796,-0.032765113,0.195600092
1.493622246,0.228862509,-0.288794309,502.0738091,-1,5740,0.373405561,0.057215627,-0.072198577
-0.199465332,1.102273941,1.547116518,502.1738091,-1,5741,-0.049866333,0.275568485,0.38677913
0.875037613,-0.66588968,-0.54161799,502.2738091,-1,5742,0.218759403,-0.16647242,-0.135404497
-1.190159378,0.885896862,1.065923929,502.3738091,-1,5743,-0.297539845,0.221474215,0.266480982
1.063041153,-1.626008868,-0.833346784,502.4738091,-1,5744,0.265760288,-0.406502217,-0.208336696
1.231508675,-1.162801266,0.347562522,502.5738091,-1,5745,0.307877169,-0.290700316,0.08689063
-0.670690117,1.908597946,0.216791779,502.6738091,-1,5746,-0.167672529,0.477149487,0.054197945
1.179292145,-0.812912047,1.829691052,502.7738091,-1,5747,0.294823036,-0.203228012,0.457422763
-0.781859932,1.28357935,1.681925058,502.8738091,-1,5748,-0.195464983,0.320894837,0.420481265
0.148745003,1.964788675,-1.877019167,502.9738091,-1,5749,0.037186251,0.491197169,-0.469254792
0.817444267,0.170734838,-0.691620111,503.0738091,-1,5750,0.204361067,0.042683709,-0.172905028
2.490958633,-1.24377346,1.001806259,503.1738091,-1,5751,0.622739658,-0.310943365,0.250451565
-1.002939758,0.482323706,0.13368459,503.2738091,-1,5752,-0.25073494,0.120580927,0.033421148
1.720597687,1.251901269,0.17210789,503.3738091,-1,5753,0.430149422,0.312975317,0.043026973
-1.267396507,-0.813665688,-0.551795721,503.4738091,-1,5754,-0.316849127,-0.203416422,-0.13794893
0.734032097,1.048388958,-2.321350098,503.5738091,-1,5755,0.183508024,0.262097239,-0.580337524
-0.908059654,3.275110722,-0.675506592,503.6738091,-1,5756,-0.227014914,0.81877768,-0.168876648
-3.262459335,0.30560106,3.037750483,503.7738091,-1,5757,-0.815614834,0.076400265,0.759437621
-1.906104622,1.781744123,0.830192029,503.8738091,-1,5758,-0.476526155,0.445436031,0.207548007
0.070448341,0.710499644,-1.631560683,503.9738091,-1,5759,0.017612085,0.177624911,-0.407890171
-1.907325325,0.224934325,-0.793485403,504.0738091,-1,5760,-0.476831331,0.056233581,-0.198371351
1.60896534,0.581503868,-0.818822742,504.1738091,-1,5761,0.402241335,0.145375967,-0.204705685
-3.193927345,-0.747638524,2.188725471,504.2738091,-1,5762,-0.798481836,-0.186909631,0.547181368
-1.113147316,2.932426929,1.304303765,504.3738091,-1,5763,-0.278286829,0.733106732,0.326075941
-2.755901871,1.78785634,0.185090587,504.4738091,-1,5764,-0.688975468,0.446964085,0.046272647
-2.584720192,-1.234693766,-0.176896378,504.5738091,-1,5765,-0.646180048,-0.308673441,-0.044224095
0.309099617,-0.077498041,-0.384542555,504.6738091,-1,5766,0.077274904,-0.01937451,-0.096135639
1.078132095,-1.062568784,-0.32044813,504.7738091,-1,5767,0.269533024,-0.265642196,-0.080112033
-0.549539146,-0.552136123,0.464429766,504.8738091,-1,5768,-0.137384787,-0.138034031,0.116107441
-0.302438316,1.349987626,2.319912195,504.9738091,-1,5769,-0.075609579,0.337496907,0.579978049
-0.214737473,0.28026849,-0.571280003,505.0738091,-1,5770,-0.053684368,0.070067123,-0.142820001
0.64061779,0.513051093,0.812406182,505.1738091,-1,5771,0.160154448,0.128262773,0.203101546
1.919564667,-0.243038788,-1.263313055,505.2738091,-1,5772,0.479891167,-0.060759697,-0.315828264
0.90583271,2.277747154,0.865567803,505.3738091,-1,5773,0.226458178,0.569436789,0.216391951
-0.992290077,1.514040947,-0.135735661,505.4738091,-1,5774,-0.248072519,0.378510237,-0.033933915
-1.436336098,-0.132155627,-2.640124559,505.5738091,-1,5775,-0.359084024,-0.033038907,-0.66003114
-1.582766113,-2.189925671,1.792748094,505.6738091,-1,5776,-0.395691528,-0.547481418,0.448187023
-0.393649635,2.446840286,-0.242615044,505.7738091,-1,5777,-0.098412409,0.611710072,-0.060653761
-0.614600716,1.003698468,1.063900948,505.8738091,-1,5778,-0.153650179,0.250924617,0.265975237
1.302780571,-0.856128812,-0.79935205,505.9738091,-1,5779,0.325695143,-0.214032203,-0.199838012
-0.389497337,-0.331014186,-1.00338316,506.0738091,-1,5780,-0.097374334,-0.082753547,-0.25084579
-0.666078148,-0.333866954,-2.211394072,506.1738091,-1,5781,-0.166519537,-0.083466738,-0.552848518
-0.024580536,0.234497026,1.293803573,506.2738091,-1,5782,-0.006145134,0.058624256,0.323450893
0.500565948,0.361383706,-0.146934628,506.3738091,-1,5783,0.125141487,0.090345927,-0.036733657
0.340102615,-1.581748009,-0.644698918,506.4738091,-1,5784,0.085025654,-0.395437002,-0.161174729
-0.348946152,0.080730833,0.061807636,506.5738091,-1,5785,-0.087236538,0.020182708,0.015451909
0.371336403,-1.068062663,0.643436909,506.6738091,-1,5786,0.092834101,-0.267015666,0.160859227
-2.13865715,-1.527265072,-1.16461122,506.7738091,-1,5787,-0.534664288,-0.381816268,-0.291152805
-2.082681236,-0.808699846,1.212651134,506.8738091,-1,5788,-0.520670309,-0.202174962,0.303162783
-1.795584259,-0.912703097,-1.435021639,506.9738091,-1,5789,-0.448896065,-0.228175774,-0.35875541
0.323398056,0.162760407,-0.773967981,507.0738091,-1,5790,0.080849514,0.040690102,-0.193491995
-1.05323082,-2.142087936,-0.102144092,507.1738091,-1,5791,-0.263307705,-0.535521984,-0.025536023
-1.954290447,-0.040921904,0.466180295,507.2738091,-1,5792,-0.488572612,-0.010230476,0.116545074
0.896025124,1.118850112,-0.366485059,507.3738091,-1,5793,0.224006281,0.279712528,-0.091621265
0.289164009,-1.182052851,-2.644024134,507.4738091,-1,5794,0.072291002,-0.295513213,-0.661006033
0.960010948,-1.827607751,0.379584938,507.5738092,-1,5795,0.240002737,-0.456901938,0.094896235
0.728803101,-1.9137429,1.48648417,507.6738092,-1,5796,0.182200775,-0.478435725,0.371621042
1.31461853,0.765251517,1.679511786,507.7738092,-1,5797,0.328654633,0.191312879,0.419877946
-0.148607788,-1.150961757,0.393732637,507.8738092,-1,5798,-0.037151947,-0.287740439,0.098433159
-1.25425106,-1.421468496,-0.031199014,507.9738092,-1,5799,-0.313562765,-0.355367124,-0.007799753
-0.332763252,-1.385077119,0.04959248,508.0738092,-1,5800,-0.083190813,-0.34626928,0.01239812
0.319095078,-0.838073194,1.007094145,508.1738092,-1,5801,0.079773769,-0.209518299,0.251773536
-0.3352285,1.10929215,3.333474636,508.2738092,-1,5802,-0.083807125,0.277323037,0.833368659
0.204959335,-1.398054123,-2.227021456,508.3738092,-1,5803,0.051239834,-0.349513531,-0.556755364
1.090629044,-0.563993096,-0.970488966,508.4738092,-1,5804,0.272657261,-0.140998274,-0.242622241
-0.39936882,-1.574524999,0.499762923,508.5738092,-1,5805,-0.099842205,-0.39363125,0.124940731
0.056463661,0.2603499,0.050379016,508.6738092,-1,5806,0.014115915,0.065087475,0.012594754
0.335795822,1.749660611,-0.018593991,508.7738092,-1,5807,0.083948956,0.437415153,-0.004648498
-0.092718658,1.260030627,1.554315567,508.8738092,-1,5808,-0.023179665,0.315007657,0.388578892
-1.243701515,-1.58140409,-0.030789467,508.9738092,-1,5809,-0.310925379,-0.395351022,-0.007697367
-0.694677887,-1.012609243,-1.099673033,509.0738092,-1,5810,-0.173669472,-0.253152311,-0.274918258
0.663660469,-0.125131905,-1.63718164,509.1738092,-1,5811,0.165915117,-0.031282976,-0.40929541
0.042957726,-1.656214833,-0.029849414,509.2738092,-1,5812,0.010739431,-0.414053708,-0.007462353
1.292070808,-0.317019403,-0.977754116,509.3738092,-1,5813,0.323017702,-0.079254851,-0.244438529
-3.055990753,1.653772712,-0.019757217,509.4738092,-1,5814,-0.763997688,0.413443178,-0.004939304
-0.024305878,-0.964936614,-0.89476788,509.5738092,-1,5815,-0.006076469,-0.241234154,-0.22369197
1.37990612,0.276310682,0.204429924,509.6738092,-1,5816,0.34497653,0.069077671,0.051107481
-1.144170341,-2.7558496,-0.745910764,509.7738092,-1,5817,-0.286042585,-0.6889624,-0.186477691
-0.186570702,-1.410071492,1.219393134,509.8738092,-1,5818,-0.046642675,-0.352517873,0.304848284
0.906417313,-1.227159858,-0.594382584,509.9738092,-1,5819,0.226604328,-0.306789964,-0.148595646
-0.622969208,-1.239315987,-2.083195925,510.0738092,-1,5820,-0.155742302,-0.309828997,-0.520798981
-2.033772049,-0.169124097,0.666889429,510.1738092,-1,5821,-0.508443012,-0.042281024,0.166722357
-0.489005623,-0.912728131,-0.683552563,510.2738092,-1,5822,-0.122251406,-0.228182033,-0.170888141
1.286654892,0.61271733,-0.7316854,510.3738092,-1,5823,0.321663723,0.153179333,-0.18292135
1.562016907,0.062252369,-0.915614784,510.4738092,-1,5824,0.390504227,0.015563092,-0.228903696
-2.08784729,-0.366462082,0.014996004,510.5738092,-1,5825,-0.521961823,-0.09161552,0.003749001
2.557483139,1.798865199,0.487536937,510.6738092,-1,5826,0.639370785,0.4497163,0.121884234
1.422086182,-1.247473359,1.320390105,510.7738092,-1,5827,0.355521545,-0.31186834,0.330097526
-1.086197433,2.375406504,-1.181552529,510.8738092,-1,5828,-0.271549358,0.593851626,-0.295388132
-1.926073608,0.703296185,-0.081086874,510.9738092,-1,5829,-0.481518402,0.175824046,-0.020271719
-0.999694405,-0.032671999,1.709784627,511.0738092,-1,5830,-0.249923601,-0.008168,0.427446157
1.578780594,1.350176573,0.524333596,511.1738092,-1,5831,0.394695148,0.337544143,0.131083399
0.645034256,-1.425407767,0.033318099,511.2738092,-1,5832,0.161258564,-0.356351942,0.008329525
-1.322674332,0.059928868,-2.445934772,511.3738092,-1,5833,-0.330668583,0.014982217,-0.611483693
-0.3633638,-0.269195348,-3.009300947,511.4738092,-1,5834,-0.09084095,-0.067298837,-0.752325237
-0.097570953,0.335585803,2.470627785,511.5738092,-1,5835,-0.024392738,0.083896451,0.617656946
-1.632317123,-1.264806628,1.925209999,511.6738092,-1,5836,-0.408079281,-0.316201657,0.4813025
0.085943642,-2.09998703,0.557706714,511.7738092,-1,5837,0.02148591,-0.524996758,0.139426678
-0.110416946,-0.927949429,0.002285173,511.8738092,-1,5838,-0.027604237,-0.231987357,0.000571293
1.296397629,0.682556987,0.129818961,511.9738092,-1,5839,0.324099407,0.170639247,0.03245474
0.316312256,-0.642356277,0.557803571,512.0738092,-1,5840,0.079078064,-0.160589069,0.139450893
0.279334488,-1.780436516,0.251599133,512.1738092,-1,5841,0.069833622,-0.445109129,0.062899783
0.371615829,-0.36726439,1.943800449,512.2738092,-1,5842,0.092903957,-0.091816097,0.485950112
1.735293808,-0.132452607,3.166957378,512.3738092,-1,5843,0.433823452,-0.033113152,0.791739345
3.409547272,-0.725489199,-1.163750768,512.4738092,-1,5844,0.852386818,-0.1813723,-0.290937692
-3.026313839,-1.810392141,2.624589205,512.5738092,-1,5845,-0.75657846,-0.452598035,0.656147301
-1.987001476,-1.047965765,-1.11426723,512.6738092,-1,5846,-0.496750369,-0.261991441,-0.278566808
-1.324519691,-3.001509428,-1.771627069,512.7738092,-1,5847,-0.331129923,-0.750377357,-0.442906767
