x,y,z,Event Time,Event Type,Frame,x_modified,y_modified,z_modified
-1.132750092,-0.639623404,-0.220178321,601.1738105,-1,6731,-0.283187523,-0.159905851,-0.05504458
-0.23650032,0.445430428,-0.452878863,601.2738105,-1,6732,-0.05912508,0.111357607,-0.113219716
-1.385304031,0.624185085,-1.136584044,601.3738105,-1,6733,-0.346326008,0.156046271,-0.284146011
-1.232925949,-2.221398354,-0.168646783,601.4738105,-1,6734,-0.308231487,-0.555349588,-0.042161696
-0.637625275,-1.607078552,0.368210793,601.5738106,-1,6735,-0.159406319,-0.401769638,0.092052698
-0.15483242,1.483216882,0.20613502,601.6738106,-1,6736,-0.038708105,0.37080422,0.051533755
0.455053749,1.024773717,1.411897421,601.7738106,-1,6737,0.113763437,0.256193429,0.352974355
0.678990784,-0.04309066,-0.392667532,601.8738106,-1,6738,0.169747696,-0.010772665,-0.098166883
0.224740448,1.50855577,-0.071453959,601.9738106,-1,6739,0.056185112,0.377138942,-0.01786349
-1.984994469,0.47640577,-0.191254869,602.0738106,2,6740,-0.496248617,0.119101442,-0.047813717
1.306185188,-2.093278885,-1.111598253,602.2738106,2,6742,0.326546297,-0.523319721,-0.277899563
1.659619751,-7.358416557,-1.931821346,602.3738106,2,6743,0.414904938,-1.839604139,-0.482955337
-0.224092064,-7.364706993,-0.801900566,602.4738106,2,6744,-0.056023016,-1.841176748,-0.200475141
-3.084588585,-9.977391243,0.762501359,602.5738106,2,6745,-0.771147146,-2.494347811,0.19062534
1.800194206,-14.52744484,2.991760731,602.6738106,2,6746,0.450048552,-3.63186121,0.747940183
-0.850964127,-13.63491154,2.410076857,602.7738106,2,6747,-0.212741032,-3.408727884,0.602519214
-0.262528,-14.62865448,-1.089956284,602.8738106,2,6748,-0.065632,-3.65716362,-0.272489071
-2.55001503,-12.16312695,0.912538707,602.9738106,2,6749,-0.637503757,-3.040781736,0.228134677
-0.507798729,-12.54128361,1.180463314,603.0738106,2,6750,-0.126949682,-3.135320902,0.295115829
-3.300898132,-13.62138653,1.100507259,603.1738106,2,6751,-0.825224533,-3.405346632,0.275126815
-0.514203606,-14.44542217,0.743840694,603.2738106,2,6752,-0.128550901,-3.611355543,0.185960174
-0.884064255,-13.54006195,2.254406929,603.3738106,2,6753,-0.221016064,-3.385015488,0.563601732
-0.868683395,-11.51760483,5.963895321,603.4738106,2,6754,-0.217170849,-2.879401207,1.49097383
-1.010675011,-11.00235462,5.44384861,603.5738106,2,6755,-0.252668753,-2.750588655,1.360962152
1.473116341,-7.75660944,1.843124032,603.6738106,2,6756,0.368279085,-1.93915236,0.460781008
-0.047053871,-1.904385209,0.494959772,603.7738106,2,6757,-0.011763468,-0.476096302,0.123739943
1.004798355,-0.713089287,1.537846088,603.8738106,2,6758,0.251199589,-0.178272322,0.384461522
2.551001968,0.350144029,0.27251035,603.9738106,2,6759,0.637750492,0.087536007,0.068127587
-0.68211895,0.625229836,-1.237612367,604.0738106,2,6760,-0.170529737,0.156307459,-0.309403092
-0.108765182,0.13339752,-0.70527941,604.1738106,-1,6761,-0.027191296,0.03334938,-0.176319852
0.39143795,-0.840262711,0.035130285,604.2738106,-1,6762,0.097859488,-0.210065678,0.008782571
-0.849101601,-1.224980831,0.439731687,604.3738106,-1,6763,-0.2122754,-0.306245208,0.109932922
1.09935421,0.36164245,-1.511452436,604.4738106,-1,6764,0.274838552,0.090410613,-0.377863109
0.005141678,0.54346633,0.095703885,604.5738106,-1,6765,0.001285419,0.135866582,0.023925971
-1.300656853,-0.558126926,-0.717756331,604.6738106,-1,6766,-0.325164213,-0.139531732,-0.179439083
-2.466608582,-0.418023437,-1.06581223,604.7738106,-1,6767,-0.616652145,-0.104505859,-0.266453058
1.675795021,1.120138407,1.281468868,604.8738106,-1,6768,0.418948755,0.280034602,0.320367217
-1.297978935,0.871922433,-0.704538822,604.9738106,-1,6769,-0.324494734,0.217980608,-0.176134706
0.786881866,2.484221935,1.261927724,605.0738106,-1,6770,0.196720467,0.621055484,0.315481931
-0.357904015,0.53885603,1.874296546,605.1738106,-1,6771,-0.089476004,0.134714007,0.468574136
-0.655320702,-0.127830386,2.115840912,605.2738106,-1,6772,-0.163830175,-0.031957597,0.528960228
-1.121543465,-0.03568856,0.302961081,605.3738106,-1,6773,-0.280385866,-0.00892214,0.07574027
-0.058999596,-0.442319363,1.248561621,605.4738106,-1,6774,-0.014749899,-0.110579841,0.312140405
